{
  "Drop_HP": {
    "$type": "ConfigGadget",
    "attackAttenuation": "",
    "abilities": [
      {
        "abilityID": "HEAL_HP",
        "abilityName": "Test_DropHPHeal",
        "abilityOverride": ""
      }
    ],
    "field": {
      "shape": "CircleR1",
      "DEOHMEELJDM": "",
      "lifeInfinite": true,
      "checkInterval": 0.5,
      "triggerCount": 1,
      "overwriteCampType": true,
      "campType": "SelfCamp",
      "INKADPFABPA": "",
      "AAHHPDHLLLH": ""
    }
  },
  "RockShield": {
    "$type": "ConfigGadget",
    "common": {
      "effectAttachShape": {
        "$type": "ConfigEffectAttachBox",
        "CFBFAHACIPA": "Shell"
      }
    },
    "combat": {
      "property": {
        "HP": 50.0,
        "attack": 10.0,
        "weight": 75.0,
        "ignorePurgeRate": false
      },
      "combatLock": {
        "lockShape": "CircleLockEnemy",
        "denyLockOn": true,
        "lockType": "Gadget_Lv1"
      }
    },
    "attackAttenuation": "",
    "abilities": [
      {
        "abilityID": "Defender",
        "abilityName": "R_Slime_01_RockShield_Defender",
        "abilityOverride": ""
      }
    ]
  },
  "PlantGrasping": {
    "$type": "ConfigGadget",
    "common": {
      "effectAttachShape": {
        "$type": "ConfigEffectAttachBox",
        "CFBFAHACIPA": "Shell"
      }
    },
    "combat": {
      "property": {
        "HP": 20.0,
        "attack": 10.0,
        "weight": 75.0,
        "isInvincible": true,
        "ignorePurgeRate": false
      },
      "combatLock": {
        "lockShape": "CircleLockEnemy",
        "denyLockOn": true,
        "lockType": "Gadget_Lv1"
      }
    },
    "attackAttenuation": "",
    "abilities": [
      {
        "abilityID": "PlantGrasping_Element",
        "abilityName": "Hili_Grass_PlantGrasping_Element",
        "abilityOverride": ""
      }
    ]
  },
  "HealingSeal": {
    "$type": "ConfigGadget",
    "common": {
      "effectAttachShape": {
        "$type": "ConfigEffectAttachBox",
        "scaleX": 2.0,
        "scaleY": 2.0,
        "scaleZ": 0.20000000298023224
      }
    },
    "combat": {
      "property": {
        "HP": 100.0,
        "attack": 10.0,
        "weight": 75.0,
        "ignorePurgeRate": false
      },
      "combatLock": {
        "lockShape": "CircleLockEnemy",
        "denyLockOn": true,
        "lockType": "Gadget_Lv1"
      }
    },
    "attackAttenuation": "",
    "abilities": [
      {
        "abilityID": "HealingSealLoop",
        "abilityName": "Test_HealingSealLoop",
        "abilityOverride": ""
      }
    ],
    "field": {
      "shape": "CircleR3",
      "DEOHMEELJDM": "",
      "triggerInfinite": true,
      "checkInterval": 0.5,
      "lifeTime": 10.0,
      "INKADPFABPA": "",
      "AAHHPDHLLLH": ""
    }
  },
  "ThunderFistField": {
    "$type": "ConfigGadget",
    "attackAttenuation": "",
    "field": {
      "shape": "CircleR3",
      "DEOHMEELJDM": "",
      "triggerInfinite": true,
      "checkInterval": 0.5,
      "lifeTime": 1.0,
      "INKADPFABPA": "",
      "AAHHPDHLLLH": ""
    }
  },
  "GrassDart": {
    "$type": "ConfigGadget",
    "common": {
      "effectAttachShape": {
        "$type": "ConfigEffectAttachBox",
        "scaleZ": 0.4000000059604645
      }
    },
    "combat": {
      "property": {
        "useCreatorProperty": true,
        "HP": 999999.0,
        "attack": 30.0,
        "defense": 999999.0,
        "weight": 0.10000000149011612
      },
      "beHit": {
        "hitBloodEffect": "",
        "muteAllHit": true,
        "muteAllHitEffect": true,
        "muteAllHitText": true
      },
      "combatLock": {
        "lockShape": "CircleLockEnemy",
        "denyLockOn": true,
        "lockType": "Gadget_Lv1"
      }
    },
    "attackAttenuation": "",
    "abilities": [
      {
        "abilityID": "Material",
        "abilityName": "Avatar_Ayaka_FrozenWindmill_Material",
        "abilityOverride": ""
      }
    ],
    "timer": {
      "lifeTime": 4.0
    },
    "move": {
      "$type": "ConfigLinerBulletMove",
      "speed": 10.0
    },
    "gadget": {
      "$type": "ConfigBulletPattern",
      "collision": {
        "targetType": "Enemy"
      }
    }
  },
  "SharkTorpedo": {
    "$type": "ConfigGadget",
    "common": {
      "effectAttachShape": {
        "$type": "ConfigEffectAttachBox",
        "scaleX": 0.5,
        "scaleY": 0.5
      }
    },
    "combat": {
      "property": {
        "useCreatorProperty": true,
        "HP": 999999.0,
        "attack": 30.0,
        "defense": 999999.0,
        "weight": 50.0
      },
      "beHit": {
        "hitBloodEffect": "",
        "muteAllHit": true,
        "muteAllHitEffect": true,
        "muteAllHitText": true
      },
      "combatLock": {
        "lockShape": "CircleLockEnemy",
        "denyLockOn": true,
        "lockType": "Gadget_Lv1"
      }
    },
    "attackAttenuation": "",
    "abilities": [
      {
        "abilityID": "TriggerSpurt",
        "abilityName": "Test_CreateSharkTorpedoSpurt",
        "abilityOverride": ""
      }
    ],
    "timer": {
      "lifeTime": 3.0
    },
    "move": {
      "$type": "CCONGDOMIGK",
      "speed": 5.0
    },
    "gadget": {
      "$type": "ConfigBulletPattern",
      "collision": {
        "targetType": "Enemy"
      },
      "triggerActions": [
        {
          "$type": "ConfigGadgetTriggerAbility",
          "abilityName": "Test_CreateSharkTorpedoSpurt"
        }
      ]
    }
  },
  "SharkTorpedo_Spurt": {
    "$type": "ConfigGadget",
    "common": {
      "effectAttachShape": {
        "$type": "ConfigEffectAttachBox",
        "scaleZ": 0.4000000059604645
      }
    },
    "combat": {
      "property": {
        "useCreatorProperty": true,
        "HP": 999999.0,
        "attack": 30.0,
        "defense": 999999.0,
        "weight": 50.0,
        "canTriggerBullet": true,
        "denyElementStick": true,
        "ignorePurgeRate": false
      },
      "beHit": {
        "hitBloodEffect": "",
        "muteAllHit": true,
        "muteAllHitEffect": true,
        "muteAllHitText": true
      },
      "combatLock": {
        "lockShape": "CircleLockEnemy",
        "denyLockOn": true,
        "lockType": "Gadget_Lv1"
      }
    },
    "attackAttenuation": "",
    "abilities": [
      {
        "abilityID": "DoDamage",
        "abilityName": "Test_SharkTorpedoSpurtDamage",
        "abilityOverride": ""
      }
    ],
    "field": {
      "shape": "CircleR3",
      "DEOHMEELJDM": "",
      "triggerInfinite": true,
      "checkInterval": 0.5,
      "lifeTime": 5.0,
      "INKADPFABPA": "",
      "AAHHPDHLLLH": ""
    }
  },
  "SharkTorpedo_Spurt_2": {
    "$type": "ConfigGadget",
    "common": {
      "effectAttachShape": {
        "$type": "ConfigEffectAttachBox",
        "scaleZ": 0.4000000059604645
      }
    },
    "combat": {
      "property": {
        "useCreatorProperty": true,
        "HP": 999999.0,
        "attack": 30.0,
        "defense": 999999.0,
        "weight": 50.0,
        "canTriggerBullet": true,
        "denyElementStick": true,
        "ignorePurgeRate": false
      },
      "beHit": {
        "hitBloodEffect": "",
        "muteAllHit": true,
        "muteAllHitEffect": true,
        "muteAllHitText": true
      },
      "combatLock": {
        "lockShape": "CircleLockEnemy",
        "denyLockOn": true,
        "lockType": "Gadget_Lv1"
      }
    },
    "attackAttenuation": "",
    "abilities": [
      {
        "abilityID": "DoDamage",
        "abilityName": "Test_SharkTorpedoSpurtDamage_2",
        "abilityOverride": ""
      }
    ],
    "field": {
      "shape": "CircleR3",
      "DEOHMEELJDM": "",
      "triggerInfinite": true,
      "checkInterval": 0.5,
      "lifeTime": 5.0,
      "INKADPFABPA": "",
      "AAHHPDHLLLH": ""
    }
  },
  "HealingBarrel": {
    "$type": "ConfigGadget",
    "attackAttenuation": "",
    "abilities": [
      {
        "abilityID": "Temp_HealingBarrel",
        "abilityName": "Temp_HealingBarrel",
        "abilityOverride": ""
      }
    ]
  },
  "FlyRaceCoin": {
    "$type": "ConfigGadget",
    "attackAttenuation": ""
  },
  "ElementTrack": {
    "$type": "ConfigGadget",
    "attackAttenuation": "",
    "abilities": [
      {
        "abilityID": "ElementVisualEffect",
        "abilityName": "ElementVisualEffect",
        "abilityOverride": ""
      }
    ]
  },
  "ElementTrackCat": {
    "$type": "ConfigGadget",
    "attackAttenuation": "",
    "abilities": [
      {
        "abilityID": "ElementVisualEffectCat",
        "abilityName": "ElementVisualEffectCat",
        "abilityOverride": ""
      }
    ]
  },
  "ElfTrack": {
    "$type": "ConfigGadget",
    "combat": {
      "property": {
        "HP": 1000.0,
        "attack": 100.0,
        "weight": 50.0,
        "isLockHP": true,
        "canTriggerBullet": true,
        "denyElementStick": true
      },
      "beHit": {
        "hitBloodEffect": "",
        "hitAutoRedirect": false,
        "muteAllHitEffect": true,
        "muteAllHitText": true
      },
      "combatLock": {
        "lockShape": "CircleLockEnemy",
        "denyLockOn": true,
        "lockType": "Gadget_Lv1"
      },
      "die": {
        "dieForceDisappearTime": 0.0,
        "dieDisappearEffect": ""
      }
    },
    "attackAttenuation": "",
    "abilities": [
      {
        "abilityID": "ElfTrack",
        "abilityName": "ElfTrack",
        "abilityOverride": ""
      }
    ]
  },
  "AmborTaskTrack": {
    "$type": "ConfigGadget",
    "attackAttenuation": "",
    "abilities": [
      {
        "abilityID": "AmborTaskEffect",
        "abilityName": "AmborTaskEffect",
        "abilityOverride": ""
      }
    ]
  },
  "LisaCompass": {
    "$type": "ConfigGadget",
    "attackAttenuation": "",
    "abilities": [
      {
        "abilityID": "LisaCompassEffect",
        "abilityName": "LisaCompassEffect",
        "abilityOverride": ""
      }
    ]
  },
  "LisaBookGather": {
    "$type": "ConfigGadget",
    "hasModel": true,
    "attackAttenuation": "",
    "abilities": [
      {
        "abilityID": "LisaBookEffect",
        "abilityName": "LisaBookEffect",
        "abilityOverride": ""
      }
    ],
    "field": {
      "concernType": "LocalAvatar",
      "shape": "CircleR2",
      "DEOHMEELJDM": "",
      "triggerInfinite": true,
      "lifeInfinite": true,
      "checkInterval": 0.5,
      "overwriteCampType": true,
      "campType": "SelfCamp",
      "INKADPFABPA": "",
      "AAHHPDHLLLH": ""
    },
    "misc": {
      "LJHHKLBGKLO": {
        "CNLKNADGPHB": "Select",
        "NHADPEGEEPN": true,
        "bornEffect": "",
        "NCDKDKPECCH": "",
        "LBJBBIMDIII": ""
      },
      "GKCEMAKIKPH": ""
    }
  },
  "XiangmoyinGuide": {
    "$type": "ConfigGadget",
    "hasModel": true,
    "attackAttenuation": "",
    "abilities": [
      {
        "abilityID": "XiangmoyinGuideEffect",
        "abilityName": "XiangmoyinGuideEffect",
        "abilityOverride": ""
      }
    ],
    "field": {
      "concernType": "LocalAvatar",
      "shape": "CircleR8",
      "DEOHMEELJDM": "",
      "triggerInfinite": true,
      "lifeInfinite": true,
      "checkInterval": 0.5,
      "overwriteCampType": true,
      "campType": "SelfCamp",
      "INKADPFABPA": "",
      "AAHHPDHLLLH": ""
    }
  },
  "Bramble_Chest": {
    "$type": "ConfigGadget",
    "common": {
      "effectAttachShape": {
        "$type": "ConfigEffectAttachMesh",
        "mesh": "EffectMesh"
      }
    },
    "hasModel": true,
    "combat": {
      "property": {
        "HP": 99999.0,
        "weight": 50.0,
        "isLockHP": true
      },
      "beHit": {
        "hitBloodEffect": "",
        "hitAutoRedirect": false,
        "muteAllHitText": true
      },
      "combatLock": {
        "lockShape": "CircleLockEnemy",
        "denyLockOn": true,
        "lockType": "Gadget_Lv1"
      },
      "die": {
        "dieEndTime": 7.800000190734863,
        "dieForceDisappearTime": 7.800000190734863,
        "dieDisappearEffect": "",
        "dieShaderData": "GadgetDie",
        "dieModelFadeDelay": 6.0
      }
    },
    "attackAttenuation": "",
    "abilities": [
      {
        "abilityID": "ChestNormal_Interact",
        "abilityName": "Test_BrambleChest_Interact",
        "abilityOverride": ""
      }
    ],
    "IHIMCPIGBOE": {
      "HCKEJPPPBKC": "TEST/TEST_Chest_Btn",
      "HJGKBIMEEEN": "",
      "icon": "",
      "NEADBBJLDAF": "",
      "OMMGBOCMAMC": "",
      "NHEGJLNIIIB": ""
    },
    "misc": {
      "HOBFEBBCLLK": {
        "CDHBJDCFMCE": true,
        "HPOHBNEFBEP": "Eff_Chest_Open_Continuous"
      },
      "GKCEMAKIKPH": ""
    }
  },
  "Frozen_Chest": {
    "$type": "ConfigGadget",
    "common": {
      "effectAttachShape": {
        "$type": "ConfigEffectAttachMesh",
        "mesh": "EffectMesh"
      }
    },
    "hasModel": true,
    "combat": {
      "property": {
        "HP": 99999.0,
        "weight": 50.0,
        "isLockHP": true
      },
      "beHit": {
        "hitBloodEffect": "",
        "hitAutoRedirect": false,
        "muteAllHitText": true
      },
      "combatLock": {
        "lockShape": "CircleLockEnemy",
        "denyLockOn": true,
        "lockType": "Gadget_Lv1"
      },
      "die": {
        "dieEndTime": 7.800000190734863,
        "dieForceDisappearTime": 7.800000190734863,
        "dieDisappearEffect": "",
        "dieShaderData": "GadgetDie",
        "dieModelFadeDelay": 6.0
      }
    },
    "attackAttenuation": "",
    "abilities": [
      {
        "abilityID": "ChestNormal_Interact",
        "abilityName": "Test_FrozenChest_Interact",
        "abilityOverride": ""
      }
    ],
    "IHIMCPIGBOE": {
      "HCKEJPPPBKC": "TEST/TEST_Chest_Btn",
      "HJGKBIMEEEN": "",
      "icon": "",
      "NEADBBJLDAF": "",
      "OMMGBOCMAMC": "",
      "NHEGJLNIIIB": ""
    },
    "misc": {
      "HOBFEBBCLLK": {
        "CDHBJDCFMCE": true,
        "HPOHBNEFBEP": "Eff_Chest_Open_Continuous"
      },
      "GKCEMAKIKPH": ""
    }
  },
  "Test_Arrow": {
    "$type": "ConfigGadget",
    "common": {
      "effectAttachShape": {
        "$type": "ConfigEffectAttachBox",
        "scaleX": 0.5,
        "scaleY": 0.5
      },
      "affectedByWorld": true
    },
    "combat": {
      "property": {
        "useCreatorProperty": true,
        "weight": 50.0,
        "ignorePurgeRate": false
      },
      "beHit": {
        "hitBloodEffect": "",
        "muteAllHit": true,
        "muteAllHitEffect": true,
        "muteAllHitText": true
      },
      "combatLock": {
        "lockShape": "CircleLockEnemy",
        "denyLockOn": true,
        "lockType": "Gadget_Lv1"
      },
      "animEvents": {
        "ATK01": {
          "attackPattern": {
            "$type": "ConfigAttackBox",
            "triggerType": "TriggerNoRepeat",
            "MJLCPIAKNCP": "Both",
            "born": {
              "$type": "ConfigBornByCollisionPoint",
              "offset": {
                "x": 0.0,
                "y": 0.0,
                "z": -0.5
              }
            },
            "size": {
              "x": 0.10000000149011612,
              "y": 0.10000000149011612,
              "z": 1.0
            }
          },
          "attackInfo": {
            "attackTag": "",
            "attenuationTag": "",
            "attenuationGroup": "default",
            "attackProperty": {
              "MFOOCADHKLC": 0.33000001311302185,
              "MKLAMNDEDGB": 0.0,
              "bonusCriticalHurt": 100.0,
              "strikeType": "Pierce"
            },
            "hitPattern": {
              "onHitEffectName": "default",
              "hitImpulseType": "LV1",
              "hitHaltTime": 0.11999999731779099,
              "hitHaltTimeScale": 0.009999999776482582
            },
            "cameraShake": {
              "shakeRange": 0.019999999552965164,
              "shakeTime": 0.10000000149011612
            }
          }
        }
      }
    },
    "attackAttenuation": "",
    "abilities": [
      {
        "abilityID": "Trail_Fx",
        "abilityName": "Test_ShootArrow_Trail_Fx",
        "abilityOverride": ""
      },
      {
        "abilityID": "Hit_Fx",
        "abilityName": "Test_ShootArrow_Hit_Fx",
        "abilityOverride": ""
      }
    ],
    "timer": {
      "lifeTime": 8.0
    },
    "move": {
      "$type": "ConfigLinerParabolaBulletMove",
      "speed": 30.0,
      "updateAngle": {
        "$type": "ConfigBulletMoveAngleByVelocity"
      },
      "straightRange": 7.0,
      "gravityOfAcceleration": 30.0,
      "airResistance": 0.009999999776482582
    },
    "gadget": {
      "$type": "ConfigBulletPattern",
      "collision": {
        "targetType": "Enemy"
      },
      "triggerActions": [
        {
          "$type": "ConfigGadgetDoAttackEvent",
          "attackEvent": "ATK01"
        },
        {
          "$type": "ConfigGadgetTriggerAbility",
          "abilityName": "Test_ShootArrow_Hit_Fx"
        }
      ],
      "NCDLCHHHMJO": true
    }
  },
  "Test_ArrowAiming": {
    "$type": "ConfigGadget",
    "common": {
      "effectAttachShape": {
        "$type": "ConfigEffectAttachBox",
        "scaleX": 0.5,
        "scaleY": 0.5
      },
      "affectedByWorld": true
    },
    "combat": {
      "property": {
        "useCreatorProperty": true,
        "weight": 50.0,
        "ignorePurgeRate": false
      },
      "beHit": {
        "hitBloodEffect": "",
        "muteAllHit": true,
        "muteAllHitEffect": true,
        "muteAllHitText": true
      },
      "combatLock": {
        "lockShape": "CircleLockEnemy",
        "denyLockOn": true,
        "lockType": "Gadget_Lv1"
      }
    },
    "attackAttenuation": "",
    "abilities": [
      {
        "abilityID": "Fire_Fx",
        "abilityName": "Test_ShootAimingArrow_Fire_Fx",
        "abilityOverride": ""
      },
      {
        "abilityID": "Hit_Fx",
        "abilityName": "Test_ShootAimingArrow_Hit_Fx",
        "abilityOverride": ""
      }
    ],
    "timer": {
      "lifeTime": 20.0
    },
    "move": {
      "$type": "ConfigLinerParabolaBulletMove",
      "speed": 50.0,
      "updateAngle": {
        "$type": "ConfigBulletMoveAngleByVelocity"
      },
      "straightRange": 25.0,
      "gravityOfAcceleration": 5.5,
      "airResistance": 0.009999999776482582
    },
    "gadget": {
      "$type": "ConfigBulletPattern",
      "collision": {
        "targetType": "Enemy"
      },
      "triggerActions": [
        {
          "$type": "ConfigGadgetTriggerAbility",
          "abilityName": "Test_ShootAimingArrow_Fire_Fx"
        },
        {
          "$type": "ConfigGadgetTriggerAbility",
          "abilityName": "Test_ShootAimingArrow_Hit_Fx"
        }
      ],
      "NCDLCHHHMJO": true
    }
  },
  "LightningBolt": {
    "$type": "ConfigGadget",
    "common": {
      "effectAttachShape": {
        "$type": "ConfigEffectAttachBox"
      }
    },
    "combat": {
      "property": {
        "useCreatorProperty": true,
        "HP": 999999.0,
        "attack": 30.0,
        "defense": 999999.0,
        "weight": 50.0
      },
      "beHit": {
        "hitBloodEffect": "",
        "muteAllHit": true,
        "muteAllHitEffect": true,
        "muteAllHitText": true
      },
      "combatLock": {
        "lockShape": "CircleLockEnemy",
        "denyLockOn": true,
        "lockType": "Gadget_Lv1"
      }
    },
    "attackAttenuation": "",
    "abilities": [
      {
        "abilityID": "TriggerSpurt",
        "abilityName": "Test_LightningBoltDamage",
        "abilityOverride": ""
      }
    ],
    "timer": {
      "lifeTime": 3.0
    },
    "move": {
      "$type": "CCONGDOMIGK",
      "speed": 10.0,
      "NHIGHAGJEAI": true
    },
    "gadget": {
      "$type": "ConfigBulletPattern",
      "collision": {
        "targetType": "Enemy"
      },
      "triggerActions": [
        {
          "$type": "ConfigGadgetTriggerAbility",
          "abilityName": "Test_LightningBoltDamage"
        }
      ],
      "KEFFAOHIMHB": true
    }
  },
  "LightningSpear": {
    "$type": "ConfigGadget",
    "common": {
      "effectAttachShape": {
        "$type": "ConfigEffectAttachBox"
      }
    },
    "combat": {
      "property": {
        "useCreatorProperty": true,
        "HP": 999999.0,
        "attack": 30.0,
        "defense": 999999.0,
        "weight": 50.0
      },
      "beHit": {
        "hitBloodEffect": "",
        "muteAllHit": true,
        "muteAllHitEffect": true,
        "muteAllHitText": true
      },
      "combatLock": {
        "lockShape": "CircleLockEnemy",
        "denyLockOn": true,
        "lockType": "Gadget_Lv1"
      }
    },
    "attackAttenuation": "",
    "abilities": [
      {
        "abilityID": "TriggerSpurt",
        "abilityName": "Test_LightningSpearDamage",
        "abilityOverride": ""
      }
    ],
    "timer": {
      "lifeTime": 3.0
    },
    "move": {
      "$type": "CCONGDOMIGK",
      "speed": 10.0,
      "NHIGHAGJEAI": true
    },
    "gadget": {
      "$type": "ConfigBulletPattern",
      "collision": {
        "targetType": "Enemy"
      },
      "triggerActions": [
        {
          "$type": "ConfigGadgetTriggerAbility",
          "abilityName": "Test_LightningSpearDamage"
        }
      ]
    }
  },
  "LightningSpear_1": {
    "$type": "ConfigGadget",
    "common": {
      "effectAttachShape": {
        "$type": "ConfigEffectAttachBox"
      }
    },
    "combat": {
      "property": {
        "useCreatorProperty": true,
        "HP": 999999.0,
        "attack": 30.0,
        "defense": 999999.0,
        "weight": 50.0
      },
      "beHit": {
        "hitBloodEffect": "",
        "muteAllHit": true,
        "muteAllHitEffect": true,
        "muteAllHitText": true
      },
      "combatLock": {
        "lockShape": "CircleLockEnemy",
        "denyLockOn": true,
        "lockType": "Gadget_Lv1"
      }
    },
    "attackAttenuation": "",
    "abilities": [
      {
        "abilityID": "TriggerSpurt",
        "abilityName": "Test_LightningSpearDamage_1",
        "abilityOverride": ""
      }
    ],
    "timer": {
      "lifeTime": 3.0
    },
    "move": {
      "$type": "CCONGDOMIGK",
      "speed": 5.0,
      "DNOPKNCAPAI": 20.0,
      "NHIGHAGJEAI": true
    },
    "gadget": {
      "$type": "ConfigBulletPattern",
      "collision": {
        "targetType": "Enemy"
      },
      "triggerActions": [
        {
          "$type": "ConfigGadgetTriggerAbility",
          "abilityName": "Test_LightningSpearDamage_1"
        }
      ]
    }
  },
  "LightningSpear_2": {
    "$type": "ConfigGadget",
    "common": {
      "effectAttachShape": {
        "$type": "ConfigEffectAttachBox"
      }
    },
    "combat": {
      "property": {
        "useCreatorProperty": true,
        "HP": 999999.0,
        "attack": 30.0,
        "defense": 999999.0,
        "weight": 50.0
      },
      "beHit": {
        "hitBloodEffect": "",
        "muteAllHit": true,
        "muteAllHitEffect": true,
        "muteAllHitText": true
      },
      "combatLock": {
        "lockShape": "CircleLockEnemy",
        "denyLockOn": true,
        "lockType": "Gadget_Lv1"
      }
    },
    "attackAttenuation": "",
    "abilities": [
      {
        "abilityID": "TriggerSpurt",
        "abilityName": "Test_LightningSpearDamage_2",
        "abilityOverride": ""
      }
    ],
    "timer": {
      "lifeTime": 3.0
    },
    "move": {
      "$type": "CCONGDOMIGK",
      "speed": 5.0,
      "DNOPKNCAPAI": 20.0,
      "NHIGHAGJEAI": true
    },
    "gadget": {
      "$type": "ConfigBulletPattern",
      "collision": {
        "targetType": "Enemy"
      },
      "triggerActions": [
        {
          "$type": "ConfigGadgetTriggerAbility",
          "abilityName": "Test_LightningSpearDamage_2"
        }
      ]
    }
  },
  "FilckerWave": {
    "$type": "ConfigGadget",
    "common": {
      "effectAttachShape": {
        "$type": "ConfigEffectAttachBox"
      }
    },
    "combat": {
      "property": {
        "useCreatorProperty": true,
        "HP": 999999.0,
        "attack": 30.0,
        "defense": 999999.0,
        "weight": 50.0
      },
      "beHit": {
        "hitBloodEffect": "",
        "muteAllHit": true,
        "muteAllHitEffect": true,
        "muteAllHitText": true
      },
      "combatLock": {
        "lockShape": "CircleLockEnemy",
        "denyLockOn": true,
        "lockType": "Gadget_Lv1"
      }
    },
    "attackAttenuation": "",
    "abilities": [
      {
        "abilityID": "TriggerSpurt",
        "abilityName": "Test_FlickerWaveDamage",
        "abilityOverride": ""
      }
    ],
    "timer": {
      "lifeTime": 3.0
    },
    "move": {
      "$type": "CCONGDOMIGK",
      "speed": 5.0,
      "DNOPKNCAPAI": 10.0,
      "NHIGHAGJEAI": true
    },
    "gadget": {
      "$type": "ConfigBulletPattern",
      "collision": {
        "targetType": "Enemy"
      },
      "triggerActions": [
        {
          "$type": "ConfigGadgetTriggerAbility",
          "abilityName": "Test_FlickerWaveDamage"
        }
      ],
      "KEFFAOHIMHB": true
    }
  },
  "Test_ThrowClub": {
    "$type": "ConfigGadget",
    "common": {
      "effectAttachShape": {
        "$type": "ConfigEffectAttachBox",
        "scaleZ": 0.4000000059604645
      }
    },
    "combat": {
      "property": {
        "useCreatorProperty": true,
        "HP": 999999.0,
        "attack": 10.0,
        "defense": 999999.0,
        "weight": 50.0
      },
      "beHit": {
        "hitBloodEffect": "",
        "muteAllHit": true,
        "muteAllHitEffect": true,
        "muteAllHitText": true
      },
      "combatLock": {
        "lockShape": "CircleLockEnemy",
        "denyLockOn": true,
        "lockType": "Gadget_Lv1"
      },
      "animEvents": {
        "ATK01": {
          "attackPattern": {
            "$type": "ConfigAttackBox",
            "triggerType": "TriggerNoRepeat",
            "MJLCPIAKNCP": "Both",
            "born": {
              "$type": "ConfigBornByCollisionPoint"
            },
            "size": {
              "x": 0.4000000059604645,
              "y": 0.4000000059604645,
              "z": 1.0
            }
          },
          "attackInfo": {
            "attackTag": "",
            "attenuationTag": "",
            "attenuationGroup": "default",
            "attackProperty": {
              "MFOOCADHKLC": 1.0,
              "MKLAMNDEDGB": 0.0,
              "bonusCriticalHurt": 100.0,
              "strikeType": "Default"
            },
            "hitPattern": {
              "onHitEffectName": "default",
              "hitImpulseType": "LV2",
              "overrideHitImpulse": {
                "hitLevel": "Light",
                "hitImpulseX": 420.0,
                "hitImpulseY": 0.0
              },
              "hitHaltTime": 0.11999999731779099,
              "hitHaltTimeScale": 0.009999999776482582
            }
          }
        }
      }
    },
    "attackAttenuation": "",
    "timer": {
      "lifeTime": 3.0
    },
    "move": {
      "$type": "ConfigLinerParabolaBulletMove",
      "speed": 25.0,
      "updateAngle": {
        "$type": "ConfigBulletMoveAngleByVelocity"
      },
      "straightRange": 15.0,
      "gravityOfAcceleration": 20.0,
      "airResistance": 0.009999999776482582
    },
    "gadget": {
      "$type": "ConfigBulletPattern",
      "collision": {
        "targetType": "Enemy"
      },
      "triggerActions": [
        {
          "$type": "ConfigGadgetDoAttackEvent",
          "attackEvent": "ATK01"
        }
      ]
    }
  },
  "Test_ThrowClubFire": {
    "$type": "ConfigGadget",
    "common": {
      "effectAttachShape": {
        "$type": "ConfigEffectAttachBox",
        "scaleZ": 0.4000000059604645
      }
    },
    "combat": {
      "property": {
        "useCreatorProperty": true,
        "HP": 999999.0,
        "attack": 10.0,
        "defense": 999999.0,
        "weight": 50.0
      },
      "beHit": {
        "hitBloodEffect": "",
        "muteAllHit": true,
        "muteAllHitEffect": true,
        "muteAllHitText": true
      },
      "combatLock": {
        "lockShape": "CircleLockEnemy",
        "denyLockOn": true,
        "lockType": "Gadget_Lv1"
      },
      "animEvents": {
        "ATK01": {
          "attackPattern": {
            "$type": "ConfigAttackBox",
            "triggerType": "TriggerNoRepeat",
            "born": {
              "$type": "ConfigBornByCollisionPoint"
            },
            "size": {
              "x": 0.4000000059604645,
              "y": 0.4000000059604645,
              "z": 1.0
            }
          },
          "attackInfo": {
            "attackTag": "",
            "attenuationTag": "",
            "attenuationGroup": "default",
            "attackProperty": {
              "MFOOCADHKLC": 1.0,
              "MKLAMNDEDGB": 0.0,
              "elementType": "Fire",
              "bonusCriticalHurt": 50.0,
              "strikeType": "Default"
            },
            "hitPattern": {
              "onHitEffectName": "default",
              "hitImpulseType": "LV2",
              "overrideHitImpulse": {
                "hitLevel": "Light",
                "hitImpulseX": 120.0,
                "hitImpulseY": 0.0
              },
              "hitHaltTime": 0.11999999731779099,
              "hitHaltTimeScale": 0.009999999776482582
            }
          }
        }
      }
    },
    "attackAttenuation": "",
    "timer": {
      "lifeTime": 3.0
    },
    "move": {
      "$type": "ConfigLinerParabolaBulletMove",
      "speed": 15.0,
      "updateAngle": {
        "$type": "ConfigBulletMoveAngleByVelocity"
      },
      "straightRange": 15.0,
      "gravityOfAcceleration": 20.0,
      "airResistance": 0.009999999776482582
    },
    "gadget": {
      "$type": "ConfigBulletPattern",
      "collision": {
        "targetType": "Enemy"
      },
      "triggerActions": [
        {
          "$type": "ConfigGadgetDoAttackEvent",
          "attackEvent": "ATK01"
        }
      ]
    }
  },
  "Test_BombField": {
    "$type": "ConfigGadget",
    "combat": {
      "property": {
        "HP": 100.0,
        "attack": 10.0,
        "weight": 75.0,
        "canTriggerBullet": true,
        "denyElementStick": true,
        "ignorePurgeRate": false
      },
      "combatLock": {
        "lockShape": "CircleLockEnemy",
        "denyLockOn": true,
        "lockType": "Gadget_Lv1"
      }
    },
    "attackAttenuation": "",
    "abilities": [
      {
        "abilityID": "Bomb_Explode",
        "abilityName": "Test_Bomb_Explode",
        "abilityOverride": ""
      }
    ]
  },
  "MsgBoard": {
    "$type": "ConfigGadget",
    "attackAttenuation": ""
  },
  "LocalTrigger": {
    "$type": "ConfigGadget",
    "attackAttenuation": ""
  },
  "Test_WindZone": {
    "$type": "ConfigGadget",
    "combat": {
      "property": {
        "HP": 999999.0,
        "defense": 999999.0,
        "weight": 50.0,
        "canTriggerBullet": true,
        "denyElementStick": true,
        "ignorePurgeRate": false
      },
      "combatLock": {
        "lockShape": "CircleLockEnemy",
        "denyLockOn": true,
        "lockType": "Gadget_Lv1"
      }
    },
    "attackAttenuation": "",
    "abilities": [
      {
        "abilityID": "Wind",
        "abilityName": "Test_WindAbility",
        "abilityOverride": ""
      }
    ]
  },
  "ModifiedTrigger": {
    "$type": "ConfigGadget",
    "attackAttenuation": "",
    "field": {
      "concernType": "CombatExcludeGWGO",
      "shape": "RectW2L4",
      "DEOHMEELJDM": "",
      "triggerInfinite": true,
      "lifeInfinite": true,
      "checkInterval": 1.0,
      "overwriteCampType": true,
      "campType": "Enemy",
      "useSurfaceHeight": true,
      "INKADPFABPA": "",
      "AAHHPDHLLLH": ""
    }
  },
  "RoomDoor": {
    "$type": "ConfigGadget",
    "attackAttenuation": "",
    "field": {
      "concernType": "LocalAvatar",
      "shape": "",
      "DEOHMEELJDM": "",
      "triggerInfinite": true,
      "lifeInfinite": true,
      "overwriteCampType": true,
      "campType": "Alliance",
      "INKADPFABPA": "",
      "AAHHPDHLLLH": ""
    },
    "stateLayers": {
      "defaultLayer": {
        "$type": "ConfigNormalStateLayer",
        "FNPGDAEJAPJ": "",
        "stateIDs": {
          "Opening": {
            "$type": "ConfigNormalStateIDInfo",
            "animatorStates": {
              "OpeningIn": ["Audio_SceneObj_Gear_KnightDoor_Open"],
              "OpeningOut": ["Audio_SceneObj_Gear_KnightDoor_Open"]
            }
          },
          "Open": {
            "$type": "ConfigNormalStateIDInfo",
            "animatorStates": {
              "OpenIn": [],
              "OpenOut": []
            }
          },
          "Closing": {
            "$type": "ConfigNormalStateIDInfo",
            "animatorStates": {
              "ClosingIn": ["Audio_SceneObj_Gear_KnightDoor_Close"],
              "ClosingOut": ["Audio_SceneObj_Gear_KnightDoor_Close"]
            }
          },
          "Close": {
            "$type": "ConfigNormalStateIDInfo",
            "animatorStates": {
              "Close": []
            }
          }
        }
      }
    }
  },
  "Frost_Orb": {
    "$type": "ConfigGadget",
    "common": {
      "effectAttachShape": {
        "$type": "ConfigEffectAttachBox"
      }
    },
    "combat": {
      "property": {
        "useCreatorProperty": true,
        "HP": 999999.0,
        "attack": 30.0,
        "defense": 999999.0,
        "weight": 50.0
      },
      "beHit": {
        "hitBloodEffect": "",
        "muteAllHit": true,
        "muteAllHitEffect": true,
        "muteAllHitText": true
      },
      "combatLock": {
        "lockShape": "CircleLockEnemy",
        "denyLockOn": true,
        "lockType": "Gadget_Lv1"
      }
    },
    "attackAttenuation": "",
    "abilities": [
      {
        "abilityID": "Material",
        "abilityName": "Frost_Orb_Material",
        "abilityOverride": ""
      }
    ],
    "timer": {
      "lifeTime": 12.300000190734863
    },
    "move": {
      "$type": "CCONGDOMIGK",
      "speed": 0.800000011920929
    },
    "gadget": {
      "$type": "ConfigBulletPattern",
      "collision": {
        "triggerType": "TriggerAlways",
        "triggerCD": 0.25,
        "targetType": "Enemy"
      },
      "triggerActions": [
        {
          "$type": "ConfigGadgetTriggerAbility",
          "abilityName": "IceBall_Test_Material"
        }
      ]
    }
  },
  "Frost_Orb_Bullet": {
    "$type": "ConfigGadget",
    "common": {
      "effectAttachShape": {
        "$type": "ConfigEffectAttachBox"
      },
      "mass": 10.0
    },
    "combat": {
      "property": {
        "useCreatorProperty": true,
        "canTriggerBullet": true,
        "denyElementStick": true
      },
      "beHit": {
        "hitBloodEffect": "",
        "muteAllHit": true,
        "muteAllHitEffect": true,
        "muteAllHitText": true
      },
      "combatLock": {
        "lockShape": "CircleLockEnemy",
        "denyLockOn": true,
        "lockType": "Gadget_Lv1"
      }
    },
    "attackAttenuation": "",
    "abilities": [
      {
        "abilityID": "Material",
        "abilityName": "Frost_Orb_Bullet_Material",
        "abilityOverride": ""
      }
    ],
    "timer": {
      "lifeTime": 0.800000011920929
    },
    "move": {
      "$type": "GODCFABGNIK",
      "EINCMKOBBEG": {
        "includeForces": ["RetreatType", "RetreatAirType", "WindZoneType"]
      },
      "speed": 9.0,
      "BKIIIOFDNJM": 180.0,
      "canBornInWater": true,
      "EJLPNJNLKJO": {
        "CNCFDGHPDMM": 2.0,
        "LKGPGNFBLGO": 60.0,
        "JJOMEBOHIGM": 1.2000000476837158,
        "MMFLMIJMPHO": 0.30000001192092896,
        "IJIIEFJIHOM": true,
        "KBDCGLHEGLP": "Keep",
        "EFMHGACIJIK": "Keep"
      },
      "radius": 1.5
    },
    "gadget": {
      "$type": "ConfigBulletPattern",
      "collision": {
        "targetType": "Enemy"
      },
      "triggerActions": [
        {
          "$type": "ConfigGadgetTriggerAbility",
          "abilityName": "Frost_Orb_Bullet_Material"
        }
      ]
    }
  },
  "Guide_Point_UI": {
    "$type": "ConfigGadget",
    "combat": {
      "property": {
        "HP": 999999.0,
        "attack": 30.0,
        "defense": 999999.0,
        "weight": 50.0,
        "isInvincible": true,
        "canTriggerBullet": true,
        "denyElementStick": true
      },
      "combatLock": {
        "lockShape": "CircleLockEnemy",
        "denyLockOn": true,
        "lockType": "Gadget_Lv1"
      }
    },
    "attackAttenuation": "",
    "misc": {
      "GKCEMAKIKPH": "",
      "GHIKFNNEDMG": true,
      "LKMLHDPBOIC": true
    }
  },
  "Guide_Point_Scene": {
    "$type": "ConfigGadget",
    "combat": {
      "property": {
        "HP": 999999.0,
        "attack": 30.0,
        "defense": 999999.0,
        "weight": 50.0,
        "isInvincible": true,
        "canTriggerBullet": true,
        "denyElementStick": true
      },
      "combatLock": {
        "lockShape": "CircleLockEnemy",
        "denyLockOn": true,
        "lockType": "Gadget_Lv1"
      }
    },
    "attackAttenuation": "",
    "misc": {
      "GKCEMAKIKPH": "",
      "GHIKFNNEDMG": true
    }
  },
  "Guide_Point_Move": {
    "$type": "ConfigGadget",
    "combat": {
      "property": {
        "HP": 999999.0,
        "attack": 30.0,
        "defense": 999999.0,
        "weight": 50.0,
        "isInvincible": true,
        "canTriggerBullet": true,
        "denyElementStick": true
      },
      "combatLock": {
        "lockShape": "CircleLockEnemy",
        "denyLockOn": true,
        "lockType": "Gadget_Lv1"
      }
    },
    "attackAttenuation": "",
    "move": {
      "$type": "BHKMHNNCDMG",
      "target": "GroupGadgetEntity",
      "EBBHBMFMOGD": "RootNode",
      "EMLMHGJEPIO": true
    },
    "misc": {
      "GKCEMAKIKPH": "",
      "GHIKFNNEDMG": true,
      "LKMLHDPBOIC": true
    }
  }
}
