{
  "NPC_Guide_Paimon": {
    "$type": "ConfigGadget",
    "common": {
      "mass": 0.10000000149011612,
      "scale": 0.75
    },
    "headControl": {
      "$type": "GAAIKCFIJMM"
    },
    "dither": {
      "startDitherAction": {
        "enable": true
      }
    },
    "hasModel": true,
    "BKCOCAKKOEE": false,
    "combat": {
      "property": {
        "HP": 999999.0,
        "isInvincible": true,
        "isLockHP": true,
        "canTriggerBullet": true,
        "denyElementStick": true,
        "ignorePurgeRate": false
      },
      "beHit": {
        "hitBloodEffect": "",
        "muteAllHit": true,
        "muteAllHitEffect": true,
        "muteAllHitText": true
      },
      "die": {
        "dieForceDisappearTime": 0.0,
        "dieDisappearEffect": ""
      }
    },
    "attackAttenuation": "",
    "abilities": [
      {
        "abilityID": "Disappear",
        "abilityName": "Gadget_Guide_Paimon_Disappear",
        "abilityOverride": ""
      },
      {
        "abilityID": "Eff",
        "abilityName": "Gadget_Guide_Paimon_Eff",
        "abilityOverride": ""
      }
    ],
    "move": {
      "$type": "PLMNMICDOHN",
      "EINCMKOBBEG": {
        "muteAll": true
      },
      "DMJNLOIEHNP": false,
      "MJIIBLPLNKN": {
        "maxSpeed": 15.0,
        "FLGBHLNFJIJ": 5.0,
        "LEEKEHPLNKP": 2.0,
        "LBPKFFCDGDA": 10.0,
        "MDFHFDJAEJD": 10.0
      }
    },
    "misc": {
      "GKCEMAKIKPH": ""
    },
    "stateLayers": {
      "defaultLayer": {
        "$type": "ConfigNormalStateLayer",
        "FNPGDAEJAPJ": "",
        "stateIDs": {
          "Born": {
            "$type": "CGCNEPDODHF",
            "animatorStates": {
              "Appear": [
                "Emo_Gadget_Guide_Paimon_Appear",
                "Audio_Char_NPC_Paimon_Appear"
              ]
            },
            "LLAMHOPNFJG": ["DoSkill"],
            "BHEPAJIOBDN": true
          },
          "Disappear": {
            "$type": "CGCNEPDODHF",
            "animatorStates": {
              "Disappear": [
                "Emo_Gadget_Guide_Paimon_Disappear",
                "Gadget_Guide_Paimon_Disappear",
                "Audio_Char_NPC_Paimon_Disappear"
              ]
            },
            "LLAMHOPNFJG": ["DoSkill"],
            "BHEPAJIOBDN": true
          },
          "NormalMove": {
            "$type": "CGCNEPDODHF",
            "animatorStates": {
              "Standby": ["Audio_Char_NPC_Paimon_Walk"],
              "Run": ["Audio_Char_NPC_Paimon_Walk"]
            },
            "canDoSkill": true,
            "LLAMHOPNFJG": ["DoSkill"],
            "BHEPAJIOBDN": true
          },
          "Show": {
            "$type": "CGCNEPDODHF",
            "animatorStates": {
              "Show_1": [
                "Emo_Gadget_Guide_Paimon_Show01",
                "Gadget_Guide_Paimon_Action",
                "Audio_Char_NPC_Paimon_Show_1"
              ],
              "Show_2": [
                "Emo_Gadget_Guide_Paimon_Show02",
                "Gadget_Guide_Paimon_Action",
                "Audio_Char_NPC_Paimon_Show_2"
              ],
              "Show_3": [
                "Emo_Gadget_Guide_Paimon_Show03",
                "Gadget_Guide_Paimon_Action",
                "Audio_Char_NPC_Paimon_Show_3"
              ],
              "Show_4": [
                "Emo_Gadget_Guide_Paimon_Show04",
                "Gadget_Guide_Paimon_Action",
                "Audio_Char_NPC_Paimon_Show_4"
              ]
            },
            "canDoSkill": true,
            "LLAMHOPNFJG": ["DoSkill"],
            "BHEPAJIOBDN": true
          },
          "Anger": {
            "$type": "CGCNEPDODHF",
            "animatorStates": {
              "Anger": [
                "Emo_Gadget_Guide_Paimon_Anger",
                "Gadget_Guide_Paimon_Action",
                "Audio_Char_NPC_Paimon_Anger"
              ]
            },
            "canDoSkill": true,
            "LLAMHOPNFJG": ["DoSkill"],
            "BHEPAJIOBDN": true
          },
          "Domagic": {
            "$type": "CGCNEPDODHF",
            "animatorStates": {
              "Domagic": [
                "Emo_Gadget_Guide_Paimon_Domagic",
                "Gadget_Guide_Paimon_Action",
                "Audio_Char_NPC_Paimon_Domagic"
              ]
            },
            "canDoSkill": true,
            "LLAMHOPNFJG": ["DoSkill"],
            "BHEPAJIOBDN": true
          },
          "Guide": {
            "$type": "CGCNEPDODHF",
            "animatorStates": {
              "Guide": [
                "Emo_Gadget_Guide_Paimon_Guide",
                "Gadget_Guide_Paimon_Action",
                "Audio_Char_NPC_Paimon_Guide"
              ]
            },
            "canDoSkill": true,
            "LLAMHOPNFJG": ["DoSkill"],
            "BHEPAJIOBDN": true
          },
          "Hope": {
            "$type": "CGCNEPDODHF",
            "animatorStates": {
              "Hope": [
                "Emo_Gadget_Guide_Paimon_Hope",
                "Gadget_Guide_Paimon_Action",
                "Audio_Char_NPC_Paimon_Hope"
              ]
            },
            "canDoSkill": true,
            "LLAMHOPNFJG": ["DoSkill"],
            "BHEPAJIOBDN": true
          },
          "Wave": {
            "$type": "CGCNEPDODHF",
            "animatorStates": {
              "Wave": [
                "Emo_Gadget_Guide_Paimon_Wave",
                "Gadget_Guide_Paimon_Action",
                "Audio_Char_NPC_Paimon_Wave"
              ]
            },
            "canDoSkill": true,
            "LLAMHOPNFJG": ["DoSkill"],
            "BHEPAJIOBDN": true
          },
          "BlowNormal": {
            "$type": "CGCNEPDODHF",
            "animatorStates": {
              "BlowNormal": ["Audio_Char_NPC_Paimon_BlowNormal"]
            },
            "canDoSkill": true,
            "LLAMHOPNFJG": ["DoSkill"],
            "BHEPAJIOBDN": true
          },
          "BlowContinuous": {
            "$type": "CGCNEPDODHF",
            "animatorStates": {
              "BlowContinuous": ["Audio_Char_NPC_Paimon_BlowSeveral"]
            },
            "canDoSkill": true,
            "LLAMHOPNFJG": ["DoSkill"],
            "BHEPAJIOBDN": true
          }
        }
      }
    },
    "audio": {
      "$type": "NPAHBANFLHK",
      "NCOGLLMIJGO": "",
      "animAudio": {
        "onTransitionOut": [
          {
            "currentStateName": "Run",
            "audioEvent": {
              "text": "Stop_sfx_char_paimon_walk"
            },
            "otherStateNames": [
              "Standby",
              "Show_1",
              "Show_2",
              "Show_3",
              "Show_4"
            ],
            "usage": "Except"
          },
          {
            "currentStateName": "Standby",
            "audioEvent": {
              "text": "Stop_sfx_char_paimon_walk"
            },
            "otherStateNames": ["Run", "Show_1", "Show_2", "Show_3", "Show_4"],
            "usage": "Except"
          },
          {
            "currentStateName": "Show_1",
            "audioEvent": {
              "text": "Stop_sfx_char_paimon_walk"
            }
          },
          {
            "currentStateName": "Show_2",
            "audioEvent": {
              "text": "Stop_sfx_char_paimon_walk"
            }
          },
          {
            "currentStateName": "Show_3",
            "audioEvent": {
              "text": "Stop_sfx_char_paimon_walk"
            }
          },
          {
            "currentStateName": "Show_4",
            "audioEvent": {
              "text": "Stop_sfx_char_paimon_walk"
            }
          },
          {
            "currentStateName": "BlowNormal",
            "audioEvent": {
              "text": "Stop_sfx_char_paimon_wind_blow"
            }
          },
          {
            "currentStateName": "BlowContinuous",
            "audioEvent": {
              "text": "Stop_sfx_char_paimon_wind_blow"
            }
          }
        ]
      }
    },
    "OJHAGANFOMP": {
      "AKFNCINOAEJ": {
        "x": 0.6000000238418579,
        "y": 1.0499999523162842,
        "z": -0.10000000149011612
      },
      "DPGMHFAJCBC": 2.0,
      "JODKGMGIHHG": 9.0,
      "NFLGDNHCHDB": 15.0
    },
    "bindEmotions": [
      "Cutscene/ShortDialog/Cs_Emo_Avatar_Simple_Common_Set/Cs_Emo_Pet_Paimon_Ani_Show01",
      "Cutscene/ShortDialog/Cs_Emo_Avatar_Simple_Common_Set/Cs_Emo_Pet_Paimon_Ani_Show02",
      "Cutscene/ShortDialog/Cs_Emo_Avatar_Simple_Common_Set/Cs_Emo_Pet_Paimon_Ani_Show03",
      "Cutscene/ShortDialog/Cs_Emo_Avatar_Simple_Common_Set/Cs_Emo_Pet_Paimon_Ani_Show04",
      "Cutscene/ShortDialog/Cs_Emo_Avatar_Simple_Common_Set/Cs_Emo_Pet_Paimon_Ani_Anger",
      "Cutscene/ShortDialog/Cs_Emo_Avatar_Simple_Common_Set/Cs_Emo_Pet_Paimon_Ani_Domagic",
      "Cutscene/ShortDialog/Cs_Emo_Avatar_Simple_Common_Set/Cs_Emo_Pet_Paimon_Ani_Guide",
      "Cutscene/ShortDialog/Cs_Emo_Avatar_Simple_Common_Set/Cs_Emo_Pet_Paimon_Ani_Hope",
      "Cutscene/ShortDialog/Cs_Emo_Avatar_Simple_Common_Set/Cs_Emo_Pet_Paimon_Ani_Wave",
      "Cutscene/ShortDialog/Cs_Emo_Avatar_Simple_Common_Set/Cs_Emo_Pet_Paimon_Ani_Appear",
      "Cutscene/ShortDialog/Cs_Emo_Avatar_Simple_Common_Set/Cs_Emo_Pet_Paimon_Ani_Disappear"
    ]
  }
}
