{
  "Fungus_Trois_Ice_Bullet": {
    "$type": "ConfigGadget",
    "common": {
      "effectAttachShape": {
        "$type": "ConfigEffectAttachBox",
        "scaleX": 0.5,
        "scaleY": 0.5
      }
    },
    "combat": {
      "property": {
        "useCreatorProperty": true,
        "isInvincible": true,
        "ignorePurgeRate": false
      },
      "combatLock": {
        "lockShape": "CircleLockEnemy",
        "denyLockOn": true,
        "lockType": "Default"
      }
    },
    "attackAttenuation": "",
    "abilities": [
      {
        "abilityID": "Damage",
        "abilityName": "Fungus_Trois_BVB_Ice_Bullet",
        "abilityOverride": ""
      }
    ],
    "timer": {
      "lifeTime": 1.7999999523162842
    },
    "move": {
      "$type": "ConfigLinerBulletMove",
      "EINCMKOBBEG": {
        "excludeForces": ["WindZoneType", "AirflowType"]
      },
      "speed": 25.0,
      "maxSpeed": 50.0,
      "DNOPKNCAPAI": 20.0,
      "EKADLHFHLED": 0.20000000298023224,
      "canBornInWater": true,
      "updateAngle": {
        "$type": "ConfigBulletMoveAngleByVelocity"
      }
    },
    "gadget": {
      "$type": "ConfigBulletPattern",
      "collision": {
        "triggerType": "TriggerNoRepeat",
        "targetType": "Enemy",
        "ignoreScene": true
      },
      "triggerActions": [
        {
          "$type": "GFHCMLLEALA",
          "attackInfo": {
            "attackTag": "",
            "attenuationTag": "",
            "attenuationGroup": "default",
            "attackProperty": {
              "MFOOCADHKLC": 11.539999961853027,
              "MKLAMNDEDGB": 0.0,
              "elementType": "Ice",
              "bonusCriticalHurt": 100.0,
              "enBreak": 200.0
            },
            "hitPattern": {
              "onHitEffectName": "default",
              "hitImpulseType": "LV4"
            },
            "canBeModifiedBy": "Owner"
          }
        }
      ]
    }
  },
  "Fungus_Trois_Ice_BlizzardPoint": {
    "$type": "ConfigGadget",
    "combat": {
      "property": {
        "useCreatorProperty": true,
        "isInvincible": true,
        "denyElementStick": true,
        "ignorePurgeRate": false
      },
      "combatLock": {
        "lockShape": "CircleLockEnemy",
        "denyLockOn": true,
        "lockType": "Default"
      }
    },
    "attackAttenuation": "",
    "abilities": [
      {
        "abilityID": "",
        "abilityName": "Fungus_Trois_BVB_Ice_Blizzard_Gadget",
        "abilityOverride": ""
      }
    ],
    "timer": {
      "lifeTime": 10.0
    }
  },
  "Fungus_Deux_Wind_Bullet": {
    "$type": "ConfigGadget",
    "common": {
      "effectAttachShape": {
        "$type": "ConfigEffectAttachBox",
        "scaleZ": 0.4000000059604645
      }
    },
    "combat": {
      "property": {
        "useCreatorProperty": true,
        "isInvincible": true,
        "ignorePurgeRate": false
      },
      "combatLock": {
        "lockShape": "CircleLockEnemy",
        "denyLockOn": true,
        "lockType": "Default"
      }
    },
    "attackAttenuation": "",
    "abilities": [
      {
        "abilityID": "",
        "abilityName": "Fungus_Deux_BVB_Wind_Bullet",
        "abilityOverride": ""
      }
    ],
    "timer": {
      "lifeTime": 4.0
    },
    "move": {
      "$type": "CCONGDOMIGK",
      "speed": 10.0,
      "BKIIIOFDNJM": 240.0,
      "canBornInWater": true,
      "updateAngle": {
        "$type": "ConfigBulletMoveAngleByVelocity"
      },
      "NHIGHAGJEAI": true
    },
    "gadget": {
      "$type": "ConfigBulletPattern",
      "collision": {
        "targetType": "Enemy"
      },
      "triggerActions": [
        {
          "$type": "ConfigGadgetTriggerAbility",
          "abilityName": "Fungus_Deux_BVB_Wind_Bullet"
        }
      ],
      "HOCNBGDGGPK": [
        {
          "$type": "ConfigGadgetTriggerAbility",
          "abilityName": "Fungus_Deux_BVB_Wind_Bullet"
        }
      ]
    }
  },
  "Fungus_Deux_Wind_OverdoseBullet": {
    "$type": "ConfigGadget",
    "common": {
      "effectAttachShape": {
        "$type": "ConfigEffectAttachBox",
        "scaleZ": 0.4000000059604645
      }
    },
    "combat": {
      "property": {
        "useCreatorProperty": true,
        "isInvincible": true,
        "ignorePurgeRate": false
      },
      "combatLock": {
        "lockShape": "CircleLockEnemy",
        "denyLockOn": true,
        "lockType": "Default"
      }
    },
    "attackAttenuation": "",
    "abilities": [
      {
        "abilityID": "",
        "abilityName": "Fungus_Deux_BVB_Wind_OverdoseBullet",
        "abilityOverride": ""
      }
    ],
    "timer": {
      "lifeTime": 6.0
    },
    "move": {
      "$type": "MBCCJOEDLDO",
      "speed": 15.0,
      "minSpeed": 5.0,
      "BKIIIOFDNJM": 360.0,
      "DNOPKNCAPAI": -30.0,
      "EKADLHFHLED": 0.699999988079071,
      "canBornInWater": true,
      "updateAngle": {
        "$type": "ConfigBulletMoveAngleByVelocity"
      },
      "JAILDGEEKLH": 0.3499999940395355,
      "DCIBKJODNJB": 360.0,
      "MJBBAAKCDCP": 6.0
    },
    "gadget": {
      "$type": "ConfigBulletPattern",
      "collision": {
        "targetType": "Enemy",
        "ignoreScene": true
      },
      "triggerActions": [
        {
          "$type": "ConfigGadgetTriggerAbility",
          "abilityName": "Fungus_Deux_BVB_Wind_OverdoseBullet"
        }
      ],
      "HOCNBGDGGPK": [
        {
          "$type": "ConfigGadgetTriggerAbility",
          "abilityName": "Fungus_Deux_BVB_Wind_OverdoseBullet"
        }
      ]
    }
  },
  "Fungus_Deux_Wind_HealingWavePoint": {
    "$type": "ConfigGadget",
    "common": {
      "effectAttachShape": {
        "$type": "ConfigEffectAttachBox",
        "scaleX": 0.5,
        "scaleY": 0.5
      }
    },
    "combat": {
      "property": {
        "useCreatorProperty": true,
        "isInvincible": true,
        "ignorePurgeRate": false
      },
      "combatLock": {
        "lockShape": "CircleLockEnemy",
        "denyLockOn": true,
        "lockType": "Default"
      }
    },
    "attackAttenuation": "",
    "abilities": [
      {
        "abilityID": "",
        "abilityName": "Fungus_Deux_BVB_HealingWaving_Gadget",
        "abilityOverride": ""
      }
    ],
    "timer": {
      "lifeTime": 7.0
    }
  },
  "Fungus_Un_Wind_Bullet": {
    "$type": "ConfigGadget",
    "common": {
      "effectAttachShape": {
        "$type": "ConfigEffectAttachBox",
        "scaleZ": 0.4000000059604645
      }
    },
    "combat": {
      "property": {
        "useCreatorProperty": true,
        "isInvincible": true,
        "ignorePurgeRate": false
      },
      "combatLock": {
        "lockShape": "CircleLockEnemy",
        "denyLockOn": true,
        "lockType": "Default"
      }
    },
    "attackAttenuation": "",
    "abilities": [
      {
        "abilityID": "",
        "abilityName": "Fungus_Un_BVB_Wind_Bullet",
        "abilityOverride": ""
      }
    ],
    "timer": {
      "lifeTime": 4.0
    },
    "move": {
      "$type": "CCONGDOMIGK",
      "speed": 7.5,
      "BKIIIOFDNJM": 210.0,
      "canBornInWater": true,
      "updateAngle": {
        "$type": "ConfigBulletMoveAngleByVelocity"
      },
      "NHIGHAGJEAI": true
    },
    "gadget": {
      "$type": "ConfigBulletPattern",
      "collision": {
        "targetType": "Enemy"
      },
      "triggerActions": [
        {
          "$type": "ConfigGadgetTriggerAbility",
          "abilityName": "Fungus_Un_BVB_Wind_Bullet"
        }
      ],
      "HOCNBGDGGPK": [
        {
          "$type": "ConfigGadgetTriggerAbility",
          "abilityName": "Fungus_Un_BVB_Wind_Bullet"
        }
      ]
    }
  },
  "Fungus_Un_WindImpact_Bullet": {
    "$type": "ConfigGadget",
    "common": {
      "effectAttachShape": {
        "$type": "ConfigEffectAttachBox",
        "scaleZ": 0.4000000059604645
      }
    },
    "combat": {
      "property": {
        "useCreatorProperty": true,
        "isInvincible": true,
        "ignorePurgeRate": false
      },
      "combatLock": {
        "lockShape": "CircleLockEnemy",
        "denyLockOn": true,
        "lockType": "Default"
      }
    },
    "attackAttenuation": "",
    "abilities": [
      {
        "abilityID": "",
        "abilityName": "Fungus_Un_BVB_Wind_WindImpact_Bullet",
        "abilityOverride": ""
      }
    ],
    "timer": {
      "lifeTime": 5.5
    },
    "move": {
      "$type": "CCONGDOMIGK",
      "speed": 6.599999904632568,
      "BKIIIOFDNJM": 280.0,
      "canBornInWater": true,
      "updateAngle": {
        "$type": "ConfigBulletMoveAngleByVelocity"
      },
      "NHIGHAGJEAI": true
    },
    "gadget": {
      "$type": "ConfigBulletPattern",
      "collision": {
        "targetType": "Enemy"
      },
      "triggerActions": [
        {
          "$type": "ConfigGadgetTriggerAbility",
          "abilityName": "Fungus_Un_BVB_Wind_WindImpact_Bullet"
        }
      ],
      "HOCNBGDGGPK": [
        {
          "$type": "ConfigGadgetTriggerAbility",
          "abilityName": "Fungus_Un_BVB_Wind_WindImpact_Bullet"
        }
      ]
    }
  },
  "Fungus_Un_WindImpact_Point": {
    "$type": "ConfigGadget",
    "common": {
      "effectAttachShape": {
        "$type": "ConfigEffectAttachBox",
        "scaleX": 0.5,
        "scaleY": 0.5
      }
    },
    "combat": {
      "property": {
        "useCreatorProperty": true,
        "isInvincible": true,
        "ignorePurgeRate": false
      },
      "combatLock": {
        "lockShape": "CircleLockEnemy",
        "denyLockOn": true,
        "lockType": "Default"
      }
    },
    "attackAttenuation": "",
    "abilities": [
      {
        "abilityID": "",
        "abilityName": "Fungus_Un_BVB_Wind_WindImpact_Gadget",
        "abilityOverride": ""
      }
    ],
    "timer": {
      "lifeTime": 0.699999988079071
    }
  },
  "Fungus_Un_WindZone_Point": {
    "$type": "ConfigGadget",
    "common": {
      "effectAttachShape": {
        "$type": "ConfigEffectAttachBox",
        "scaleX": 0.5,
        "scaleY": 0.5
      }
    },
    "combat": {
      "property": {
        "useCreatorProperty": true,
        "isInvincible": true,
        "ignorePurgeRate": false
      },
      "combatLock": {
        "lockShape": "CircleLockEnemy",
        "denyLockOn": true,
        "lockType": "Default"
      }
    },
    "attackAttenuation": "",
    "abilities": [
      {
        "abilityID": "",
        "abilityName": "Fungus_Un_BVB_Wind_WindZone_Gadget",
        "abilityOverride": ""
      }
    ],
    "timer": {
      "lifeTime": 5.5
    }
  },
  "Fungus_Deux_Fire_Bullet": {
    "$type": "ConfigGadget",
    "common": {
      "effectAttachShape": {
        "$type": "ConfigEffectAttachBox",
        "scaleX": 0.5,
        "scaleY": 0.5
      }
    },
    "combat": {
      "property": {
        "useCreatorProperty": true,
        "isInvincible": true,
        "ignorePurgeRate": false
      },
      "combatLock": {
        "lockShape": "CircleLockEnemy",
        "denyLockOn": true,
        "lockType": "Default"
      }
    },
    "attackAttenuation": "",
    "abilities": [
      {
        "abilityID": "",
        "abilityName": "Fungus_Deux_BVB_Fire_FlameFountain_Gadget",
        "abilityOverride": ""
      }
    ],
    "timer": {
      "lifeTime": 4.199999809265137
    }
  },
  "Fungus_Deux_Fire_UBPoint": {
    "$type": "ConfigGadget",
    "common": {
      "effectAttachShape": {
        "$type": "ConfigEffectAttachBox",
        "scaleX": 0.5,
        "scaleY": 0.5
      }
    },
    "combat": {
      "property": {
        "useCreatorProperty": true,
        "isInvincible": true,
        "ignorePurgeRate": false
      },
      "combatLock": {
        "lockShape": "CircleLockEnemy",
        "denyLockOn": true,
        "lockType": "Default"
      }
    },
    "attackAttenuation": "",
    "abilities": [
      {
        "abilityID": "",
        "abilityName": "Fungus_Deux_BVB_Fire_FireBomb_Gadget",
        "abilityOverride": ""
      }
    ],
    "timer": {
      "lifeTime": 5.0
    }
  },
  "Fungus_Un_Water_Bullet": {
    "$type": "ConfigGadget",
    "common": {
      "effectAttachShape": {
        "$type": "ConfigEffectAttachBox",
        "scaleZ": 0.4000000059604645
      }
    },
    "combat": {
      "property": {
        "useCreatorProperty": true,
        "isInvincible": true,
        "ignorePurgeRate": false
      },
      "combatLock": {
        "lockShape": "CircleLockEnemy",
        "denyLockOn": true,
        "lockType": "Default"
      }
    },
    "attackAttenuation": "",
    "abilities": [
      {
        "abilityID": "",
        "abilityName": "Fungus_Un_BVB_Water_Bullet",
        "abilityOverride": ""
      }
    ],
    "timer": {
      "lifeTime": 5.0
    },
    "move": {
      "$type": "CCONGDOMIGK",
      "speed": 9.0,
      "BKIIIOFDNJM": 270.0,
      "updateAngle": {
        "$type": "ConfigBulletMoveAngleByVelocity"
      },
      "NHIGHAGJEAI": true
    },
    "gadget": {
      "$type": "ConfigBulletPattern",
      "collision": {
        "targetType": "Enemy"
      },
      "triggerActions": [
        {
          "$type": "ConfigGadgetTriggerAbility",
          "abilityName": "Fungus_Un_BVB_Water_Bullet"
        }
      ],
      "HOCNBGDGGPK": [
        {
          "$type": "ConfigGadgetTriggerAbility",
          "abilityName": "Fungus_Un_BVB_Water_Bullet"
        }
      ]
    }
  },
  "Fungus_Un_Water_Bubble": {
    "$type": "ConfigGadget",
    "common": {
      "effectAttachShape": {
        "$type": "ConfigEffectAttachBox",
        "scaleZ": 0.4000000059604645
      }
    },
    "combat": {
      "property": {
        "useCreatorProperty": true,
        "isInvincible": true,
        "ignorePurgeRate": false
      },
      "combatLock": {
        "lockShape": "CircleLockEnemy",
        "denyLockOn": true,
        "lockType": "Default"
      }
    },
    "attackAttenuation": "",
    "abilities": [
      {
        "abilityID": "",
        "abilityName": "Fungus_Un_BVB_Water_Bubble_Surrounding",
        "abilityOverride": ""
      },
      {
        "abilityID": "",
        "abilityName": "Fungus_Un_BVB_Water_Bubble",
        "abilityOverride": ""
      }
    ],
    "timer": {
      "lifeTime": 8.0
    },
    "move": {
      "$type": "CCONGDOMIGK",
      "speed": 4.0,
      "BKIIIOFDNJM": 120.0,
      "updateAngle": {
        "$type": "ConfigBulletMoveAngleByVelocity"
      },
      "NHIGHAGJEAI": true
    },
    "gadget": {
      "$type": "ConfigBulletPattern",
      "collision": {
        "targetType": "Enemy"
      },
      "triggerActions": [
        {
          "$type": "ConfigGadgetTriggerAbility",
          "abilityName": "Fungus_Un_BVB_Water_Bubble"
        },
        {
          "$type": "ConfigGadgetTriggerAbility",
          "abilityName": "Fungus_Un_BVB_Water_Bubble_Surrounding"
        }
      ],
      "HOCNBGDGGPK": [
        {
          "$type": "ConfigGadgetTriggerAbility",
          "abilityName": "Fungus_Un_BVB_Water_Bubble"
        }
      ]
    }
  },
  "Fungus_Un_Water_UBPoint": {
    "$type": "ConfigGadget",
    "combat": {
      "property": {
        "useCreatorProperty": true,
        "isInvincible": true,
        "denyElementStick": true,
        "ignorePurgeRate": false
      },
      "combatLock": {
        "lockShape": "CircleLockEnemy",
        "denyLockOn": true,
        "lockType": "Default"
      }
    },
    "attackAttenuation": "",
    "abilities": [
      {
        "abilityID": "",
        "abilityName": "Fungus_Un_BVB_Water_SprayBlooming_Gadget",
        "abilityOverride": ""
      }
    ],
    "timer": {
      "lifeTime": 3.0
    }
  },
  "Fungus_Un_Water_SuperWaterBullet": {
    "$type": "ConfigGadget",
    "common": {
      "effectAttachShape": {
        "$type": "ConfigEffectAttachBox",
        "scaleZ": 0.4000000059604645
      }
    },
    "combat": {
      "property": {
        "useCreatorProperty": true,
        "isInvincible": true,
        "ignorePurgeRate": false
      },
      "combatLock": {
        "lockShape": "CircleLockEnemy",
        "denyLockOn": true,
        "lockType": "Default"
      }
    },
    "attackAttenuation": "",
    "abilities": [
      {
        "abilityID": "",
        "abilityName": "Fungus_Un_BVB_Water_SuperWaterBullet",
        "abilityOverride": ""
      }
    ],
    "timer": {
      "lifeTime": 5.0
    },
    "move": {
      "$type": "CCONGDOMIGK",
      "speed": 9.0,
      "BKIIIOFDNJM": 270.0,
      "updateAngle": {
        "$type": "ConfigBulletMoveAngleByVelocity"
      },
      "NHIGHAGJEAI": true
    },
    "gadget": {
      "$type": "ConfigBulletPattern",
      "collision": {
        "targetType": "Enemy"
      },
      "triggerActions": [
        {
          "$type": "ConfigGadgetTriggerAbility",
          "abilityName": "Fungus_Un_BVB_Water_SuperWaterBullet"
        }
      ],
      "HOCNBGDGGPK": [
        {
          "$type": "ConfigGadgetTriggerAbility",
          "abilityName": "Fungus_Un_BVB_Water_SuperWaterBullet"
        }
      ]
    }
  },
  "Fungus_Deux_Electro_Bullet": {
    "$type": "ConfigGadget",
    "common": {
      "effectAttachShape": {
        "$type": "ConfigEffectAttachBox",
        "scaleZ": 0.4000000059604645
      }
    },
    "combat": {
      "property": {
        "useCreatorProperty": true,
        "isInvincible": true,
        "ignorePurgeRate": false
      },
      "combatLock": {
        "lockShape": "CircleLockEnemy",
        "denyLockOn": true,
        "lockType": "Default"
      }
    },
    "attackAttenuation": "",
    "abilities": [
      {
        "abilityID": "",
        "abilityName": "Fungus_Deux_BVB_Electro_Bullet",
        "abilityOverride": ""
      }
    ],
    "timer": {
      "lifeTime": 4.0
    },
    "move": {
      "$type": "CCONGDOMIGK",
      "speed": 6.599999904632568,
      "maxSpeed": 10.0,
      "BKIIIOFDNJM": 240.0,
      "DNOPKNCAPAI": 1.0,
      "EKADLHFHLED": 4.0,
      "canBornInWater": true,
      "updateAngle": {
        "$type": "ConfigBulletMoveAngleByVelocity"
      },
      "NHIGHAGJEAI": true
    },
    "gadget": {
      "$type": "ConfigBulletPattern",
      "collision": {
        "targetType": "Enemy"
      },
      "triggerActions": [
        {
          "$type": "ConfigGadgetTriggerAbility",
          "abilityName": "Fungus_Deux_BVB_Electro_Bullet"
        }
      ],
      "HOCNBGDGGPK": [
        {
          "$type": "ConfigGadgetTriggerAbility",
          "abilityName": "Fungus_Deux_BVB_Electro_Bullet"
        }
      ]
    }
  },
  "Fungus_Deux_Electro_ThunderPoint": {
    "$type": "ConfigGadget",
    "combat": {
      "property": {
        "useCreatorProperty": true,
        "isInvincible": true,
        "denyElementStick": true,
        "ignorePurgeRate": false
      },
      "combatLock": {
        "lockShape": "CircleLockEnemy",
        "denyLockOn": true,
        "lockType": "Default"
      }
    },
    "attackAttenuation": "",
    "abilities": [
      {
        "abilityID": "",
        "abilityName": "Fungus_Deux_BVB_Electro_ThunderStrike_Gadget",
        "abilityOverride": ""
      }
    ],
    "timer": {
      "lifeTime": 1.0
    }
  },
  "Fungus_Un_Dendro_Bullet": {
    "$type": "ConfigGadget",
    "common": {
      "effectAttachShape": {
        "$type": "ConfigEffectAttachBox",
        "scaleZ": 0.4000000059604645
      }
    },
    "combat": {
      "property": {
        "useCreatorProperty": true,
        "isInvincible": true,
        "ignorePurgeRate": false
      },
      "combatLock": {
        "lockShape": "CircleLockEnemy",
        "denyLockOn": true,
        "lockType": "Default"
      }
    },
    "attackAttenuation": "",
    "abilities": [
      {
        "abilityID": "",
        "abilityName": "Fungus_Un_BVB_Dendro_Bullet",
        "abilityOverride": ""
      }
    ],
    "timer": {
      "lifeTime": 4.0
    },
    "move": {
      "$type": "ConfigParabolaBulletMove",
      "speed": 13.0,
      "updateAngle": {
        "$type": "ConfigBulletMoveAngleByVelocity"
      },
      "angleOffHor": 12.0,
      "gravityOfAcceleration": 16.5,
      "correction": {
        "$type": "ConfigParabolaBulletMoveCorrection",
        "KIKEAFHNHJG": 0.20000000298023224,
        "fixAngleOfVer": 15.0,
        "minSpeed": 2.0
      }
    },
    "gadget": {
      "$type": "ConfigBulletPattern",
      "collision": {
        "targetType": "Enemy"
      },
      "triggerActions": [
        {
          "$type": "ConfigGadgetTriggerAbility",
          "abilityName": "Fungus_Un_BVB_Dendro_Bullet"
        }
      ],
      "HOCNBGDGGPK": [
        {
          "$type": "ConfigGadgetTriggerAbility",
          "abilityName": "Fungus_Un_BVB_Dendro_Bullet"
        }
      ],
      "KEFFAOHIMHB": true
    }
  },
  "Fungus_Un_Dendro_Bullet_UB": {
    "$type": "ConfigGadget",
    "common": {
      "effectAttachShape": {
        "$type": "ConfigEffectAttachBox",
        "scaleZ": 0.4000000059604645
      }
    },
    "combat": {
      "property": {
        "useCreatorProperty": true,
        "isInvincible": true,
        "ignorePurgeRate": false
      },
      "combatLock": {
        "lockShape": "CircleLockEnemy",
        "denyLockOn": true,
        "lockType": "Default"
      }
    },
    "attackAttenuation": "",
    "abilities": [
      {
        "abilityID": "",
        "abilityName": "Fungus_Un_BVB_Dendro_Bullet_UB",
        "abilityOverride": ""
      }
    ],
    "timer": {
      "lifeTime": 4.0
    },
    "move": {
      "$type": "ConfigParabolaBulletMove",
      "speed": 13.0,
      "updateAngle": {
        "$type": "ConfigBulletMoveAngleByVelocity"
      },
      "angleOffHor": 12.0,
      "gravityOfAcceleration": 16.5,
      "correction": {
        "$type": "ConfigParabolaBulletMoveCorrection",
        "KIKEAFHNHJG": 0.20000000298023224,
        "fixAngleOfVer": 15.0,
        "minSpeed": 2.0
      }
    },
    "gadget": {
      "$type": "ConfigBulletPattern",
      "collision": {
        "targetType": "Enemy"
      },
      "triggerActions": [
        {
          "$type": "ConfigGadgetTriggerAbility",
          "abilityName": "Fungus_Un_BVB_Dendro_Bullet_UB"
        }
      ],
      "HOCNBGDGGPK": [
        {
          "$type": "ConfigGadgetTriggerAbility",
          "abilityName": "Fungus_Un_BVB_Dendro_Bullet_UB"
        }
      ],
      "KEFFAOHIMHB": true
    }
  },
  "Fungus_Un_Dendro_Plant": {
    "$type": "ConfigGadget",
    "common": {
      "effectAttachShape": {
        "$type": "ConfigEffectAttachBox",
        "scaleX": 0.5,
        "scaleY": 0.5
      }
    },
    "combat": {
      "property": {
        "useCreatorProperty": true,
        "isInvincible": true,
        "ignorePurgeRate": false
      },
      "combatLock": {
        "lockShape": "CircleLockEnemy",
        "denyLockOn": true,
        "lockType": "Default"
      }
    },
    "attackAttenuation": "",
    "timer": {
      "lifeTime": 9.0
    }
  }
}
