{
  "SceneObj_Gear_Other_Spiral_Abyss_Controller": {
    "$type": "ConfigGadget",
    "combat": {
      "property": {
        "HP": 10000.0,
        "attack": 30.0,
        "isLockHP": true,
        "canTriggerBullet": true,
        "denyElementStick": true,
        "OEPGABDDCHI": true
      },
      "beHit": {
        "hitBloodEffect": "",
        "hitAutoRedirect": false,
        "muteAllHitEffect": true
      },
      "combatLock": {
        "lockShape": "CircleLockEnemy",
        "denyLockOn": true,
        "lockType": "Gadget_Lv1"
      },
      "die": {
        "dieEndTime": 3.0,
        "dieForceDisappearTime": 3.0,
        "dieDisappearEffect": "",
        "dieModelFadeDelay": 2.0
      }
    },
    "attackAttenuation": "",
    "abilities": [
      {
        "abilityID": "Ability_01",
        "abilityName": "SceneObj_Gear_Other_Spiral_Abyss_Controller",
        "abilityOverride": ""
      }
    ]
  },
  "SceneObj_Gear_Other_Spiral_Abyss_Ball_Controller": {
    "$type": "ConfigGadget",
    "combat": {
      "property": {
        "HP": 10000.0,
        "attack": 30.0,
        "isLockHP": true,
        "canTriggerBullet": true,
        "denyElementStick": true,
        "OEPGABDDCHI": true
      },
      "beHit": {
        "hitBloodEffect": "",
        "hitAutoRedirect": false,
        "muteAllHitEffect": true
      },
      "combatLock": {
        "lockShape": "CircleLockEnemy",
        "denyLockOn": true,
        "lockType": "Gadget_Lv1"
      },
      "die": {
        "dieEndTime": 3.0,
        "dieForceDisappearTime": 3.0,
        "dieDisappearEffect": "",
        "dieModelFadeDelay": 2.0
      }
    },
    "attackAttenuation": "",
    "abilities": [
      {
        "abilityID": "Ability_01",
        "abilityName": "SceneObj_Gear_Other_Spiral_Abyss_Ball_Controller",
        "abilityOverride": ""
      }
    ]
  },
  "SceneObj_Gear_Other_Spiral_Abyss_Charge": {
    "$type": "ConfigGadget",
    "combat": {
      "property": {
        "HP": 10000.0,
        "attack": 30.0,
        "isLockHP": true,
        "canTriggerBullet": true,
        "denyElementStick": true,
        "OEPGABDDCHI": true
      },
      "beHit": {
        "hitBloodEffect": "",
        "hitAutoRedirect": false,
        "muteAllHitEffect": true
      },
      "combatLock": {
        "lockShape": "CircleLockEnemy",
        "denyLockOn": true,
        "lockType": "Gadget_Lv1"
      },
      "die": {
        "dieEndTime": 3.0,
        "dieForceDisappearTime": 3.0,
        "dieDisappearEffect": "",
        "dieModelFadeDelay": 2.0
      }
    },
    "attackAttenuation": "",
    "abilities": [
      {
        "abilityID": "Ability_01",
        "abilityName": "SceneObj_Gear_Other_Spiral_Abyss_Charge",
        "abilityOverride": ""
      }
    ],
    "field": {
      "concernType": "AllAvatars",
      "shape": "CircleR4",
      "DEOHMEELJDM": "",
      "triggerInfinite": true,
      "lifeInfinite": true,
      "checkInterval": 0.5,
      "overwriteCampType": true,
      "campType": "All",
      "INKADPFABPA": "",
      "AAHHPDHLLLH": ""
    }
  },
  "SceneObj_Gear_Other_Spiral_Abyss_AttackSpeed": {
    "$type": "ConfigGadget",
    "combat": {
      "property": {
        "HP": 10000.0,
        "attack": 30.0,
        "isLockHP": true,
        "canTriggerBullet": true,
        "denyElementStick": true,
        "OEPGABDDCHI": true
      },
      "beHit": {
        "hitBloodEffect": "",
        "hitAutoRedirect": false,
        "muteAllHitEffect": true
      },
      "combatLock": {
        "lockShape": "CircleLockEnemy",
        "denyLockOn": true,
        "lockType": "Gadget_Lv1"
      },
      "die": {
        "dieEndTime": 3.0,
        "dieForceDisappearTime": 3.0,
        "dieDisappearEffect": "",
        "dieModelFadeDelay": 2.0
      }
    },
    "attackAttenuation": "",
    "abilities": [
      {
        "abilityID": "Ability_01",
        "abilityName": "SceneObj_Gear_Other_Spiral_Abyss_AttackSpeed",
        "abilityOverride": ""
      }
    ],
    "field": {
      "concernType": "AllAvatars",
      "shape": "CircleR4",
      "DEOHMEELJDM": "",
      "triggerInfinite": true,
      "lifeInfinite": true,
      "checkInterval": 0.5,
      "overwriteCampType": true,
      "campType": "All",
      "INKADPFABPA": "",
      "AAHHPDHLLLH": ""
    }
  },
  "SceneObj_Gear_Other_Spiral_Abyss_ShieldUp": {
    "$type": "ConfigGadget",
    "common": {
      "viewSize": 1.7999999523162842
    },
    "combat": {
      "property": {
        "HP": 10000.0,
        "attack": 30.0,
        "isLockHP": true,
        "canTriggerBullet": true,
        "denyElementStick": true,
        "OEPGABDDCHI": true
      },
      "beHit": {
        "hitBloodEffect": "",
        "hitAutoRedirect": false,
        "muteAllHitEffect": true
      },
      "combatLock": {
        "lockShape": "CircleLockEnemy",
        "denyLockOn": true,
        "lockType": "Gadget_Lv1"
      },
      "die": {
        "dieEndTime": 3.0,
        "dieForceDisappearTime": 3.0,
        "dieDisappearEffect": "",
        "dieModelFadeDelay": 2.0
      }
    },
    "attackAttenuation": "",
    "abilities": [
      {
        "abilityID": "Ability_01",
        "abilityName": "SceneObj_Gear_Other_Spiral_Abyss_ShieldUp",
        "abilityOverride": ""
      }
    ],
    "field": {
      "concernType": "AllAvatars",
      "shape": "CircleR7_5",
      "DEOHMEELJDM": "",
      "triggerInfinite": true,
      "lifeInfinite": true,
      "checkInterval": 0.5,
      "overwriteCampType": true,
      "campType": "All",
      "INKADPFABPA": "",
      "AAHHPDHLLLH": ""
    }
  },
  "SceneObj_Gear_Other_Spiral_Abyss_CostReduce": {
    "$type": "ConfigGadget",
    "common": {
      "viewSize": 1.7999999523162842
    },
    "combat": {
      "property": {
        "HP": 10000.0,
        "attack": 30.0,
        "isLockHP": true,
        "canTriggerBullet": true,
        "denyElementStick": true,
        "OEPGABDDCHI": true
      },
      "beHit": {
        "hitBloodEffect": "",
        "hitAutoRedirect": false,
        "muteAllHitEffect": true
      },
      "combatLock": {
        "lockShape": "CircleLockEnemy",
        "denyLockOn": true,
        "lockType": "Gadget_Lv1"
      },
      "die": {
        "dieEndTime": 3.0,
        "dieForceDisappearTime": 3.0,
        "dieDisappearEffect": "",
        "dieModelFadeDelay": 2.0
      }
    },
    "attackAttenuation": "",
    "abilities": [
      {
        "abilityID": "Ability_01",
        "abilityName": "SceneObj_Gear_Other_Spiral_Abyss_CostReduce",
        "abilityOverride": ""
      }
    ],
    "field": {
      "concernType": "AllAvatars",
      "shape": "CircleR7_5",
      "DEOHMEELJDM": "",
      "triggerInfinite": true,
      "lifeInfinite": true,
      "checkInterval": 0.5,
      "overwriteCampType": true,
      "campType": "All",
      "INKADPFABPA": "",
      "AAHHPDHLLLH": ""
    }
  },
  "SceneObj_Gear_Other_Spiral_Abyss_Ball_AttackUp": {
    "$type": "ConfigGadget",
    "combat": {
      "property": {
        "useCreatorProperty": true,
        "HP": 10000.0,
        "attack": 30.0,
        "isLockHP": true,
        "canTriggerBullet": true,
        "denyElementStick": true,
        "OEPGABDDCHI": true
      },
      "beHit": {
        "hitBloodEffect": "",
        "hitAutoRedirect": false,
        "muteAllHitEffect": true
      },
      "combatLock": {
        "lockShape": "CircleLockEnemy",
        "denyLockOn": true,
        "lockType": "Gadget_Lv1"
      },
      "die": {
        "dieForceDisappearTime": 0.30000001192092896,
        "dieDisappearEffect": ""
      }
    },
    "attackAttenuation": "",
    "abilities": [
      {
        "abilityID": "Ability_01",
        "abilityName": "SceneObj_Gear_Other_Spiral_Abyss_Ball_AttackUp",
        "abilityOverride": ""
      }
    ],
    "field": {
      "concernType": "AllAvatars",
      "shape": "CircleR2",
      "DEOHMEELJDM": "",
      "triggerInfinite": true,
      "lifeInfinite": true,
      "checkInterval": 0.5,
      "overwriteCampType": true,
      "campType": "All",
      "INKADPFABPA": "",
      "AAHHPDHLLLH": ""
    }
  },
  "SceneObj_Gear_Other_Spiral_Abyss_Ball_Heal": {
    "$type": "ConfigGadget",
    "combat": {
      "property": {
        "useCreatorProperty": true,
        "HP": 10000.0,
        "attack": 30.0,
        "isLockHP": true,
        "canTriggerBullet": true,
        "denyElementStick": true,
        "OEPGABDDCHI": true
      },
      "beHit": {
        "hitBloodEffect": "",
        "hitAutoRedirect": false,
        "muteAllHitEffect": true
      },
      "combatLock": {
        "lockShape": "CircleLockEnemy",
        "denyLockOn": true,
        "lockType": "Gadget_Lv1"
      },
      "die": {
        "dieForceDisappearTime": 0.30000001192092896,
        "dieDisappearEffect": ""
      }
    },
    "attackAttenuation": "",
    "abilities": [
      {
        "abilityID": "Ability_01",
        "abilityName": "SceneObj_Gear_Other_Spiral_Abyss_Ball_Heal",
        "abilityOverride": ""
      }
    ],
    "field": {
      "concernType": "AllAvatars",
      "shape": "CircleR2",
      "DEOHMEELJDM": "",
      "triggerInfinite": true,
      "lifeInfinite": true,
      "checkInterval": 0.5,
      "overwriteCampType": true,
      "campType": "All",
      "INKADPFABPA": "",
      "AAHHPDHLLLH": ""
    }
  },
  "SceneObj_Gear_Other_Spiral_Abyss_Ball_SpeedUp": {
    "$type": "ConfigGadget",
    "combat": {
      "property": {
        "useCreatorProperty": true,
        "HP": 10000.0,
        "attack": 30.0,
        "isLockHP": true,
        "canTriggerBullet": true,
        "denyElementStick": true,
        "OEPGABDDCHI": true
      },
      "beHit": {
        "hitBloodEffect": "",
        "hitAutoRedirect": false,
        "muteAllHitEffect": true
      },
      "combatLock": {
        "lockShape": "CircleLockEnemy",
        "denyLockOn": true,
        "lockType": "Gadget_Lv1"
      },
      "die": {
        "dieForceDisappearTime": 0.30000001192092896,
        "dieDisappearEffect": ""
      }
    },
    "attackAttenuation": "",
    "abilities": [
      {
        "abilityID": "Ability_01",
        "abilityName": "SceneObj_Gear_Other_Spiral_Abyss_Ball_SpeedUp",
        "abilityOverride": ""
      }
    ],
    "field": {
      "concernType": "AllAvatars",
      "shape": "CircleR2",
      "DEOHMEELJDM": "",
      "triggerInfinite": true,
      "lifeInfinite": true,
      "checkInterval": 0.5,
      "overwriteCampType": true,
      "campType": "All",
      "INKADPFABPA": "",
      "AAHHPDHLLLH": ""
    }
  },
  "SceneObj_Gear_Other_Spiral_Abyss_Ball_DefenceUp": {
    "$type": "ConfigGadget",
    "combat": {
      "property": {
        "useCreatorProperty": true,
        "HP": 10000.0,
        "attack": 30.0,
        "isLockHP": true,
        "canTriggerBullet": true,
        "denyElementStick": true,
        "OEPGABDDCHI": true
      },
      "beHit": {
        "hitBloodEffect": "",
        "hitAutoRedirect": false,
        "muteAllHitEffect": true
      },
      "combatLock": {
        "lockShape": "CircleLockEnemy",
        "denyLockOn": true,
        "lockType": "Gadget_Lv1"
      },
      "die": {
        "dieForceDisappearTime": 0.30000001192092896,
        "dieDisappearEffect": ""
      }
    },
    "attackAttenuation": "",
    "abilities": [
      {
        "abilityID": "Ability_01",
        "abilityName": "SceneObj_Gear_Other_Spiral_Abyss_Ball_DefenceUp",
        "abilityOverride": ""
      }
    ],
    "field": {
      "concernType": "AllAvatars",
      "shape": "CircleR2",
      "DEOHMEELJDM": "",
      "triggerInfinite": true,
      "lifeInfinite": true,
      "checkInterval": 0.5,
      "overwriteCampType": true,
      "campType": "All",
      "INKADPFABPA": "",
      "AAHHPDHLLLH": ""
    }
  },
  "SceneObj_Gear_Spiral_Abyss_Water_RainController": {
    "$type": "ConfigGadget",
    "combat": {
      "property": {
        "HP": 300.0,
        "attack": 10.0,
        "isLockHP": true,
        "canTriggerBullet": true,
        "denyElementStick": true,
        "OEPGABDDCHI": true
      },
      "beHit": {
        "hitBloodEffect": "",
        "hitAutoRedirect": false,
        "muteAllHitEffect": true
      },
      "combatLock": {
        "lockShape": "CircleLockEnemy",
        "denyLockOn": true,
        "lockType": "Gadget_Lv1"
      },
      "die": {
        "dieEndTime": 0.10000000149011612,
        "dieForceDisappearTime": 0.10000000149011612,
        "dieDisappearEffect": ""
      }
    },
    "attackAttenuation": "",
    "abilities": [
      {
        "abilityID": "SceneObj_Gear_Spiral_Abyss_Water_RainController",
        "abilityName": "SceneObj_Gear_Spiral_Abyss_Water_RainController",
        "abilityOverride": ""
      }
    ],
    "billboard": {
      "$type": "NCBABGPMMPL",
      "EBBHBMFMOGD": "RootNode",
      "offset": {
        "y": 0.5
      },
      "radiusOffset": 3.0,
      "showDistance": 48.0,
      "ANGKJBLILKJ": true
    }
  },
  "SceneObj_Gear_Spiral_Abyss_Water_HealArea": {
    "$type": "ConfigGadget",
    "combat": {
      "property": {
        "HP": 300.0,
        "attack": 10.0,
        "isLockHP": true,
        "canTriggerBullet": true,
        "denyElementStick": true,
        "OEPGABDDCHI": true
      },
      "beHit": {
        "hitBloodEffect": "",
        "hitAutoRedirect": false,
        "muteAllHitEffect": true
      },
      "combatLock": {
        "lockShape": "CircleLockEnemy",
        "denyLockOn": true,
        "lockType": "Gadget_Lv1"
      },
      "die": {
        "dieEndTime": 0.10000000149011612,
        "dieForceDisappearTime": 0.10000000149011612,
        "dieDisappearEffect": ""
      }
    },
    "attackAttenuation": "",
    "abilities": [
      {
        "abilityID": "SceneObj_Gear_Spiral_Abyss_Water_HealArea",
        "abilityName": "SceneObj_Gear_Spiral_Abyss_Water_HealArea",
        "abilityOverride": ""
      }
    ]
  },
  "SceneObj_Gear_Spiral_Abyss_FireController": {
    "$type": "ConfigGadget",
    "combat": {
      "property": {
        "HP": 1000.0,
        "attack": 30.0,
        "isLockHP": true,
        "canTriggerBullet": true,
        "denyElementStick": true,
        "OEPGABDDCHI": true
      },
      "beHit": {
        "hitBloodEffect": "",
        "hitAutoRedirect": false,
        "muteAllHitEffect": true
      },
      "combatLock": {
        "lockShape": "CircleLockEnemy",
        "denyLockOn": true,
        "lockType": "Gadget_Lv1"
      },
      "die": {
        "dieForceDisappearTime": 0.30000001192092896,
        "dieDisappearEffect": ""
      }
    },
    "attackAttenuation": "",
    "abilities": [
      {
        "abilityID": "Ability_01",
        "abilityName": "SceneObj_Gear_Spiral_Abyss_FireController",
        "abilityOverride": ""
      }
    ]
  },
  "SceneObj_Gear_Spiral_Abyss_WaterController": {
    "$type": "ConfigGadget",
    "combat": {
      "property": {
        "HP": 1000.0,
        "attack": 30.0,
        "isLockHP": true,
        "canTriggerBullet": true,
        "denyElementStick": true,
        "OEPGABDDCHI": true
      },
      "beHit": {
        "hitBloodEffect": "",
        "hitAutoRedirect": false,
        "muteAllHitEffect": true
      },
      "combatLock": {
        "lockShape": "CircleLockEnemy",
        "denyLockOn": true,
        "lockType": "Gadget_Lv1"
      },
      "die": {
        "dieForceDisappearTime": 0.30000001192092896,
        "dieDisappearEffect": ""
      }
    },
    "attackAttenuation": "",
    "abilities": [
      {
        "abilityID": "Ability_01",
        "abilityName": "SceneObj_Gear_Spiral_Abyss_WaterController",
        "abilityOverride": ""
      }
    ]
  },
  "SceneObj_Gear_Spiral_Abyss_IceController": {
    "$type": "ConfigGadget",
    "combat": {
      "property": {
        "HP": 1000.0,
        "attack": 30.0,
        "isLockHP": true,
        "canTriggerBullet": true,
        "denyElementStick": true,
        "OEPGABDDCHI": true
      },
      "beHit": {
        "hitBloodEffect": "",
        "hitAutoRedirect": false,
        "muteAllHitEffect": true
      },
      "combatLock": {
        "lockShape": "CircleLockEnemy",
        "denyLockOn": true,
        "lockType": "Gadget_Lv1"
      },
      "die": {
        "dieForceDisappearTime": 0.30000001192092896,
        "dieDisappearEffect": ""
      }
    },
    "attackAttenuation": "",
    "abilities": [
      {
        "abilityID": "Ability_01",
        "abilityName": "SceneObj_Gear_Spiral_Abyss_IceController",
        "abilityOverride": ""
      }
    ]
  },
  "SceneObj_Gear_Spiral_Abyss_DropIce": {
    "$type": "ConfigGadget",
    "common": {
      "effectAttachShape": {
        "$type": "ConfigEffectAttachBox"
      }
    },
    "combat": {
      "property": {
        "useCreatorProperty": true,
        "HP": 99999.0,
        "attack": 20.0,
        "weight": 50.0,
        "isLockHP": true
      },
      "beHit": {
        "hitBloodEffect": "",
        "muteAllHit": true,
        "muteAllHitEffect": true,
        "muteAllHitText": true
      },
      "combatLock": {
        "lockShape": "CircleLockEnemy",
        "denyLockOn": true,
        "lockType": "Gadget_Lv1"
      },
      "die": {
        "dieEndTime": 0.009999999776482582,
        "dieDisappearEffect": ""
      }
    },
    "attackAttenuation": "",
    "abilities": [
      {
        "abilityID": "Ability_01",
        "abilityName": "SceneObj_Gear_Spiral_Abyss_DropIce",
        "abilityOverride": ""
      }
    ],
    "move": {
      "$type": "ConfigLinerBulletMove",
      "speed": 5.0,
      "DNOPKNCAPAI": 10.0
    },
    "gadget": {
      "$type": "ConfigBulletPattern",
      "collision": {
        "triggerType": "TriggerNoRepeat",
        "targetType": "Alliance"
      },
      "triggerActions": [
        {
          "$type": "ConfigGadgetTriggerAbility",
          "abilityName": "SceneObj_Gear_Spiral_Abyss_DropIce"
        }
      ]
    }
  },
  "SceneObj_Gear_Spiral_Abyss_ElectricController": {
    "$type": "ConfigGadget",
    "combat": {
      "property": {
        "HP": 1000.0,
        "attack": 30.0,
        "isLockHP": true,
        "canTriggerBullet": true,
        "denyElementStick": true,
        "OEPGABDDCHI": true
      },
      "beHit": {
        "hitBloodEffect": "",
        "hitAutoRedirect": false,
        "muteAllHitEffect": true
      },
      "combatLock": {
        "lockShape": "CircleLockEnemy",
        "denyLockOn": true,
        "lockType": "Gadget_Lv1"
      },
      "die": {
        "dieForceDisappearTime": 0.30000001192092896,
        "dieDisappearEffect": ""
      }
    },
    "attackAttenuation": "",
    "abilities": [
      {
        "abilityID": "Ability_01",
        "abilityName": "SceneObj_Gear_Spiral_Abyss_ElectricController",
        "abilityOverride": ""
      }
    ]
  },
  "SceneObj_Gear_Spiral_Abyss_ThunderBall": {
    "$type": "ConfigGadget",
    "combat": {
      "property": {
        "useCreatorProperty": true,
        "HP": 10000.0,
        "attack": 30.0,
        "isLockHP": true,
        "canTriggerBullet": true,
        "OEPGABDDCHI": true
      },
      "beHit": {
        "hitBloodEffect": "",
        "hitAutoRedirect": false,
        "muteAllHitEffect": true
      },
      "combatLock": {
        "lockShape": "CircleLockEnemy",
        "denyLockOn": true,
        "lockType": "Gadget_Lv1"
      },
      "die": {
        "dieForceDisappearTime": 0.30000001192092896,
        "dieDisappearEffect": ""
      }
    },
    "attackAttenuation": "",
    "abilities": [
      {
        "abilityID": "Ability_01",
        "abilityName": "SceneObj_Gear_Spiral_Abyss_ThunderBall",
        "abilityOverride": ""
      }
    ]
  },
  "SceneObj_Gear_Spiral_Abyss_AncientHeatSource": {
    "$type": "ConfigGadget",
    "common": {
      "affectedByWorld": true
    },
    "hasModel": true,
    "combat": {
      "property": {
        "HP": 99999.0,
        "attack": 20.0,
        "weight": 50.0,
        "isLockHP": true,
        "FBCDFHECDNM": true
      },
      "beHit": {
        "hitBloodEffect": "",
        "hitAutoRedirect": false,
        "muteAllHitText": true
      },
      "combatLock": {
        "lockShape": "CircleLockEnemy",
        "denyLockOn": true,
        "lockType": "Gadget_Lv1"
      }
    },
    "attackAttenuation": "",
    "abilities": [
      {
        "abilityID": "SceneObj_Gear_Spiral_Abyss_AncientHeatSource",
        "abilityName": "SceneObj_Gear_Spiral_Abyss_AncientHeatSource",
        "abilityOverride": ""
      }
    ],
    "stateLayers": {
      "defaultLayer": {
        "$type": "ConfigNormalStateLayer",
        "FNPGDAEJAPJ": "",
        "stateIDs": {
          "IdleEffect": {
            "$type": "ConfigNormalStateIDInfo",
            "animatorStates": {
              "ActiveIdle": [],
              "ActiveIdleLimited": []
            }
          },
          "Warm": {
            "$type": "ConfigNormalStateIDInfo",
            "animatorStates": {
              "Active": [],
              "Active2Deactive": []
            }
          },
          "Lock": {
            "$type": "ConfigNormalStateIDInfo",
            "animatorStates": {
              "Lock": []
            }
          }
        }
      }
    },
    "gadgetAction": {
      "gadgetStateActionList": [
        {
          "$type": "ConfigGadgetStateSetAnimInt",
          "intID": "State",
          "syncState": true
        }
      ]
    }
  },
  "SceneObj_Gear_Spiral_Abyss_IceStormR25": {
    "$type": "ConfigGadget",
    "common": {
      "affectedByWorld": true
    },
    "model": {
      "bornEffect": "",
      "attachEffect": "Eff_SceneObj_IceStormR25_01"
    },
    "hasModel": true,
    "combat": {
      "property": {
        "HP": 99999.0,
        "attack": 20.0,
        "weight": 50.0,
        "isLockHP": true,
        "FBCDFHECDNM": true
      },
      "beHit": {
        "hitBloodEffect": "",
        "hitAutoRedirect": false,
        "muteAllHitText": true
      },
      "combatLock": {
        "lockShape": "CircleLockEnemy",
        "denyLockOn": true,
        "lockType": "Gadget_Lv1"
      }
    },
    "attackAttenuation": "",
    "abilities": [
      {
        "abilityID": "SceneObj_Gear_Spiral_Abyss_IceStormR25",
        "abilityName": "SceneObj_Gear_Spiral_Abyss_IceStormR25",
        "abilityOverride": ""
      }
    ],
    "field": {
      "concernType": "AllAvatars",
      "shape": "CircleR25",
      "DEOHMEELJDM": "",
      "triggerInfinite": true,
      "lifeInfinite": true,
      "checkInterval": 0.5,
      "overwriteCampType": true,
      "campType": "All",
      "INKADPFABPA": "",
      "AAHHPDHLLLH": ""
    },
    "gadgetAction": {
      "gadgetStateActionList": [
        {
          "$type": "OGIHKHEILGO",
          "parameter": "gadgetState",
          "type": "Int",
          "healLimitedByCasterMaxHPRatio": "Eff_SceneObj_IceStormR25_01"
        },
        {
          "$type": "OGIHKHEILGO",
          "LBDKLEDDLHH": "GearStop",
          "parameter": "gadgetState",
          "type": "Int",
          "value": 202,
          "healLimitedByCasterMaxHPRatio": "Eff_SceneObj_IceStormR25_01"
        }
      ]
    }
  },
  "SceneObj_Gear_Spiral_Abyss_IceStormR30": {
    "$type": "ConfigGadget",
    "common": {
      "affectedByWorld": true
    },
    "model": {
      "bornEffect": "",
      "attachEffect": "Eff_SceneObj_IceStormR25_01"
    },
    "hasModel": true,
    "combat": {
      "property": {
        "HP": 99999.0,
        "attack": 20.0,
        "weight": 50.0,
        "isLockHP": true,
        "FBCDFHECDNM": true
      },
      "beHit": {
        "hitBloodEffect": "",
        "hitAutoRedirect": false,
        "muteAllHitText": true
      },
      "combatLock": {
        "lockShape": "CircleLockEnemy",
        "denyLockOn": true,
        "lockType": "Gadget_Lv1"
      }
    },
    "attackAttenuation": "",
    "abilities": [
      {
        "abilityID": "SceneObj_Gear_Spiral_Abyss_IceStormR25",
        "abilityName": "SceneObj_Gear_Spiral_Abyss_IceStormR25",
        "abilityOverride": ""
      }
    ],
    "field": {
      "concernType": "AllAvatars",
      "shape": "CircleR30",
      "DEOHMEELJDM": "",
      "triggerInfinite": true,
      "lifeInfinite": true,
      "checkInterval": 0.5,
      "overwriteCampType": true,
      "campType": "All",
      "INKADPFABPA": "",
      "AAHHPDHLLLH": ""
    },
    "gadgetAction": {
      "gadgetStateActionList": [
        {
          "$type": "OGIHKHEILGO",
          "parameter": "gadgetState",
          "type": "Int",
          "healLimitedByCasterMaxHPRatio": "Eff_SceneObj_IceStormR25_01"
        },
        {
          "$type": "OGIHKHEILGO",
          "LBDKLEDDLHH": "GearStop",
          "parameter": "gadgetState",
          "type": "Int",
          "value": 202,
          "healLimitedByCasterMaxHPRatio": "Eff_SceneObj_IceStormR25_01"
        }
      ]
    }
  },
  "SceneObj_Gear_Spiral_Abyss_FireSeelie": {
    "$type": "ConfigGadget",
    "common": {
      "disableTickDistance": 1500.0
    },
    "combat": {
      "property": {
        "HP": 1000.0,
        "attack": 100.0,
        "weight": 50.0,
        "isLockHP": true
      },
      "beHit": {
        "hitBloodEffect": "",
        "hitAutoRedirect": false,
        "muteAllHitEffect": true,
        "muteAllHitText": true
      },
      "combatLock": {
        "lockShape": "CircleLockEnemy",
        "denyLockOn": true,
        "lockType": "Gadget_Lv1"
      },
      "die": {
        "hasAnimatorDie": true,
        "dieEndTime": 0.5,
        "dieForceDisappearTime": 0.5,
        "dieDisappearEffect": ""
      }
    },
    "attackAttenuation": "",
    "abilities": [
      {
        "abilityID": "ability_01",
        "abilityName": "SceneObj_Gear_Spiral_Abyss_FireSeelie",
        "abilityOverride": ""
      },
      {
        "abilityID": "Heat_Producer_Buff",
        "abilityName": "Heat_Producer_Buff_Abyss",
        "abilityOverride": ""
      }
    ],
    "move": {
      "$type": "ConfigPlatformMove",
      "FGCDBMJHMBP": 3.0
    },
    "audio": {
      "$type": "NPAHBANFLHK",
      "NCOGLLMIJGO": "",
      "animAudio": {
        "onTransitionIn": [
          {
            "currentStateName": "Move",
            "audioEvent": {
              "text": "Play_amb_sceneObj_gear_seelie_move"
            }
          }
        ],
        "onTransitionOut": [
          {
            "currentStateName": "Move",
            "audioEvent": {
              "text": "Stop_amb_sceneObj_gear_seelie_move"
            }
          }
        ]
      },
      "disableEvent": {
        "text": ""
      },
      "destroyEvent": {
        "text": ""
      }
    },
    "gadgetAction": {
      "IBAJHJPLGHI": [
        {
          "$type": "ConfigGadgetStateSetAnimInt",
          "FKGLBHAAIKI": {
            "$type": "MHDKHKGIEHK",
            "DALJCAKEDEG": true
          },
          "intID": "IsFlying",
          "value": 1
        },
        {
          "$type": "ConfigGadgetStateSetAnimInt",
          "FKGLBHAAIKI": {
            "$type": "MHDKHKGIEHK"
          },
          "intID": "IsFlying"
        }
      ]
    }
  }
}
