{
  "SceneObj_Area_Xm_Property_Ani_Flower_PlantDrawStart_01": {
    "$type": "ConfigGadget",
    "hasModel": true,
    "attackAttenuation": "default",
    "abilities": [
      {
        "abilityID": "",
        "abilityName": "SceneObj_Area_Xm_Property_Ani_Flower_PlantDrawStart_01_Ability",
        "abilityOverride": ""
      },
      {
        "abilityID": "",
        "abilityName": "Scene_RockGadget_Summon_Detect",
        "abilityOverride": ""
      }
    ],
    "field": {
      "concernType": "CombatExcludeGWGO",
      "shape": "",
      "DEOHMEELJDM": "",
      "triggerInfinite": true,
      "lifeInfinite": true,
      "overwriteCampType": true,
      "campType": "All",
      "INKADPFABPA": "",
      "AAHHPDHLLLH": ""
    },
    "gadgetAction": {
      "gadgetStateActionList": [
        {
          "$type": "ConfigGadgetStateSetAnimInt",
          "intID": "GadgetState",
          "syncState": true
        }
      ]
    }
  },
  "SceneObj_Area_Xm_Property_Ani_Flower_PlantDraw_01": {
    "$type": "ConfigGadget",
    "hasModel": true,
    "attackAttenuation": "default",
    "abilities": [
      {
        "abilityID": "",
        "abilityName": "SceneObj_Area_Xm_Property_Ani_Flower_PlantDraw_01_Ability",
        "abilityOverride": ""
      },
      {
        "abilityID": "",
        "abilityName": "Scene_RockGadget_Summon_Detect",
        "abilityOverride": ""
      }
    ],
    "field": {
      "concernType": "CombatExcludeGWGO",
      "shape": "",
      "DEOHMEELJDM": "",
      "triggerInfinite": true,
      "lifeInfinite": true,
      "overwriteCampType": true,
      "campType": "All",
      "INKADPFABPA": "",
      "AAHHPDHLLLH": ""
    },
    "gadgetAction": {
      "gadgetStateActionList": [
        {
          "$type": "ConfigGadgetStateSetAnimInt",
          "intID": "GadgetState",
          "syncState": true
        }
      ]
    }
  },
  "SceneObj_Area_Xm_Property_Ani_Flower_PlantDrawTree_01": {
    "$type": "ConfigGadget",
    "hasModel": true,
    "attackAttenuation": "default",
    "abilities": [
      {
        "abilityID": "",
        "abilityName": "SceneObj_Area_Xm_Property_Ani_Flower_PlantDrawTree_01_Ability",
        "abilityOverride": ""
      },
      {
        "abilityID": "",
        "abilityName": "Scene_RockGadget_Summon_Detect",
        "abilityOverride": ""
      }
    ],
    "IHIMCPIGBOE": {
      "HCKEJPPPBKC": "TEST/TEST_Chest_Btn",
      "HJGKBIMEEEN": "UI_VANASARA_GARDEN_BUTTON",
      "LBFHIFOIOLK": "WidgetMPSupport",
      "NNIMNMFBPJB": [
        "SceneObj_Area_Xm_Property_Ani_Flower_PlantDrawTree_01_Ability"
      ],
      "icon": "",
      "NEADBBJLDAF": "",
      "OMMGBOCMAMC": "",
      "NHEGJLNIIIB": ""
    },
    "IDAKPPKIDND": {}
  },
  "SceneObj_Area_Xm_Property_Unique_PlantDraw_02": {
    "$type": "ConfigGadget",
    "attackAttenuation": "default",
    "abilities": [
      {
        "abilityID": "",
        "abilityName": "SceneObj_Area_Xm_Property_Unique_PlantDraw_02_Ability",
        "abilityOverride": ""
      }
    ],
    "gadgetAction": {
      "gadgetStateActionList": [
        {
          "$type": "ConfigGadgetStateSetAnimInt",
          "intID": "gadgetState",
          "syncState": true
        }
      ]
    }
  },
  "SceneObj_Area_Xm_Property_Ani_Prop_Whiteballet_01_Special": {
    "$type": "ConfigGadget",
    "hasModel": true,
    "attackAttenuation": "",
    "abilities": [
      {
        "abilityID": "",
        "abilityName": "SceneObj_Area_Xm_Property_Ani_Prop_Whiteballet_01_Special_Ability",
        "abilityOverride": ""
      }
    ],
    "misc": {
      "LJHHKLBGKLO": {
        "CNLKNADGPHB": "Select",
        "NHADPEGEEPN": true,
        "bornEffect": "",
        "NCDKDKPECCH": "",
        "LBJBBIMDIII": ""
      },
      "GKCEMAKIKPH": ""
    },
    "KOKIOOHIIKC": true
  },
  "SceneObj_Area_Xm_Property_Ani_Prop_XmFarm_01": {
    "$type": "ConfigGadget",
    "hasModel": true,
    "attackAttenuation": "default",
    "abilities": [
      {
        "abilityID": "",
        "abilityName": "SceneObj_Area_Xm_Property_Ani_Prop_XmFarm_01_Ability",
        "abilityOverride": ""
      }
    ],
    "IHIMCPIGBOE": {
      "HCKEJPPPBKC": "TEST/TEST_Chest_Btn",
      "HJGKBIMEEEN": "",
      "icon": "UI_Icon_Intee_PickUp",
      "NEADBBJLDAF": "",
      "OMMGBOCMAMC": "",
      "NHEGJLNIIIB": ""
    },
    "IDAKPPKIDND": {
      "BMCIBMPEDHK": 1.5
    }
  }
}
