{
  "Mimik_Ice_ForwardBullet": {
    "$type": "ConfigGadget",
    "common": {
      "effectAttachShape": {
        "$type": "ConfigEffectAttachBox",
        "scaleZ": 0.4000000059604645
      }
    },
    "combat": {
      "property": {
        "useCreatorProperty": true,
        "HP": 999999.0,
        "attack": 10.0,
        "defense": 999999.0,
        "isLockHP": true
      },
      "beHit": {
        "hitBloodEffect": "",
        "muteAllHit": true,
        "muteAllHitEffect": true,
        "muteAllHitText": true
      },
      "combatLock": {
        "lockShape": "CircleLockEnemy",
        "denyLockOn": true,
        "lockType": "Default"
      }
    },
    "attackAttenuation": "",
    "abilities": [
      {
        "abilityID": "Bullet_Loop",
        "abilityName": "Mimik_Ice_ForwardBullet_Loop",
        "abilityOverride": ""
      },
      {
        "abilityID": "Bullet_Explode",
        "abilityName": "Mimik_Ice_ForwardBullet_Explode",
        "abilityOverride": ""
      }
    ],
    "timer": {
      "lifeTime": 5.0
    },
    "move": {
      "$type": "ConfigLinerParabolaBulletMove",
      "speed": 30.0,
      "updateAngle": {
        "$type": "ConfigBulletMoveAngleByVelocity"
      },
      "straightRange": 30.0,
      "gravityOfAcceleration": 2.0,
      "airResistance": 0.5
    },
    "gadget": {
      "$type": "ConfigBulletPattern",
      "collision": {
        "targetType": "Enemy"
      },
      "triggerActions": [
        {
          "$type": "ConfigGadgetTriggerAbility",
          "abilityName": "Mimik_Ice_ForwardBullet_Explode"
        }
      ],
      "KEFFAOHIMHB": true
    }
  },
  "Mimik_Ice_ForwardCannon": {
    "$type": "ConfigGadget",
    "common": {
      "effectAttachShape": {
        "$type": "ConfigEffectAttachBox",
        "scaleZ": 0.4000000059604645
      }
    },
    "combat": {
      "property": {
        "useCreatorProperty": true,
        "HP": 999999.0,
        "attack": 10.0,
        "defense": 999999.0,
        "isInvincible": true,
        "canTriggerBullet": true,
        "denyElementStick": true,
        "ignorePurgeRate": false
      },
      "beHit": {
        "hitBloodEffect": "",
        "muteAllHit": true,
        "muteAllHitEffect": true,
        "muteAllHitText": true
      },
      "combatLock": {
        "lockShape": "CircleLockEnemy",
        "denyLockOn": true,
        "lockType": "Default"
      }
    },
    "attackAttenuation": "",
    "timer": {
      "lifeTime": 3.0
    },
    "move": {
      "$type": "ConfigLinerBulletMove",
      "speed": 60.0,
      "updateAngle": {
        "$type": "ConfigBulletMoveAngleByVelocity"
      }
    },
    "gadget": {
      "$type": "ConfigBulletPattern",
      "collision": {
        "ccd": {
          "type": "Always"
        },
        "targetType": "Enemy"
      }
    }
  },
  "Mimik_Ice_UpperMissile": {
    "$type": "ConfigGadget",
    "common": {
      "effectAttachShape": {
        "$type": "ConfigEffectAttachBox"
      },
      "scale": 1.5
    },
    "combat": {
      "property": {
        "useCreatorProperty": true,
        "canTriggerBullet": true,
        "denyElementStick": true,
        "ignorePurgeRate": false
      },
      "beHit": {
        "hitBloodEffect": "",
        "muteAllHit": true,
        "muteAllHitEffect": true,
        "muteAllHitText": true
      },
      "combatLock": {
        "lockShape": "CircleLockEnemy",
        "denyLockOn": true,
        "lockType": "Default"
      }
    },
    "attackAttenuation": "",
    "timer": {
      "lifeTime": 5.0
    },
    "move": {
      "$type": "MBCCJOEDLDO",
      "speed": 17.5,
      "BKIIIOFDNJM": 1080.0,
      "canBornInWater": true,
      "updateAngle": {
        "$type": "ConfigBulletMoveAngleByVelocity"
      },
      "BJLOMNNDFIF": 60.0,
      "JAILDGEEKLH": 0.20000000298023224,
      "DCIBKJODNJB": 1080.0,
      "MJBBAAKCDCP": 0.800000011920929
    },
    "gadget": {
      "$type": "ConfigBulletPattern",
      "collision": {
        "targetType": "Enemy"
      }
    }
  },
  "Mimik_Ice_UpperBomb": {
    "$type": "ConfigGadget",
    "common": {
      "effectAttachShape": {
        "$type": "ConfigEffectAttachBox",
        "scaleZ": 0.4000000059604645
      }
    },
    "combat": {
      "property": {
        "useCreatorProperty": true,
        "HP": 999999.0,
        "attack": 15.0,
        "defense": 999999.0,
        "isLockHP": true
      },
      "beHit": {
        "hitBloodEffect": "",
        "muteAllHit": true,
        "muteAllHitEffect": true,
        "muteAllHitText": true
      },
      "combatLock": {
        "lockShape": "CircleLockEnemy",
        "denyLockOn": true,
        "lockType": "Default"
      }
    },
    "attackAttenuation": "",
    "timer": {
      "lifeTime": 5.0
    },
    "move": {
      "$type": "CCONGDOMIGK",
      "speed": 4.800000190734863,
      "canBornInWater": true,
      "updateAngle": {
        "$type": "ConfigBulletMoveAngleByVelocity"
      },
      "NHIGHAGJEAI": true
    },
    "gadget": {
      "$type": "ConfigBulletPattern",
      "collision": {
        "targetType": "All",
        "ignoreScene": true
      },
      "KEFFAOHIMHB": true
    }
  },
  "Mimik_Attack01_Bullet01": {
    "$type": "ConfigGadget",
    "common": {
      "effectAttachShape": {
        "$type": "ConfigEffectAttachBox"
      }
    },
    "combat": {
      "property": {
        "useCreatorProperty": true,
        "HP": 999999.0,
        "attack": 10.0,
        "defense": 999999.0,
        "isInvincible": true,
        "canTriggerBullet": true,
        "denyElementStick": true
      },
      "beHit": {
        "hitBloodEffect": "",
        "muteAllHit": true,
        "muteAllHitEffect": true,
        "muteAllHitText": true
      },
      "combatLock": {
        "lockShape": "CircleLockEnemy",
        "denyLockOn": true,
        "lockType": "Default"
      }
    },
    "attackAttenuation": "",
    "abilities": [
      {
        "abilityID": "FruitMoveEffect",
        "abilityName": "Mimik_AbsorbFruit_FruitMoveEffect",
        "abilityOverride": ""
      }
    ],
    "timer": {
      "lifeTime": 1.0
    },
    "move": {
      "$type": "MBCCJOEDLDO",
      "speed": 17.5,
      "maxSpeed": 15.0,
      "minSpeed": 10.0,
      "BKIIIOFDNJM": 480.0,
      "canBornInWater": true,
      "BJLOMNNDFIF": 180.0,
      "JAILDGEEKLH": 0.11999999731779099,
      "DCIBKJODNJB": 720.0
    }
  },
  "Mimik_Ice_ForwardShootTarget": {
    "$type": "ConfigGadget",
    "combat": {
      "property": {
        "useCreatorProperty": true,
        "HP": 100.0,
        "attack": 10.0,
        "isInvincible": true,
        "denyElementStick": true
      },
      "combatLock": {
        "lockShape": "CircleLockEnemy",
        "denyLockOn": true,
        "lockType": "Default"
      }
    },
    "attackAttenuation": "",
    "abilities": [
      {
        "abilityID": "FruitMoveTarget",
        "abilityName": "Mimik_AbsorbFruit_FruitMoveTarget",
        "abilityOverride": ""
      }
    ],
    "timer": {
      "lifeTime": 15.0
    },
    "move": {
      "$type": "BHKMHNNCDMG",
      "target": "TargetEntity",
      "EBBHBMFMOGD": "Fruit",
      "offset": {
        "y": 5.0
      }
    }
  },
  "Mimik_Fire_WilloWisp": {
    "$type": "ConfigGadget",
    "common": {
      "effectAttachShape": {
        "$type": "ConfigEffectAttachBox",
        "scaleZ": 0.4000000059604645
      }
    },
    "combat": {
      "property": {
        "useCreatorProperty": true,
        "HP": 999999.0,
        "attack": 10.0,
        "defense": 999999.0,
        "isLockHP": true
      },
      "beHit": {
        "hitBloodEffect": "",
        "muteAllHit": true,
        "muteAllHitEffect": true,
        "muteAllHitText": true
      },
      "combatLock": {
        "lockShape": "CircleLockEnemy",
        "denyLockOn": true,
        "lockType": "Default"
      }
    },
    "attackAttenuation": "",
    "abilities": [
      {
        "abilityID": "Loop",
        "abilityName": "Mimik_Fire_WilloWisp_Loop",
        "abilityOverride": ""
      },
      {
        "abilityID": "Explode",
        "abilityName": "Mimik_Fire_WilloWisp_Explode",
        "abilityOverride": ""
      }
    ],
    "timer": {
      "lifeTime": 8.0
    },
    "move": {
      "$type": "MBCCJOEDLDO",
      "speed": 10.0,
      "maxSpeed": 60.0,
      "minSpeed": 6.5,
      "BKIIIOFDNJM": 165.0,
      "DNOPKNCAPAI": -10.0,
      "canBornInWater": true,
      "updateAngle": {
        "$type": "ConfigBulletMoveAngleByVelocity"
      },
      "JAILDGEEKLH": 0.10000000149011612,
      "DCIBKJODNJB": 165.0,
      "MJBBAAKCDCP": 2.0
    },
    "gadget": {
      "$type": "ConfigBulletPattern",
      "collision": {
        "targetType": "Enemy"
      },
      "triggerActions": [
        {
          "$type": "ConfigGadgetTriggerAbility",
          "abilityName": "Mimik_Fire_WilloWisp_Explode"
        }
      ],
      "HOCNBGDGGPK": [
        {
          "$type": "ConfigGadgetTriggerAbility",
          "abilityName": "Mimik_Fire_WilloWisp_Explode"
        }
      ],
      "KEFFAOHIMHB": true
    }
  },
  "Mimik_Fire_Bomb": {
    "$type": "ConfigGadget",
    "common": {
      "effectAttachShape": {
        "$type": "ConfigEffectAttachBox",
        "scaleZ": 0.4000000059604645
      }
    },
    "combat": {
      "property": {
        "useCreatorProperty": true,
        "HP": 999999.0,
        "attack": 15.0,
        "defense": 999999.0,
        "isLockHP": true,
        "ignorePurgeRate": false
      },
      "beHit": {
        "hitBloodEffect": "",
        "muteAllHit": true,
        "muteAllHitEffect": true,
        "muteAllHitText": true
      },
      "combatLock": {
        "lockShape": "CircleLockEnemy",
        "denyLockOn": true,
        "lockType": "Default"
      }
    },
    "attackAttenuation": "",
    "abilities": [
      {
        "abilityID": "Loop",
        "abilityName": "Monster_Mimik_Fire_Bomb_Loop",
        "abilityOverride": ""
      },
      {
        "abilityID": "Explode",
        "abilityName": "Monster_Mimik_Fire_Bomb_Explode",
        "abilityOverride": ""
      }
    ],
    "timer": {
      "lifeTime": 5.0
    },
    "move": {
      "$type": "ConfigParabolaBulletMove",
      "speed": 30.0,
      "updateAngle": {
        "$type": "ConfigBulletMoveAngleByVelocity"
      },
      "angleOffHor": 30.0,
      "gravityOfAcceleration": 15.0,
      "correction": {
        "$type": "ConfigParabolaBulletMoveCorrection",
        "KIKEAFHNHJG": 1.5,
        "fixAngleOfVer": 15.0,
        "minSpeed": 4.0,
        "maxSpeed": 24.0
      }
    },
    "gadget": {
      "$type": "ConfigBulletPattern",
      "collision": {
        "targetType": "Enemy"
      },
      "triggerActions": [
        {
          "$type": "ConfigGadgetTriggerAbility",
          "abilityName": "Monster_Mimik_Fire_Bomb_Explode"
        }
      ],
      "HOCNBGDGGPK": [
        {
          "$type": "ConfigGadgetTriggerAbility",
          "abilityName": "Monster_Mimik_Fire_Bomb_Explode"
        }
      ],
      "KEFFAOHIMHB": true
    }
  },
  "Mimik_Electric_AreaBullet": {
    "$type": "ConfigGadget",
    "common": {
      "effectAttachShape": {
        "$type": "ConfigEffectAttachBox",
        "scaleZ": 0.4000000059604645
      }
    },
    "combat": {
      "property": {
        "useCreatorProperty": true,
        "HP": 999999.0,
        "attack": 10.0,
        "defense": 999999.0,
        "isLockHP": true,
        "ignorePurgeRate": false
      },
      "beHit": {
        "hitBloodEffect": "",
        "muteAllHit": true,
        "muteAllHitEffect": true,
        "muteAllHitText": true
      },
      "combatLock": {
        "lockShape": "CircleLockEnemy",
        "denyLockOn": true,
        "lockType": "Default"
      }
    },
    "attackAttenuation": "",
    "abilities": [
      {
        "abilityID": "Hit",
        "abilityName": "Mimik_Electric_AreaBullet_Hit",
        "abilityOverride": ""
      }
    ],
    "timer": {
      "lifeTime": 8.0
    },
    "move": {
      "$type": "ConfigParabolaBulletMove",
      "speed": 8.0,
      "updateAngle": {
        "$type": "ConfigBulletMoveAngleByVelocity"
      },
      "angleOffHor": 45.0,
      "gravityOfAcceleration": 15.0,
      "correction": {
        "$type": "ConfigParabolaBulletMoveCorrection",
        "KIKEAFHNHJG": 5.0,
        "fixAngleOfVer": 5.0,
        "minSpeed": 8.0,
        "maxSpeed": 8.0
      }
    },
    "gadget": {
      "$type": "ConfigBulletPattern",
      "collision": {
        "targetType": "Enemy"
      },
      "triggerActions": [
        {
          "$type": "ConfigGadgetTriggerAbility",
          "abilityName": "Mimik_Electric_AreaBullet_Hit"
        }
      ],
      "HOCNBGDGGPK": [
        {
          "$type": "ConfigGadgetTriggerAbility",
          "abilityName": "Mimik_Electric_AreaBullet_Hit"
        }
      ],
      "KEFFAOHIMHB": true
    }
  },
  "Mimik_Electric_AreaBullet_Deployed": {
    "$type": "ConfigGadget",
    "common": {
      "effectAttachShape": {
        "$type": "ConfigEffectAttachBox",
        "scaleZ": 0.4000000059604645
      }
    },
    "combat": {
      "property": {
        "useCreatorProperty": true,
        "HP": 999999.0,
        "attack": 10.0,
        "defense": 999999.0,
        "isLockHP": true,
        "ignorePurgeRate": false
      },
      "beHit": {
        "hitBloodEffect": "",
        "muteAllHit": true,
        "muteAllHitEffect": true,
        "muteAllHitText": true
      },
      "combatLock": {
        "lockShape": "CircleLockEnemy",
        "denyLockOn": true,
        "lockType": "Default"
      }
    },
    "attackAttenuation": "",
    "abilities": [
      {
        "abilityID": "Loop",
        "abilityName": "Mimik_Electric_AreaBullet_Deployed",
        "abilityOverride": ""
      }
    ],
    "timer": {
      "lifeTime": 15.0
    },
    "gadget": {
      "$type": "ConfigBulletPattern",
      "collision": {
        "triggerType": "TriggerAlways",
        "triggerCD": 0.20000000298023224,
        "targetType": "Enemy",
        "ignoreScene": true,
        "ignoreWater": true
      },
      "triggerActions": [
        {
          "$type": "ConfigGadgetTriggerAbility",
          "abilityName": "Mimik_Electric_AreaBullet_Deployed"
        }
      ],
      "KEFFAOHIMHB": true
    }
  },
  "Mimik_Electric_Bomb": {
    "$type": "ConfigGadget",
    "common": {
      "effectAttachShape": {
        "$type": "ConfigEffectAttachBox",
        "scaleZ": 0.4000000059604645
      }
    },
    "combat": {
      "property": {
        "useCreatorProperty": true,
        "HP": 999999.0,
        "attack": 15.0,
        "defense": 999999.0,
        "isLockHP": true,
        "ignorePurgeRate": false
      },
      "beHit": {
        "hitBloodEffect": "",
        "muteAllHit": true,
        "muteAllHitEffect": true,
        "muteAllHitText": true
      },
      "combatLock": {
        "lockShape": "CircleLockEnemy",
        "denyLockOn": true,
        "lockType": "Default"
      }
    },
    "attackAttenuation": "",
    "abilities": [
      {
        "abilityID": "Hit",
        "abilityName": "Mimik_Electric_Bomb_Hit",
        "abilityOverride": ""
      }
    ],
    "timer": {
      "lifeTime": 2.0
    },
    "move": {
      "$type": "ConfigLinerParabolaBulletMove",
      "speed": 80.0,
      "updateAngle": {
        "$type": "ConfigBulletMoveAngleByVelocity"
      },
      "straightRange": 80.0,
      "gravityOfAcceleration": 2.0,
      "airResistance": 0.5
    },
    "gadget": {
      "$type": "ConfigBulletPattern",
      "collision": {
        "ccd": {
          "type": "Always"
        },
        "triggerType": "TriggerNoRepeat",
        "targetType": "Enemy"
      },
      "triggerActions": [
        {
          "$type": "ConfigGadgetTriggerAbility",
          "abilityName": "Mimik_Electric_Bomb_Hit"
        }
      ],
      "KEFFAOHIMHB": true
    }
  },
  "Mimik_Electric_AimTarget": {
    "$type": "ConfigGadget",
    "common": {
      "effectAttachShape": {
        "$type": "ConfigEffectAttachBox",
        "scaleX": 1.2000000476837158,
        "scaleY": 1.2000000476837158,
        "scaleZ": 1.2000000476837158
      },
      "scale": 1.2000000476837158
    },
    "hasModel": true,
    "combat": {
      "property": {
        "HP": 999999.0,
        "attack": 15.0,
        "defense": 999999.0,
        "isInvincible": true
      },
      "beHit": {
        "hitBloodEffect": "",
        "hitAutoRedirect": false,
        "muteAllHitText": true
      },
      "combatLock": {
        "lockShape": "CircleLockEnemy",
        "denyLockOn": true,
        "lockType": "Default"
      }
    },
    "attackAttenuation": "",
    "abilities": [
      {
        "abilityID": "",
        "abilityName": "Monster_Mimik_Electric_AimTarget",
        "abilityOverride": ""
      }
    ],
    "timer": {
      "lifeTime": 5.0
    },
    "move": {
      "$type": "BHKMHNNCDMG",
      "target": "TargetEntity",
      "EBBHBMFMOGD": "",
      "offset": {
        "y": -1.2999999523162842
      }
    }
  },
  "Mimik_Electric_Bomb_ShockWave": {
    "$type": "ConfigGadget",
    "common": {
      "effectAttachShape": {
        "$type": "ConfigEffectAttachBox"
      }
    },
    "combat": {
      "property": {
        "useCreatorProperty": true,
        "HP": 999999.0,
        "attack": 10.0,
        "defense": 999999.0,
        "isInvincible": true,
        "canTriggerBullet": true,
        "denyElementStick": true
      },
      "beHit": {
        "hitBloodEffect": "",
        "muteAllHit": true,
        "muteAllHitEffect": true,
        "muteAllHitText": true
      },
      "combatLock": {
        "lockShape": "CircleLockEnemy",
        "denyLockOn": true,
        "lockType": "Default"
      }
    },
    "attackAttenuation": "",
    "abilities": [
      {
        "abilityID": "Wave",
        "abilityName": "Monster_Mimik_Electric_Bomb_ShockWave",
        "abilityOverride": ""
      }
    ],
    "timer": {
      "lifeTime": 1.0
    },
    "move": {
      "$type": "ConfigLinerBulletMove",
      "speed": 20.0,
      "canBornInWater": true,
      "EJLPNJNLKJO": {
        "CNCFDGHPDMM": 4.0,
        "LKGPGNFBLGO": 75.0,
        "MMFLMIJMPHO": 0.10000000149011612,
        "KBDCGLHEGLP": "Keep",
        "EFMHGACIJIK": "Keep"
      }
    },
    "gadget": {
      "$type": "ConfigBulletPattern",
      "collision": {
        "triggerType": "TriggerNoRepeat",
        "targetType": "Enemy",
        "ignoreScene": true
      }
    }
  },
  "Mimik_Fel_Fruit_FallingAttack": {
    "$type": "ConfigGadget",
    "common": {
      "effectAttachShape": {
        "$type": "ConfigEffectAttachBox"
      }
    },
    "combat": {
      "property": {
        "endureType": "Monster_Boss_Other",
        "useCreatorProperty": true,
        "HP": 999999.0,
        "attack": 10.0,
        "defense": 999999.0,
        "isLockHP": true
      },
      "beHit": {
        "hitBloodEffect": "",
        "muteAllHitText": true
      },
      "combatLock": {
        "lockShape": "CircleLockEnemy",
        "lockType": "Avatar&Monster_Lv4"
      },
      "die": {
        "hasAnimatorDie": true,
        "dieDisappearEffect": ""
      },
      "animEvents": {
        "ATK01": {
          "attackPattern": {
            "$type": "CHEAOJDOBEB",
            "triggerType": "TriggerNoRepeat",
            "born": {
              "$type": "ODKAAGHNCIP",
              "offset": {
                "x": 0.0,
                "y": 0.0,
                "z": 0.0
              }
            },
            "height": 3.0,
            "BMCPFKAEOJB": 3.0
          },
          "attackInfo": {
            "attackTag": "Mimik_Fel_FallingAttack",
            "attenuationTag": "",
            "attenuationGroup": "default",
            "attackProperty": {
              "MFOOCADHKLC": 1.0,
              "MKLAMNDEDGB": 0.0,
              "elementType": "Ice",
              "bonusCriticalHurt": 50.0,
              "strikeType": "Blunt",
              "enBreak": 200.0
            },
            "hitPattern": {
              "onHitEffectName": "default",
              "hitImpulseType": "LV5",
              "hitHaltTimeScale": 0.009999999776482582
            },
            "forceCameraShake": true,
            "cameraShake": {
              "shakeType": "CustomVector",
              "shakeRange": 0.11999999731779099,
              "shakeTime": 0.15000000596046448,
              "shakeDistance": 25.0,
              "shakeDir": {
                "y": -1.0
              }
            }
          }
        }
      }
    },
    "attackAttenuation": "",
    "abilities": [
      {
        "abilityID": "",
        "abilityName": "Mimik_Fel_Fruit_Common",
        "abilityOverride": ""
      },
      {
        "abilityID": "",
        "abilityName": "Monster_Mimik_Fel_Fruit_FindBlinkPoint",
        "abilityOverride": ""
      },
      {
        "abilityID": "",
        "abilityName": "Monster_Mimik_Fel_Fruit_Blink",
        "abilityOverride": ""
      },
      {
        "abilityID": "",
        "abilityName": "Monster_Mimik_Fel_Fruit_Show",
        "abilityOverride": ""
      },
      {
        "abilityID": "",
        "abilityName": "Monster_Mimik_Fel_Fruit_Hide",
        "abilityOverride": ""
      },
      {
        "abilityID": "",
        "abilityName": "Monster_Mimik_Fel_Fruit_FallingAttack",
        "abilityOverride": ""
      },
      {
        "abilityID": "",
        "abilityName": "Monster_Mimik_Fel_Fruit_FallingAttack_AlertEffect",
        "abilityOverride": ""
      },
      {
        "abilityID": "",
        "abilityName": "Monster_Mimik_Fel_Fruit_FallingAttack_GroundEffect",
        "abilityOverride": ""
      }
    ],
    "timer": {
      "lifeTime": 30.0
    },
    "move": {
      "$type": "GONOGJMJCEI",
      "JAGGOBHFILG": true
    },
    "misc": {
      "GKCEMAKIKPH": "",
      "GHIKFNNEDMG": true,
      "LKMLHDPBOIC": true,
      "EADMNPIBEJD": 1.149999976158142,
      "HFPNFNDNDBJ": {
        "uiIndicator": {
          "templateName": "GadgetCreate_Icon_Follow"
        }
      }
    },
    "stateLayers": {
      "defaultLayer": {
        "$type": "ConfigNormalStateLayer",
        "FNPGDAEJAPJ": "",
        "stateIDs": {
          "Appear": {
            "$type": "ConfigNormalStateIDInfo",
            "animatorStates": {
              "Appear_Air": ["Monster_Mimik_Fel_Fruit_Start"]
            },
            "cullingModelAlwaysAnimate": true
          },
          "FallingAttack": {
            "$type": "ConfigNormalStateIDInfo",
            "animatorStates": {
              "FallingAttack_01": ["Monster_Mimik_Fel_Fruit_FallingAttack"],
              "FallingAttack_02": ["Monster_Mimik_Fel_Fruit_FallingAttack"],
              "FallingAttack_03": ["Monster_Mimik_Fel_Fruit_FallingAttack"],
              "FallingAttack_03_Hold": [],
              "FallingAttack_03_End": []
            },
            "cullingModelAlwaysAnimate": true
          },
          "Return": {
            "$type": "ConfigNormalStateIDInfo",
            "animatorStates": {
              "Return_Air": ["Monster_Mimik_Fel_Fruit_End"]
            },
            "cullingModelAlwaysAnimate": true
          },
          "Break": {
            "$type": "ConfigNormalStateIDInfo",
            "animatorStates": {
              "Break": []
            },
            "cullingModelAlwaysAnimate": true
          }
        }
      }
    },
    "billboard": {
      "$type": "NCBABGPMMPL",
      "EBBHBMFMOGD": "BillboardAttach",
      "radiusOffset": 0.5,
      "showDistance": 48.0,
      "ANGKJBLILKJ": true,
      "HLGCEAGHFGH": 48.0,
      "size": "Big",
      "KMNKNGMODFK": true
    }
  },
  "Mimik_Fel_Fruit_SummonAttack": {
    "$type": "ConfigGadget",
    "common": {
      "effectAttachShape": {
        "$type": "ConfigEffectAttachBox"
      }
    },
    "combat": {
      "property": {
        "endureType": "Monster_Boss_Other",
        "HP": 999999.0,
        "attack": 10.0,
        "defense": 999999.0,
        "isLockHP": true
      },
      "beHit": {
        "hitBloodEffect": "",
        "muteAllHitText": true
      },
      "combatLock": {
        "lockShape": "CircleLockEnemy",
        "lockType": "Avatar&Monster_Lv4"
      },
      "die": {
        "hasAnimatorDie": true,
        "dieDisappearEffect": ""
      }
    },
    "attackAttenuation": "",
    "abilities": [
      {
        "abilityID": "",
        "abilityName": "Mimik_Fel_Fruit_Common",
        "abilityOverride": ""
      },
      {
        "abilityID": "",
        "abilityName": "Mimik_Fel_Fruit_TriggerSummon",
        "abilityOverride": ""
      },
      {
        "abilityID": "",
        "abilityName": "Monster_Mimik_Fel_Fruit_Show",
        "abilityOverride": ""
      },
      {
        "abilityID": "",
        "abilityName": "Monster_Mimik_Fel_Fruit_Hide",
        "abilityOverride": ""
      }
    ],
    "timer": {
      "lifeTime": 30.0
    },
    "move": {
      "$type": "PLMNMICDOHN",
      "AIPJBCHAEPE": "None",
      "LHHNPKNFGMD": true
    },
    "misc": {
      "GKCEMAKIKPH": "",
      "EADMNPIBEJD": 1.149999976158142
    },
    "stateLayers": {
      "defaultLayer": {
        "$type": "ConfigNormalStateLayer",
        "FNPGDAEJAPJ": "",
        "stateIDs": {
          "Appear": {
            "$type": "ConfigNormalStateIDInfo",
            "animatorStates": {
              "Appear_Ground": ["Monster_Mimik_Fel_Fruit_Start"]
            },
            "cullingModelAlwaysAnimate": true
          },
          "SummonAttack": {
            "$type": "ConfigNormalStateIDInfo",
            "animatorStates": {
              "Summon01": ["Monster_Mimik_Fel_Fruit_SummonAttack"],
              "Hold01": [],
              "Summon02": ["Monster_Mimik_Fel_Fruit_SummonAttack"],
              "Hold02": [],
              "Summon03": ["Monster_Mimik_Fel_Fruit_SummonAttack"],
              "Hold03": []
            },
            "cullingModelAlwaysAnimate": true
          },
          "Return": {
            "$type": "ConfigNormalStateIDInfo",
            "animatorStates": {
              "Return_Ground": ["Monster_Mimik_Fel_Fruit_End"]
            },
            "cullingModelAlwaysAnimate": true
          },
          "Break": {
            "$type": "ConfigNormalStateIDInfo",
            "animatorStates": {
              "Break": []
            },
            "cullingModelAlwaysAnimate": true
          }
        }
      }
    },
    "billboard": {
      "$type": "NCBABGPMMPL",
      "EBBHBMFMOGD": "BillboardAttach",
      "radiusOffset": 0.5,
      "showDistance": 48.0,
      "ANGKJBLILKJ": true,
      "HLGCEAGHFGH": 48.0,
      "size": "Big",
      "KMNKNGMODFK": true
    }
  },
  "Mimik_Fel_Fruit_ShootingAttack": {
    "$type": "ConfigGadget",
    "common": {
      "effectAttachShape": {
        "$type": "ConfigEffectAttachBox"
      }
    },
    "combat": {
      "property": {
        "endureType": "Monster_Boss_Other",
        "HP": 999999.0,
        "attack": 10.0,
        "defense": 999999.0,
        "isLockHP": true
      },
      "beHit": {
        "hitBloodEffect": "",
        "muteAllHitText": true
      },
      "combatLock": {
        "lockShape": "CircleLockEnemy",
        "lockType": "Avatar&Monster_Lv4"
      },
      "die": {
        "hasAnimatorDie": true,
        "dieDisappearEffect": ""
      }
    },
    "attackAttenuation": "",
    "abilities": [
      {
        "abilityID": "",
        "abilityName": "Mimik_Fel_Fruit_Weak",
        "abilityOverride": ""
      },
      {
        "abilityID": "",
        "abilityName": "Mimik_Fel_Fruit_Shoot",
        "abilityOverride": ""
      },
      {
        "abilityID": "",
        "abilityName": "Monster_Mimik_Fel_Fruit_Show",
        "abilityOverride": ""
      },
      {
        "abilityID": "",
        "abilityName": "Monster_Mimik_Fel_Fruit_Hide",
        "abilityOverride": ""
      }
    ],
    "timer": {
      "lifeTime": 30.0
    },
    "move": {
      "$type": "PLMNMICDOHN",
      "AIPJBCHAEPE": "None",
      "LHHNPKNFGMD": true
    },
    "misc": {
      "GKCEMAKIKPH": "",
      "EADMNPIBEJD": 1.149999976158142
    },
    "stateLayers": {
      "defaultLayer": {
        "$type": "ConfigNormalStateLayer",
        "FNPGDAEJAPJ": "",
        "stateIDs": {
          "Appear": {
            "$type": "ConfigNormalStateIDInfo",
            "animatorStates": {
              "Appear_Air": ["Monster_Mimik_Fel_Fruit_Start"]
            },
            "cullingModelAlwaysAnimate": true
          },
          "ShootingAttack": {
            "$type": "ConfigNormalStateIDInfo",
            "animatorStates": {
              "Shoot01": ["Monster_Mimik_Fel_Fruit_ShootingAttack"],
              "Hold01": [],
              "Shoot02": ["Monster_Mimik_Fel_Fruit_ShootingAttack"],
              "Hold02": [],
              "Shoot03": ["Monster_Mimik_Fel_Fruit_ShootingAttack"],
              "Hold03": []
            },
            "cullingModelAlwaysAnimate": true
          },
          "Return": {
            "$type": "ConfigNormalStateIDInfo",
            "animatorStates": {
              "Return_Air": ["Monster_Mimik_Fel_Fruit_Shoot_End"]
            },
            "cullingModelAlwaysAnimate": true
          },
          "Break": {
            "$type": "ConfigNormalStateIDInfo",
            "animatorStates": {
              "Break": []
            },
            "cullingModelAlwaysAnimate": true
          }
        }
      }
    },
    "partControl": {
      "parts": [
        {
          "$type": "FMMCPGCNMJF",
          "angularSpeed": 999999.0,
          "NCHJLODGJLP": "LaunchDirection",
          "AGAOMJIIDOI": "",
          "CJBHHMJAEJF": 180.0,
          "HFCEMLCNHGD": 0.0
        }
      ]
    },
    "billboard": {
      "$type": "NCBABGPMMPL",
      "EBBHBMFMOGD": "BillboardAttach",
      "radiusOffset": 0.5,
      "showDistance": 48.0,
      "ANGKJBLILKJ": true,
      "HLGCEAGHFGH": 48.0,
      "size": "Big",
      "KMNKNGMODFK": true
    }
  },
  "Mimik_Fel_Fruit_Broken": {
    "$type": "ConfigGadget",
    "common": {
      "effectAttachShape": {
        "$type": "ConfigEffectAttachBox"
      }
    },
    "combat": {
      "property": {
        "endureType": "Monster_Boss_Other",
        "HP": 999999.0,
        "attack": 10.0,
        "defense": 999999.0,
        "weight": 150.0,
        "isLockHP": true,
        "canTriggerBullet": true
      },
      "beHit": {
        "hitBloodEffect": "",
        "muteAllHitText": true
      },
      "combatLock": {
        "lockShape": "CircleLockEnemy",
        "lockType": "Gear_Lv3"
      }
    },
    "attackAttenuation": "",
    "abilities": [
      {
        "abilityID": "Mimik_Fel_Fruit_Broken",
        "abilityName": "Mimik_Fel_Fruit_Broken",
        "abilityOverride": ""
      }
    ],
    "timer": {
      "lifeTime": 7.5
    },
    "move": {
      "$type": "GONOGJMJCEI",
      "EINCMKOBBEG": {
        "muteAll": true
      },
      "NFJGMLAPJLI": false
    }
  },
  "Mimik_Fel_Fruit_Broken_Bullet": {
    "$type": "ConfigGadget",
    "common": {
      "effectAttachShape": {
        "$type": "ConfigEffectAttachBox"
      }
    },
    "combat": {
      "property": {
        "useCreatorProperty": true,
        "HP": 999999.0,
        "attack": 10.0,
        "defense": 999999.0,
        "isInvincible": true,
        "denyElementStick": true,
        "ignorePurgeRate": false
      },
      "beHit": {
        "hitBloodEffect": "",
        "muteAllHit": true,
        "muteAllHitEffect": true,
        "muteAllHitText": true
      },
      "combatLock": {
        "lockShape": "CircleLockEnemy",
        "denyLockOn": true,
        "lockType": "Default"
      }
    },
    "attackAttenuation": "",
    "abilities": [
      {
        "abilityID": "Mimik_Fel_Fruit_Broken_Bullet",
        "abilityName": "Mimik_Fel_Fruit_Broken_Bullet",
        "abilityOverride": ""
      }
    ],
    "timer": {
      "lifeTime": 10.0
    },
    "move": {
      "$type": "MBCCJOEDLDO",
      "speed": 5.0,
      "maxSpeed": 30.0,
      "minSpeed": 0.20000000298023224,
      "BKIIIOFDNJM": 360.0,
      "DNOPKNCAPAI": 30.0,
      "canBornInWater": true,
      "updateAngle": {
        "$type": "ConfigBulletMoveAngleByVelocity"
      },
      "MPJAHBIPABI": 0.625,
      "DCIBKJODNJB": 180.0,
      "MJBBAAKCDCP": 99.0
    },
    "gadget": {
      "$type": "ConfigBulletPattern",
      "collision": {
        "targetType": "AllExceptSelf"
      },
      "triggerActions": [
        {
          "$type": "ConfigGadgetTriggerAbility",
          "abilityName": "Mimik_Fel_Fruit_Broken_Bullet"
        }
      ]
    }
  },
  "Mimik_Fel_EnergyChit_FlyOut": {
    "$type": "ConfigGadget",
    "common": {
      "effectAttachShape": {
        "$type": "ConfigEffectAttachBox"
      }
    },
    "combat": {
      "property": {
        "endureType": "Monster_Boss_Other",
        "useCreatorProperty": true,
        "HP": 999999.0,
        "attack": 10.0,
        "defense": 999999.0,
        "isLockHP": true
      },
      "beHit": {
        "hitBloodEffect": "",
        "muteAllHitText": true
      },
      "combatLock": {
        "lockShape": "CircleLockEnemy",
        "lockType": "Gear_Lv3"
      }
    },
    "attackAttenuation": "",
    "abilities": [
      {
        "abilityID": "Mimik_Fel_EnergyChit_FlyOut",
        "abilityName": "Mimik_Fel_EnergyChit_FlyOut",
        "abilityOverride": ""
      }
    ],
    "timer": {
      "lifeTime": 7.5
    },
    "move": {
      "$type": "ConfigParabolaBulletMove",
      "speed": 18.0,
      "updateAngle": {
        "$type": "ConfigBulletMoveAngleByVelocity"
      },
      "angleOffHor": 75.0,
      "gravityOfAcceleration": 15.0,
      "correction": {
        "$type": "ConfigParabolaBulletMoveCorrection",
        "KIKEAFHNHJG": 5.0,
        "fixAngleOfVer": 5.0,
        "minSpeed": 18.0,
        "maxSpeed": 18.0
      }
    },
    "gadget": {
      "$type": "ConfigBulletPattern",
      "collision": {
        "targetType": "Enemy"
      },
      "triggerActions": [
        {
          "$type": "ConfigGadgetTriggerAbility",
          "abilityName": "Mimik_Fel_EnergyChit_FlyOut"
        }
      ],
      "HOCNBGDGGPK": [
        {
          "$type": "ConfigGadgetTriggerAbility",
          "abilityName": "Mimik_Fel_EnergyChit_FlyOut"
        }
      ]
    }
  },
  "Mimik_Fel_EnergyChit": {
    "$type": "ConfigGadget",
    "attackAttenuation": "",
    "abilities": [
      {
        "abilityID": "Mimik_Fel_EnergyChit",
        "abilityName": "Mimik_Fel_EnergyChit",
        "abilityOverride": ""
      }
    ],
    "timer": {
      "lifeTime": 20.0
    },
    "IHIMCPIGBOE": {
      "HCKEJPPPBKC": "TEST/TEST_Chest_Btn",
      "HJGKBIMEEEN": "",
      "LBFHIFOIOLK": "WidgetMPSupport",
      "NNIMNMFBPJB": ["Mimik_Fel_EnergyChit"],
      "icon": "",
      "NEADBBJLDAF": "",
      "OMMGBOCMAMC": "",
      "NHEGJLNIIIB": ""
    }
  },
  "Mimik_Fel_EnergyChit_FlyBack": {
    "$type": "ConfigGadget",
    "common": {
      "effectAttachShape": {
        "$type": "ConfigEffectAttachBox"
      }
    },
    "combat": {
      "property": {
        "useCreatorProperty": true,
        "HP": 999999.0,
        "attack": 10.0,
        "defense": 999999.0,
        "isInvincible": true,
        "denyElementStick": true,
        "ignorePurgeRate": false
      },
      "beHit": {
        "hitBloodEffect": "",
        "muteAllHit": true,
        "muteAllHitEffect": true,
        "muteAllHitText": true
      },
      "combatLock": {
        "lockShape": "CircleLockEnemy",
        "denyLockOn": true,
        "lockType": "Default"
      }
    },
    "attackAttenuation": "",
    "abilities": [
      {
        "abilityID": "Mimik_Fel_EnergyChit_FlyBack",
        "abilityName": "Mimik_Fel_EnergyChit_FlyBack",
        "abilityOverride": ""
      }
    ],
    "timer": {
      "lifeTime": 7.5
    },
    "move": {
      "$type": "MBCCJOEDLDO",
      "speed": 0.5,
      "maxSpeed": 15.0,
      "minSpeed": 0.5,
      "BKIIIOFDNJM": 360.0,
      "DNOPKNCAPAI": 10.0,
      "canBornInWater": true,
      "updateAngle": {
        "$type": "ConfigBulletMoveAngleByVelocity"
      },
      "JAILDGEEKLH": 0.30000001192092896,
      "DNGMGMEICNJ": false,
      "DCIBKJODNJB": 360.0,
      "MJBBAAKCDCP": 10.5
    },
    "gadget": {
      "$type": "ConfigBulletPattern",
      "collision": {
        "targetType": "Alliance",
        "ignoreScene": true
      },
      "triggerActions": [
        {
          "$type": "ConfigGadgetTriggerAbility",
          "abilityName": "Mimik_Fel_EnergyChit_FlyBack"
        }
      ],
      "HOCNBGDGGPK": [
        {
          "$type": "ConfigGadgetTriggerAbility",
          "abilityName": "Mimik_Fel_EnergyChit_FlyBack"
        }
      ]
    }
  },
  "Bullet_Mimik_Fel_SnowBall_Falling": {
    "$type": "ConfigGadget",
    "common": {
      "effectAttachShape": {
        "$type": "ConfigEffectAttachBox",
        "scaleZ": 0.4000000059604645
      }
    },
    "combat": {
      "property": {
        "useCreatorProperty": true,
        "HP": 999999.0,
        "attack": 15.0,
        "defense": 999999.0,
        "isLockHP": true,
        "ignorePurgeRate": false
      },
      "beHit": {
        "hitBloodEffect": "",
        "muteAllHit": true,
        "muteAllHitEffect": true,
        "muteAllHitText": true
      },
      "combatLock": {
        "lockShape": "CircleLockEnemy",
        "denyLockOn": true,
        "lockType": "Default"
      }
    },
    "attackAttenuation": "",
    "abilities": [
      {
        "abilityID": "",
        "abilityName": "Bullet_Mimik_Fel_SnowBall_Falling",
        "abilityOverride": ""
      }
    ],
    "timer": {
      "lifeTime": 5.0
    },
    "move": {
      "$type": "ConfigParabolaBulletMove",
      "speed": 30.0,
      "updateAngle": {
        "$type": "ConfigBulletMoveAngleByVelocity"
      },
      "angleOffHor": -30.0,
      "gravityOfAcceleration": 30.0,
      "correction": {
        "$type": "ConfigParabolaBulletMoveCorrection",
        "KIKEAFHNHJG": 1.5,
        "minSpeed": 8.0,
        "maxSpeed": 8.0
      }
    },
    "gadget": {
      "$type": "ConfigBulletPattern",
      "collision": {
        "ccd": {
          "type": "Always"
        },
        "targetType": "Enemy"
      },
      "triggerActions": [
        {
          "$type": "ConfigGadgetTriggerAbility",
          "abilityName": "Bullet_Mimik_Fel_SnowBall_Falling"
        }
      ],
      "HOCNBGDGGPK": [
        {
          "$type": "ConfigGadgetTriggerAbility",
          "abilityName": "Bullet_Mimik_Fel_SnowBall_Falling"
        }
      ],
      "KEFFAOHIMHB": true
    }
  },
  "Bullet_Mimik_Fel_SnowBall_Rolling": {
    "$type": "ConfigGadget",
    "common": {
      "effectAttachShape": {
        "$type": "ConfigEffectAttachBox"
      }
    },
    "combat": {
      "property": {
        "useCreatorProperty": true,
        "HP": 999999.0,
        "attack": 10.0,
        "defense": 999999.0,
        "isInvincible": true,
        "canTriggerBullet": true,
        "denyElementStick": true
      },
      "beHit": {
        "hitBloodEffect": "",
        "muteAllHit": true,
        "muteAllHitEffect": true,
        "muteAllHitText": true
      },
      "combatLock": {
        "lockShape": "CircleLockEnemy",
        "denyLockOn": true,
        "lockType": "Default"
      }
    },
    "attackAttenuation": "",
    "abilities": [
      {
        "abilityID": "",
        "abilityName": "Bullet_Mimik_Fel_SnowBall_Rolling",
        "abilityOverride": ""
      }
    ],
    "timer": {
      "lifeTime": 3.0
    },
    "move": {
      "$type": "ConfigLinerBulletMove",
      "speed": 15.0,
      "canBornInWater": true,
      "EJLPNJNLKJO": {
        "CNCFDGHPDMM": 4.0,
        "LKGPGNFBLGO": 30.0,
        "JJOMEBOHIGM": 1.0,
        "MMFLMIJMPHO": 0.10000000149011612,
        "KBDCGLHEGLP": "Keep",
        "EFMHGACIJIK": "Keep"
      }
    },
    "gadget": {
      "$type": "ConfigBulletPattern",
      "collision": {
        "targetType": "Enemy",
        "ignoreScene": true
      },
      "triggerActions": [
        {
          "$type": "ConfigGadgetTriggerAbility",
          "abilityName": "Bullet_Mimik_Fel_SnowBall_Rolling"
        }
      ]
    }
  },
  "Bullet_Mimik_Fel_UpperBullet_Attack": {
    "$type": "ConfigGadget",
    "common": {
      "effectAttachShape": {
        "$type": "ConfigEffectAttachBox"
      }
    },
    "combat": {
      "property": {
        "useCreatorProperty": true,
        "HP": 999999.0,
        "attack": 10.0,
        "defense": 999999.0,
        "isInvincible": true,
        "canTriggerBullet": true,
        "denyElementStick": true
      },
      "beHit": {
        "hitBloodEffect": "",
        "muteAllHit": true,
        "muteAllHitEffect": true,
        "muteAllHitText": true
      },
      "combatLock": {
        "lockShape": "CircleLockEnemy",
        "denyLockOn": true,
        "lockType": "Default"
      }
    },
    "attackAttenuation": "",
    "abilities": [
      {
        "abilityID": "",
        "abilityName": "Bullet_Mimik_Fel_UpperBullet_Attack",
        "abilityOverride": ""
      }
    ],
    "timer": {
      "lifeTime": 10.0
    },
    "move": {
      "$type": "ConfigLinerBulletMove",
      "speed": 25.0,
      "DNOPKNCAPAI": 10.0,
      "canBornInWater": true,
      "updateAngle": {
        "$type": "ConfigBulletMoveAngleByVelocity"
      },
      "MPJAHBIPABI": 0.5
    }
  },
  "Bullet_Mimik_Fel_ForwardBullet": {
    "$type": "ConfigGadget",
    "common": {
      "effectAttachShape": {
        "$type": "ConfigEffectAttachBox",
        "scaleZ": 0.4000000059604645
      }
    },
    "combat": {
      "property": {
        "useCreatorProperty": true,
        "HP": 999999.0,
        "attack": 10.0,
        "defense": 999999.0,
        "isLockHP": true
      },
      "beHit": {
        "hitBloodEffect": "",
        "muteAllHit": true,
        "muteAllHitEffect": true,
        "muteAllHitText": true
      },
      "combatLock": {
        "lockShape": "CircleLockEnemy",
        "denyLockOn": true,
        "lockType": "Default"
      }
    },
    "attackAttenuation": "",
    "abilities": [
      {
        "abilityID": "",
        "abilityName": "Bullet_Mimik_Fel_ForwardBullet",
        "abilityOverride": ""
      }
    ],
    "timer": {
      "lifeTime": 5.0
    },
    "move": {
      "$type": "ConfigLinerParabolaBulletMove",
      "speed": 30.0,
      "updateAngle": {
        "$type": "ConfigBulletMoveAngleByVelocity"
      },
      "straightRange": 30.0,
      "gravityOfAcceleration": 2.0,
      "airResistance": 0.5
    },
    "gadget": {
      "$type": "ConfigBulletPattern",
      "collision": {
        "targetType": "Enemy"
      },
      "triggerActions": [
        {
          "$type": "ConfigGadgetTriggerAbility",
          "abilityName": "Bullet_Mimik_Fel_ForwardBullet"
        }
      ],
      "KEFFAOHIMHB": true
    }
  },
  "Bullet_Mimik_Fel_UpperBullet": {
    "$type": "ConfigGadget",
    "common": {
      "effectAttachShape": {
        "$type": "ConfigEffectAttachBox",
        "scaleZ": 0.4000000059604645
      }
    },
    "combat": {
      "property": {
        "useCreatorProperty": true,
        "HP": 999999.0,
        "attack": 15.0,
        "defense": 999999.0,
        "isLockHP": true,
        "ignorePurgeRate": false
      },
      "beHit": {
        "hitBloodEffect": "",
        "muteAllHit": true,
        "muteAllHitEffect": true,
        "muteAllHitText": true
      },
      "combatLock": {
        "lockShape": "CircleLockEnemy",
        "denyLockOn": true,
        "lockType": "Default"
      }
    },
    "attackAttenuation": "",
    "abilities": [
      {
        "abilityID": "",
        "abilityName": "Bullet_Mimik_Fel_UpperBullet",
        "abilityOverride": ""
      }
    ],
    "timer": {
      "lifeTime": 5.0
    },
    "move": {
      "$type": "ConfigParabolaBulletMove",
      "speed": 30.0,
      "updateAngle": {
        "$type": "ConfigBulletMoveAngleByVelocity"
      },
      "angleOffHor": 30.0,
      "gravityOfAcceleration": 15.0,
      "correction": {
        "$type": "ConfigParabolaBulletMoveCorrection",
        "KIKEAFHNHJG": 1.5,
        "fixAngleOfVer": 15.0,
        "minSpeed": 4.0,
        "maxSpeed": 24.0
      }
    },
    "gadget": {
      "$type": "ConfigBulletPattern",
      "collision": {
        "targetType": "Enemy"
      },
      "triggerActions": [
        {
          "$type": "ConfigGadgetTriggerAbility",
          "abilityName": "Bullet_Mimik_Fel_UpperBullet"
        }
      ],
      "HOCNBGDGGPK": [
        {
          "$type": "ConfigGadgetTriggerAbility",
          "abilityName": "Bullet_Mimik_Fel_UpperBullet"
        }
      ],
      "KEFFAOHIMHB": true
    }
  },
  "Bullet_Mimik_Fel_Fruit_Shoot_Bullet": {
    "$type": "ConfigGadget",
    "common": {
      "effectAttachShape": {
        "$type": "ConfigEffectAttachBox"
      }
    },
    "combat": {
      "property": {
        "useCreatorProperty": true,
        "HP": 999999.0,
        "attack": 10.0,
        "defense": 999999.0,
        "isInvincible": true,
        "canTriggerBullet": true,
        "denyElementStick": true
      },
      "beHit": {
        "hitBloodEffect": "",
        "muteAllHit": true,
        "muteAllHitEffect": true,
        "muteAllHitText": true
      },
      "combatLock": {
        "lockShape": "CircleLockEnemy",
        "denyLockOn": true,
        "lockType": "Default"
      }
    },
    "attackAttenuation": "",
    "abilities": [
      {
        "abilityID": "",
        "abilityName": "Bullet_Mimik_Fel_Fruit_Shoot_Bullet",
        "abilityOverride": ""
      }
    ],
    "timer": {
      "lifeTime": 10.0
    },
    "move": {
      "$type": "MBCCJOEDLDO",
      "speed": 1.5,
      "maxSpeed": 24.0,
      "minSpeed": 1.5,
      "BKIIIOFDNJM": 150.0,
      "DNOPKNCAPAI": 32.0,
      "canBornInWater": true,
      "updateAngle": {
        "$type": "ConfigBulletMoveAngleByVelocity"
      },
      "MPJAHBIPABI": 0.5,
      "JAILDGEEKLH": 0.20000000298023224,
      "DNGMGMEICNJ": false,
      "DCIBKJODNJB": 150.0,
      "MJBBAAKCDCP": 1.0
    },
    "gadget": {
      "$type": "ConfigBulletPattern",
      "collision": {
        "targetType": "Enemy"
      },
      "triggerActions": [
        {
          "$type": "ConfigGadgetTriggerAbility",
          "abilityName": "Bullet_Mimik_Fel_Fruit_Shoot_Bullet"
        }
      ]
    }
  }
}
