{
  "SceneObj_Environment_Collision_MeteoriteDebuffController": {
    "$type": "ConfigGadget",
    "combat": {
      "property": {
        "HP": 5000.0,
        "weight": 50.0,
        "isLockHP": true,
        "canTriggerBullet": true,
        "denyElementStick": true
      },
      "beHit": {
        "hitBloodEffect": "",
        "hitAutoRedirect": false,
        "muteAllHitText": true
      },
      "combatLock": {
        "lockShape": "CircleLockEnemy",
        "denyLockOn": true,
        "lockType": "Gadget_Lv1"
      },
      "die": {
        "dieEndTime": 1.0,
        "dieForceDisappearTime": 1.0,
        "dieDisappearEffect": ""
      }
    },
    "attackAttenuation": "",
    "abilities": [
      {
        "abilityID": "Ability_01",
        "abilityName": "SceneObj_Environment_Collision_MeteoriteDebuffController",
        "abilityOverride": ""
      }
    ]
  },
  "SceneObj_Environment_Collision_MeteoriteSeal": {
    "$type": "ConfigGadget",
    "combat": {
      "property": {
        "HP": 500.0,
        "weight": 50.0,
        "isLockHP": true
      },
      "beHit": {
        "hitBloodEffect": "",
        "hitAutoRedirect": false,
        "muteAllHitText": true
      },
      "combatLock": {
        "lockShape": "CircleLockEnemy",
        "denyLockOn": true,
        "lockType": "Gadget_Lv1"
      },
      "die": {
        "dieForceDisappearTime": 0.0,
        "dieDisappearEffect": ""
      }
    },
    "attackAttenuation": "",
    "abilities": [
      {
        "abilityID": "Ability_01",
        "abilityName": "SceneObj_Environment_Collision_MeteoriteSeal",
        "abilityOverride": ""
      }
    ],
    "billboard": {
      "$type": "NCBABGPMMPL",
      "EBBHBMFMOGD": "RootNode",
      "offset": {
        "y": 2.5
      },
      "radiusOffset": 3.0,
      "showDistance": 48.0,
      "ANGKJBLILKJ": true,
      "size": "Grand",
      "KMNKNGMODFK": true
    }
  },
  "SceneObj_Aster_BigAster": {
    "$type": "ConfigGadget",
    "combat": {
      "property": {
        "HP": 500.0,
        "weight": 50.0,
        "isLockHP": true
      },
      "beHit": {
        "hitBloodEffect": "",
        "hitAutoRedirect": false
      },
      "combatLock": {
        "lockShape": "CircleLockEnemy",
        "denyLockOn": true,
        "lockType": "Gadget_Lv1"
      },
      "die": {
        "dieEndTime": 1.0,
        "dieForceDisappearTime": 1.0,
        "dieDisappearEffect": ""
      }
    },
    "attackAttenuation": "",
    "abilities": [
      {
        "abilityID": "Ability_01",
        "abilityName": "SceneObj_Aster_BigAster",
        "abilityOverride": ""
      },
      {
        "abilityID": "Ability_02",
        "abilityName": "Activity_Aerolite_VisionResonance",
        "abilityOverride": ""
      }
    ],
    "IHIMCPIGBOE": {
      "HCKEJPPPBKC": "UI/open_mp_aster_big_page",
      "HJGKBIMEEEN": "UI_ACTIVITY_ASTERMIDDLE_GAGDGET_BTN",
      "icon": "",
      "NEADBBJLDAF": "",
      "OMMGBOCMAMC": "",
      "NHEGJLNIIIB": ""
    },
    "gadgetAction": {
      "gadgetStateActionList": [
        {
          "$type": "ConfigGadgetStateSetAnimInt",
          "intID": "gadgetState",
          "syncState": true
        }
      ],
      "FPOFAOPFCKB": [
        {
          "$type": "EJMBACIDIPA",
          "FKGLBHAAIKI": {
            "$type": "FFILECDNGCD"
          }
        },
        {
          "$type": "EJMBACIDIPA",
          "FKGLBHAAIKI": {
            "$type": "FFILECDNGCD",
            "DOLGEJDONDA": true
          },
          "enable": true
        }
      ]
    },
    "IDAKPPKIDND": {
      "BMCIBMPEDHK": 5.0,
      "OIOAABDOBFO": 10.0
    }
  },
  "SceneObj_Aster_UpLoader": {
    "$type": "ConfigGadget",
    "hasModel": true,
    "combat": {
      "property": {
        "HP": 999999.0,
        "attack": 15.0,
        "defense": 999999.0,
        "weight": 50.0,
        "isLockHP": true,
        "canTriggerBullet": true,
        "denyElementStick": true,
        "ignorePurgeRate": false
      },
      "beHit": {
        "hitBloodEffect": "",
        "muteAllHit": true,
        "muteAllHitEffect": true,
        "muteAllHitText": true
      },
      "combatLock": {
        "lockShape": "CircleLockEnemy",
        "denyLockOn": true,
        "lockType": "Gadget_Lv1"
      }
    },
    "attackAttenuation": "",
    "abilities": [
      {
        "abilityID": "SceneObj_Aster_UpLoader",
        "abilityName": "SceneObj_Aster_UpLoader",
        "abilityOverride": ""
      }
    ],
    "field": {
      "concernType": "AllAvatars",
      "shape": "CircleR4",
      "DEOHMEELJDM": "",
      "triggerInfinite": true,
      "lifeInfinite": true,
      "checkInterval": 0.5,
      "overwriteCampType": true,
      "campType": "All",
      "INKADPFABPA": "",
      "AAHHPDHLLLH": ""
    }
  },
  "SceneObj_Aster_UpLoader_Small": {
    "$type": "ConfigGadget",
    "model": {
      "bornEffect": "",
      "attachEffect": "Eff_SceneObj_AsterLarge_Idle_2M"
    },
    "hasModel": true,
    "combat": {
      "property": {
        "HP": 999999.0,
        "attack": 15.0,
        "defense": 999999.0,
        "weight": 50.0,
        "isLockHP": true,
        "canTriggerBullet": true,
        "denyElementStick": true,
        "ignorePurgeRate": false
      },
      "beHit": {
        "hitBloodEffect": "",
        "muteAllHit": true,
        "muteAllHitEffect": true,
        "muteAllHitText": true
      },
      "combatLock": {
        "lockShape": "CircleLockEnemy",
        "denyLockOn": true,
        "lockType": "Gadget_Lv1"
      }
    },
    "attackAttenuation": "",
    "abilities": [
      {
        "abilityID": "SceneObj_Aster_UpLoader_Small",
        "abilityName": "SceneObj_Aster_UpLoader_Small",
        "abilityOverride": ""
      }
    ],
    "field": {
      "concernType": "AllAvatars",
      "shape": "CircleR1",
      "DEOHMEELJDM": "",
      "triggerInfinite": true,
      "lifeInfinite": true,
      "checkInterval": 0.5,
      "overwriteCampType": true,
      "campType": "All",
      "INKADPFABPA": "",
      "AAHHPDHLLLH": ""
    }
  },
  "SceneObj_Aster_ScoreDummy": {
    "$type": "ConfigGadget",
    "combat": {
      "property": {
        "useCreatorProperty": true,
        "HP": 999999.0,
        "attack": 15.0,
        "defense": 999999.0,
        "weight": 50.0,
        "ignorePurgeRate": false
      },
      "beHit": {
        "hitBloodEffect": "",
        "muteAllHit": true,
        "muteAllHitEffect": true,
        "muteAllHitText": true
      },
      "combatLock": {
        "lockShape": "CircleLockEnemy",
        "denyLockOn": true,
        "lockType": "Gadget_Lv1"
      }
    },
    "attackAttenuation": "",
    "abilities": [
      {
        "abilityID": "SceneObj_Aster_ScoreDummy",
        "abilityName": "SceneObj_Aster_ScoreDummy",
        "abilityOverride": ""
      }
    ],
    "move": {
      "$type": "BHKMHNNCDMG",
      "EBBHBMFMOGD": "Neck"
    },
    "billboard": {
      "$type": "NCBABGPMMPL",
      "EBBHBMFMOGD": "BillboardAttach",
      "offset": {
        "y": 0.4000000059604645
      },
      "radiusOffset": 0.5,
      "showDistance": 48.0,
      "ANGKJBLILKJ": true,
      "size": "Big",
      "KMNKNGMODFK": true
    }
  },
  "SceneObj_Aster_PlayEntity_Esay": {
    "$type": "ConfigGadget",
    "combat": {
      "property": {
        "HP": 5000.0,
        "weight": 50.0,
        "isLockHP": true
      },
      "beHit": {
        "hitBloodEffect": "",
        "hitAutoRedirect": false,
        "muteAllHitText": true
      },
      "combatLock": {
        "lockShape": "CircleLockEnemy",
        "denyLockOn": true,
        "lockType": "Gadget_Lv1"
      },
      "die": {
        "dieEndTime": 1.0,
        "dieForceDisappearTime": 1.0,
        "dieDisappearEffect": ""
      }
    },
    "attackAttenuation": "",
    "abilities": [
      {
        "abilityID": "Ability_01",
        "abilityName": "SceneObj_Aster_PlayEntity_Esay",
        "abilityOverride": ""
      }
    ]
  },
  "SceneObj_Aster_PlayEntity_Normal": {
    "$type": "ConfigGadget",
    "combat": {
      "property": {
        "HP": 5000.0,
        "weight": 50.0,
        "isLockHP": true
      },
      "beHit": {
        "hitBloodEffect": "",
        "hitAutoRedirect": false,
        "muteAllHitText": true
      },
      "combatLock": {
        "lockShape": "CircleLockEnemy",
        "denyLockOn": true,
        "lockType": "Gadget_Lv1"
      },
      "die": {
        "dieEndTime": 1.0,
        "dieForceDisappearTime": 1.0,
        "dieDisappearEffect": ""
      }
    },
    "attackAttenuation": "",
    "abilities": [
      {
        "abilityID": "Ability_01",
        "abilityName": "SceneObj_Aster_PlayEntity_Normal",
        "abilityOverride": ""
      }
    ]
  },
  "SceneObj_Aster_PlayEntity_Hard": {
    "$type": "ConfigGadget",
    "combat": {
      "property": {
        "HP": 5000.0,
        "weight": 50.0,
        "isLockHP": true
      },
      "beHit": {
        "hitBloodEffect": "",
        "hitAutoRedirect": false,
        "muteAllHitText": true
      },
      "combatLock": {
        "lockShape": "CircleLockEnemy",
        "denyLockOn": true,
        "lockType": "Gadget_Lv1"
      },
      "die": {
        "dieEndTime": 1.0,
        "dieForceDisappearTime": 1.0,
        "dieDisappearEffect": ""
      }
    },
    "attackAttenuation": "",
    "abilities": [
      {
        "abilityID": "Ability_01",
        "abilityName": "SceneObj_Aster_PlayEntity_Hard",
        "abilityOverride": ""
      }
    ]
  },
  "SceneObj_Aster_PlayEntity_Single": {
    "$type": "ConfigGadget",
    "combat": {
      "property": {
        "HP": 5000.0,
        "weight": 50.0,
        "isLockHP": true
      },
      "beHit": {
        "hitBloodEffect": "",
        "hitAutoRedirect": false,
        "muteAllHitText": true
      },
      "combatLock": {
        "lockShape": "CircleLockEnemy",
        "denyLockOn": true,
        "lockType": "Gadget_Lv1"
      },
      "die": {
        "dieEndTime": 1.0,
        "dieForceDisappearTime": 1.0,
        "dieDisappearEffect": ""
      }
    },
    "attackAttenuation": "",
    "abilities": [
      {
        "abilityID": "Ability_01",
        "abilityName": "SceneObj_Aster_PlayEntity_Single",
        "abilityOverride": ""
      }
    ]
  }
}
