{
  "SceneObj_Area_Common_Property_Prop_LoopFarView_01": {
    "$type": "ConfigGadget",
    "common": {
      "disableTickDistance": 150000.0
    },
    "combat": {
      "property": {
        "HP": 99999.0,
        "isInvincible": true,
        "isLockHP": true,
        "canTriggerBullet": true,
        "denyElementStick": true
      }
    },
    "attackAttenuation": "",
    "abilities": [
      {
        "abilityID": "SceneObj_Area_Common_Property_Prop_LoopFarView_01",
        "abilityName": "SceneObj_Area_Common_Property_Prop_LoopFarView_01",
        "abilityOverride": ""
      }
    ],
    "gadgetAction": {
      "gadgetStateActionList": [
        {
          "$type": "ConfigGadgetStateSetAnimInt",
          "intID": "GadgetState",
          "syncState": true
        }
      ]
    }
  },
  "SceneObj_Level_Xm_Property_Ani_Prop_RainFlower_01": {
    "$type": "ConfigGadget",
    "hasModel": true,
    "combat": {
      "property": {
        "HP": 99999.0,
        "isInvincible": true,
        "isLockHP": true,
        "canTriggerBullet": true,
        "denyElementStick": true
      }
    },
    "attackAttenuation": "",
    "abilities": [
      {
        "abilityID": "SceneObj_Level_Xm_Property_Ani_Prop_RainFlower_01",
        "abilityName": "SceneObj_Level_Xm_Property_Ani_Prop_RainFlower_01",
        "abilityOverride": ""
      }
    ]
  },
  "SceneObj_Level_Common_Property_Prop_DreamPortal_01": {
    "$type": "ConfigGadget",
    "globalValue": {
      "serverGlobalValues": ["SGV_DreamPortal_KillAmberBuff"],
      "BDAIHKIMPPE": {
        "SGV_DreamPortal_KillAmberBuff": 0.0
      }
    },
    "hasModel": true,
    "combat": {
      "property": {
        "HP": 10000.0,
        "isLockHP": true,
        "canTriggerBullet": true,
        "denyElementStick": true,
        "OEPGABDDCHI": true
      },
      "beHit": {
        "hitBloodEffect": "",
        "hitAutoRedirect": false,
        "muteAllHitText": true
      },
      "combatLock": {
        "lockShape": "CircleLockEnemy",
        "denyLockOn": true,
        "lockType": "Gadget_Lv1"
      }
    },
    "attackAttenuation": "",
    "abilities": [
      {
        "abilityID": "Scene_RockGadget_Summon_Detect",
        "abilityName": "Scene_RockGadget_Summon_Detect",
        "abilityOverride": ""
      },
      {
        "abilityID": "SceneObj_Level_Common_Property_Prop_DreamPortal_01",
        "abilityName": "SceneObj_Level_Common_Property_Prop_DreamPortal_01",
        "abilityOverride": ""
      }
    ],
    "field": {
      "concernType": "AllAvatars",
      "shape": "",
      "DEOHMEELJDM": "",
      "triggerInfinite": true,
      "lifeInfinite": true,
      "checkInterval": 0.5,
      "overwriteCampType": true,
      "campType": "All",
      "INKADPFABPA": "",
      "AAHHPDHLLLH": "",
      "OPNCKGCILFH": true,
      "JBMDIMNBELH": true
    }
  },
  "SceneObj_Level_Common_Property_Ani_Build_Elevator_Disc_01": {
    "$type": "ConfigGadget",
    "common": {
      "disableTickDistance": 150000.0
    },
    "combat": {
      "property": {
        "HP": 99999.0,
        "isInvincible": true,
        "isLockHP": true,
        "canTriggerBullet": true,
        "denyElementStick": true
      }
    },
    "attackAttenuation": "",
    "abilities": [
      {
        "abilityID": "Scene_RockGadget_Summon_Detect",
        "abilityName": "Scene_RockGadget_Summon_Detect",
        "abilityOverride": ""
      },
      {
        "abilityID": "SceneObj_Level_Common_Property_Ani_Build_Elevator_Disc_01",
        "abilityName": "SceneObj_Level_Common_Property_Ani_Build_Elevator_Disc_01",
        "abilityOverride": ""
      }
    ],
    "move": {
      "$type": "ConfigPlatformMove"
    },
    "gadgetAction": {
      "gadgetStateActionList": [
        {
          "$type": "ConfigGadgetStateSetAnimInt",
          "intID": "GadgetState",
          "syncState": true
        }
      ]
    }
  },
  "SceneObj_Level_Xm_Property_Prop_AmberKeyGear_01": {
    "$type": "ConfigGadget",
    "hasModel": true,
    "attackAttenuation": "default",
    "abilities": [
      {
        "abilityID": "SceneObj_Level_Xm_Property_Prop_AmberKeyGear_01",
        "abilityName": "SceneObj_Level_Xm_Property_Prop_AmberKeyGear_01",
        "abilityOverride": ""
      }
    ],
    "gadgetAction": {
      "gadgetStateActionList": [
        {
          "$type": "ConfigGadgetStateSetAnimInt",
          "intID": "GadgetState",
          "syncState": true
        }
      ]
    }
  },
  "SceneObj_Level_Common_Property_Ani_Build_Elevator_Disc_03": {
    "$type": "ConfigGadget",
    "hasModel": true,
    "combat": {
      "property": {
        "HP": 99999.0,
        "isInvincible": true,
        "isLockHP": true,
        "canTriggerBullet": true,
        "denyElementStick": true
      }
    },
    "attackAttenuation": "",
    "abilities": [
      {
        "abilityID": "SceneObj_Level_Common_Property_Ani_Build_Elevator_Disc_03",
        "abilityName": "SceneObj_Level_Common_Property_Ani_Build_Elevator_Disc_03",
        "abilityOverride": ""
      }
    ]
  },
  "SceneObj_Level_Common_Property_Ani_Build_Elevator_Disc_02": {
    "$type": "ConfigGadget",
    "HFGOLBBHCJH": true,
    "hasModel": true,
    "combat": {
      "property": {
        "HP": 99999.0,
        "isInvincible": true,
        "isLockHP": true,
        "canTriggerBullet": true,
        "denyElementStick": true
      }
    },
    "attackAttenuation": "",
    "abilities": [
      {
        "abilityID": "SceneObj_Level_Common_Property_Ani_Build_Elevator_Disc_02",
        "abilityName": "SceneObj_Level_Common_Property_Ani_Build_Elevator_Disc_02",
        "abilityOverride": ""
      }
    ],
    "move": {
      "$type": "ConfigPlatformMove"
    },
    "OHOJLKMKJMG": {
      "$type": "ONEIGPKFCBG",
      "EDBKJOCFJOP": "",
      "GKAPNKBFFAO": "",
      "BOCJMHIAOFK": "TurnNode",
      "GGIMBKGOJGH": "TurnNode",
      "NFMGCAKNILF": "",
      "FIDDBIBPDKJ": "",
      "OFFBMPCLJOC": {
        "text": ""
      },
      "NDEGDPCDGEJ": {
        "text": "Play_amb_sceneObj_gear_elevator_move_03"
      },
      "HCPMCMEHENN": {
        "text": ""
      },
      "GHHOPKALDFL": {
        "0": {
          "FBGLLFJHKJJ": 1.0
        },
        "101": {
          "IABLHBFJFNP": 15.0,
          "FBGLLFJHKJJ": 1.0
        },
        "102": {
          "IABLHBFJFNP": 30.0,
          "FBGLLFJHKJJ": 1.0
        },
        "103": {
          "IABLHBFJFNP": 45.0,
          "FBGLLFJHKJJ": 1.0
        },
        "104": {
          "IABLHBFJFNP": 60.0,
          "FBGLLFJHKJJ": 1.0
        },
        "105": {
          "IABLHBFJFNP": 75.0,
          "FBGLLFJHKJJ": 1.0
        },
        "106": {
          "IABLHBFJFNP": 90.0,
          "FBGLLFJHKJJ": 1.0
        },
        "107": {
          "IABLHBFJFNP": 105.0,
          "FBGLLFJHKJJ": 1.0
        },
        "108": {
          "IABLHBFJFNP": 120.0,
          "FBGLLFJHKJJ": 1.0
        },
        "109": {
          "IABLHBFJFNP": 135.0,
          "FBGLLFJHKJJ": 1.0
        },
        "110": {
          "IABLHBFJFNP": 150.0,
          "FBGLLFJHKJJ": 1.0
        },
        "111": {
          "IABLHBFJFNP": 165.0,
          "FBGLLFJHKJJ": 1.0
        },
        "112": {
          "IABLHBFJFNP": 180.0,
          "FBGLLFJHKJJ": 1.0
        },
        "113": {
          "IABLHBFJFNP": 195.0,
          "FBGLLFJHKJJ": 1.0
        },
        "114": {
          "IABLHBFJFNP": 210.0,
          "FBGLLFJHKJJ": 1.0
        },
        "115": {
          "IABLHBFJFNP": 225.0,
          "FBGLLFJHKJJ": 1.0
        },
        "116": {
          "IABLHBFJFNP": 240.0,
          "FBGLLFJHKJJ": 1.0
        },
        "117": {
          "IABLHBFJFNP": 255.0,
          "FBGLLFJHKJJ": 1.0
        },
        "118": {
          "IABLHBFJFNP": 270.0,
          "FBGLLFJHKJJ": 1.0
        },
        "119": {
          "IABLHBFJFNP": 285.0,
          "FBGLLFJHKJJ": 1.0
        },
        "120": {
          "IABLHBFJFNP": 300.0,
          "FBGLLFJHKJJ": 1.0
        },
        "121": {
          "IABLHBFJFNP": 315.0,
          "FBGLLFJHKJJ": 1.0
        },
        "122": {
          "IABLHBFJFNP": 330.0,
          "FBGLLFJHKJJ": 1.0
        },
        "123": {
          "IABLHBFJFNP": 345.0,
          "FBGLLFJHKJJ": 1.0
        },
        "124": {
          "IABLHBFJFNP": 360.0,
          "FBGLLFJHKJJ": 1.0
        }
      }
    }
  },
  "SceneObj_Level_Common_Property_Ani_Build_Elevator_Disc_04": {
    "$type": "ConfigGadget",
    "HFGOLBBHCJH": true,
    "hasModel": true,
    "combat": {
      "property": {
        "HP": 99999.0,
        "isInvincible": true,
        "isLockHP": true,
        "canTriggerBullet": true,
        "denyElementStick": true
      }
    },
    "attackAttenuation": "",
    "abilities": [
      {
        "abilityID": "SceneObj_Level_Common_Property_Ani_Build_Elevator_Disc_02",
        "abilityName": "SceneObj_Level_Common_Property_Ani_Build_Elevator_Disc_02",
        "abilityOverride": ""
      }
    ],
    "move": {
      "$type": "ConfigPlatformMove"
    },
    "OHOJLKMKJMG": {
      "$type": "ONEIGPKFCBG",
      "EDBKJOCFJOP": "",
      "GKAPNKBFFAO": "",
      "BOCJMHIAOFK": "TurnNode",
      "GGIMBKGOJGH": "TurnNode",
      "NFMGCAKNILF": "",
      "FIDDBIBPDKJ": "",
      "OFFBMPCLJOC": {
        "text": ""
      },
      "NDEGDPCDGEJ": {
        "text": "Play_amb_sceneObj_gear_elevator_move_02"
      },
      "HCPMCMEHENN": {
        "text": ""
      },
      "GHHOPKALDFL": {
        "0": {
          "FBGLLFJHKJJ": 1.0
        },
        "101": {
          "IABLHBFJFNP": 15.0,
          "FBGLLFJHKJJ": 1.0
        },
        "102": {
          "IABLHBFJFNP": 30.0,
          "FBGLLFJHKJJ": 1.0
        },
        "103": {
          "IABLHBFJFNP": 45.0,
          "FBGLLFJHKJJ": 1.0
        },
        "104": {
          "IABLHBFJFNP": 60.0,
          "FBGLLFJHKJJ": 1.0
        },
        "105": {
          "IABLHBFJFNP": 75.0,
          "FBGLLFJHKJJ": 1.0
        },
        "106": {
          "IABLHBFJFNP": 90.0,
          "FBGLLFJHKJJ": 1.0
        },
        "107": {
          "IABLHBFJFNP": 105.0,
          "FBGLLFJHKJJ": 1.0
        },
        "108": {
          "IABLHBFJFNP": 120.0,
          "FBGLLFJHKJJ": 1.0
        },
        "109": {
          "IABLHBFJFNP": 135.0,
          "FBGLLFJHKJJ": 1.0
        },
        "110": {
          "IABLHBFJFNP": 150.0,
          "FBGLLFJHKJJ": 1.0
        },
        "111": {
          "IABLHBFJFNP": 165.0,
          "FBGLLFJHKJJ": 1.0
        },
        "112": {
          "IABLHBFJFNP": 180.0,
          "FBGLLFJHKJJ": 1.0
        },
        "113": {
          "IABLHBFJFNP": 195.0,
          "FBGLLFJHKJJ": 1.0
        },
        "114": {
          "IABLHBFJFNP": 210.0,
          "FBGLLFJHKJJ": 1.0
        },
        "115": {
          "IABLHBFJFNP": 225.0,
          "FBGLLFJHKJJ": 1.0
        },
        "116": {
          "IABLHBFJFNP": 240.0,
          "FBGLLFJHKJJ": 1.0
        },
        "117": {
          "IABLHBFJFNP": 255.0,
          "FBGLLFJHKJJ": 1.0
        },
        "118": {
          "IABLHBFJFNP": 270.0,
          "FBGLLFJHKJJ": 1.0
        },
        "119": {
          "IABLHBFJFNP": 285.0,
          "FBGLLFJHKJJ": 1.0
        },
        "120": {
          "IABLHBFJFNP": 300.0,
          "FBGLLFJHKJJ": 1.0
        },
        "121": {
          "IABLHBFJFNP": 315.0,
          "FBGLLFJHKJJ": 1.0
        },
        "122": {
          "IABLHBFJFNP": 330.0,
          "FBGLLFJHKJJ": 1.0
        },
        "123": {
          "IABLHBFJFNP": 345.0,
          "FBGLLFJHKJJ": 1.0
        },
        "124": {
          "IABLHBFJFNP": 360.0,
          "FBGLLFJHKJJ": 1.0
        }
      }
    }
  },
  "SceneObj_Level_Common_Property_Prop_RailwayIntersection_01": {
    "$type": "ConfigGadget",
    "combat": {
      "property": {
        "HP": 99999.0,
        "isInvincible": true,
        "isLockHP": true,
        "canTriggerBullet": true,
        "denyElementStick": true
      }
    },
    "attackAttenuation": "",
    "OHOJLKMKJMG": {
      "$type": "ONEIGPKFCBG",
      "EDBKJOCFJOP": "TurnNode",
      "GKAPNKBFFAO": "TurnNode",
      "BOCJMHIAOFK": "TurnNode",
      "GGIMBKGOJGH": "TurnNode",
      "NFMGCAKNILF": "",
      "FIDDBIBPDKJ": "",
      "OFFBMPCLJOC": {
        "text": ""
      },
      "NDEGDPCDGEJ": {
        "text": "Play_amb_sceneObj_gear_railwayIntersection_01"
      },
      "HCPMCMEHENN": {
        "text": ""
      },
      "GHHOPKALDFL": {
        "0": {
          "FBGLLFJHKJJ": 1.0
        },
        "201": {
          "IABLHBFJFNP": 90.0,
          "FBGLLFJHKJJ": 1.0
        },
        "202": {
          "IABLHBFJFNP": 180.0,
          "FBGLLFJHKJJ": 1.0
        },
        "203": {
          "IABLHBFJFNP": -90.0,
          "FBGLLFJHKJJ": 1.0
        }
      }
    }
  },
  "SceneObj_Area_Xm_Property_Ani_Prop_Paddle_01": {
    "$type": "ConfigGadget",
    "common": {
      "disableTickDistance": 150000.0
    },
    "combat": {
      "property": {
        "HP": 99999.0,
        "isInvincible": true,
        "isLockHP": true,
        "canTriggerBullet": true,
        "denyElementStick": true
      }
    },
    "attackAttenuation": "",
    "stateLayers": {
      "defaultLayer": {
        "$type": "ConfigNormalStateLayer",
        "FNPGDAEJAPJ": "",
        "stateIDs": {
          "Active": {
            "$type": "ConfigNormalStateIDInfo",
            "animatorStates": {
              "Active": []
            },
            "cullingModelAlwaysAnimate": true
          }
        }
      }
    },
    "gadgetAction": {
      "gadgetStateActionList": [
        {
          "$type": "ConfigGadgetStateSetAnimInt",
          "intID": "GadgetState",
          "syncState": true
        }
      ]
    }
  },
  "SceneObj_Level_Xm_Property_Ani_Prop_Rudder_01": {
    "$type": "ConfigGadget",
    "combat": {
      "property": {
        "HP": 99999.0,
        "isInvincible": true,
        "isLockHP": true,
        "canTriggerBullet": true,
        "denyElementStick": true
      }
    },
    "attackAttenuation": "",
    "abilities": [
      {
        "abilityID": "Scene_RockGadget_Summon_Detect",
        "abilityName": "Scene_RockGadget_Summon_Detect",
        "abilityOverride": ""
      },
      {
        "abilityID": "SceneObj_Level_Xm_Property_Ani_Prop_Rudder_01",
        "abilityName": "SceneObj_Level_Xm_Property_Ani_Prop_Rudder_01",
        "abilityOverride": ""
      }
    ],
    "stateLayers": {
      "defaultLayer": {
        "$type": "ConfigNormalStateLayer",
        "FNPGDAEJAPJ": "",
        "stateIDs": {
          "All": {
            "$type": "ConfigNormalStateIDInfo",
            "animatorStates": {
              "Idle": [],
              "Active": []
            }
          }
        }
      }
    },
    "gadgetAction": {
      "gadgetStateActionList": [
        {
          "$type": "ConfigGadgetStateSetAnimInt",
          "intID": "GadgetState",
          "syncState": true
        }
      ]
    }
  },
  "SceneObj_Level_Common_Property_Water_DreamMoveWaterPanel_01": {
    "$type": "ConfigGadget",
    "common": {
      "disableTickDistance": 150000.0
    },
    "model": {
      "bornEffect": "",
      "attachEffect": "Eff_SceneObj_DreamMoveWaterPanel_02"
    },
    "hasModel": true,
    "combat": {
      "property": {
        "HP": 99999.0,
        "isInvincible": true,
        "isLockHP": true,
        "canTriggerBullet": true,
        "denyElementStick": true
      }
    },
    "attackAttenuation": "",
    "move": {
      "$type": "ConfigPlatformMove",
      "ODCDOGMJNDL": true
    }
  },
  "SceneObj_Level_Common_Property_Water_DreamMoveWaterPanel_02": {
    "$type": "ConfigGadget",
    "common": {
      "disableTickDistance": 150000.0
    },
    "model": {
      "bornEffect": "",
      "attachEffect": "Eff_SceneObj_DreamMoveWaterPanel_01"
    },
    "hasModel": true,
    "combat": {
      "property": {
        "HP": 99999.0,
        "isInvincible": true,
        "isLockHP": true,
        "canTriggerBullet": true,
        "denyElementStick": true
      }
    },
    "attackAttenuation": "",
    "move": {
      "$type": "ConfigPlatformMove",
      "ODCDOGMJNDL": true
    }
  },
  "SceneObj_Other_Property_Prop_BigTreeDungeonEff_01": {
    "$type": "ConfigGadget",
    "hasModel": true,
    "combat": {
      "property": {
        "HP": 99999.0,
        "isInvincible": true,
        "isLockHP": true,
        "canTriggerBullet": true,
        "denyElementStick": true
      }
    },
    "attackAttenuation": "",
    "abilities": [
      {
        "abilityID": "SceneObj_Other_Property_Prop_BigTreeDungeonEff_01",
        "abilityName": "SceneObj_Other_Property_Prop_BigTreeDungeonEff_01",
        "abilityOverride": ""
      }
    ]
  },
  "SceneObj_Level_Common_Property_Water_Waterfall_01": {
    "$type": "ConfigGadget",
    "hasModel": true,
    "combat": {
      "property": {
        "HP": 99999.0,
        "isInvincible": true,
        "isLockHP": true,
        "canTriggerBullet": true,
        "denyElementStick": true
      }
    },
    "attackAttenuation": "",
    "abilities": [
      {
        "abilityID": "SceneObj_Level_Common_Property_Water_Waterfall_01",
        "abilityName": "SceneObj_Level_Common_Property_Water_Waterfall_01",
        "abilityOverride": ""
      }
    ]
  },
  "SceneObj_Level_Common_Property_Water_Waterfall_02": {
    "$type": "ConfigGadget",
    "hasModel": true,
    "combat": {
      "property": {
        "HP": 99999.0,
        "isInvincible": true,
        "isLockHP": true,
        "canTriggerBullet": true,
        "denyElementStick": true
      }
    },
    "attackAttenuation": "",
    "abilities": [
      {
        "abilityID": "SceneObj_Level_Common_Property_Water_Waterfall_02",
        "abilityName": "SceneObj_Level_Common_Property_Water_Waterfall_02",
        "abilityOverride": ""
      }
    ]
  },
  "SceneObj_Gear_Operator_Invisible_LuaTriggerOperator_01": {
    "$type": "ConfigGadget",
    "hasModel": true,
    "combat": {
      "property": {
        "HP": 99999.0,
        "isInvincible": true,
        "isLockHP": true,
        "canTriggerBullet": true,
        "denyElementStick": true
      },
      "combatLock": {
        "lockShape": "CircleLockEnemy",
        "denyLockOn": true,
        "lockType": "Default"
      }
    },
    "attackAttenuation": "",
    "abilities": [
      {
        "abilityID": "SceneObj_Gear_Operator_Invisible_LuaTriggerOperator_01",
        "abilityName": "SceneObj_Gear_Operator_Invisible_LuaTriggerOperator_01",
        "abilityOverride": ""
      }
    ],
    "IHIMCPIGBOE": {
      "HCKEJPPPBKC": "TEST/TEST_Chest_Btn",
      "HJGKBIMEEEN": "",
      "LBFHIFOIOLK": "WidgetMPSupport",
      "NNIMNMFBPJB": ["SceneObj_Gear_Operator_Invisible_LuaTriggerOperator_01"],
      "IFBLMCCELHM": ["HOST"],
      "icon": "",
      "NEADBBJLDAF": "",
      "OMMGBOCMAMC": "",
      "NHEGJLNIIIB": "",
      "BKFNIPGCJIK": false
    },
    "gadgetAction": {
      "gadgetStateActionList": [
        {
          "$type": "EJMBACIDIPA",
          "LBDKLEDDLHH": "GearStop"
        },
        {
          "$type": "EJMBACIDIPA",
          "enable": true
        },
        {
          "$type": "EJMBACIDIPA",
          "LBDKLEDDLHH": "GearStart",
          "enable": true
        }
      ]
    },
    "IDAKPPKIDND": {
      "MBJOPELNABP": false,
      "OIOAABDOBFO": 3.0,
      "MPOPHDAJHGJ": 0.0
    }
  },
  "SceneObj_Level_Common_Property_Water_Waterfall_03": {
    "$type": "ConfigGadget",
    "hasModel": true,
    "combat": {
      "property": {
        "HP": 99999.0,
        "isInvincible": true,
        "isLockHP": true,
        "canTriggerBullet": true,
        "denyElementStick": true
      }
    },
    "attackAttenuation": "",
    "abilities": [
      {
        "abilityID": "SceneObj_Level_Common_Property_Water_Waterfall_03",
        "abilityName": "SceneObj_Level_Common_Property_Water_Waterfall_03",
        "abilityOverride": ""
      }
    ]
  },
  "SceneObj_Other_Property_Prop_FactoryCamera_01": {
    "$type": "ConfigGadget",
    "hasModel": true,
    "combat": {
      "property": {
        "HP": 99999.0,
        "attack": 20.0,
        "weight": 50.0,
        "isLockHP": true,
        "FBCDFHECDNM": true
      },
      "beHit": {
        "hitBloodEffect": "",
        "hitAutoRedirect": false,
        "muteAllHitText": true
      },
      "combatLock": {
        "lockShape": "CircleLockEnemy",
        "denyLockOn": true,
        "lockType": "Gadget_Lv1"
      }
    },
    "attackAttenuation": "",
    "MABMMBBKEAJ": {
      "ONFKFPKIMFM": "Ca_Dungeon_ScaramoucheFactory_Topdown_01",
      "OPKMFLHBCEL": 100.0,
      "HLJEJHJHEBG": 150.0
    }
  },
  "SceneObj_Level_Common_Property_Ani_Prop_MachineCarrier_01": {
    "$type": "ConfigGadget",
    "common": {
      "disableTickDistance": 150000.0
    },
    "globalValue": {
      "serverGlobalValues": ["SGV_MachineCarrier_State"],
      "BDAIHKIMPPE": {
        "SGV_MachineCarrier_State": 0.0
      }
    },
    "combat": {
      "property": {
        "HP": 99999.0,
        "isInvincible": true,
        "isLockHP": true,
        "canTriggerBullet": true,
        "denyElementStick": true
      }
    },
    "attackAttenuation": "",
    "abilities": [
      {
        "abilityID": "SceneObj_Level_Common_Property_Ani_Prop_MachineCarrier_01",
        "abilityName": "SceneObj_Level_Common_Property_Ani_Prop_MachineCarrier_01",
        "abilityOverride": ""
      }
    ],
    "field": {
      "concernType": "LocalAvatar",
      "shape": "",
      "DEOHMEELJDM": "",
      "triggerInfinite": true,
      "lifeInfinite": true,
      "checkInterval": 0.5,
      "overwriteCampType": true,
      "campType": "Enemy",
      "INKADPFABPA": "",
      "AAHHPDHLLLH": ""
    },
    "move": {
      "$type": "ConfigPlatformMove"
    }
  },
  "SceneObj_Gear_FungusEventDungeon_Operator": {
    "$type": "ConfigGadget",
    "model": {
      "bornEffect": "",
      "attachEffect": "Eff_Gear_ElementDungeon_Operator"
    },
    "hasModel": true,
    "combat": {
      "property": {
        "HP": 99999.0,
        "attack": 200.0,
        "weight": 50.0,
        "isLockHP": true,
        "canTriggerBullet": true,
        "denyElementStick": true
      },
      "beHit": {
        "hitBloodEffect": "",
        "hitAutoRedirect": false,
        "muteAllHitText": true
      },
      "combatLock": {
        "lockShape": "CircleLockEnemy",
        "denyLockOn": true,
        "lockType": "Gadget_Lv1"
      }
    },
    "attackAttenuation": "",
    "field": {
      "concernType": "LocalAvatar",
      "shape": "CircleR2H2",
      "DEOHMEELJDM": "",
      "triggerInfinite": true,
      "lifeInfinite": true,
      "checkInterval": 0.5,
      "overwriteCampType": true,
      "campType": "SelfCamp",
      "INKADPFABPA": "",
      "AAHHPDHLLLH": ""
    },
    "gadgetAction": {
      "gadgetStateActionList": [
        {
          "$type": "OGIHKHEILGO",
          "parameter": "gadgetState",
          "type": "Int",
          "healLimitedByCasterMaxHPRatio": "Eff_Gear_ElementDungeon_Operator"
        },
        {
          "$type": "OGIHKHEILGO",
          "LBDKLEDDLHH": "GearStop",
          "parameter": "gadgetState",
          "type": "Int",
          "value": 202,
          "healLimitedByCasterMaxHPRatio": "Eff_Gear_ElementDungeon_Operator"
        }
      ]
    }
  }
}
