{
  "Formathr_None_WindEffect": {
    "$type": "ConfigGadget",
    "attackAttenuation": "",
    "move": {
      "$type": "BHKMHNNCDMG",
      "target": "TargetEntity",
      "EBBHBMFMOGD": "",
      "HHDPHCLOMED": {
        "z": 1.0
      }
    },
    "misc": {
      "forceField": {
        "$type": "NENLDIOHPMM",
        "alias": "",
        "FOGDFAPNFKB": "",
        "FMDFPCLHCKJ": "",
        "velocity": 10.0,
        "stayEffect": "Eff_Windfield_Stay",
        "enterEffect": "Eff_Windfield_Enter"
      },
      "GKCEMAKIKPH": ""
    }
  },
  "Formathr_None_ChaseBullet_01": {
    "$type": "ConfigGadget",
    "common": {
      "effectAttachShape": {
        "$type": "ConfigEffectAttachBox"
      },
      "scale": 1.5
    },
    "hasModel": true,
    "combat": {
      "property": {
        "useCreatorProperty": true,
        "canTriggerBullet": true,
        "denyElementStick": true,
        "ignorePurgeRate": false
      },
      "beHit": {
        "hitBloodEffect": "",
        "muteAllHit": true,
        "muteAllHitEffect": true,
        "muteAllHitText": true
      },
      "combatLock": {
        "lockShape": "CircleLockEnemy",
        "denyLockOn": true,
        "lockType": "Default"
      }
    },
    "attackAttenuation": "",
    "abilities": [
      {
        "abilityID": "Monster_Formathr_None_ChaseBullet",
        "abilityName": "Monster_Formathr_None_ChaseBullet",
        "abilityOverride": ""
      }
    ],
    "timer": {
      "lifeTime": 8.0
    },
    "move": {
      "$type": "MBCCJOEDLDO",
      "speed": 10.0,
      "maxSpeed": 30.0,
      "minSpeed": 5.0,
      "BKIIIOFDNJM": 1080.0,
      "DNOPKNCAPAI": 5.0,
      "canBornInWater": true,
      "updateAngle": {
        "$type": "ConfigBulletMoveAngleByVelocity"
      },
      "BJLOMNNDFIF": 270.0,
      "JAILDGEEKLH": 1.0,
      "DCIBKJODNJB": 720.0,
      "MJBBAAKCDCP": 1.0
    },
    "gadget": {
      "$type": "ConfigBulletPattern",
      "collision": {
        "targetType": "Enemy"
      },
      "triggerActions": [
        {
          "$type": "ConfigGadgetTriggerAbility",
          "abilityName": "Monster_Formathr_None_ChaseBullet"
        }
      ],
      "HOCNBGDGGPK": [
        {
          "$type": "ConfigGadgetTriggerAbility",
          "abilityName": "Monster_Formathr_None_ChaseBullet"
        }
      ]
    }
  },
  "Formathr_None_ChaseBullet_02": {
    "$type": "ConfigGadget",
    "common": {
      "effectAttachShape": {
        "$type": "ConfigEffectAttachBox"
      },
      "scale": 1.5
    },
    "hasModel": true,
    "combat": {
      "property": {
        "useCreatorProperty": true,
        "canTriggerBullet": true,
        "denyElementStick": true,
        "ignorePurgeRate": false
      },
      "beHit": {
        "hitBloodEffect": "",
        "muteAllHit": true,
        "muteAllHitEffect": true,
        "muteAllHitText": true
      },
      "combatLock": {
        "lockShape": "CircleLockEnemy",
        "denyLockOn": true,
        "lockType": "Default"
      }
    },
    "attackAttenuation": "",
    "abilities": [
      {
        "abilityID": "Monster_Formathr_None_ChaseBullet",
        "abilityName": "Monster_Formathr_None_ChaseBullet",
        "abilityOverride": ""
      }
    ],
    "timer": {
      "lifeTime": 8.0
    },
    "move": {
      "$type": "MBCCJOEDLDO",
      "speed": 10.0,
      "maxSpeed": 30.0,
      "minSpeed": 5.0,
      "BKIIIOFDNJM": 1080.0,
      "DNOPKNCAPAI": 5.0,
      "canBornInWater": true,
      "updateAngle": {
        "$type": "ConfigBulletMoveAngleByVelocity"
      },
      "BJLOMNNDFIF": 270.0,
      "JAILDGEEKLH": 2.0,
      "DCIBKJODNJB": 720.0,
      "MJBBAAKCDCP": 1.0
    },
    "gadget": {
      "$type": "ConfigBulletPattern",
      "collision": {
        "targetType": "Enemy"
      },
      "triggerActions": [
        {
          "$type": "ConfigGadgetTriggerAbility",
          "abilityName": "Monster_Formathr_None_ChaseBullet"
        }
      ],
      "HOCNBGDGGPK": [
        {
          "$type": "ConfigGadgetTriggerAbility",
          "abilityName": "Monster_Formathr_None_ChaseBullet"
        }
      ]
    }
  },
  "Formathr_None_Laser": {
    "$type": "ConfigGadget",
    "common": {
      "effectAttachShape": {
        "$type": "ConfigEffectAttachBox",
        "scaleZ": 0.4000000059604645
      }
    },
    "combat": {
      "property": {
        "useCreatorProperty": true,
        "HP": 999999.0,
        "attack": 10.0,
        "defense": 999999.0,
        "isInvincible": true,
        "canTriggerBullet": true,
        "denyElementStick": true,
        "ignorePurgeRate": false
      },
      "beHit": {
        "hitBloodEffect": "",
        "muteAllHit": true,
        "muteAllHitEffect": true,
        "muteAllHitText": true
      },
      "combatLock": {
        "lockShape": "CircleLockEnemy",
        "denyLockOn": true,
        "lockType": "Default"
      }
    },
    "attackAttenuation": "",
    "abilities": [
      {
        "abilityID": "Monster_Formathr_None_Laser",
        "abilityName": "Monster_Formathr_None_Laser",
        "abilityOverride": ""
      }
    ],
    "timer": {
      "lifeTime": 3.0
    },
    "move": {
      "$type": "ConfigLinerBulletMove",
      "speed": 60.0,
      "updateAngle": {
        "$type": "ConfigBulletMoveAngleByVelocity"
      }
    },
    "gadget": {
      "$type": "ConfigBulletPattern",
      "collision": {
        "ccd": {
          "type": "Always"
        },
        "targetType": "Enemy"
      },
      "triggerActions": [
        {
          "$type": "ConfigGadgetTriggerAbility",
          "abilityName": "Monster_Formathr_None_Laser"
        }
      ]
    }
  },
  "Formathr_None_ClusterBulletToAir": {
    "$type": "ConfigGadget",
    "common": {
      "effectAttachShape": {
        "$type": "ConfigEffectAttachBox"
      },
      "scale": 1.5
    },
    "hasModel": true,
    "combat": {
      "property": {
        "useCreatorProperty": true,
        "HP": 999999.0,
        "attack": 15.0,
        "defense": 999999.0,
        "isLockHP": true,
        "ignorePurgeRate": false
      },
      "beHit": {
        "hitBloodEffect": "",
        "muteAllHit": true,
        "muteAllHitEffect": true,
        "muteAllHitText": true
      },
      "combatLock": {
        "lockShape": "CircleLockEnemy",
        "denyLockOn": true,
        "lockType": "Default"
      }
    },
    "attackAttenuation": "",
    "abilities": [
      {
        "abilityID": "Monster_Formathr_None_ClusterBulletToAir",
        "abilityName": "Monster_Formathr_None_ClusterBulletToAir",
        "abilityOverride": ""
      }
    ],
    "timer": {
      "lifeTime": 0.5
    },
    "move": {
      "$type": "ConfigLinerBulletMove",
      "speed": 40.0,
      "canBornInWater": true
    },
    "gadget": {
      "$type": "ConfigBulletPattern",
      "collision": {
        "triggerType": "TriggerNoRepeat",
        "triggerCD": 0.20000000298023224,
        "targetType": "Enemy"
      },
      "HOCNBGDGGPK": [
        {
          "$type": "ConfigGadgetTriggerAbility",
          "abilityName": "Monster_Formathr_None_ClusterBulletToAir"
        }
      ]
    }
  },
  "Formathr_None_ClusterBulletToGround": {
    "$type": "ConfigGadget",
    "common": {
      "effectAttachShape": {
        "$type": "ConfigEffectAttachBox"
      },
      "scale": 1.5
    },
    "hasModel": true,
    "combat": {
      "property": {
        "useCreatorProperty": true,
        "HP": 999999.0,
        "attack": 15.0,
        "defense": 999999.0,
        "isLockHP": true,
        "ignorePurgeRate": false
      },
      "beHit": {
        "hitBloodEffect": "",
        "muteAllHit": true,
        "muteAllHitEffect": true,
        "muteAllHitText": true
      },
      "combatLock": {
        "lockShape": "CircleLockEnemy",
        "denyLockOn": true,
        "lockType": "Default"
      }
    },
    "attackAttenuation": "",
    "abilities": [
      {
        "abilityID": "Monster_Formathr_None_ClusterBulletToGround",
        "abilityName": "Monster_Formathr_None_ClusterBulletToGround",
        "abilityOverride": ""
      }
    ],
    "timer": {
      "lifeTime": 3.0
    },
    "move": {
      "$type": "ConfigLinerBulletMove",
      "speed": 20.0,
      "DNOPKNCAPAI": 20.0,
      "canBornInWater": true
    },
    "gadget": {
      "$type": "ConfigBulletPattern",
      "collision": {},
      "triggerActions": [
        {
          "$type": "ConfigGadgetTriggerAbility",
          "abilityName": "Monster_Formathr_None_ClusterBulletToGround"
        }
      ],
      "HOCNBGDGGPK": [
        {
          "$type": "ConfigGadgetTriggerAbility",
          "abilityName": "Monster_Formathr_None_ClusterBulletToGround"
        }
      ]
    }
  },
  "Formathr_None_DiveBullet": {
    "$type": "ConfigGadget",
    "common": {
      "effectAttachShape": {
        "$type": "ConfigEffectAttachBox",
        "scaleZ": 0.4000000059604645
      },
      "scale": 1.5
    },
    "hasModel": true,
    "combat": {
      "property": {
        "useCreatorProperty": true,
        "HP": 999999.0,
        "attack": 15.0,
        "defense": 999999.0,
        "isLockHP": true,
        "ignorePurgeRate": false
      },
      "beHit": {
        "hitBloodEffect": "",
        "muteAllHit": true,
        "muteAllHitEffect": true,
        "muteAllHitText": true
      },
      "combatLock": {
        "lockShape": "CircleLockEnemy",
        "denyLockOn": true,
        "lockType": "Default"
      }
    },
    "attackAttenuation": "",
    "timer": {
      "lifeTime": 3.0
    },
    "move": {
      "$type": "ConfigLinerBulletMove",
      "speed": 25.0,
      "canBornInWater": true
    },
    "gadget": {
      "$type": "ConfigBulletPattern",
      "collision": {
        "triggerType": "TriggerNoRepeat",
        "triggerCD": 0.20000000298023224,
        "targetType": "Enemy"
      },
      "KEFFAOHIMHB": true
    }
  },
  "Formathr_None_FollowHitBox1": {
    "$type": "ConfigGadget",
    "common": {
      "effectAttachShape": {
        "$type": "ConfigEffectAttachBox",
        "scaleX": 1.2000000476837158,
        "scaleY": 1.2000000476837158,
        "scaleZ": 1.2000000476837158
      },
      "scale": 2.0
    },
    "combat": {
      "property": {
        "useCreatorProperty": true,
        "HP": 999999.0,
        "attack": 15.0,
        "defense": 999999.0,
        "isLockHP": true,
        "ignorePurgeRate": false
      },
      "beHit": {
        "hitBloodEffect": ""
      },
      "combatLock": {
        "lockShape": "CircleLockEnemy",
        "denyLockOn": true,
        "lockType": "Default"
      }
    },
    "attackAttenuation": "",
    "timer": {
      "lifeTime": 2.0
    },
    "move": {
      "$type": "BHKMHNNCDMG",
      "target": "TargetEntity",
      "EBBHBMFMOGD": "RootNode",
      "EMLMHGJEPIO": true
    },
    "gadget": {
      "$type": "ConfigBulletPattern",
      "collision": {
        "ccd": {
          "type": "Always"
        },
        "triggerType": "TriggerNoRepeat",
        "targetType": "All"
      },
      "KEFFAOHIMHB": true
    }
  },
  "Formathr_None_FollowHitBox2": {
    "$type": "ConfigGadget",
    "common": {
      "effectAttachShape": {
        "$type": "ConfigEffectAttachBox"
      },
      "scale": 2.0
    },
    "combat": {
      "property": {
        "useCreatorProperty": true,
        "HP": 999999.0,
        "attack": 15.0,
        "defense": 999999.0,
        "isLockHP": true,
        "ignorePurgeRate": false
      },
      "beHit": {
        "hitBloodEffect": ""
      },
      "combatLock": {
        "lockShape": "CircleLockEnemy",
        "denyLockOn": true,
        "lockType": "Default"
      }
    },
    "attackAttenuation": "",
    "timer": {
      "lifeTime": 2.0
    },
    "move": {
      "$type": "BHKMHNNCDMG",
      "target": "TargetEntity",
      "EBBHBMFMOGD": "RootNode",
      "EMLMHGJEPIO": true
    },
    "gadget": {
      "$type": "ConfigBulletPattern",
      "collision": {
        "ccd": {
          "type": "Always"
        },
        "triggerType": "TriggerNoRepeat",
        "targetType": "Enemy",
        "ignoreScene": true
      },
      "KEFFAOHIMHB": true
    }
  },
  "Formathr_None_FollowHitBox3": {
    "$type": "ConfigGadget",
    "common": {
      "effectAttachShape": {
        "$type": "ConfigEffectAttachBox"
      },
      "scale": 2.0
    },
    "combat": {
      "property": {
        "useCreatorProperty": true,
        "HP": 999999.0,
        "attack": 15.0,
        "defense": 999999.0,
        "isLockHP": true,
        "ignorePurgeRate": false
      },
      "beHit": {
        "hitBloodEffect": ""
      },
      "combatLock": {
        "lockShape": "CircleLockEnemy",
        "denyLockOn": true,
        "lockType": "Default"
      }
    },
    "attackAttenuation": "",
    "abilities": [
      {
        "abilityID": "Monster_Formathr_None_FollowHitBox3",
        "abilityName": "Monster_Formathr_None_FollowHitBox3",
        "abilityOverride": ""
      }
    ],
    "timer": {
      "lifeTime": 5.0
    },
    "move": {
      "$type": "BHKMHNNCDMG",
      "target": "TargetEntity",
      "EBBHBMFMOGD": "RootNode"
    },
    "gadget": {
      "$type": "ConfigBulletPattern",
      "collision": {
        "triggerType": "TriggerNoRepeat",
        "targetType": "Enemy",
        "ignoreScene": true
      },
      "triggerActions": [
        {
          "$type": "ConfigGadgetTriggerAbility",
          "abilityName": "Monster_Formathr_None_FollowHitBox3"
        }
      ],
      "KEFFAOHIMHB": true
    }
  },
  "Formathr_None_LaserCenter": {
    "$type": "ConfigGadget",
    "common": {
      "effectAttachShape": {
        "$type": "ConfigEffectAttachBox"
      }
    },
    "hasModel": true,
    "combat": {
      "property": {
        "useCreatorProperty": true,
        "HP": 999999.0,
        "attack": 15.0,
        "defense": 999999.0,
        "isInvincible": true,
        "canTriggerBullet": true,
        "denyElementStick": true
      },
      "beHit": {
        "hitBloodEffect": "",
        "hitAutoRedirect": false,
        "muteAllHit": true,
        "muteAllHitEffect": true,
        "muteAllHitText": true
      },
      "combatLock": {
        "lockShape": "CircleLockEnemy",
        "denyLockOn": true,
        "lockType": "Default"
      }
    },
    "attackAttenuation": "",
    "timer": {
      "lifeTime": 5.0
    }
  },
  "Formathr_None_NormalBullet": {
    "$type": "ConfigGadget",
    "common": {
      "effectAttachShape": {
        "$type": "ConfigEffectAttachBox",
        "scaleZ": 0.4000000059604645
      },
      "scale": 1.5
    },
    "hasModel": true,
    "combat": {
      "property": {
        "useCreatorProperty": true,
        "HP": 999999.0,
        "attack": 15.0,
        "defense": 999999.0,
        "isLockHP": true,
        "ignorePurgeRate": false
      },
      "beHit": {
        "hitBloodEffect": "",
        "muteAllHit": true,
        "muteAllHitEffect": true,
        "muteAllHitText": true
      },
      "combatLock": {
        "lockShape": "CircleLockEnemy",
        "denyLockOn": true,
        "lockType": "Default"
      }
    },
    "attackAttenuation": "",
    "abilities": [
      {
        "abilityID": "Monster_Formathr_None_NormalBullet",
        "abilityName": "Monster_Formathr_None_NormalBullet",
        "abilityOverride": ""
      }
    ],
    "timer": {
      "lifeTime": 2.0
    },
    "move": {
      "$type": "ConfigLinerBulletMove",
      "speed": 50.0,
      "canBornInWater": true
    },
    "gadget": {
      "$type": "ConfigBulletPattern",
      "collision": {
        "ccd": {},
        "targetType": "Enemy"
      },
      "triggerActions": [
        {
          "$type": "ConfigGadgetTriggerAbility",
          "abilityName": "Monster_Formathr_None_NormalBullet"
        }
      ],
      "HOCNBGDGGPK": [
        {
          "$type": "ConfigGadgetTriggerAbility",
          "abilityName": "Monster_Formathr_None_NormalBullet"
        }
      ]
    }
  }
}
