{
  "SceneObj_Homeworld_NPCObj_Ani_Djinn_01_01": {
    "$type": "ConfigGadget",
    "common": {
      "enableCrashDamage": false
    },
    "model": {
      "bornEffect": "",
      "attachEffect": "",
      "hasCharacterRenderering": true
    },
    "hasModel": true,
    "combat": {
      "property": {
        "HP": 99999.0,
        "isInvincible": true,
        "isLockHP": true,
        "canTriggerBullet": true,
        "denyElementStick": true
      }
    },
    "attackAttenuation": "",
    "abilities": [
      {
        "abilityID": "Ability_01",
        "abilityName": "SceneObj_Homeworld_NPCObj_Ani_Djinn_01_Ability",
        "abilityOverride": ""
      },
      {
        "abilityID": "Ability_02",
        "abilityName": "SceneObj_Homeworld_NPCObj_Ani_Djinn_Normal",
        "abilityOverride": ""
      },
      {
        "abilityID": "Ability_03",
        "abilityName": "Scene_RockGadget_Summon_Detect",
        "abilityOverride": ""
      }
    ],
    "move": {
      "$type": "GONOGJMJCEI",
      "NFJGMLAPJLI": false,
      "INAGNKBACBH": false
    },
    "IHIMCPIGBOE": {
      "HCKEJPPPBKC": "",
      "HJGKBIMEEEN": "",
      "icon": "",
      "NEADBBJLDAF": "",
      "OMMGBOCMAMC": "",
      "NHEGJLNIIIB": ""
    },
    "stateLayers": {
      "defaultLayer": {
        "$type": "ConfigNormalStateLayer",
        "FNPGDAEJAPJ": "",
        "stateIDs": {
          "All": {
            "$type": "ConfigNormalStateIDInfo",
            "animatorStates": {
              "Appear": ["Audio_SceneObj_Homeworld_Djinn_Appear"],
              "Idle": [],
              "Show02DrillIn": ["Audio_SceneObj_Homeworld_Djinn_Show02Drillln"],
              "Show02Loop": [],
              "Show02DrillOut": ["Audio_SceneObj_Homeworld_Djinn_Appear"],
              "Show01": ["Audio_SceneObj_Homeworld_Djinn_Show01"],
              "Talk": [],
              "Turnleft": ["Audio_SceneObj_Homeworld_Djinn_Turn"],
              "Turnright": ["Audio_SceneObj_Homeworld_Djinn_Turn"]
            },
            "cullingModelAlwaysAnimate": true
          }
        }
      }
    },
    "billboard": {
      "$type": "EPNHHFBJGDN",
      "EBBHBMFMOGD": "BillboardAttach",
      "offset": {
        "y": 1.5
      },
      "iconName": "UI_NPCTopIcon_Homeworld_Djinn",
      "title": "UI_Homeworld_Djinn_01_NPCTop_Title"
    },
    "IDAKPPKIDND": {}
  },
  "SceneObj_Homeworld_NPCObj_Ani_Djinn_01_02": {
    "$type": "ConfigGadget",
    "common": {
      "enableCrashDamage": false
    },
    "model": {
      "bornEffect": "",
      "attachEffect": "",
      "hasCharacterRenderering": true
    },
    "hasModel": true,
    "combat": {
      "property": {
        "HP": 99999.0,
        "isInvincible": true,
        "isLockHP": true,
        "canTriggerBullet": true,
        "denyElementStick": true
      }
    },
    "attackAttenuation": "",
    "abilities": [
      {
        "abilityID": "Ability_01",
        "abilityName": "SceneObj_Homeworld_NPCObj_Ani_Djinn_01_Ability",
        "abilityOverride": ""
      },
      {
        "abilityID": "Ability_02",
        "abilityName": "SceneObj_Homeworld_NPCObj_Ani_Djinn_Normal",
        "abilityOverride": ""
      },
      {
        "abilityID": "Ability_03",
        "abilityName": "Scene_RockGadget_Summon_Detect",
        "abilityOverride": ""
      }
    ],
    "move": {
      "$type": "GONOGJMJCEI",
      "NFJGMLAPJLI": false,
      "INAGNKBACBH": false
    },
    "IHIMCPIGBOE": {
      "HCKEJPPPBKC": "",
      "HJGKBIMEEEN": "",
      "icon": "",
      "NEADBBJLDAF": "",
      "OMMGBOCMAMC": "",
      "NHEGJLNIIIB": ""
    },
    "stateLayers": {
      "defaultLayer": {
        "$type": "ConfigNormalStateLayer",
        "FNPGDAEJAPJ": "",
        "stateIDs": {
          "All": {
            "$type": "ConfigNormalStateIDInfo",
            "animatorStates": {
              "Appear": ["Audio_SceneObj_Homeworld_Djinn_Appear"],
              "Idle": [],
              "Show02DrillIn": ["Audio_SceneObj_Homeworld_Djinn_Show02Drillln"],
              "Show02Loop": [],
              "Show02DrillOut": ["Audio_SceneObj_Homeworld_Djinn_Appear"],
              "Show01": ["Audio_SceneObj_Homeworld_Djinn_Show01"],
              "Talk": [],
              "Turnleft": ["Audio_SceneObj_Homeworld_Djinn_Turn"],
              "Turnright": ["Audio_SceneObj_Homeworld_Djinn_Turn"]
            },
            "cullingModelAlwaysAnimate": true
          }
        }
      }
    },
    "billboard": {
      "$type": "EPNHHFBJGDN",
      "EBBHBMFMOGD": "BillboardAttach",
      "offset": {
        "y": 1.5
      },
      "iconName": "UI_NPCTopIcon_Homeworld_Djinn",
      "title": "UI_Homeworld_Djinn_01_NPCTop_Title"
    },
    "IDAKPPKIDND": {}
  },
  "SceneObj_Homeworld_NPCObj_Ani_Djinn_01_03": {
    "$type": "ConfigGadget",
    "common": {
      "enableCrashDamage": false
    },
    "model": {
      "bornEffect": "",
      "attachEffect": "",
      "hasCharacterRenderering": true
    },
    "hasModel": true,
    "combat": {
      "property": {
        "HP": 99999.0,
        "isInvincible": true,
        "isLockHP": true,
        "canTriggerBullet": true,
        "denyElementStick": true
      }
    },
    "attackAttenuation": "",
    "abilities": [
      {
        "abilityID": "Ability_01",
        "abilityName": "SceneObj_Homeworld_NPCObj_Ani_Djinn_01_Ability",
        "abilityOverride": ""
      },
      {
        "abilityID": "Ability_02",
        "abilityName": "SceneObj_Homeworld_NPCObj_Ani_Djinn_Advance",
        "abilityOverride": ""
      },
      {
        "abilityID": "Ability_03",
        "abilityName": "Scene_RockGadget_Summon_Detect",
        "abilityOverride": ""
      }
    ],
    "move": {
      "$type": "GONOGJMJCEI",
      "NFJGMLAPJLI": false,
      "INAGNKBACBH": false
    },
    "IHIMCPIGBOE": {
      "HCKEJPPPBKC": "",
      "HJGKBIMEEEN": "",
      "icon": "",
      "NEADBBJLDAF": "",
      "OMMGBOCMAMC": "",
      "NHEGJLNIIIB": ""
    },
    "stateLayers": {
      "defaultLayer": {
        "$type": "ConfigNormalStateLayer",
        "FNPGDAEJAPJ": "",
        "stateIDs": {
          "All": {
            "$type": "ConfigNormalStateIDInfo",
            "animatorStates": {
              "Appear": ["Audio_SceneObj_Homeworld_Djinn_Appear"],
              "Idle": [],
              "Show02DrillIn": ["Audio_SceneObj_Homeworld_Djinn_Show02Drillln"],
              "Show02Loop": [],
              "Show02DrillOut": ["Audio_SceneObj_Homeworld_Djinn_Appear"],
              "Show01": ["Audio_SceneObj_Homeworld_Djinn_Show01"],
              "Talk": [],
              "Turnleft": ["Audio_SceneObj_Homeworld_Djinn_Turn"],
              "Turnright": ["Audio_SceneObj_Homeworld_Djinn_Turn"]
            },
            "cullingModelAlwaysAnimate": true
          }
        }
      }
    },
    "billboard": {
      "$type": "EPNHHFBJGDN",
      "EBBHBMFMOGD": "BillboardAttach",
      "offset": {
        "y": 1.5
      },
      "iconName": "UI_NPCTopIcon_Homeworld_Djinn",
      "title": "UI_Homeworld_Djinn_01_NPCTop_Title"
    },
    "IDAKPPKIDND": {}
  },
  "SceneObj_Homeworld_NPCObj_Ani_Djinn_01_04": {
    "$type": "ConfigGadget",
    "common": {
      "enableCrashDamage": false
    },
    "model": {
      "bornEffect": "",
      "attachEffect": "Eff_SceneObj_Djinn_Idle_Cloud",
      "hasCharacterRenderering": true
    },
    "hasModel": true,
    "combat": {
      "property": {
        "HP": 99999.0,
        "isInvincible": true,
        "isLockHP": true,
        "canTriggerBullet": true,
        "denyElementStick": true
      }
    },
    "attackAttenuation": "",
    "abilities": [
      {
        "abilityID": "Ability_01",
        "abilityName": "SceneObj_Homeworld_NPCObj_Ani_Djinn_01_Ability",
        "abilityOverride": ""
      },
      {
        "abilityID": "Ability_02",
        "abilityName": "SceneObj_Homeworld_NPCObj_Ani_Djinn_AdvanceWithCloud",
        "abilityOverride": ""
      },
      {
        "abilityID": "Ability_03",
        "abilityName": "Scene_RockGadget_Summon_Detect",
        "abilityOverride": ""
      }
    ],
    "move": {
      "$type": "GONOGJMJCEI",
      "NFJGMLAPJLI": false,
      "INAGNKBACBH": false
    },
    "IHIMCPIGBOE": {
      "HCKEJPPPBKC": "",
      "HJGKBIMEEEN": "",
      "icon": "",
      "NEADBBJLDAF": "",
      "OMMGBOCMAMC": "",
      "NHEGJLNIIIB": ""
    },
    "stateLayers": {
      "defaultLayer": {
        "$type": "ConfigNormalStateLayer",
        "FNPGDAEJAPJ": "",
        "stateIDs": {
          "All": {
            "$type": "ConfigNormalStateIDInfo",
            "animatorStates": {
              "Appear": ["Audio_SceneObj_Homeworld_Djinn_Appear"],
              "Idle": [],
              "Show02DrillIn": ["Audio_SceneObj_Homeworld_Djinn_Show02Drillln"],
              "Show02Loop": [],
              "Show02DrillOut": ["Audio_SceneObj_Homeworld_Djinn_Appear"],
              "Show01": ["Audio_SceneObj_Homeworld_Djinn_Show01"],
              "Talk": [],
              "Turnleft": ["Audio_SceneObj_Homeworld_Djinn_Turn"],
              "Turnright": ["Audio_SceneObj_Homeworld_Djinn_Turn"]
            },
            "cullingModelAlwaysAnimate": true
          }
        }
      }
    },
    "partControl": {
      "parts": [
        {
          "$type": "FMMCPGCNMJF",
          "angularSpeed": 3600.0,
          "NCHJLODGJLP": "CloudRoot",
          "AGAOMJIIDOI": "",
          "CJBHHMJAEJF": 360.0,
          "HFCEMLCNHGD": 0.0
        }
      ]
    },
    "billboard": {
      "$type": "EPNHHFBJGDN",
      "EBBHBMFMOGD": "BillboardAttach",
      "offset": {
        "y": 1.5
      },
      "iconName": "UI_NPCTopIcon_Homeworld_Djinn",
      "title": "UI_Homeworld_Djinn_01_NPCTop_Title"
    },
    "IDAKPPKIDND": {}
  },
  "SceneObj_Homeworld_NPCObj_Ani_Djinn_02": {
    "$type": "ConfigGadget",
    "common": {
      "enableCrashDamage": false
    },
    "model": {
      "bornEffect": "",
      "attachEffect": "Eff_SceneObj_Djinn_Idle_Cloud",
      "hasCharacterRenderering": true
    },
    "hasModel": true,
    "combat": {
      "property": {
        "HP": 99999.0,
        "isInvincible": true,
        "isLockHP": true,
        "canTriggerBullet": true,
        "denyElementStick": true
      }
    },
    "attackAttenuation": "",
    "abilities": [
      {
        "abilityID": "Ability_01",
        "abilityName": "SceneObj_Homeworld_NPCObj_Ani_Djinn_02_Ability",
        "abilityOverride": ""
      },
      {
        "abilityID": "Ability_02",
        "abilityName": "SceneObj_Homeworld_NPCObj_Ani_Djinn_AdvanceWithCloud",
        "abilityOverride": ""
      },
      {
        "abilityID": "Ability_03",
        "abilityName": "Scene_RockGadget_Summon_Detect",
        "abilityOverride": ""
      }
    ],
    "move": {
      "$type": "GONOGJMJCEI",
      "NFJGMLAPJLI": false,
      "INAGNKBACBH": false
    },
    "IHIMCPIGBOE": {
      "HCKEJPPPBKC": "",
      "HJGKBIMEEEN": "",
      "icon": "",
      "NEADBBJLDAF": "",
      "OMMGBOCMAMC": "",
      "NHEGJLNIIIB": ""
    },
    "stateLayers": {
      "defaultLayer": {
        "$type": "ConfigNormalStateLayer",
        "FNPGDAEJAPJ": "",
        "stateIDs": {
          "All": {
            "$type": "ConfigNormalStateIDInfo",
            "animatorStates": {
              "Appear": ["Audio_SceneObj_Homeworld_Djinn_Appear"],
              "Idle": [],
              "Show02DrillIn": ["Audio_SceneObj_Homeworld_Djinn_Show02Drillln"],
              "Show02Loop": [],
              "Show02DrillOut": ["Audio_SceneObj_Homeworld_Djinn_Appear"],
              "Show01": ["Audio_SceneObj_Homeworld_Djinn_Show01"],
              "Talk": [],
              "Turnleft": ["Audio_SceneObj_Homeworld_Djinn_Turn"],
              "Turnright": ["Audio_SceneObj_Homeworld_Djinn_Turn"]
            },
            "cullingModelAlwaysAnimate": true
          }
        }
      }
    },
    "partControl": {
      "parts": [
        {
          "$type": "FMMCPGCNMJF",
          "angularSpeed": 3600.0,
          "NCHJLODGJLP": "CloudRoot",
          "AGAOMJIIDOI": "",
          "CJBHHMJAEJF": 360.0,
          "HFCEMLCNHGD": 360.0
        }
      ]
    },
    "billboard": {
      "$type": "EPNHHFBJGDN",
      "EBBHBMFMOGD": "BillboardAttach",
      "offset": {
        "y": 1.5
      },
      "iconName": "UI_NPCTopIcon_Homeworld_Djinn_Weekly",
      "title": "UI_Homeworld_Djinn_02_NPCTop_Title"
    },
    "IDAKPPKIDND": {}
  }
}
