{
  "SceneObj_Area_Dq_Property_Prop_SmokeDevice_01": {
    "$type": "ConfigGadget",
    "hasModel": true,
    "combat": {
      "property": {
        "HP": 99999.0,
        "attack": 200.0,
        "weight": 50.0,
        "isLockHP": true,
        "canTriggerBullet": true
      },
      "beHit": {
        "hitBloodEffect": "",
        "hitAutoRedirect": false,
        "muteAllHitText": true
      },
      "combatLock": {
        "lockShape": "CircleLockEnemy",
        "lockType": "Gadget_Lv1"
      }
    },
    "attackAttenuation": "",
    "abilities": [
      {
        "abilityID": "SceneObj_Area_Dq_Property_Prop_SmokeDevice_01",
        "abilityName": "SceneObj_Area_Dq_Property_Prop_SmokeDevice_01",
        "abilityOverride": ""
      }
    ],
    "field": {
      "concernType": "LocalAvatar",
      "shape": "CircleR2H2",
      "DEOHMEELJDM": "",
      "triggerInfinite": true,
      "lifeInfinite": true,
      "checkInterval": 0.5,
      "overwriteCampType": true,
      "campType": "SelfCamp",
      "INKADPFABPA": "",
      "AAHHPDHLLLH": ""
    },
    "IHIMCPIGBOE": {
      "HCKEJPPPBKC": "TEST/TEST_Chest_Btn",
      "HJGKBIMEEEN": "",
      "icon": "",
      "NEADBBJLDAF": "",
      "OMMGBOCMAMC": "",
      "NHEGJLNIIIB": ""
    },
    "gadgetAction": {
      "gadgetStateActionList": [
        {
          "$type": "EJMBACIDIPA",
          "enable": true
        },
        {
          "$type": "EJMBACIDIPA",
          "LBDKLEDDLHH": "GearStop"
        },
        {
          "$type": "EJMBACIDIPA",
          "LBDKLEDDLHH": "GearStart"
        }
      ]
    },
    "IDAKPPKIDND": {
      "BMCIBMPEDHK": 2.0
    }
  },
  "SceneObj_Area_Dq_Property_Prop_NoisyBait_01": {
    "$type": "ConfigGadget",
    "hasModel": true,
    "combat": {
      "property": {
        "HP": 99999.0,
        "attack": 200.0,
        "weight": 50.0,
        "isLockHP": true,
        "canTriggerBullet": true
      },
      "beHit": {
        "hitBloodEffect": "",
        "hitAutoRedirect": false,
        "muteAllHitText": true
      },
      "combatLock": {
        "lockShape": "CircleLockEnemy",
        "lockType": "Gadget_Lv1"
      }
    },
    "attackAttenuation": "",
    "abilities": [
      {
        "abilityID": "SceneObj_Area_Dq_Property_Prop_NoisyBait_01",
        "abilityName": "SceneObj_Area_Dq_Property_Prop_NoisyBait_01",
        "abilityOverride": ""
      }
    ],
    "field": {
      "concernType": "LocalAvatar",
      "shape": "CircleR2H2",
      "DEOHMEELJDM": "",
      "triggerInfinite": true,
      "lifeInfinite": true,
      "checkInterval": 0.5,
      "overwriteCampType": true,
      "campType": "SelfCamp",
      "INKADPFABPA": "",
      "AAHHPDHLLLH": ""
    },
    "IHIMCPIGBOE": {
      "HCKEJPPPBKC": "TEST/TEST_Chest_Btn",
      "HJGKBIMEEEN": "",
      "icon": "",
      "NEADBBJLDAF": "",
      "OMMGBOCMAMC": "",
      "NHEGJLNIIIB": ""
    },
    "gadgetAction": {
      "gadgetStateActionList": [
        {
          "$type": "EJMBACIDIPA",
          "enable": true
        },
        {
          "$type": "EJMBACIDIPA",
          "LBDKLEDDLHH": "GearStop"
        },
        {
          "$type": "EJMBACIDIPA",
          "LBDKLEDDLHH": "GearStart"
        }
      ]
    },
    "IDAKPPKIDND": {
      "BMCIBMPEDHK": 2.0
    }
  },
  "SceneObj_Area_Dq_Property_Prop_Shelter_01": {
    "$type": "ConfigGadget",
    "hasModel": true,
    "combat": {
      "property": {
        "HP": 99999.0,
        "weight": 50.0,
        "isLockHP": true,
        "canTriggerBullet": true
      },
      "beHit": {
        "hitBloodEffect": "",
        "hitAutoRedirect": false,
        "muteAllHitText": true
      },
      "combatLock": {
        "lockShape": "CircleLockEnemy",
        "lockType": "Gadget_Lv1"
      }
    },
    "attackAttenuation": ""
  },
  "SceneObj_Area_Dq_Property_Prop_HachiWayPoint_01": {
    "$type": "ConfigGadget",
    "hasModel": true,
    "attackAttenuation": "",
    "abilities": [
      {
        "abilityID": "SceneObj_Area_Dq_Property_Prop_HachiWayPoint_01",
        "abilityName": "SceneObj_Area_Dq_Property_Prop_HachiWayPoint_01",
        "abilityOverride": ""
      }
    ],
    "field": {
      "shape": "",
      "DEOHMEELJDM": "",
      "lifeInfinite": true,
      "checkInterval": 0.5,
      "campType": "Enemy",
      "INKADPFABPA": "",
      "AAHHPDHLLLH": ""
    }
  },
  "SceneObj_Gear_Property_Ani_Prop_WoodenCage_01": {
    "$type": "ConfigGadget",
    "hasModel": true,
    "combat": {
      "property": {
        "HP": 99999.0,
        "attack": 200.0,
        "weight": 50.0,
        "isLockHP": true
      },
      "beHit": {
        "hitBloodEffect": "",
        "hitAutoRedirect": false,
        "muteAllHitText": true
      },
      "combatLock": {
        "lockShape": "CircleLockEnemy",
        "denyLockOn": true,
        "lockType": "Gadget_Lv1"
      }
    },
    "attackAttenuation": "",
    "abilities": [
      {
        "abilityID": "SceneObj_Gear_Property_Ani_Prop_WoodenCage_01",
        "abilityName": "SceneObj_Gear_Property_Ani_Prop_WoodenCage_01",
        "abilityOverride": ""
      }
    ],
    "IHIMCPIGBOE": {
      "HCKEJPPPBKC": "TEST/TEST_Chest_Btn",
      "HJGKBIMEEEN": "",
      "icon": "",
      "NEADBBJLDAF": "",
      "OMMGBOCMAMC": "",
      "NHEGJLNIIIB": "",
      "BKFNIPGCJIK": false
    },
    "gadgetAction": {
      "gadgetStateActionList": [
        {
          "$type": "ConfigGadgetStateSetAnimInt",
          "intID": "State",
          "syncState": true
        },
        {
          "$type": "EJMBACIDIPA",
          "enable": true
        },
        {
          "$type": "EJMBACIDIPA",
          "LBDKLEDDLHH": "GearStart"
        },
        {
          "$type": "EJMBACIDIPA",
          "LBDKLEDDLHH": "GearStop"
        },
        {
          "$type": "EJMBACIDIPA",
          "LBDKLEDDLHH": "Action03"
        }
      ]
    }
  },
  "SceneObj_Area_Common_Property_Prop_HintPoint_01": {
    "$type": "ConfigGadget",
    "hasModel": true,
    "attackAttenuation": "",
    "abilities": [
      {
        "abilityID": "SceneObj_Area_Common_Property_Prop_HintPoint_01",
        "abilityName": "SceneObj_Area_Common_Property_Prop_HintPoint_01",
        "abilityOverride": ""
      }
    ],
    "misc": {
      "GKCEMAKIKPH": "",
      "GHIKFNNEDMG": true,
      "PAGFLPJELAN": true
    },
    "billboard": {
      "$type": "ConfigBillboard",
      "EBBHBMFMOGD": "BillboardAttach",
      "offset": {
        "y": 2.0
      }
    }
  }
}
