{
  "SkillObj_Activity_HideSeekV2_Type_01": {
    "$type": "ConfigGadget",
    "common": {
      "effectAttachShape": {
        "$type": "ConfigEffectAttachMesh",
        "mesh": "EffectMesh"
      },
      "affectedByWorld": true
    },
    "model": {
      "bornEffect": "",
      "attachEffect": ""
    },
    "hasAbility": true,
    "combat": {
      "property": {
        "HP": 5000.0,
        "isLockHP": true,
        "canTriggerBullet": true,
        "ignorePurgeRate": false
      },
      "beHit": {
        "hitBloodEffect": ""
      },
      "combatLock": {
        "lockShape": "CircleLockEnemy",
        "denyLockOn": true,
        "lockType": "Default"
      }
    },
    "attackAttenuation": "",
    "abilities": [
      {
        "abilityID": "ActivityAbility_HideSeek_kong",
        "abilityName": "ActivityAbility_HideSeek_kong",
        "abilityOverride": ""
      }
    ],
    "timer": {
      "lifeInfinite": true
    },
    "move": {
      "$type": "BHKMHNNCDMG",
      "EBBHBMFMOGD": "",
      "EMLMHGJEPIO": true,
      "HHDPHCLOMED": {
        "z": 1.0
      },
      "HMOABLOFOGN": {
        "CHCGMDKBJAA": [
          {
            "type": "ScenePropCollider"
          }
        ],
        "ANKLGNLEEHL": [{}]
      },
      "BFNJPKOJLOB": {
        "CHCGMDKBJAA": [
          {
            "type": "ScenePropCollider"
          }
        ],
        "LKCJHNGMIAD": 0.5
      },
      "IFFPFBJAGHL": {
        "DGAFNDFNEAK": {
          "text": "Play_sfx_char_activity_hideSeek_wood_move"
        },
        "stopEvent": {
          "text": "Stop_sfx_char_activity_hideSeek_wood_move"
        },
        "EOFKJLIEJHL": {
          "text": "Param_hideSeek"
        },
        "DJMHNGEJKKD": {
          "text": "Play_sfx_char_activity_hideSeek_wood_land"
        }
      }
    }
  },
  "SkillObj_Activity_HideSeekV2_Type_02": {
    "$type": "ConfigGadget",
    "common": {
      "effectAttachShape": {
        "$type": "ConfigEffectAttachMesh",
        "mesh": "EffectMesh"
      },
      "affectedByWorld": true
    },
    "model": {
      "bornEffect": "",
      "attachEffect": ""
    },
    "hasAbility": true,
    "combat": {
      "property": {
        "HP": 5000.0,
        "isLockHP": true,
        "canTriggerBullet": true,
        "ignorePurgeRate": false
      },
      "beHit": {
        "hitBloodEffect": ""
      },
      "combatLock": {
        "lockShape": "CircleLockEnemy",
        "denyLockOn": true,
        "lockType": "Default"
      }
    },
    "attackAttenuation": "",
    "abilities": [
      {
        "abilityID": "ActivityAbility_HideSeek_kong",
        "abilityName": "ActivityAbility_HideSeek_kong",
        "abilityOverride": ""
      }
    ],
    "timer": {
      "lifeInfinite": true
    },
    "move": {
      "$type": "BHKMHNNCDMG",
      "EBBHBMFMOGD": "",
      "EMLMHGJEPIO": true,
      "HHDPHCLOMED": {
        "z": 1.0
      },
      "HMOABLOFOGN": {
        "CHCGMDKBJAA": [
          {
            "type": "ScenePropCollider"
          }
        ],
        "ANKLGNLEEHL": [{}]
      },
      "BFNJPKOJLOB": {
        "CHCGMDKBJAA": [
          {
            "type": "ScenePropCollider"
          }
        ],
        "LKCJHNGMIAD": 0.5
      },
      "IFFPFBJAGHL": {
        "DGAFNDFNEAK": {
          "text": "Play_sfx_char_activity_hideSeek_lamp_move"
        },
        "stopEvent": {
          "text": "Stop_sfx_char_activity_hideSeek_lamp_move"
        },
        "EOFKJLIEJHL": {
          "text": "Param_hideSeek"
        },
        "DJMHNGEJKKD": {
          "text": "Play_sfx_char_activity_hideSeek_lamp_land"
        }
      }
    }
  },
  "SkillObj_Activity_HideSeekV2_Type_03": {
    "$type": "ConfigGadget",
    "common": {
      "effectAttachShape": {
        "$type": "ConfigEffectAttachMesh",
        "mesh": "EffectMesh"
      },
      "affectedByWorld": true
    },
    "model": {
      "bornEffect": "",
      "attachEffect": ""
    },
    "hasAbility": true,
    "combat": {
      "property": {
        "HP": 5000.0,
        "isLockHP": true,
        "canTriggerBullet": true,
        "ignorePurgeRate": false
      },
      "beHit": {
        "hitBloodEffect": ""
      },
      "combatLock": {
        "lockShape": "CircleLockEnemy",
        "denyLockOn": true,
        "lockType": "Default"
      }
    },
    "attackAttenuation": "",
    "abilities": [
      {
        "abilityID": "ActivityAbility_HideSeek_kong",
        "abilityName": "ActivityAbility_HideSeek_kong",
        "abilityOverride": ""
      }
    ],
    "timer": {
      "lifeInfinite": true
    },
    "move": {
      "$type": "BHKMHNNCDMG",
      "EBBHBMFMOGD": "",
      "EMLMHGJEPIO": true,
      "HHDPHCLOMED": {
        "z": 1.0
      },
      "HMOABLOFOGN": {
        "CHCGMDKBJAA": [
          {
            "type": "ScenePropCollider"
          }
        ],
        "ANKLGNLEEHL": [{}]
      },
      "BFNJPKOJLOB": {
        "CHCGMDKBJAA": [
          {
            "type": "ScenePropCollider"
          }
        ],
        "LKCJHNGMIAD": 0.5
      },
      "IFFPFBJAGHL": {
        "DGAFNDFNEAK": {
          "text": "Play_sfx_char_activity_hideSeek_scarecrow_move"
        },
        "stopEvent": {
          "text": "Stop_sfx_char_activity_hideSeek_scarecrow_move"
        },
        "EOFKJLIEJHL": {
          "text": "Param_hideSeek"
        },
        "DJMHNGEJKKD": {
          "text": "Play_sfx_char_activity_hideSeek_scarecrow_land"
        }
      }
    }
  },
  "HideType_A_Style_1_Scarecrow": {
    "$type": "ConfigGadget",
    "common": {
      "effectAttachShape": {
        "$type": "ConfigEffectAttachMesh",
        "mesh": "EffectMesh"
      },
      "affectedByWorld": true
    },
    "model": {
      "bornEffect": "",
      "attachEffect": "",
      "BDDAANCBGOL": true
    },
    "hasAbility": true,
    "combat": {
      "property": {
        "HP": 5000.0,
        "isLockHP": true,
        "canTriggerBullet": true,
        "ignorePurgeRate": false
      },
      "beHit": {
        "hitBloodEffect": ""
      },
      "combatLock": {
        "lockShape": "CircleLockEnemy",
        "denyLockOn": true,
        "lockType": "Default"
      }
    },
    "attackAttenuation": "",
    "abilities": [
      {
        "abilityID": "ActivityAbility_HideSeek_kong",
        "abilityName": "ActivityAbility_HideSeek_kong",
        "abilityOverride": ""
      }
    ],
    "timer": {
      "lifeInfinite": true
    },
    "move": {
      "$type": "BHKMHNNCDMG",
      "EBBHBMFMOGD": "",
      "EMLMHGJEPIO": true,
      "HHDPHCLOMED": {
        "z": 1.0
      },
      "HMOABLOFOGN": {
        "CHCGMDKBJAA": [
          {
            "type": "ScenePropCollider"
          }
        ],
        "ANKLGNLEEHL": [{}]
      },
      "BFNJPKOJLOB": {
        "CHCGMDKBJAA": [
          {
            "type": "ScenePropCollider"
          }
        ],
        "LKCJHNGMIAD": 0.5
      },
      "IFFPFBJAGHL": {
        "DGAFNDFNEAK": {
          "text": "Play_sfx_char_activity_hideSeek_scarecrow_move"
        },
        "stopEvent": {
          "text": "Stop_sfx_char_activity_hideSeek_scarecrow_move"
        },
        "EOFKJLIEJHL": {
          "text": "Param_hideSeek"
        },
        "DJMHNGEJKKD": {
          "text": "Play_sfx_char_activity_hideSeek_scarecrow_land"
        }
      }
    }
  },
  "HideType_A_Style_1_Wooden": {
    "$type": "ConfigGadget",
    "common": {
      "effectAttachShape": {
        "$type": "ConfigEffectAttachMesh",
        "mesh": "EffectMesh"
      },
      "affectedByWorld": true
    },
    "model": {
      "bornEffect": "",
      "attachEffect": "",
      "BDDAANCBGOL": true
    },
    "hasAbility": true,
    "combat": {
      "property": {
        "HP": 5000.0,
        "isLockHP": true,
        "canTriggerBullet": true,
        "ignorePurgeRate": false
      },
      "beHit": {
        "hitBloodEffect": ""
      },
      "combatLock": {
        "lockShape": "CircleLockEnemy",
        "denyLockOn": true,
        "lockType": "Default"
      }
    },
    "attackAttenuation": "",
    "abilities": [
      {
        "abilityID": "ActivityAbility_HideSeek_kong",
        "abilityName": "ActivityAbility_HideSeek_kong",
        "abilityOverride": ""
      }
    ],
    "timer": {
      "lifeInfinite": true
    },
    "move": {
      "$type": "BHKMHNNCDMG",
      "EBBHBMFMOGD": "",
      "EMLMHGJEPIO": true,
      "HHDPHCLOMED": {
        "z": 1.0
      },
      "HMOABLOFOGN": {
        "CHCGMDKBJAA": [
          {
            "type": "ScenePropCollider"
          }
        ],
        "ANKLGNLEEHL": [{}]
      },
      "BFNJPKOJLOB": {
        "CHCGMDKBJAA": [
          {
            "type": "ScenePropCollider"
          }
        ],
        "LKCJHNGMIAD": 0.5
      },
      "IFFPFBJAGHL": {
        "DGAFNDFNEAK": {
          "text": "Play_sfx_char_activity_hideSeek_wood_move"
        },
        "stopEvent": {
          "text": "Stop_sfx_char_activity_hideSeek_wood_move"
        },
        "EOFKJLIEJHL": {
          "text": "Param_hideSeek"
        },
        "DJMHNGEJKKD": {
          "text": "Play_sfx_char_activity_hideSeek_wood_land"
        }
      }
    }
  },
  "HideType_A_Style_1_Grass": {
    "$type": "ConfigGadget",
    "common": {
      "effectAttachShape": {
        "$type": "ConfigEffectAttachMesh",
        "mesh": "EffectMesh"
      },
      "affectedByWorld": true
    },
    "model": {
      "bornEffect": "",
      "attachEffect": "",
      "BDDAANCBGOL": true
    },
    "hasAbility": true,
    "combat": {
      "property": {
        "HP": 5000.0,
        "isLockHP": true,
        "canTriggerBullet": true,
        "ignorePurgeRate": false
      },
      "beHit": {
        "hitBloodEffect": ""
      },
      "combatLock": {
        "lockShape": "CircleLockEnemy",
        "denyLockOn": true,
        "lockType": "Default"
      }
    },
    "attackAttenuation": "",
    "abilities": [
      {
        "abilityID": "ActivityAbility_HideSeek_kong",
        "abilityName": "ActivityAbility_HideSeek_kong",
        "abilityOverride": ""
      }
    ],
    "timer": {
      "lifeInfinite": true
    },
    "move": {
      "$type": "BHKMHNNCDMG",
      "EBBHBMFMOGD": "",
      "EMLMHGJEPIO": true,
      "HHDPHCLOMED": {
        "z": 1.0
      },
      "HMOABLOFOGN": {
        "CHCGMDKBJAA": [
          {
            "type": "ScenePropCollider"
          }
        ],
        "ANKLGNLEEHL": [{}]
      },
      "BFNJPKOJLOB": {
        "CHCGMDKBJAA": [
          {
            "type": "ScenePropCollider"
          }
        ],
        "LKCJHNGMIAD": 0.5
      },
      "IFFPFBJAGHL": {
        "DGAFNDFNEAK": {
          "text": "Play_sfx_char_activity_hideSeek_grass_move"
        },
        "stopEvent": {
          "text": "Stop_sfx_char_activity_hideSeek_grass_move"
        },
        "EOFKJLIEJHL": {
          "text": "Param_hideSeek"
        },
        "DJMHNGEJKKD": {
          "text": "Play_sfx_char_activity_hideSeek_grass_land"
        }
      }
    }
  },
  "HideType_A_Style_1_Lamp": {
    "$type": "ConfigGadget",
    "common": {
      "effectAttachShape": {
        "$type": "ConfigEffectAttachMesh",
        "mesh": "EffectMesh"
      },
      "affectedByWorld": true
    },
    "model": {
      "bornEffect": "",
      "attachEffect": "",
      "BDDAANCBGOL": true
    },
    "hasAbility": true,
    "combat": {
      "property": {
        "HP": 5000.0,
        "isLockHP": true,
        "canTriggerBullet": true,
        "ignorePurgeRate": false
      },
      "beHit": {
        "hitBloodEffect": ""
      },
      "combatLock": {
        "lockShape": "CircleLockEnemy",
        "denyLockOn": true,
        "lockType": "Default"
      }
    },
    "attackAttenuation": "",
    "abilities": [
      {
        "abilityID": "ActivityAbility_HideSeek_kong",
        "abilityName": "ActivityAbility_HideSeek_kong",
        "abilityOverride": ""
      }
    ],
    "timer": {
      "lifeInfinite": true
    },
    "move": {
      "$type": "BHKMHNNCDMG",
      "EBBHBMFMOGD": "",
      "EMLMHGJEPIO": true,
      "HHDPHCLOMED": {
        "z": 1.0
      },
      "HMOABLOFOGN": {
        "CHCGMDKBJAA": [
          {
            "type": "ScenePropCollider"
          }
        ],
        "ANKLGNLEEHL": [{}]
      },
      "BFNJPKOJLOB": {
        "CHCGMDKBJAA": [
          {
            "type": "ScenePropCollider"
          }
        ],
        "LKCJHNGMIAD": 0.5
      },
      "IFFPFBJAGHL": {
        "DGAFNDFNEAK": {
          "text": "Play_sfx_char_activity_hideSeek_lamp_move"
        },
        "stopEvent": {
          "text": "Stop_sfx_char_activity_hideSeek_lamp_move"
        },
        "EOFKJLIEJHL": {
          "text": "Param_hideSeek"
        },
        "DJMHNGEJKKD": {
          "text": "Play_sfx_char_activity_hideSeek_lamp_land"
        }
      }
    }
  },
  "HideType_A_Style_1_wooden_Bait": {
    "$type": "ConfigGadget",
    "common": {
      "effectAttachShape": {
        "$type": "ConfigEffectAttachBox"
      },
      "affectedByWorld": true
    },
    "combat": {
      "property": {
        "HP": 5000.0,
        "isLockHP": true,
        "canTriggerBullet": true,
        "ignorePurgeRate": false
      },
      "beHit": {
        "hitBloodEffect": "",
        "muteAllHit": true,
        "muteAllHitEffect": true,
        "muteAllHitText": true
      },
      "combatLock": {
        "lockShape": "CircleLockEnemy",
        "denyLockOn": true,
        "lockType": "Default"
      }
    },
    "attackAttenuation": "",
    "abilities": [
      {
        "abilityID": "ActivityAbility_HideSeek_HideGadgetSkill_Bait",
        "abilityName": "ActivityAbility_HideSeek_HideGadgetSkill_Bait",
        "abilityOverride": ""
      }
    ],
    "timer": {
      "lifeInfinite": true
    }
  },
  "HideType_A_Style_1_GrassStacks_Bait": {
    "$type": "ConfigGadget",
    "common": {
      "effectAttachShape": {
        "$type": "ConfigEffectAttachMesh",
        "mesh": "EffectMesh"
      },
      "affectedByWorld": true
    },
    "combat": {
      "property": {
        "HP": 5000.0,
        "isLockHP": true,
        "canTriggerBullet": true,
        "ignorePurgeRate": false
      },
      "beHit": {
        "hitBloodEffect": ""
      },
      "combatLock": {
        "lockShape": "CircleLockEnemy",
        "denyLockOn": true,
        "lockType": "Default"
      }
    },
    "attackAttenuation": "",
    "abilities": [
      {
        "abilityID": "ActivityAbility_HideSeek_HideGadgetSkill_Bait",
        "abilityName": "ActivityAbility_HideSeek_HideGadgetSkill_Bait",
        "abilityOverride": ""
      }
    ],
    "timer": {
      "lifeInfinite": true
    }
  },
  "HideType_A_Style_Bait_Target": {
    "$type": "ConfigGadget",
    "common": {
      "effectAttachShape": {
        "$type": "ConfigEffectAttachMesh",
        "mesh": "EffectMesh"
      },
      "affectedByWorld": true
    },
    "combat": {
      "property": {
        "HP": 5000.0,
        "isLockHP": true,
        "canTriggerBullet": true,
        "ignorePurgeRate": false
      },
      "beHit": {
        "hitBloodEffect": ""
      },
      "combatLock": {
        "lockShape": "CircleLockEnemy",
        "denyLockOn": true,
        "lockType": "Default"
      }
    },
    "attackAttenuation": "",
    "abilities": [
      {
        "abilityID": "ActivityAbility_HideSeek_Bait_Target",
        "abilityName": "ActivityAbility_HideSeek_Bait_Target",
        "abilityOverride": ""
      }
    ],
    "timer": {
      "lifeInfinite": true
    }
  },
  "HideType_A_Style_InvisibleBait_Target": {
    "$type": "ConfigGadget",
    "common": {
      "effectAttachShape": {
        "$type": "ConfigEffectAttachMesh",
        "mesh": "EffectMesh"
      },
      "affectedByWorld": true
    },
    "combat": {
      "property": {
        "HP": 5000.0,
        "isLockHP": true,
        "canTriggerBullet": true,
        "ignorePurgeRate": false
      },
      "beHit": {
        "hitBloodEffect": ""
      },
      "combatLock": {
        "lockShape": "CircleLockEnemy",
        "denyLockOn": true,
        "lockType": "Default"
      }
    },
    "attackAttenuation": "",
    "abilities": [
      {
        "abilityID": "ActivityAbility_HideSeek_InvisibleBait_Target",
        "abilityName": "ActivityAbility_HideSeek_InvisibleBait_Target",
        "abilityOverride": ""
      }
    ],
    "timer": {
      "lifeInfinite": true
    }
  },
  "Activity_HideSeek_Property_Prop_SeekerBattery_01": {
    "$type": "ConfigGadget",
    "combat": {
      "property": {
        "HP": 50000.0,
        "ignorePurgeRate": false
      },
      "combatLock": {
        "lockShape": "CircleLockEnemy",
        "denyLockOn": true,
        "lockType": "Gadget_Lv1"
      }
    },
    "attackAttenuation": "",
    "abilities": [
      {
        "abilityID": "Activity_HideSeek_Property_Prop_SeekerBattery_01",
        "abilityName": "Activity_HideSeek_Property_Prop_SeekerBattery_01",
        "abilityOverride": ""
      }
    ],
    "field": {
      "concernType": "AllAvatars",
      "shape": "CircleR2H2",
      "DEOHMEELJDM": "",
      "triggerInfinite": true,
      "startCheckTime": 6.0,
      "checkInterval": 0.10000000149011612,
      "lifeTime": 300.0,
      "overwriteCampType": true,
      "campType": "All",
      "useCollider": false,
      "INKADPFABPA": "",
      "AAHHPDHLLLH": ""
    },
    "timer": {
      "lifeInfinite": true
    },
    "KOKIOOHIIKC": true
  },
  "Activity_HideSeek_Skill_Guide": {
    "$type": "ConfigGadget",
    "common": {
      "effectAttachShape": {
        "$type": "ConfigEffectAttachBox"
      },
      "affectedByWorld": true
    },
    "combat": {
      "property": {
        "HP": 5000.0,
        "canTriggerBullet": true,
        "denyElementStick": true,
        "ignorePurgeRate": false
      },
      "combatLock": {
        "lockShape": "CircleLockEnemy",
        "denyLockOn": true,
        "lockType": "Gadget_Lv1"
      }
    },
    "attackAttenuation": "",
    "abilities": [
      {
        "abilityID": "ActivityAbility_HideSeek_Seeker_Guide_TargetGadget",
        "abilityName": "ActivityAbility_HideSeek_Seeker_Guide_TargetGadget",
        "abilityOverride": ""
      }
    ],
    "timer": {
      "lifeTime": 5.0
    }
  },
  "HideType_Bait": {
    "$type": "ConfigGadget",
    "common": {
      "effectAttachShape": {
        "$type": "ConfigEffectAttachMesh",
        "mesh": "EffectMesh"
      },
      "affectedByWorld": true
    },
    "globalValue": {
      "serverGlobalValues": ["SGV_HideAndSeek_Bait_Transfer"]
    },
    "hasModel": true,
    "combat": {
      "property": {
        "HP": 50000.0,
        "isLockHP": true,
        "ignorePurgeRate": false
      },
      "beHit": {
        "hitBloodEffect": ""
      },
      "combatLock": {
        "lockShape": "CircleLockEnemy",
        "denyLockOn": true,
        "lockType": "Default"
      }
    },
    "attackAttenuation": "",
    "abilities": [
      {
        "abilityID": "ActivityAbility_HideSeek_Seeker_Bait_Gadget",
        "abilityName": "ActivityAbility_HideSeek_Seeker_Bait_Gadget",
        "abilityOverride": ""
      }
    ]
  },
  "HideType_InvisibleBait": {
    "$type": "ConfigGadget",
    "common": {
      "effectAttachShape": {
        "$type": "ConfigEffectAttachMesh",
        "mesh": "EffectMesh"
      },
      "affectedByWorld": true,
      "disableTickDistance": 100000.0
    },
    "globalValue": {
      "serverGlobalValues": [
        "SGV_HideAndSeek_InvisibleBait_Transfer",
        "SGV_InvisibleBait_Display"
      ]
    },
    "hasModel": true,
    "combat": {
      "property": {
        "HP": 50000.0,
        "isLockHP": true,
        "ignorePurgeRate": false
      },
      "beHit": {
        "hitBloodEffect": ""
      },
      "combatLock": {
        "lockShape": "CircleLockEnemy",
        "denyLockOn": true,
        "lockType": "Default"
      }
    },
    "attackAttenuation": "",
    "abilities": [
      {
        "abilityID": "ActivityAbility_HideSeek_Seeker_InvisibleBait_Gadget",
        "abilityName": "ActivityAbility_HideSeek_Seeker_InvisibleBait_Gadget",
        "abilityOverride": ""
      },
      {
        "abilityID": "ActivityAbility_HideSeek_Invisible_Bait_OnExit_Check",
        "abilityName": "ActivityAbility_HideSeek_Invisible_Bait_OnExit_Check",
        "abilityOverride": ""
      }
    ],
    "field": {
      "concernType": "AllAvatars",
      "shape": "CircleLockEnemyR8H6HC",
      "DEOHMEELJDM": "",
      "triggerInfinite": true,
      "lifeInfinite": true,
      "checkInterval": 0.10000000149011612,
      "overwriteCampType": true,
      "campType": "All",
      "INKADPFABPA": "",
      "AAHHPDHLLLH": ""
    }
  },
  "Activity_HideSeek_Skill_SuperPrison": {
    "$type": "ConfigGadget",
    "common": {
      "effectAttachShape": {
        "$type": "ConfigEffectAttachBox"
      }
    },
    "combat": {
      "property": {
        "HP": 99999.0,
        "isInvincible": true,
        "isLockHP": true,
        "denyElementStick": true
      },
      "beHit": {
        "hitBloodEffect": "",
        "hitAutoRedirect": false,
        "muteAllHitText": true
      },
      "combatLock": {
        "lockShape": "CircleLockEnemy",
        "denyLockOn": true,
        "lockType": "Gadget_Lv1"
      }
    },
    "attackAttenuation": "",
    "abilities": [
      {
        "abilityID": "ActivityAbility_HideSeek_HideGadgetSkill_SuperPrison",
        "abilityName": "ActivityAbility_HideSeek_HideGadgetSkill_SuperPrison",
        "abilityOverride": ""
      }
    ],
    "timer": {
      "lifeTime": 60.0
    }
  },
  "Activity_HideSeek_Execution_Target": {
    "$type": "ConfigGadget",
    "common": {
      "effectAttachShape": {
        "$type": "ConfigEffectAttachBox"
      }
    },
    "combat": {
      "property": {
        "HP": 99999.0,
        "isInvincible": true,
        "isLockHP": true,
        "denyElementStick": true
      },
      "beHit": {
        "hitBloodEffect": "",
        "hitAutoRedirect": false,
        "muteAllHitText": true
      },
      "combatLock": {
        "lockShape": "CircleLockEnemy",
        "denyLockOn": true,
        "lockType": "Gadget_Lv1"
      }
    },
    "attackAttenuation": "",
    "abilities": [
      {
        "abilityID": "ActivityAbility_HideSeek_HideGadgetSkill_ExecutionTarget",
        "abilityName": "ActivityAbility_HideSeek_HideGadgetSkill_ExecutionTarget",
        "abilityOverride": ""
      }
    ],
    "timer": {
      "lifeTime": 5.0
    }
  }
}
