[
  {
    "Id": 1,
    "scheduleId": 5022001,
    "challengeWatcherId": 1502201,
    "dungeonShowContentType": "MIST_TRIAL_SYNC_PROGRESS",
    "showParam": [""],
    "progressFormatTextMapHash": 1388012027,
    "ICJCEOAKBDA": 1138911760
  },
  {
    "Id": 2,
    "scheduleId": 5022001,
    "challengeWatcherId": 1502202,
    "dungeonShowContentType": "MIST_TRIAL_SYNC_STAT_VALUE",
    "showParam": ["1"],
    "progressFormatTextMapHash": 2386555291,
    "ICJCEOAKBDA": 4037566904
  },
  {
    "Id": 3,
    "scheduleId": 5022001,
    "challengeWatcherId": 1502205,
    "dungeonShowContentType": "MIST_TRIAL_SYNC_PROGRESS",
    "showParam": [""],
    "progressFormatTextMapHash": 4280201395,
    "ICJCEOAKBDA": 3901054352
  },
  {
    "Id": 4,
    "scheduleId": 5022001,
    "challengeWatcherId": 1502204,
    "dungeonShowContentType": "MIST_TRIAL_SYNC_STAT_VALUE",
    "showParam": ["2"],
    "progressFormatTextMapHash": 711886659,
    "ICJCEOAKBDA": 4107336664
  },
  {
    "Id": 5,
    "scheduleId": 5022001,
    "challengeWatcherId": 1502203,
    "dungeonShowContentType": "MIST_TRIAL_SYNC_CHALLENGE_LEFT_TIME",
    "showParam": ["999"],
    "progressFormatTextMapHash": 1084281683,
    "ICJCEOAKBDA": 763582552
  },
  {
    "Id": 6,
    "scheduleId": 5022001,
    "challengeWatcherId": 1502206,
    "dungeonShowContentType": "MIST_TRIAL_SYNC_PROGRESS",
    "showParam": [""],
    "progressFormatTextMapHash": 2947008843,
    "ICJCEOAKBDA": 4216307224
  },
  {
    "Id": 7,
    "scheduleId": 5022001,
    "challengeWatcherId": 1502207,
    "dungeonShowContentType": "MIST_TRIAL_SYNC_STAT_VALUE",
    "showParam": ["4"],
    "progressFormatTextMapHash": 3431518939,
    "ICJCEOAKBDA": 3091706624
  },
  {
    "Id": 8,
    "scheduleId": 5022001,
    "challengeWatcherId": 1502209,
    "dungeonShowContentType": "MIST_TRIAL_SYNC_PROGRESS",
    "showParam": [""],
    "progressFormatTextMapHash": 724210587,
    "ICJCEOAKBDA": 1352667672
  },
  {
    "Id": 9,
    "scheduleId": 5022001,
    "challengeWatcherId": 1502210,
    "dungeonShowContentType": "MIST_TRIAL_SYNC_PROGRESS",
    "showParam": [""],
    "progressFormatTextMapHash": 2803719531,
    "ICJCEOAKBDA": 253920776
  },
  {
    "Id": 10,
    "scheduleId": 5022001,
    "challengeWatcherId": 1502208,
    "dungeonShowContentType": "MIST_TRIAL_SYNC_CHALLENGE_LEFT_TIME",
    "showParam": ["999"],
    "progressFormatTextMapHash": 2870813139,
    "ICJCEOAKBDA": 2713457840
  },
  {
    "Id": 11,
    "scheduleId": 5022001,
    "challengeWatcherId": 1502211,
    "dungeonShowContentType": "MIST_TRIAL_SYNC_PROGRESS",
    "showParam": [""],
    "progressFormatTextMapHash": 2358002091,
    "ICJCEOAKBDA": 1899547016
  },
  {
    "Id": 12,
    "scheduleId": 5022001,
    "challengeWatcherId": 1502212,
    "dungeonShowContentType": "MIST_TRIAL_SYNC_STAT_VALUE",
    "showParam": ["7"],
    "progressFormatTextMapHash": 2130638195,
    "ICJCEOAKBDA": 2015686360
  },
  {
    "Id": 13,
    "scheduleId": 5022001,
    "challengeWatcherId": 1502215,
    "dungeonShowContentType": "MIST_TRIAL_SYNC_PROGRESS",
    "showParam": [""],
    "progressFormatTextMapHash": 3784467715,
    "ICJCEOAKBDA": 3677752384
  },
  {
    "Id": 14,
    "scheduleId": 5022001,
    "challengeWatcherId": 1502214,
    "dungeonShowContentType": "MIST_TRIAL_SYNC_PROGRESS",
    "showParam": [""],
    "progressFormatTextMapHash": 260191163,
    "ICJCEOAKBDA": 246476240
  },
  {
    "Id": 15,
    "scheduleId": 5022001,
    "challengeWatcherId": 1502213,
    "dungeonShowContentType": "MIST_TRIAL_SYNC_CHALLENGE_LEFT_TIME",
    "showParam": ["999"],
    "progressFormatTextMapHash": 2229289011,
    "ICJCEOAKBDA": 4166539696
  },
  {
    "Id": 16,
    "scheduleId": 5022001,
    "challengeWatcherId": 1502216,
    "dungeonShowContentType": "MIST_TRIAL_SYNC_PROGRESS",
    "showParam": [""],
    "progressFormatTextMapHash": 4233613787,
    "ICJCEOAKBDA": 2694261656
  },
  {
    "Id": 17,
    "scheduleId": 5022001,
    "challengeWatcherId": 1502217,
    "dungeonShowContentType": "MIST_TRIAL_SYNC_STAT_VALUE",
    "showParam": ["10"],
    "progressFormatTextMapHash": 2105344019,
    "ICJCEOAKBDA": 3466202432
  },
  {
    "Id": 18,
    "scheduleId": 5022001,
    "challengeWatcherId": 1502220,
    "dungeonShowContentType": "MIST_TRIAL_SYNC_PROGRESS",
    "showParam": [""],
    "progressFormatTextMapHash": 2258656963,
    "ICJCEOAKBDA": 1459119104
  },
  {
    "Id": 19,
    "scheduleId": 5022001,
    "challengeWatcherId": 1502219,
    "dungeonShowContentType": "MIST_TRIAL_SYNC_STAT_VALUE",
    "showParam": ["11"],
    "progressFormatTextMapHash": 2655980555,
    "ICJCEOAKBDA": 3410488256
  },
  {
    "Id": 20,
    "scheduleId": 5022001,
    "challengeWatcherId": 1502218,
    "dungeonShowContentType": "MIST_TRIAL_SYNC_CHALLENGE_LEFT_TIME",
    "showParam": ["999"],
    "progressFormatTextMapHash": 1989492739,
    "ICJCEOAKBDA": 2858786328
  },
  {
    "Id": 21,
    "scheduleId": 5022001,
    "challengeWatcherId": 1502221,
    "dungeonShowContentType": "MIST_TRIAL_SYNC_PROGRESS",
    "showParam": [""],
    "progressFormatTextMapHash": 483256795,
    "ICJCEOAKBDA": 3435420568
  },
  {
    "Id": 22,
    "scheduleId": 5022001,
    "challengeWatcherId": 1502222,
    "dungeonShowContentType": "MIST_TRIAL_SYNC_STAT_VALUE",
    "showParam": ["12"],
    "progressFormatTextMapHash": 4112027339,
    "ICJCEOAKBDA": 697990144
  },
  {
    "Id": 23,
    "scheduleId": 5022001,
    "challengeWatcherId": 1502225,
    "dungeonShowContentType": "MIST_TRIAL_SYNC_PROGRESS",
    "showParam": [""],
    "progressFormatTextMapHash": 1946937723,
    "ICJCEOAKBDA": 631292736
  },
  {
    "Id": 24,
    "scheduleId": 5022001,
    "challengeWatcherId": 1502224,
    "dungeonShowContentType": "MIST_TRIAL_SYNC_STAT_VALUE",
    "showParam": ["13"],
    "progressFormatTextMapHash": 3207746451,
    "ICJCEOAKBDA": 814850680
  },
  {
    "Id": 25,
    "scheduleId": 5022001,
    "challengeWatcherId": 1502223,
    "dungeonShowContentType": "MIST_TRIAL_SYNC_CHALLENGE_LEFT_TIME",
    "showParam": ["999"],
    "progressFormatTextMapHash": 1373554691,
    "ICJCEOAKBDA": 1645887744
  },
  {
    "Id": 26,
    "scheduleId": 5022001,
    "challengeWatcherId": 1502226,
    "dungeonShowContentType": "MIST_TRIAL_SYNC_PROGRESS",
    "showParam": [""],
    "progressFormatTextMapHash": 2926068547,
    "ICJCEOAKBDA": 899427848
  },
  {
    "Id": 27,
    "scheduleId": 5022001,
    "challengeWatcherId": 1502227,
    "dungeonShowContentType": "MIST_TRIAL_SYNC_STAT_VALUE",
    "showParam": ["15"],
    "progressFormatTextMapHash": 28003187,
    "ICJCEOAKBDA": 2718120200
  },
  {
    "Id": 28,
    "scheduleId": 5022001,
    "challengeWatcherId": 1502230,
    "dungeonShowContentType": "MIST_TRIAL_SYNC_PROGRESS",
    "showParam": [""],
    "progressFormatTextMapHash": 97134331,
    "ICJCEOAKBDA": 1852102936
  },
  {
    "Id": 29,
    "scheduleId": 5022001,
    "challengeWatcherId": 1502229,
    "dungeonShowContentType": "MIST_TRIAL_SYNC_STAT_VALUE",
    "showParam": ["17"],
    "progressFormatTextMapHash": 1201207971,
    "ICJCEOAKBDA": 3099213584
  },
  {
    "Id": 30,
    "scheduleId": 5022001,
    "challengeWatcherId": 1502228,
    "dungeonShowContentType": "MIST_TRIAL_SYNC_CHALLENGE_LEFT_TIME",
    "showParam": ["999"],
    "progressFormatTextMapHash": 2321295451,
    "ICJCEOAKBDA": 2057004976
  },
  {
    "Id": 31,
    "scheduleId": 5054001,
    "challengeWatcherId": 1505401,
    "dungeonShowContentType": "MIST_TRIAL_SYNC_PROGRESS",
    "showParam": [""],
    "progressFormatTextMapHash": 305394003,
    "ICJCEOAKBDA": 3176670904
  },
  {
    "Id": 32,
    "scheduleId": 5054001,
    "challengeWatcherId": 1505402,
    "dungeonShowContentType": "MIST_TRIAL_SYNC_PROGRESS",
    "showParam": [""],
    "progressFormatTextMapHash": 1305534707,
    "FEEPPOAJFMN": true,
    "ICJCEOAKBDA": 1125014392
  },
  {
    "Id": 33,
    "scheduleId": 5054001,
    "challengeWatcherId": 1505403,
    "dungeonShowContentType": "MIST_TRIAL_SYNC_PROGRESS",
    "showParam": [""],
    "progressFormatTextMapHash": 1385751611,
    "ICJCEOAKBDA": 2282459768
  },
  {
    "Id": 34,
    "scheduleId": 5054001,
    "challengeWatcherId": 1505404,
    "dungeonShowContentType": "MIST_TRIAL_SYNC_PROGRESS",
    "showParam": [""],
    "progressFormatTextMapHash": 2481455907,
    "FEEPPOAJFMN": true,
    "ICJCEOAKBDA": 2499215368
  },
  {
    "Id": 35,
    "scheduleId": 5054001,
    "challengeWatcherId": 1505405,
    "dungeonShowContentType": "MIST_TRIAL_SYNC_PROGRESS",
    "showParam": [""],
    "progressFormatTextMapHash": 2319136307,
    "ICJCEOAKBDA": 2141964352
  },
  {
    "Id": 36,
    "scheduleId": 5054001,
    "challengeWatcherId": 1505406,
    "dungeonShowContentType": "MIST_TRIAL_SYNC_PROGRESS",
    "showParam": [""],
    "progressFormatTextMapHash": 2569534363,
    "FEEPPOAJFMN": true,
    "ICJCEOAKBDA": 1342277720
  },
  {
    "Id": 37,
    "scheduleId": 5054001,
    "challengeWatcherId": 1505407,
    "dungeonShowContentType": "MIST_TRIAL_SYNC_PROGRESS",
    "showParam": [""],
    "progressFormatTextMapHash": 363490035,
    "ICJCEOAKBDA": 2719562304
  },
  {
    "Id": 38,
    "scheduleId": 5054001,
    "challengeWatcherId": 1505408,
    "dungeonShowContentType": "MIST_TRIAL_SYNC_PROGRESS",
    "showParam": [""],
    "progressFormatTextMapHash": 2996757395,
    "FEEPPOAJFMN": true,
    "ICJCEOAKBDA": 3520867016
  },
  {
    "Id": 39,
    "scheduleId": 5054001,
    "challengeWatcherId": 1505409,
    "dungeonShowContentType": "MIST_TRIAL_SYNC_PROGRESS",
    "showParam": [""],
    "progressFormatTextMapHash": 1777408371,
    "ICJCEOAKBDA": 4232710504
  },
  {
    "Id": 40,
    "scheduleId": 5054001,
    "challengeWatcherId": 1505410,
    "dungeonShowContentType": "MIST_TRIAL_SYNC_PROGRESS",
    "showParam": [""],
    "progressFormatTextMapHash": 2471069491,
    "FEEPPOAJFMN": true,
    "ICJCEOAKBDA": 1913383672
  },
  {
    "Id": 41,
    "scheduleId": 5054001,
    "challengeWatcherId": 1505411,
    "dungeonShowContentType": "MIST_TRIAL_SYNC_PROGRESS",
    "showParam": [""],
    "progressFormatTextMapHash": 3400134579,
    "ICJCEOAKBDA": 2428335056
  },
  {
    "Id": 42,
    "scheduleId": 5054001,
    "challengeWatcherId": 1505412,
    "dungeonShowContentType": "MIST_TRIAL_SYNC_PROGRESS",
    "showParam": [""],
    "progressFormatTextMapHash": 2952982651,
    "FEEPPOAJFMN": true,
    "ICJCEOAKBDA": 1608664840
  },
  {
    "Id": 43,
    "scheduleId": 5054001,
    "challengeWatcherId": 1505413,
    "dungeonShowContentType": "MIST_TRIAL_SYNC_PROGRESS",
    "showParam": [""],
    "progressFormatTextMapHash": 1088441635,
    "ICJCEOAKBDA": 2093819088
  },
  {
    "Id": 44,
    "scheduleId": 5054001,
    "challengeWatcherId": 1505414,
    "dungeonShowContentType": "MIST_TRIAL_SYNC_PROGRESS",
    "showParam": [""],
    "progressFormatTextMapHash": 2881139955,
    "FEEPPOAJFMN": true,
    "ICJCEOAKBDA": 1833721416
  },
  {
    "Id": 45,
    "scheduleId": 5114001,
    "challengeWatcherId": 1511401,
    "dungeonShowContentType": "MIST_TRIAL_SYNC_PROGRESS",
    "showParam": [""],
    "progressFormatTextMapHash": 1824823939,
    "ICJCEOAKBDA": 2299987304
  },
  {
    "Id": 46,
    "scheduleId": 5114001,
    "challengeWatcherId": 1511402,
    "dungeonShowContentType": "MIST_TRIAL_SYNC_PROGRESS",
    "showParam": [""],
    "progressFormatTextMapHash": 987494155,
    "FEEPPOAJFMN": true,
    "ICJCEOAKBDA": 2119509680
  },
  {
    "Id": 47,
    "scheduleId": 5114001,
    "challengeWatcherId": 1511403,
    "dungeonShowContentType": "MIST_TRIAL_SYNC_PROGRESS",
    "showParam": [""],
    "progressFormatTextMapHash": 558605155,
    "ICJCEOAKBDA": 1012479224
  },
  {
    "Id": 48,
    "scheduleId": 5114001,
    "challengeWatcherId": 1511404,
    "dungeonShowContentType": "MIST_TRIAL_SYNC_PROGRESS",
    "showParam": [""],
    "progressFormatTextMapHash": 2195735291,
    "FEEPPOAJFMN": true,
    "ICJCEOAKBDA": 2989538552
  },
  {
    "Id": 49,
    "scheduleId": 5114001,
    "challengeWatcherId": 1511405,
    "dungeonShowContentType": "MIST_TRIAL_SYNC_PROGRESS",
    "showParam": [""],
    "progressFormatTextMapHash": 1082825507,
    "ICJCEOAKBDA": 3387461976
  },
  {
    "Id": 50,
    "scheduleId": 5114001,
    "challengeWatcherId": 1511406,
    "dungeonShowContentType": "MIST_TRIAL_SYNC_PROGRESS",
    "showParam": [""],
    "progressFormatTextMapHash": 345678187,
    "FEEPPOAJFMN": true,
    "ICJCEOAKBDA": 2260786224
  },
  {
    "Id": 51,
    "scheduleId": 5114001,
    "challengeWatcherId": 1511407,
    "dungeonShowContentType": "MIST_TRIAL_SYNC_PROGRESS",
    "showParam": [""],
    "progressFormatTextMapHash": 1553751179,
    "ICJCEOAKBDA": 2834029568
  },
  {
    "Id": 52,
    "scheduleId": 5114001,
    "challengeWatcherId": 1511408,
    "dungeonShowContentType": "MIST_TRIAL_SYNC_PROGRESS",
    "showParam": [""],
    "progressFormatTextMapHash": 809800171,
    "FEEPPOAJFMN": true,
    "ICJCEOAKBDA": 2367720616
  },
  {
    "Id": 53,
    "scheduleId": 5114001,
    "challengeWatcherId": 1511409,
    "dungeonShowContentType": "MIST_TRIAL_SYNC_PROGRESS",
    "showParam": [""],
    "progressFormatTextMapHash": 1529556283,
    "ICJCEOAKBDA": 267129048
  },
  {
    "Id": 54,
    "scheduleId": 5114001,
    "challengeWatcherId": 1511410,
    "dungeonShowContentType": "MIST_TRIAL_SYNC_PROGRESS",
    "showParam": [""],
    "progressFormatTextMapHash": 737749923,
    "FEEPPOAJFMN": true,
    "ICJCEOAKBDA": 4173523288
  },
  {
    "Id": 55,
    "scheduleId": 5114001,
    "challengeWatcherId": 1511411,
    "dungeonShowContentType": "MIST_TRIAL_SYNC_PROGRESS",
    "showParam": [""],
    "progressFormatTextMapHash": 4070010883,
    "ICJCEOAKBDA": 623498520
  },
  {
    "Id": 56,
    "scheduleId": 5114001,
    "challengeWatcherId": 1511412,
    "dungeonShowContentType": "MIST_TRIAL_SYNC_PROGRESS",
    "showParam": [""],
    "progressFormatTextMapHash": 4212330699,
    "FEEPPOAJFMN": true,
    "ICJCEOAKBDA": 3663046696
  },
  {
    "Id": 57,
    "scheduleId": 5114001,
    "challengeWatcherId": 1511413,
    "dungeonShowContentType": "MIST_TRIAL_SYNC_PROGRESS",
    "showParam": [""],
    "progressFormatTextMapHash": 1474303907,
    "ICJCEOAKBDA": 896184016
  },
  {
    "Id": 58,
    "scheduleId": 5114001,
    "challengeWatcherId": 1511414,
    "dungeonShowContentType": "MIST_TRIAL_SYNC_PROGRESS",
    "showParam": [""],
    "progressFormatTextMapHash": 3523345459,
    "FEEPPOAJFMN": true,
    "ICJCEOAKBDA": 2599892712
  }
]
