[
  {
    "Id": 1,
    "scheduleId": 5022001,
    "trialAvatarId": 1042
  },
  {
    "Id": 2,
    "scheduleId": 5022001,
    "trialAvatarId": 1038
  },
  {
    "Id": 3,
    "scheduleId": 5022001,
    "trialAvatarId": 1041
  },
  {
    "Id": 4,
    "scheduleId": 5022001,
    "trialAvatarId": 1021
  },
  {
    "Id": 5,
    "scheduleId": 5022001,
    "trialAvatarId": 1014
  },
  {
    "Id": 6,
    "scheduleId": 5022001,
    "trialAvatarId": 1024
  },
  {
    "Id": 7,
    "scheduleId": 5022001,
    "trialAvatarId": 1043
  },
  {
    "Id": 8,
    "scheduleId": 5022001,
    "trialAvatarId": 1034
  },
  {
    "Id": 9,
    "scheduleId": 5022001,
    "trialAvatarId": 1044
  },
  {
    "Id": 10,
    "scheduleId": 5022001,
    "trialAvatarId": 1039
  },
  {
    "Id": 11,
    "scheduleId": 5054001,
    "trialAvatarId": 6006
  },
  {
    "Id": 12,
    "scheduleId": 5054001,
    "trialAvatarId": 6007
  },
  {
    "Id": 13,
    "scheduleId": 5054001,
    "trialAvatarId": 6008
  },
  {
    "Id": 14,
    "scheduleId": 5054001,
    "trialAvatarId": 6009
  },
  {
    "Id": 15,
    "scheduleId": 5054001,
    "trialAvatarId": 6010
  },
  {
    "Id": 16,
    "scheduleId": 5054001,
    "trialAvatarId": 6011
  },
  {
    "Id": 17,
    "scheduleId": 5054001,
    "trialAvatarId": 6012
  },
  {
    "Id": 18,
    "scheduleId": 5054001,
    "trialAvatarId": 6001
  },
  {
    "Id": 19,
    "scheduleId": 5054001,
    "trialAvatarId": 6005
  },
  {
    "Id": 20,
    "scheduleId": 5054001,
    "trialAvatarId": 6015
  },
  {
    "Id": 21,
    "scheduleId": 5054001,
    "trialAvatarId": 6016
  },
  {
    "Id": 22,
    "scheduleId": 5054001,
    "trialAvatarId": 6017
  },
  {
    "Id": 23,
    "scheduleId": 5054001,
    "trialAvatarId": 6018
  },
  {
    "Id": 24,
    "scheduleId": 5054001,
    "trialAvatarId": 6019
  },
  {
    "Id": 25,
    "scheduleId": 5054001,
    "trialAvatarId": 6020
  },
  {
    "Id": 26,
    "scheduleId": 5054001,
    "trialAvatarId": 6021
  },
  {
    "Id": 27,
    "scheduleId": 5054001,
    "trialAvatarId": 6022
  },
  {
    "Id": 28,
    "scheduleId": 5054001,
    "trialAvatarId": 6023
  },
  {
    "Id": 29,
    "scheduleId": 5054001,
    "trialAvatarId": 6025
  },
  {
    "Id": 30,
    "scheduleId": 5054001,
    "trialAvatarId": 6026
  },
  {
    "Id": 31,
    "scheduleId": 5054001,
    "trialAvatarId": 6027
  },
  {
    "Id": 32,
    "scheduleId": 5054001,
    "trialAvatarId": 6028
  },
  {
    "Id": 33,
    "scheduleId": 5054001,
    "trialAvatarId": 6029
  },
  {
    "Id": 34,
    "scheduleId": 5114001,
    "trialAvatarId": 6058
  },
  {
    "Id": 35,
    "scheduleId": 5114001,
    "trialAvatarId": 6041
  },
  {
    "Id": 36,
    "scheduleId": 5114001,
    "trialAvatarId": 6059
  },
  {
    "Id": 37,
    "scheduleId": 5114001,
    "trialAvatarId": 6005
  },
  {
    "Id": 38,
    "scheduleId": 5114001,
    "trialAvatarId": 6010
  },
  {
    "Id": 39,
    "scheduleId": 5114001,
    "trialAvatarId": 6025
  },
  {
    "Id": 40,
    "scheduleId": 5114001,
    "trialAvatarId": 6056
  },
  {
    "Id": 41,
    "scheduleId": 5114001,
    "trialAvatarId": 6053
  },
  {
    "Id": 42,
    "scheduleId": 5114001,
    "trialAvatarId": 6029
  },
  {
    "Id": 43,
    "scheduleId": 5114001,
    "trialAvatarId": 6048
  },
  {
    "Id": 44,
    "scheduleId": 5114001,
    "trialAvatarId": 6049
  },
  {
    "Id": 45,
    "scheduleId": 5114001,
    "trialAvatarId": 6052
  },
  {
    "Id": 46,
    "scheduleId": 5114001,
    "trialAvatarId": 6033
  },
  {
    "Id": 47,
    "scheduleId": 5114001,
    "trialAvatarId": 6009
  },
  {
    "Id": 48,
    "scheduleId": 5114001,
    "trialAvatarId": 6037
  },
  {
    "Id": 49,
    "scheduleId": 5114001,
    "trialAvatarId": 6028
  },
  {
    "Id": 50,
    "scheduleId": 5114001,
    "trialAvatarId": 6018
  },
  {
    "Id": 51,
    "scheduleId": 5114001,
    "trialAvatarId": 6021
  },
  {
    "Id": 52,
    "scheduleId": 5114001,
    "trialAvatarId": 6046
  },
  {
    "Id": 53,
    "scheduleId": 5114001,
    "trialAvatarId": 6043
  },
  {
    "Id": 54,
    "scheduleId": 5114001,
    "trialAvatarId": 6039
  },
  {
    "Id": 55,
    "scheduleId": 5114001,
    "trialAvatarId": 6054
  },
  {
    "Id": 56,
    "scheduleId": 5114001,
    "trialAvatarId": 6036
  },
  {
    "Id": 57,
    "scheduleId": 5114001,
    "trialAvatarId": 6023
  },
  {
    "Id": 58,
    "scheduleId": 5114001,
    "trialAvatarId": 6040
  },
  {
    "Id": 59,
    "scheduleId": 5114001,
    "trialAvatarId": 6055
  },
  {
    "Id": 60,
    "scheduleId": 5114001,
    "trialAvatarId": 6051
  },
  {
    "Id": 61,
    "scheduleId": 5114001,
    "trialAvatarId": 6057
  }
]
