[
  {
    "APEBHHNHCON": "GCG_FESTIVAL_MODE_TYPE_PAIMON",
    "titleTextMapHash": 1570079447,
    "descTextMapHash": 3151484833,
    "LEMEOCABGOI": 4231990802
  },
  {
    "APEBHHNHCON": "GCG_FESTIVAL_MODE_TYPE_COST_REDUCTION",
    "titleTextMapHash": 2163875159,
    "descTextMapHash": 1560775833,
    "LEMEOCABGOI": 499719818
  },
  {
    "APEBHHNHCON": "GCG_FESTIVAL_MODE_TYPE_FAST",
    "titleTextMapHash": 395476863,
    "descTextMapHash": 4222141553,
    "LEMEOCABGOI": 4231399314
  }
]
