[
  {
    "OIMOPIPCLDN": 9999,
    "mapNameTextMapHash": 1814196112,
    "descTextMapHash": 182659487,
    "unlockTipsTextMapHash": 3950905816,
    "mapIconPath": "UI_TheatreMechanicusMap_02",
    "buildGearLimit": 14,
    "dungeonID": 7400,
    "JHOAPJJMKPN": 376,
    "ICKOFGHIKEJ": 1,
    "CBLBAKCEOJO": true,
    "show": true,
    "HONKCBLMKHC": [5],
    "PMNLIIFMODC": [6]
  },
  {
    "OIMOPIPCLDN": 1,
    "mapNameTextMapHash": 1411279088,
    "descTextMapHash": 2476549183,
    "unlockTipsTextMapHash": 721162936,
    "mapIconPath": "UI_TheatreMechanicusMap_02",
    "buildGearLimit": 14,
    "dungeonID": 7401,
    "JHOAPJJMKPN": 376,
    "ICKOFGHIKEJ": 1,
    "HBBODCLNNFB": 9999,
    "show": true,
    "HONKCBLMKHC": [5],
    "PMNLIIFMODC": [6]
  },
  {
    "OIMOPIPCLDN": 2,
    "mapNameTextMapHash": 3330460120,
    "descTextMapHash": 2781033015,
    "unlockTipsTextMapHash": 1519215112,
    "mapIconPath": "UI_TheatreMechanicusMap_03",
    "buildGearLimit": 14,
    "dungeonID": 7402,
    "JHOAPJJMKPN": 376,
    "ICKOFGHIKEJ": 1,
    "HBBODCLNNFB": 1,
    "show": true,
    "HONKCBLMKHC": [1, 2],
    "PMNLIIFMODC": [3]
  },
  {
    "OIMOPIPCLDN": 3,
    "mapNameTextMapHash": 1518414352,
    "descTextMapHash": 95002039,
    "unlockTipsTextMapHash": 3650461264,
    "mapIconPath": "UI_TheatreMechanicusMap_04",
    "buildGearLimit": 14,
    "dungeonID": 7404,
    "JHOAPJJMKPN": 376,
    "ICKOFGHIKEJ": 1,
    "HBBODCLNNFB": 2,
    "show": true,
    "HONKCBLMKHC": [13, 10],
    "PMNLIIFMODC": [11, 12]
  },
  {
    "OIMOPIPCLDN": 4,
    "mapNameTextMapHash": 3422998336,
    "descTextMapHash": 2836570807,
    "unlockTipsTextMapHash": 1827524168,
    "mapIconPath": "UI_TheatreMechanicusMap_05",
    "buildGearLimit": 14,
    "dungeonID": 7405,
    "JHOAPJJMKPN": 376,
    "ICKOFGHIKEJ": 1,
    "HBBODCLNNFB": 3,
    "show": true,
    "HONKCBLMKHC": [19, 20],
    "PMNLIIFMODC": [21, 18]
  },
  {
    "OIMOPIPCLDN": 5,
    "mapNameTextMapHash": 2044953848,
    "descTextMapHash": 591081511,
    "unlockTipsTextMapHash": 548576000,
    "mapIconPath": "UI_TheatreMechanicusMap_01",
    "buildGearLimit": 14,
    "dungeonID": 7403,
    "JHOAPJJMKPN": 376,
    "ICKOFGHIKEJ": 2,
    "HBBODCLNNFB": 4,
    "show": true,
    "HONKCBLMKHC": [7, 8],
    "PMNLIIFMODC": [9]
  },
  {
    "OIMOPIPCLDN": 6,
    "mapNameTextMapHash": 1720365992,
    "descTextMapHash": 2380078623,
    "unlockTipsTextMapHash": 3093112512,
    "mapIconPath": "UI_TheatreMechanicusMap_02",
    "buildGearLimit": 14,
    "dungeonID": 7406,
    "JHOAPJJMKPN": 376,
    "ICKOFGHIKEJ": 2,
    "HBBODCLNNFB": 5,
    "show": true,
    "HONKCBLMKHC": [4, 5],
    "PMNLIIFMODC": [6]
  },
  {
    "OIMOPIPCLDN": 7,
    "mapNameTextMapHash": 2182114352,
    "descTextMapHash": 526280423,
    "unlockTipsTextMapHash": 2527851064,
    "mapIconPath": "UI_TheatreMechanicusMap_03",
    "buildGearLimit": 14,
    "dungeonID": 7407,
    "JHOAPJJMKPN": 376,
    "ICKOFGHIKEJ": 3,
    "HBBODCLNNFB": 6,
    "show": true,
    "HONKCBLMKHC": [1, 2],
    "PMNLIIFMODC": [3]
  },
  {
    "OIMOPIPCLDN": 8,
    "mapNameTextMapHash": 1314479488,
    "descTextMapHash": 2012537471,
    "unlockTipsTextMapHash": 3081514128,
    "mapIconPath": "UI_TheatreMechanicusMap_04",
    "buildGearLimit": 14,
    "dungeonID": 7409,
    "JHOAPJJMKPN": 376,
    "ICKOFGHIKEJ": 3,
    "HBBODCLNNFB": 7,
    "show": true,
    "HONKCBLMKHC": [13, 12, 11],
    "PMNLIIFMODC": [10]
  },
  {
    "OIMOPIPCLDN": 9,
    "mapNameTextMapHash": 4149785448,
    "descTextMapHash": 2026177231,
    "unlockTipsTextMapHash": 642788128,
    "mapIconPath": "UI_TheatreMechanicusMap_05",
    "buildGearLimit": 14,
    "dungeonID": 7410,
    "JHOAPJJMKPN": 376,
    "ICKOFGHIKEJ": 4,
    "HBBODCLNNFB": 8,
    "show": true,
    "HONKCBLMKHC": [18, 19, 20],
    "PMNLIIFMODC": [21, 22]
  },
  {
    "OIMOPIPCLDN": 10,
    "mapNameTextMapHash": 2771961424,
    "descTextMapHash": 1167110759,
    "unlockTipsTextMapHash": 2481893872,
    "mapIconPath": "UI_TheatreMechanicusMap_01",
    "buildGearLimit": 14,
    "dungeonID": 7408,
    "JHOAPJJMKPN": 376,
    "ICKOFGHIKEJ": 4,
    "HBBODCLNNFB": 9,
    "show": true,
    "HONKCBLMKHC": [7, 8],
    "PMNLIIFMODC": [9]
  },
  {
    "OIMOPIPCLDN": 10000,
    "mapNameTextMapHash": 3188765280,
    "descTextMapHash": 2071118831,
    "unlockTipsTextMapHash": 2958416040,
    "mapIconPath": "UI_TheatreMechanicusMap_05",
    "buildGearLimit": 14,
    "dungeonID": 7411,
    "JHOAPJJMKPN": 376,
    "ICKOFGHIKEJ": 4,
    "HBBODCLNNFB": 9999,
    "HONKCBLMKHC": [18, 19, 20],
    "PMNLIIFMODC": [21, 22]
  }
]
