[
  {
    "id": 1,
    "activityId": 5082,
    "NNJNNBJFHFA": [1, 2, 3, 4, 5, 6],
    "DPLGMFEPKKA": 0.016450000926852226,
    "JOIGCGKCKFL": 0.029430000111460686,
    "KNIKOCMOEAB": "Eff_Property_Prop_GearPillar_01_Active",
    "CADHKPDGCDP": "Eff_Property_Prop_GearPillar_01_Hint",
    "KLCKHDHKGMB": "Eff_Property_Prop_GearPillar_01_Success",
    "MFLDNOIGMBG": "Eff_Property_Prop_GearPillar_01_Cover",
    "NCFKLGAEFAM": "Eff_Property_Prop_GearPillar_01_Put",
    "pushTipsId": 6057,
    "watcherIdList": [
      15082001, 15082002, 15082003, 15082004, 15082005, 15082006
    ],
    "HAOFDEKNHOK": 90.0
  }
]
