[
  {
    "id": 1,
    "gadgetID": 70290409,
    "MMDFBEKNPDA": 1,
    "materialID": 101887,
    "MFNLEGLFGAP": "Eff_SceneObj_Homeworld_MechanicalDrawing_01_Rotating"
  },
  {
    "id": 2,
    "gadgetID": 70290410,
    "MMDFBEKNPDA": 2,
    "materialID": 101888,
    "MFNLEGLFGAP": "Eff_SceneObj_Homeworld_MechanicalDrawing_02_Rotating"
  },
  {
    "id": 3,
    "gadgetID": 70290411,
    "MMDFBEKNPDA": 3,
    "materialID": 101889,
    "MFNLEGLFGAP": "Eff_SceneObj_Homeworld_MechanicalDrawing_03_Rotating"
  },
  {
    "id": 4,
    "gadgetID": 70290412,
    "MMDFBEKNPDA": 4,
    "materialID": 101890,
    "MFNLEGLFGAP": "Eff_SceneObj_Homeworld_MechanicalDrawing_04_Rotating"
  },
  {
    "id": 5,
    "gadgetID": 70290413,
    "MMDFBEKNPDA": 5,
    "materialID": 101891,
    "MFNLEGLFGAP": "Eff_SceneObj_Homeworld_MechanicalDrawing_05_Rotating"
  },
  {
    "id": 6,
    "gadgetID": 70290414,
    "MMDFBEKNPDA": 6,
    "materialID": 101892,
    "MFNLEGLFGAP": "Eff_SceneObj_Homeworld_MechanicalDrawing_06_Rotating"
  }
]
