[
  {
    "level": 1,
    "descTextMapHash": 1029647278,
    "NGJFPDMAELK": 500,
    "DNEGCBKCCOO": 20,
    "KKLJOGCPBPI": 3500,
    "IHJEINCMEAH": 3,
    "NPFGKLIEEKE": 50,
    "KMJFAGHMIFO": [88, 10, 2],
    "IJAMCOBFADG": 3,
    "NLHFMNHHJMD": true,
    "NHDBIDHCPDM": true
  },
  {
    "level": 2,
    "descTextMapHash": 3330084486,
    "NGJFPDMAELK": 500,
    "DNEGCBKCCOO": 20,
    "KKLJOGCPBPI": 3750,
    "IHJEINCMEAH": 3,
    "NPFGKLIEEKE": 50,
    "KMJFAGHMIFO": [88, 10, 2],
    "IJAMCOBFADG": 3,
    "NLHFMNHHJMD": true,
    "NHDBIDHCPDM": true
  },
  {
    "level": 3,
    "descTextMapHash": 1748346950,
    "NGJFPDMAELK": 1000,
    "DNEGCBKCCOO": 20,
    "KKLJOGCPBPI": 4000,
    "IHJEINCMEAH": 3,
    "NPFGKLIEEKE": 50,
    "KIFNAMCPHFL": "CHESS_CARDFORTUNE_NORMAL",
    "KMJFAGHMIFO": [81, 15, 4],
    "IJAMCOBFADG": 3,
    "NLHFMNHHJMD": true,
    "NHDBIDHCPDM": true
  },
  {
    "level": 4,
    "descTextMapHash": 1023583262,
    "NGJFPDMAELK": 1000,
    "DNEGCBKCCOO": 20,
    "KKLJOGCPBPI": 4250,
    "IHJEINCMEAH": 3,
    "NPFGKLIEEKE": 50,
    "KIFNAMCPHFL": "CHESS_CARDFORTUNE_NORMAL",
    "KMJFAGHMIFO": [81, 15, 4],
    "IJAMCOBFADG": 3,
    "NLHFMNHHJMD": true,
    "NHDBIDHCPDM": true
  },
  {
    "level": 5,
    "descTextMapHash": 1245126710,
    "NGJFPDMAELK": 1000,
    "DNEGCBKCCOO": 20,
    "KKLJOGCPBPI": 4500,
    "IHJEINCMEAH": 3,
    "NPFGKLIEEKE": 50,
    "KIFNAMCPHFL": "CHESS_CARDFORTUNE_GOOD",
    "KMJFAGHMIFO": [74, 20, 6],
    "IJAMCOBFADG": 3,
    "NHDBIDHCPDM": true
  },
  {
    "level": 6,
    "descTextMapHash": 3927878206,
    "NGJFPDMAELK": 1000,
    "DNEGCBKCCOO": 25,
    "KKLJOGCPBPI": 4750,
    "IHJEINCMEAH": 4,
    "NPFGKLIEEKE": 50,
    "KIFNAMCPHFL": "CHESS_CARDFORTUNE_GOOD",
    "KMJFAGHMIFO": [74, 20, 6],
    "IJAMCOBFADG": 3,
    "NHDBIDHCPDM": true
  },
  {
    "level": 7,
    "descTextMapHash": 2700852638,
    "NGJFPDMAELK": 1000,
    "DNEGCBKCCOO": 25,
    "KKLJOGCPBPI": 5000,
    "IHJEINCMEAH": 4,
    "NPFGKLIEEKE": 50,
    "KIFNAMCPHFL": "CHESS_CARDFORTUNE_VERYGOOD",
    "KMJFAGHMIFO": [62, 30, 8],
    "IJAMCOBFADG": 4,
    "NHDBIDHCPDM": true
  },
  {
    "level": 8,
    "descTextMapHash": 1049728798,
    "NGJFPDMAELK": 1000,
    "DNEGCBKCCOO": 25,
    "KKLJOGCPBPI": 5000,
    "IHJEINCMEAH": 4,
    "NPFGKLIEEKE": 50,
    "KIFNAMCPHFL": "CHESS_CARDFORTUNE_VERYGOOD",
    "KMJFAGHMIFO": [62, 30, 8],
    "IJAMCOBFADG": 4,
    "NHDBIDHCPDM": true
  },
  {
    "level": 9,
    "descTextMapHash": 31082046,
    "NGJFPDMAELK": 1000,
    "DNEGCBKCCOO": 30,
    "KKLJOGCPBPI": 5000,
    "IHJEINCMEAH": 4,
    "NPFGKLIEEKE": 50,
    "KIFNAMCPHFL": "CHESS_CARDFORTUNE_PERFECT",
    "KMJFAGHMIFO": [50, 40, 10],
    "IJAMCOBFADG": 4,
    "NHDBIDHCPDM": true
  },
  {
    "level": 10,
    "descTextMapHash": 2413168086,
    "DNEGCBKCCOO": 30,
    "KKLJOGCPBPI": 5000,
    "IHJEINCMEAH": 4,
    "NPFGKLIEEKE": 50,
    "KIFNAMCPHFL": "CHESS_CARDFORTUNE_PERFECT",
    "KMJFAGHMIFO": [50, 40, 10],
    "IJAMCOBFADG": 5,
    "NHDBIDHCPDM": true
  }
]
