[
  {
    "stageId": 1,
    "PFCDJLJMLMF": "STAGE_TYPE_NORMAL",
    "FDEMLCGOAGA": [9, 11, 13],
    "dayIndex": 1,
    "stageNameTextMapHash": 2246554330
  },
  {
    "stageId": 2,
    "PFCDJLJMLMF": "STAGE_TYPE_NORMAL",
    "FDEMLCGOAGA": [1, 5, 15],
    "dayIndex": 2,
    "stageNameTextMapHash": 1467929026
  },
  {
    "stageId": 3,
    "PFCDJLJMLMF": "STAGE_TYPE_NORMAL",
    "FDEMLCGOAGA": [4, 12, 17],
    "dayIndex": 3,
    "stageNameTextMapHash": 4185100154
  },
  {
    "stageId": 4,
    "PFCDJLJMLMF": "STAGE_TYPE_NORMAL",
    "FDEMLCGOAGA": [7, 10, 6],
    "dayIndex": 4,
    "stageNameTextMapHash": 1973797482
  },
  {
    "stageId": 5,
    "PFCDJLJMLMF": "STAGE_TYPE_RANDOM",
    "FDEMLCGOAGA": [],
    "dayIndex": 5,
    "stageNameTextMapHash": 2184004626
  }
]
