[
  {
    "id": 1,
    "BCIGKCPFJLE": "POSITIVE",
    "abilityGroup": "ActivityAbility_AkaFesPotion_AvatarBuff_Stage_1_1",
    "INAIBMPCJED": 1342129575,
    "MBJCDBFCFNA": 1816599717,
    "descParam": ["50", "4", "5", "", ""]
  },
  {
    "id": 2,
    "BCIGKCPFJLE": "POSITIVE",
    "abilityGroup": "ActivityAbility_AkaFesPotion_AvatarBuff_Stage_1_2",
    "INAIBMPCJED": 4291359591,
    "MBJCDBFCFNA": 3780336933,
    "descParam": ["60", "8", "", "", ""]
  },
  {
    "id": 3,
    "BCIGKCPFJLE": "POSITIVE",
    "abilityGroup": "ActivityAbility_AkaFesPotion_AvatarBuff_Stage_1_3",
    "INAIBMPCJED": 2826437151,
    "MBJCDBFCFNA": 2877004485,
    "descParam": ["100", "", "", "", ""]
  },
  {
    "id": 4,
    "BCIGKCPFJLE": "POSITIVE",
    "abilityGroup": "ActivityAbility_AkaFesPotion_AvatarBuff_Stage_1_4",
    "INAIBMPCJED": 2446367207,
    "MBJCDBFCFNA": 2752365205,
    "descParam": ["10", "", "", "", ""]
  },
  {
    "id": 5,
    "BCIGKCPFJLE": "POSITIVE",
    "abilityGroup": "ActivityAbility_AkaFesPotion_AvatarBuff_Stage_2_1",
    "INAIBMPCJED": 104417447,
    "MBJCDBFCFNA": 1496024941,
    "descParam": ["70", "200", "", "", ""]
  },
  {
    "id": 6,
    "BCIGKCPFJLE": "POSITIVE",
    "abilityGroup": "ActivityAbility_AkaFesPotion_AvatarBuff_Stage_2_2",
    "INAIBMPCJED": 2029771335,
    "MBJCDBFCFNA": 1562231421,
    "descParam": ["50", "60", "8", "", ""]
  },
  {
    "id": 7,
    "BCIGKCPFJLE": "POSITIVE",
    "abilityGroup": "ActivityAbility_AkaFesPotion_AvatarBuff_Stage_2_3",
    "INAIBMPCJED": 1995020087,
    "MBJCDBFCFNA": 2184281429,
    "descParam": ["50", "2", "", "", ""]
  },
  {
    "id": 8,
    "BCIGKCPFJLE": "POSITIVE",
    "abilityGroup": "ActivityAbility_AkaFesPotion_AvatarBuff_Stage_2_4",
    "INAIBMPCJED": 1703871951,
    "MBJCDBFCFNA": 824247013,
    "descParam": ["5", "3", "", "", ""]
  },
  {
    "id": 9,
    "BCIGKCPFJLE": "POSITIVE",
    "abilityGroup": "ActivityAbility_AkaFesPotion_AvatarBuff_Stage_3_1",
    "INAIBMPCJED": 3772300271,
    "MBJCDBFCFNA": 3183420013,
    "descParam": ["10", "", "", "", ""]
  },
  {
    "id": 10,
    "BCIGKCPFJLE": "POSITIVE",
    "abilityGroup": "ActivityAbility_AkaFesPotion_AvatarBuff_Stage_3_2",
    "INAIBMPCJED": 2637046159,
    "MBJCDBFCFNA": 4260693365,
    "descParam": ["2", "75", "", "", ""]
  },
  {
    "id": 11,
    "BCIGKCPFJLE": "POSITIVE",
    "abilityGroup": "ActivityAbility_AkaFesPotion_AvatarBuff_Stage_3_3",
    "INAIBMPCJED": 1863682959,
    "MBJCDBFCFNA": 4199373933,
    "descParam": ["6", "", "", "", ""]
  },
  {
    "id": 12,
    "BCIGKCPFJLE": "POSITIVE",
    "abilityGroup": "ActivityAbility_AkaFesPotion_AvatarBuff_Stage_3_4",
    "INAIBMPCJED": 1298223927,
    "MBJCDBFCFNA": 4184179629,
    "descParam": ["", "", "", "", ""]
  },
  {
    "id": 101,
    "BCIGKCPFJLE": "NEGATIVE",
    "abilityGroup": "",
    "AKCNDELFHKK": 1779,
    "INAIBMPCJED": 4282415831,
    "MBJCDBFCFNA": 493465597,
    "descParam": ["50", "", "", "", ""]
  },
  {
    "id": 102,
    "BCIGKCPFJLE": "NEGATIVE",
    "abilityGroup": "",
    "AKCNDELFHKK": 1780,
    "INAIBMPCJED": 608903895,
    "MBJCDBFCFNA": 3308222309,
    "descParam": ["100", "", "", "", ""]
  },
  {
    "id": 103,
    "BCIGKCPFJLE": "NEGATIVE",
    "abilityGroup": "",
    "LIPHDPBECHA": "CHANGE_MONSTER",
    "INAIBMPCJED": 3706433831,
    "MBJCDBFCFNA": 802388709,
    "descParam": ["", "", "", "", ""]
  },
  {
    "id": 104,
    "BCIGKCPFJLE": "NEGATIVE",
    "abilityGroup": "",
    "LIPHDPBECHA": "CHANGE_GADGET",
    "INAIBMPCJED": 4274891527,
    "MBJCDBFCFNA": 2732605805,
    "descParam": ["", "", "", "", ""]
  },
  {
    "id": 105,
    "BCIGKCPFJLE": "NEGATIVE",
    "abilityGroup": "",
    "AKCNDELFHKK": 1781,
    "INAIBMPCJED": 3856761639,
    "MBJCDBFCFNA": 2113366237,
    "descParam": ["15", "", "", "", ""]
  },
  {
    "id": 106,
    "BCIGKCPFJLE": "NEGATIVE",
    "abilityGroup": "",
    "AKCNDELFHKK": 1782,
    "INAIBMPCJED": 1504369015,
    "MBJCDBFCFNA": 719243837,
    "descParam": ["", "", "", "", ""]
  },
  {
    "id": 107,
    "BCIGKCPFJLE": "NEGATIVE",
    "abilityGroup": "",
    "LIPHDPBECHA": "CHANGE_MONSTER",
    "INAIBMPCJED": 1484155639,
    "MBJCDBFCFNA": 3463461493,
    "descParam": ["", "", "", "", ""]
  },
  {
    "id": 108,
    "BCIGKCPFJLE": "NEGATIVE",
    "abilityGroup": "",
    "LIPHDPBECHA": "CHANGE_GADGET",
    "INAIBMPCJED": 4136490447,
    "MBJCDBFCFNA": 2336216309,
    "descParam": ["", "", "", "", ""]
  },
  {
    "id": 109,
    "BCIGKCPFJLE": "NEGATIVE",
    "abilityGroup": "",
    "AKCNDELFHKK": 1783,
    "INAIBMPCJED": 1257824775,
    "MBJCDBFCFNA": 4183021661,
    "descParam": ["150", "", "", "", ""]
  },
  {
    "id": 110,
    "BCIGKCPFJLE": "NEGATIVE",
    "abilityGroup": "",
    "AKCNDELFHKK": 1784,
    "INAIBMPCJED": 3497302119,
    "MBJCDBFCFNA": 1638442413,
    "descParam": ["10", "15", "", "", ""]
  },
  {
    "id": 111,
    "BCIGKCPFJLE": "NEGATIVE",
    "abilityGroup": "",
    "LIPHDPBECHA": "CHANGE_MONSTER",
    "INAIBMPCJED": 4086571575,
    "MBJCDBFCFNA": 3287263181,
    "descParam": ["", "", "", "", ""]
  },
  {
    "id": 112,
    "BCIGKCPFJLE": "NEGATIVE",
    "abilityGroup": "",
    "AKCNDELFHKK": 1785,
    "INAIBMPCJED": 4169488175,
    "MBJCDBFCFNA": 2530711829,
    "descParam": ["", "", "", "", ""]
  }
]
