[
  {
    "id": 28010101,
    "nameTextMapHash": 657550247,
    "icon": "UI_AnimalIcon_Crab_01"
  },
  {
    "id": 28010102,
    "nameTextMapHash": 588161183,
    "icon": "UI_AnimalIcon_Crab_02"
  },
  {
    "id": 28010103,
    "nameTextMapHash": 738372735,
    "icon": "UI_AnimalIcon_Crab_03"
  },
  {
    "id": 28010104,
    "nameTextMapHash": 2307797343,
    "icon": "UI_AnimalIcon_Crab_04"
  },
  {
    "id": 28010105,
    "nameTextMapHash": 366115847,
    "icon": "UI_AnimalIcon_Crab_05"
  },
  {
    "id": 28010106,
    "nameTextMapHash": 734074951,
    "icon": "UI_AnimalIcon_Crab_04"
  },
  {
    "id": 28020101,
    "nameTextMapHash": 3933711351,
    "icon": "UI_AnimalIcon_Fox_01"
  },
  {
    "id": 28020102,
    "nameTextMapHash": 3867970319,
    "icon": "UI_AnimalIcon_Fox_02"
  },
  {
    "id": 28020103,
    "nameTextMapHash": 1455557311,
    "icon": "UI_AnimalIcon_Fox_02"
  },
  {
    "id": 28020104,
    "nameTextMapHash": 2821655935,
    "icon": "UI_AnimalIcon_Fox_02"
  },
  {
    "id": 28020105,
    "nameTextMapHash": 2279406903,
    "icon": "UI_AnimalIcon_Fox_01"
  },
  {
    "id": 28020106,
    "nameTextMapHash": 881597999,
    "icon": "UI_AnimalIcon_Fox_02"
  },
  {
    "id": 28020108,
    "nameTextMapHash": 4227544135,
    "icon": "UI_AnimalIcon_Fox_03"
  },
  {
    "id": 28020109,
    "nameTextMapHash": 1404608903,
    "icon": "UI_AnimalIcon_Fox_02"
  },
  {
    "id": 28020201,
    "nameTextMapHash": 1182534439,
    "icon": "UI_AnimalIcon_Squirrel_01"
  },
  {
    "id": 28020202,
    "nameTextMapHash": 2065076943,
    "icon": "UI_AnimalIcon_Squirrel_01"
  },
  {
    "id": 28030101,
    "nameTextMapHash": 174214623,
    "icon": "UI_AnimalIcon_Crane_01"
  },
  {
    "id": 28030102,
    "nameTextMapHash": 3469310543,
    "icon": "UI_AnimalIcon_Crane_02"
  },
  {
    "id": 28030104,
    "nameTextMapHash": 2190785471,
    "icon": "UI_AnimalIcon_Crane_Lbis_01"
  },
  {
    "id": 28030105,
    "nameTextMapHash": 406504007,
    "icon": "UI_AnimalIcon_Crane_01"
  },
  {
    "id": 28030201,
    "nameTextMapHash": 4057646183,
    "icon": "UI_AnimalIcon_Falcon_01"
  },
  {
    "id": 28030202,
    "nameTextMapHash": 2265884447,
    "icon": "UI_AnimalIcon_Falcon_02"
  },
  {
    "id": 28030203,
    "nameTextMapHash": 2387599519,
    "icon": "UI_AnimalIcon_Falcon_03"
  },
  {
    "id": 28030204,
    "nameTextMapHash": 980868215,
    "icon": "UI_AnimalIcon_Falcon_04"
  },
  {
    "id": 28050101,
    "nameTextMapHash": 4246864087,
    "icon": "UI_AnimalIcon_Wisp_Wind_01"
  },
  {
    "id": 28050102,
    "nameTextMapHash": 1847870663,
    "icon": "UI_AnimalIcon_Wisp_Rock_01"
  },
  {
    "id": 28050103,
    "nameTextMapHash": 4154105087,
    "icon": "UI_AnimalIcon_Wisp_Ice_01"
  },
  {
    "id": 28050104,
    "nameTextMapHash": 2648764071,
    "icon": "UI_AnimalIcon_Wisp_Electric_01"
  },
  {
    "id": 28050105,
    "nameTextMapHash": 2689373903,
    "icon": "UI_AnimalIcon_Wisp_Tokoyo_01"
  },
  {
    "id": 28050106,
    "nameTextMapHash": 667182703,
    "icon": "UI_AnimalIcon_Wisp_Grass_01"
  },
  {
    "id": 28050301,
    "nameTextMapHash": 251055527,
    "icon": "UI_AnimalIcon_Boltbug_Lightbug_01"
  },
  {
    "id": 28050401,
    "nameTextMapHash": 3572427535,
    "icon": "UI_AnimalIcon_BoltBug_Scarab_01"
  },
  {
    "id": 28050501,
    "nameTextMapHash": 152885687,
    "icon": "UI_AnimalIcon_BoltBug_Scarab_01"
  },
  {
    "id": 28050502,
    "nameTextMapHash": 3106249535,
    "icon": "UI_AnimalIcon_BoltBug_Scarab_01"
  },
  {
    "id": 28050503,
    "nameTextMapHash": 2064129079,
    "icon": "UI_AnimalIcon_BoltBug_Scarab_01"
  },
  {
    "id": 28050504,
    "nameTextMapHash": 244190055,
    "icon": "UI_AnimalIcon_BoltBug_Scarab_01"
  },
  {
    "id": 28050505,
    "nameTextMapHash": 2553091015,
    "icon": "UI_AnimalIcon_BoltBug_Scarab_01"
  },
  {
    "id": 28050506,
    "nameTextMapHash": 1738831159,
    "icon": "UI_AnimalIcon_BoltBug_Scarab_01"
  },
  {
    "id": 28010201,
    "nameTextMapHash": 3798373791,
    "icon": "UI_AnimalIcon_Lizard_01"
  },
  {
    "id": 28010202,
    "nameTextMapHash": 44631351,
    "icon": "UI_AnimalIcon_Lizard_02"
  },
  {
    "id": 28010203,
    "nameTextMapHash": 2511175807,
    "icon": "UI_AnimalIcon_Lizard_03"
  },
  {
    "id": 28010204,
    "nameTextMapHash": 4195354079,
    "icon": "UI_AnimalIcon_Salamander_01"
  },
  {
    "id": 28010205,
    "nameTextMapHash": 746457295,
    "icon": "UI_AnimalIcon_Salamander_02"
  },
  {
    "id": 28010206,
    "nameTextMapHash": 1661022343,
    "icon": "UI_AnimalIcon_Salamander_03"
  },
  {
    "id": 28010207,
    "nameTextMapHash": 2176025831,
    "icon": "UI_AnimalIcon_Lizard_04"
  },
  {
    "id": 28010208,
    "nameTextMapHash": 1398547023,
    "icon": "UI_AnimalIcon_Lizard_05"
  },
  {
    "id": 28010301,
    "nameTextMapHash": 2185772247,
    "icon": "UI_AnimalIcon_Frog_01"
  },
  {
    "id": 28010302,
    "nameTextMapHash": 1736637583,
    "icon": "UI_AnimalIcon_Frog_02"
  },
  {
    "id": 28010303,
    "nameTextMapHash": 717127399,
    "icon": "UI_AnimalIcon_Frog_03"
  },
  {
    "id": 28010304,
    "nameTextMapHash": 2626152479,
    "icon": "UI_AnimalIcon_Frog_04"
  },
  {
    "id": 28010401,
    "nameTextMapHash": 3408249759,
    "icon": "UI_AnimalIcon_Eel_01"
  },
  {
    "id": 28010402,
    "nameTextMapHash": 3185785703,
    "icon": "UI_AnimalIcon_Eel_02"
  },
  {
    "id": 28010403,
    "nameTextMapHash": 1679082111,
    "icon": "UI_AnimalIcon_Eel_03"
  },
  {
    "id": 28010404,
    "nameTextMapHash": 615004095,
    "icon": "UI_AnimalIcon_Eel_04"
  },
  {
    "id": 28020301,
    "nameTextMapHash": 973656463,
    "icon": "UI_AnimalIcon_Boar_01"
  },
  {
    "id": 28020302,
    "nameTextMapHash": 2815383775,
    "icon": "UI_AnimalIcon_Boar_02"
  },
  {
    "id": 28020303,
    "nameTextMapHash": 697564359,
    "icon": "UI_AnimalIcon_Boar_04"
  },
  {
    "id": 28020304,
    "nameTextMapHash": 855902935,
    "icon": "UI_AnimalIcon_Boar_03"
  },
  {
    "id": 28020305,
    "nameTextMapHash": 958700775,
    "icon": "UI_AnimalIcon_Boar_04"
  },
  {
    "id": 28020306,
    "nameTextMapHash": 2971259863,
    "icon": "UI_AnimalIcon_Boar_04"
  },
  {
    "id": 28020307,
    "nameTextMapHash": 3005066679,
    "icon": "UI_AnimalIcon_Boar_01"
  },
  {
    "id": 28020308,
    "nameTextMapHash": 3965504031,
    "icon": "UI_AnimalIcon_Boar_04"
  },
  {
    "id": 28020309,
    "nameTextMapHash": 4014403055,
    "icon": "UI_AnimalIcon_Boar_03"
  },
  {
    "id": 28020313,
    "nameTextMapHash": 101541055,
    "icon": "UI_AnimalIcon_Boar_Grass"
  },
  {
    "id": 28020314,
    "nameTextMapHash": 4293097687,
    "icon": "UI_AnimalIcon_Boar_Grass_Small"
  },
  {
    "id": 28020316,
    "nameTextMapHash": 872226847,
    "icon": "UI_AnimalIcon_Boar_Grass"
  },
  {
    "id": 28020317,
    "nameTextMapHash": 819571847,
    "icon": "UI_AnimalIcon_Boar_Grass_Small"
  },
  {
    "id": 28030301,
    "nameTextMapHash": 1929596799,
    "icon": "UI_AnimalIcon_Pigeon_01"
  },
  {
    "id": 28030302,
    "nameTextMapHash": 2655808719,
    "icon": "UI_AnimalIcon_Pigeon_02"
  },
  {
    "id": 28030303,
    "nameTextMapHash": 3128313167,
    "icon": "UI_AnimalIcon_Pigeon_03"
  },
  {
    "id": 28030304,
    "nameTextMapHash": 1504052127,
    "icon": "UI_AnimalIcon_Pigeon_04"
  },
  {
    "id": 28030305,
    "nameTextMapHash": 3247228255,
    "icon": "UI_AnimalIcon_Pigeon_05"
  },
  {
    "id": 28030306,
    "nameTextMapHash": 1268321415,
    "icon": "UI_AnimalIcon_Crow_01"
  },
  {
    "id": 28030307,
    "nameTextMapHash": 3691874927,
    "icon": "UI_AnimalIcon_Pigeon_01"
  },
  {
    "id": 28030308,
    "nameTextMapHash": 1754546991,
    "icon": "UI_AnimalIcon_Pigeon_02"
  },
  {
    "id": 28030309,
    "nameTextMapHash": 94325863,
    "icon": "UI_AnimalIcon_Pigeon_03"
  },
  {
    "id": 28030310,
    "nameTextMapHash": 719081543,
    "icon": "UI_AnimalIcon_Pigeon_04"
  },
  {
    "id": 28030311,
    "nameTextMapHash": 304042095,
    "icon": "UI_AnimalIcon_Pigeon_05"
  },
  {
    "id": 28030313,
    "nameTextMapHash": 919396607,
    "icon": "UI_AnimalIcon_Pigeon_Beak"
  },
  {
    "id": 28030314,
    "nameTextMapHash": 1133139351,
    "icon": "UI_AnimalIcon_Crow_01"
  },
  {
    "id": 28030315,
    "nameTextMapHash": 210105367,
    "icon": "UI_AnimalIcon_Pigeon_Beak"
  },
  {
    "id": 28030401,
    "nameTextMapHash": 3461304015,
    "icon": "UI_AnimalIcon_Tit_01"
  },
  {
    "id": 28030402,
    "nameTextMapHash": 1513551351,
    "icon": "UI_AnimalIcon_Tit_02"
  },
  {
    "id": 28030403,
    "nameTextMapHash": 2317930615,
    "icon": "UI_AnimalIcon_Tit_03"
  },
  {
    "id": 28030404,
    "nameTextMapHash": 288494063,
    "icon": "UI_AnimalIcon_Tit_04"
  },
  {
    "id": 28030405,
    "nameTextMapHash": 1056178935,
    "icon": "UI_AnimalIcon_Tit_02"
  },
  {
    "id": 28030406,
    "nameTextMapHash": 4158858903,
    "icon": "UI_AnimalIcon_Tit_01"
  },
  {
    "id": 28030407,
    "nameTextMapHash": 328640199,
    "icon": "UI_AnimalIcon_Tit_02"
  },
  {
    "id": 28030408,
    "nameTextMapHash": 3220988671,
    "icon": "UI_AnimalIcon_Tit_03"
  },
  {
    "id": 28030409,
    "nameTextMapHash": 4188090863,
    "icon": "UI_AnimalIcon_Tit_04"
  },
  {
    "id": 28030410,
    "nameTextMapHash": 1142110311,
    "icon": "UI_AnimalIcon_Tit_04"
  },
  {
    "id": 28030501,
    "nameTextMapHash": 3675584791,
    "icon": "UI_AnimalIcon_Wigeon_01"
  },
  {
    "id": 28030502,
    "nameTextMapHash": 126149831,
    "icon": "UI_AnimalIcon_Wigeon_03"
  },
  {
    "id": 28030504,
    "nameTextMapHash": 536111647,
    "icon": "UI_AnimalIcon_Wigeon_01"
  },
  {
    "id": 28040101,
    "nameTextMapHash": 4119292863,
    "icon": "UI_AnimalIcon_Fish_01"
  },
  {
    "id": 28040102,
    "nameTextMapHash": 2906144015,
    "icon": "UI_AnimalIcon_Fish_02"
  },
  {
    "id": 28040103,
    "nameTextMapHash": 1025548983,
    "icon": "UI_AnimalIcon_Fish_03"
  },
  {
    "id": 28040104,
    "nameTextMapHash": 2113437175,
    "icon": "UI_AnimalIcon_Fish_01"
  },
  {
    "id": 28040105,
    "nameTextMapHash": 772246791,
    "icon": "UI_AnimalIcon_Fish_01"
  },
  {
    "id": 28040106,
    "nameTextMapHash": 3829079151,
    "icon": "UI_AnimalIcon_Fish_02"
  },
  {
    "id": 28040107,
    "nameTextMapHash": 1351013895,
    "icon": "UI_AnimalIcon_Fish_03"
  },
  {
    "id": 28040108,
    "nameTextMapHash": 4156347855,
    "icon": "UI_AnimalIcon_Fish_01"
  },
  {
    "id": 28040201,
    "nameTextMapHash": 3937027927,
    "icon": "UI_ItemIcon_131000"
  },
  {
    "id": 28040202,
    "nameTextMapHash": 2487421535,
    "icon": "UI_ItemIcon_131001"
  },
  {
    "id": 28040203,
    "nameTextMapHash": 2905810071,
    "icon": "UI_ItemIcon_131002"
  },
  {
    "id": 28040204,
    "nameTextMapHash": 12110151,
    "icon": "UI_ItemIcon_131003"
  },
  {
    "id": 28040205,
    "nameTextMapHash": 3254794799,
    "icon": "UI_ItemIcon_131004"
  },
  {
    "id": 28040206,
    "nameTextMapHash": 3088448887,
    "icon": "UI_ItemIcon_131005"
  },
  {
    "id": 28040301,
    "nameTextMapHash": 4176868343,
    "icon": "UI_ItemIcon_131006"
  },
  {
    "id": 28040302,
    "nameTextMapHash": 3815000391,
    "icon": "UI_ItemIcon_131007"
  },
  {
    "id": 28040303,
    "nameTextMapHash": 3248690431,
    "icon": "UI_ItemIcon_131008"
  },
  {
    "id": 28040304,
    "nameTextMapHash": 1522626143,
    "icon": "UI_ItemIcon_131009"
  },
  {
    "id": 28040305,
    "nameTextMapHash": 2614513047,
    "icon": "UI_ItemIcon_131010"
  },
  {
    "id": 28040401,
    "nameTextMapHash": 2512573719,
    "icon": "UI_ItemIcon_131011"
  },
  {
    "id": 28040402,
    "nameTextMapHash": 1581296415,
    "icon": "UI_ItemIcon_131012"
  },
  {
    "id": 28040501,
    "nameTextMapHash": 2413961287,
    "icon": "UI_ItemIcon_131013"
  },
  {
    "id": 28040502,
    "nameTextMapHash": 3068933831,
    "icon": "UI_ItemIcon_131014"
  },
  {
    "id": 28040503,
    "nameTextMapHash": 1579574119,
    "icon": "UI_ItemIcon_131015"
  },
  {
    "id": 28040504,
    "nameTextMapHash": 2030362415,
    "icon": "UI_ItemIcon_131016"
  },
  {
    "id": 28040505,
    "nameTextMapHash": 2820398223,
    "icon": "UI_ItemIcon_131017"
  },
  {
    "id": 28040506,
    "nameTextMapHash": 770846063,
    "icon": "UI_ItemIcon_131018"
  },
  {
    "id": 28040601,
    "nameTextMapHash": 653204391,
    "icon": "UI_ItemIcon_131019"
  },
  {
    "id": 28040602,
    "nameTextMapHash": 4099751567,
    "icon": "UI_ItemIcon_131020"
  },
  {
    "id": 28040701,
    "nameTextMapHash": 1693917103,
    "icon": "UI_ItemIcon_131021"
  },
  {
    "id": 28040702,
    "nameTextMapHash": 3278301135,
    "icon": "UI_ItemIcon_131022"
  },
  {
    "id": 28040703,
    "nameTextMapHash": 2716805831,
    "icon": "UI_AnimalIcon_Fishable_Ray_Stellamarisidae_01"
  },
  {
    "id": 28040801,
    "nameTextMapHash": 3497251007,
    "icon": "UI_ItemIcon_131023"
  },
  {
    "id": 28040802,
    "nameTextMapHash": 2903749079,
    "icon": "UI_ItemIcon_131024"
  },
  {
    "id": 28040803,
    "nameTextMapHash": 346414831,
    "icon": "UI_ItemIcon_131025"
  },
  {
    "id": 28040804,
    "nameTextMapHash": 1187386023,
    "icon": "UI_ItemIcon_131026"
  },
  {
    "id": 28040901,
    "nameTextMapHash": 1001969703,
    "icon": "UI_ItemIcon_131027"
  },
  {
    "id": 28040902,
    "nameTextMapHash": 228530231,
    "icon": "UI_ItemIcon_131028"
  },
  {
    "id": 28020401,
    "nameTextMapHash": 3960706199,
    "icon": "UI_AnimalIcon_DogPrick_01"
  },
  {
    "id": 28020402,
    "nameTextMapHash": 2017797455,
    "icon": "UI_AnimalIcon_DogPrick_04"
  },
  {
    "id": 28020403,
    "nameTextMapHash": 2059958447,
    "icon": "UI_AnimalIcon_DogPrick_02"
  },
  {
    "id": 28020404,
    "nameTextMapHash": 1201043519,
    "icon": "UI_AnimalIcon_DogPrick_03"
  },
  {
    "id": 28020405,
    "nameTextMapHash": 1923069063,
    "icon": "UI_AnimalIcon_DogPrick_02"
  },
  {
    "id": 28020406,
    "nameTextMapHash": 1581653111,
    "icon": "UI_AnimalIcon_DogPrick_01"
  },
  {
    "id": 28020407,
    "nameTextMapHash": 421834975,
    "icon": "UI_AnimalIcon_DogPrick_01"
  },
  {
    "id": 28020408,
    "nameTextMapHash": 1527468023,
    "icon": "UI_AnimalIcon_DogPrick_04"
  },
  {
    "id": 28020409,
    "nameTextMapHash": 118208687,
    "icon": "UI_AnimalIcon_DogPrick_02"
  },
  {
    "id": 28020410,
    "nameTextMapHash": 3682901583,
    "icon": "UI_AnimalIcon_DogPrick_03"
  },
  {
    "id": 28020501,
    "nameTextMapHash": 4293789527,
    "icon": "UI_AnimalIcon_Cat_01"
  },
  {
    "id": 28020502,
    "nameTextMapHash": 1607685319,
    "icon": "UI_AnimalIcon_Cat_02"
  },
  {
    "id": 28020503,
    "nameTextMapHash": 1659396423,
    "icon": "UI_AnimalIcon_Cat_03"
  },
  {
    "id": 28020504,
    "nameTextMapHash": 599076127,
    "icon": "UI_AnimalIcon_Cat_04"
  },
  {
    "id": 28020505,
    "nameTextMapHash": 1483329455,
    "icon": "UI_AnimalIcon_Cat_05"
  },
  {
    "id": 28020506,
    "nameTextMapHash": 2069661207,
    "icon": "UI_AnimalIcon_Cat_06"
  },
  {
    "id": 28020507,
    "nameTextMapHash": 1903532247,
    "icon": "UI_AnimalIcon_Cat_07"
  },
  {
    "id": 28020508,
    "nameTextMapHash": 974470127,
    "icon": "UI_AnimalIcon_Cat_01"
  },
  {
    "id": 28020509,
    "nameTextMapHash": 527406359,
    "icon": "UI_AnimalIcon_Cat_03"
  },
  {
    "id": 28020510,
    "nameTextMapHash": 3484094607,
    "icon": "UI_AnimalIcon_Cat_02"
  },
  {
    "id": 28020511,
    "nameTextMapHash": 896638575,
    "icon": "UI_AnimalIcon_Cat_03"
  },
  {
    "id": 28020512,
    "nameTextMapHash": 1854897527,
    "icon": "UI_AnimalIcon_Cat_04"
  },
  {
    "id": 28020513,
    "nameTextMapHash": 2194399367,
    "icon": "UI_AnimalIcon_Cat_05"
  },
  {
    "id": 28020601,
    "nameTextMapHash": 688627367,
    "icon": "UI_AnimalIcon_Marten_01"
  },
  {
    "id": 28020602,
    "nameTextMapHash": 1906892255,
    "icon": "UI_AnimalIcon_Marten_02"
  },
  {
    "id": 28020603,
    "nameTextMapHash": 3958843119,
    "icon": "UI_AnimalIcon_Marten_03"
  },
  {
    "id": 28020604,
    "nameTextMapHash": 3526442463,
    "icon": "UI_AnimalIcon_Marten_04"
  },
  {
    "id": 28020605,
    "nameTextMapHash": 318560911,
    "icon": "UI_AnimalIcon_Marten_05"
  },
  {
    "id": 28050201,
    "nameTextMapHash": 1588653575,
    "icon": "UI_AnimalIcon_Thoarder_Weasel_01"
  },
  {
    "id": 28050202,
    "nameTextMapHash": 4204619367,
    "icon": "UI_AnimalIcon_Thoarder_Weasel_02"
  },
  {
    "id": 28050203,
    "nameTextMapHash": 1746103711,
    "icon": "UI_AnimalIcon_Thoarder_Weasel_03"
  },
  {
    "id": 28050211,
    "nameTextMapHash": 670472095,
    "icon": "UI_AnimalIcon_Thoarder_Weasel_01"
  },
  {
    "id": 28050212,
    "nameTextMapHash": 3618556023,
    "icon": "UI_AnimalIcon_Thoarder_Weasel_02"
  },
  {
    "id": 28050213,
    "nameTextMapHash": 2102434415,
    "icon": "UI_AnimalIcon_Thoarder_Weasel_03"
  },
  {
    "id": 28060101,
    "nameTextMapHash": 1154223999,
    "icon": "UI_AnimalIcon_Gator_01"
  },
  {
    "id": 28060201,
    "nameTextMapHash": 559954199,
    "icon": "UI_AnimalIcon_Panther_01"
  },
  {
    "id": 28060301,
    "nameTextMapHash": 1975850911,
    "icon": "UI_AnimalIcon_Vulture_01"
  },
  {
    "id": 28060401,
    "nameTextMapHash": 2708644839,
    "icon": "UI_AnimalIcon_Scorpion_01"
  },
  {
    "id": 28060501,
    "nameTextMapHash": 2470187495,
    "icon": "UI_AnimalIcon_Megamoth_Desert"
  },
  {
    "id": 28060601,
    "nameTextMapHash": 1967437879,
    "icon": "UI_AnimalIcon_Megamoth_Jungle"
  },
  {
    "id": 28061501,
    "nameTextMapHash": 1842448703,
    "icon": "UI_AnimalIcon_Chrysopelea"
  },
  {
    "id": 28020701,
    "nameTextMapHash": 2330044031,
    "icon": "UI_AnimalIcon_Vulpes_01"
  },
  {
    "id": 28020702,
    "nameTextMapHash": 2763831159,
    "icon": "UI_AnimalIcon_Vulpes_01"
  },
  {
    "id": 28020801,
    "nameTextMapHash": 3677002623,
    "icon": "UI_AnimalIcon_Inu_Tanuki_01"
  },
  {
    "id": 28020802,
    "nameTextMapHash": 1323850143,
    "icon": "UI_AnimalIcon_Inu_Tanuki_02"
  },
  {
    "id": 28020803,
    "nameTextMapHash": 1473209047,
    "icon": "UI_AnimalIcon_Inu_Tanuki_01"
  },
  {
    "id": 28020901,
    "nameTextMapHash": 2596128375,
    "icon": "UI_AnimalIcon_Inu_Tanuki_01"
  },
  {
    "id": 28020902,
    "nameTextMapHash": 881241927,
    "icon": "UI_AnimalIcon_Inu_Tanuki_01"
  },
  {
    "id": 28021001,
    "nameTextMapHash": 2829515111,
    "icon": "UI_AnimalIcon_Tortoise_01"
  },
  {
    "id": 28220301,
    "nameTextMapHash": 1959967951,
    "icon": "UI_AnimalIcon_Boar_01"
  },
  {
    "id": 28220303,
    "nameTextMapHash": 1689640367,
    "icon": "UI_AnimalIcon_Boar_04"
  },
  {
    "id": 28210101,
    "nameTextMapHash": 1188963503,
    "icon": "UI_AnimalIcon_Crab_01"
  },
  {
    "id": 28210102,
    "nameTextMapHash": 1943490999,
    "icon": "UI_AnimalIcon_Crab_02"
  },
  {
    "id": 28210103,
    "nameTextMapHash": 2696934527,
    "icon": "UI_AnimalIcon_Crab_03"
  },
  {
    "id": 28210104,
    "nameTextMapHash": 19876751,
    "icon": "UI_AnimalIcon_Crab_04"
  },
  {
    "id": 28210105,
    "nameTextMapHash": 1284421559,
    "icon": "UI_AnimalIcon_Crab_05"
  },
  {
    "id": 28220101,
    "nameTextMapHash": 3680242855,
    "icon": "UI_AnimalIcon_Fox_01"
  },
  {
    "id": 28220102,
    "nameTextMapHash": 4135399951,
    "icon": "UI_AnimalIcon_Fox_02"
  },
  {
    "id": 28220108,
    "nameTextMapHash": 3054471471,
    "icon": "UI_AnimalIcon_Fox_03"
  },
  {
    "id": 28220201,
    "nameTextMapHash": 2660999167,
    "icon": "UI_AnimalIcon_Squirrel_01"
  },
  {
    "id": 28220401,
    "nameTextMapHash": 3322500367,
    "icon": "UI_AnimalIcon_DogPrick_01"
  },
  {
    "id": 28220402,
    "nameTextMapHash": 4274923919,
    "icon": "UI_AnimalIcon_DogPrick_04"
  },
  {
    "id": 28220403,
    "nameTextMapHash": 2189174583,
    "icon": "UI_AnimalIcon_DogPrick_02"
  },
  {
    "id": 28220404,
    "nameTextMapHash": 1653594079,
    "icon": "UI_AnimalIcon_DogPrick_03"
  },
  {
    "id": 28220501,
    "nameTextMapHash": 127144975,
    "icon": "UI_AnimalIcon_Cat_01"
  },
  {
    "id": 28220502,
    "nameTextMapHash": 3074168783,
    "icon": "UI_AnimalIcon_Cat_02"
  },
  {
    "id": 28220503,
    "nameTextMapHash": 4291548151,
    "icon": "UI_AnimalIcon_Cat_03"
  },
  {
    "id": 28220504,
    "nameTextMapHash": 1546705119,
    "icon": "UI_AnimalIcon_Cat_04"
  },
  {
    "id": 28220505,
    "nameTextMapHash": 2874532703,
    "icon": "UI_AnimalIcon_Cat_05"
  },
  {
    "id": 28220506,
    "nameTextMapHash": 1121136727,
    "icon": "UI_AnimalIcon_Cat_06"
  },
  {
    "id": 28220601,
    "nameTextMapHash": 4116906031,
    "icon": "UI_AnimalIcon_Marten_01"
  },
  {
    "id": 28220602,
    "nameTextMapHash": 2278607303,
    "icon": "UI_AnimalIcon_Marten_02"
  },
  {
    "id": 28220603,
    "nameTextMapHash": 1295619023,
    "icon": "UI_AnimalIcon_Marten_03"
  },
  {
    "id": 28220604,
    "nameTextMapHash": 1593168951,
    "icon": "UI_AnimalIcon_Marten_04"
  },
  {
    "id": 28220605,
    "nameTextMapHash": 4272555415,
    "icon": "UI_AnimalIcon_Marten_05"
  },
  {
    "id": 28220701,
    "nameTextMapHash": 3135954583,
    "icon": "UI_AnimalIcon_Vulpes_01"
  },
  {
    "id": 28220901,
    "nameTextMapHash": 185301391,
    "icon": "UI_AnimalIcon_Inu_Tanuki_01"
  },
  {
    "id": 28230101,
    "nameTextMapHash": 1639118127,
    "icon": "UI_AnimalIcon_Crane_01"
  },
  {
    "id": 28230102,
    "nameTextMapHash": 747498127,
    "icon": "UI_AnimalIcon_Crane_02"
  },
  {
    "id": 28230104,
    "nameTextMapHash": 2983165199,
    "icon": "UI_AnimalIcon_Crane_01_Lbis"
  },
  {
    "id": 28250101,
    "nameTextMapHash": 3775301575,
    "icon": "UI_AnimalIcon_Wisp_Wind_01"
  },
  {
    "id": 28250102,
    "nameTextMapHash": 2815984135,
    "icon": "UI_AnimalIcon_Wisp_Rock_01"
  },
  {
    "id": 28250103,
    "nameTextMapHash": 3921163815,
    "icon": "UI_AnimalIcon_Wisp_Ice_01"
  },
  {
    "id": 28250104,
    "nameTextMapHash": 4203456999,
    "icon": "UI_AnimalIcon_Wisp_Electric_01"
  },
  {
    "id": 28250105,
    "nameTextMapHash": 3994212591,
    "icon": "UI_AnimalIcon_Wisp_Tokoyo_01"
  },
  {
    "id": 28250106,
    "nameTextMapHash": 2848303671,
    "icon": "UI_AnimalIcon_Wisp_Grass_01"
  },
  {
    "id": 28250301,
    "nameTextMapHash": 1324348423,
    "icon": "UI_AnimalIcon_Boltbug_Lightbug_01"
  },
  {
    "id": 28250401,
    "nameTextMapHash": 2550947463,
    "icon": "UI_AnimalIcon_Boltbug_Lightbug_01"
  },
  {
    "id": 28210201,
    "nameTextMapHash": 1979938279,
    "icon": "UI_AnimalIcon_Lizard_01"
  },
  {
    "id": 28210202,
    "nameTextMapHash": 2888497311,
    "icon": "UI_AnimalIcon_Lizard_02"
  },
  {
    "id": 28210203,
    "nameTextMapHash": 2301470143,
    "icon": "UI_AnimalIcon_Lizard_03"
  },
  {
    "id": 28210204,
    "nameTextMapHash": 2578981575,
    "icon": "UI_AnimalIcon_Salamander_01"
  },
  {
    "id": 28210205,
    "nameTextMapHash": 672429495,
    "icon": "UI_AnimalIcon_Salamander_02"
  },
  {
    "id": 28210206,
    "nameTextMapHash": 3978456967,
    "icon": "UI_AnimalIcon_Salamander_03"
  },
  {
    "id": 28210207,
    "nameTextMapHash": 3310144647,
    "icon": "UI_AnimalIcon_Lizard_04"
  },
  {
    "id": 28210208,
    "nameTextMapHash": 2105555375,
    "icon": "UI_AnimalIcon_Lizard_05"
  },
  {
    "id": 28210301,
    "nameTextMapHash": 1436240127,
    "icon": "UI_AnimalIcon_Frog_01"
  },
  {
    "id": 28210302,
    "nameTextMapHash": 327440479,
    "icon": "UI_AnimalIcon_Frog_02"
  },
  {
    "id": 28210303,
    "nameTextMapHash": 454528711,
    "icon": "UI_AnimalIcon_Frog_03"
  },
  {
    "id": 28210304,
    "nameTextMapHash": 1343431519,
    "icon": "UI_AnimalIcon_Frog_04"
  },
  {
    "id": 28210401,
    "nameTextMapHash": 1403696327,
    "icon": "UI_AnimalIcon_Eel_01"
  },
  {
    "id": 28210402,
    "nameTextMapHash": 2685801871,
    "icon": "UI_AnimalIcon_Eel_02"
  },
  {
    "id": 28210403,
    "nameTextMapHash": 3917674223,
    "icon": "UI_AnimalIcon_Eel_03"
  },
  {
    "id": 28210404,
    "nameTextMapHash": 593707815,
    "icon": "UI_AnimalIcon_Eel_04"
  },
  {
    "id": 28230301,
    "nameTextMapHash": 2289721935,
    "icon": "UI_AnimalIcon_Pigeon_01"
  },
  {
    "id": 28230302,
    "nameTextMapHash": 3853551519,
    "icon": "UI_AnimalIcon_Pigeon_02"
  },
  {
    "id": 28230303,
    "nameTextMapHash": 2679241647,
    "icon": "UI_AnimalIcon_Pigeon_03"
  },
  {
    "id": 28230304,
    "nameTextMapHash": 3078531519,
    "icon": "UI_AnimalIcon_Pigeon_04"
  },
  {
    "id": 28230305,
    "nameTextMapHash": 684432039,
    "icon": "UI_AnimalIcon_Pigeon_05"
  },
  {
    "id": 28230306,
    "nameTextMapHash": 2360440943,
    "icon": "UI_AnimalIcon_Crow_01"
  },
  {
    "id": 28230401,
    "nameTextMapHash": 647834735,
    "icon": "UI_AnimalIcon_Tit_01"
  },
  {
    "id": 28230402,
    "nameTextMapHash": 4120006823,
    "icon": "UI_AnimalIcon_Tit_02"
  },
  {
    "id": 28230403,
    "nameTextMapHash": 3957941615,
    "icon": "UI_AnimalIcon_Tit_03"
  },
  {
    "id": 28230404,
    "nameTextMapHash": 1885771055,
    "icon": "UI_AnimalIcon_Tit_04"
  },
  {
    "id": 28240201,
    "nameTextMapHash": 879890303,
    "icon": "UI_ItemIcon_131000"
  },
  {
    "id": 28240202,
    "nameTextMapHash": 216601175,
    "icon": "UI_ItemIcon_131001"
  },
  {
    "id": 28240203,
    "nameTextMapHash": 671351215,
    "icon": "UI_ItemIcon_131002"
  },
  {
    "id": 28240204,
    "nameTextMapHash": 3050943647,
    "icon": "UI_ItemIcon_131003"
  },
  {
    "id": 28240205,
    "nameTextMapHash": 3327148191,
    "icon": "UI_ItemIcon_131004"
  },
  {
    "id": 28240206,
    "nameTextMapHash": 1801387791,
    "icon": "UI_ItemIcon_131005"
  },
  {
    "id": 28240301,
    "nameTextMapHash": 4139828239,
    "icon": "UI_ItemIcon_131006"
  },
  {
    "id": 28240302,
    "nameTextMapHash": 543289727,
    "icon": "UI_ItemIcon_131007"
  },
  {
    "id": 28240303,
    "nameTextMapHash": 152023535,
    "icon": "UI_ItemIcon_131008"
  },
  {
    "id": 28240304,
    "nameTextMapHash": 2271280295,
    "icon": "UI_ItemIcon_131009"
  },
  {
    "id": 28240305,
    "nameTextMapHash": 1936169063,
    "icon": "UI_ItemIcon_131010"
  },
  {
    "id": 28240401,
    "nameTextMapHash": 1097453527,
    "icon": "UI_ItemIcon_131011"
  },
  {
    "id": 28240402,
    "nameTextMapHash": 44569455,
    "icon": "UI_ItemIcon_131012"
  },
  {
    "id": 28240501,
    "nameTextMapHash": 2696459679,
    "icon": "UI_ItemIcon_131013"
  },
  {
    "id": 28240502,
    "nameTextMapHash": 909166983,
    "icon": "UI_ItemIcon_131014"
  },
  {
    "id": 28240503,
    "nameTextMapHash": 1617846039,
    "icon": "UI_ItemIcon_131015"
  },
  {
    "id": 28240504,
    "nameTextMapHash": 4088930927,
    "icon": "UI_ItemIcon_131016"
  },
  {
    "id": 28240505,
    "nameTextMapHash": 2290337399,
    "icon": "UI_ItemIcon_131017"
  },
  {
    "id": 28240506,
    "nameTextMapHash": 3404134111,
    "icon": "UI_ItemIcon_131018"
  },
  {
    "id": 28240601,
    "nameTextMapHash": 3767917735,
    "icon": "UI_ItemIcon_131019"
  },
  {
    "id": 28240602,
    "nameTextMapHash": 3375545327,
    "icon": "UI_ItemIcon_131020"
  },
  {
    "id": 28240701,
    "nameTextMapHash": 2125109535,
    "icon": "UI_ItemIcon_131021"
  },
  {
    "id": 28240702,
    "nameTextMapHash": 351294711,
    "icon": "UI_ItemIcon_131022"
  },
  {
    "id": 28240801,
    "nameTextMapHash": 3545099807,
    "icon": "UI_ItemIcon_131023"
  },
  {
    "id": 28240802,
    "nameTextMapHash": 3166489199,
    "icon": "UI_ItemIcon_131024"
  },
  {
    "id": 28240803,
    "nameTextMapHash": 3065563431,
    "icon": "UI_ItemIcon_131025"
  },
  {
    "id": 28240804,
    "nameTextMapHash": 1557598871,
    "icon": "UI_ItemIcon_131026"
  },
  {
    "id": 28240901,
    "nameTextMapHash": 1969799079,
    "icon": "UI_ItemIcon_131027"
  },
  {
    "id": 28240902,
    "nameTextMapHash": 1932088375,
    "icon": "UI_ItemIcon_131028"
  }
]
