[
  {
    "id": 1,
    "abilityName": "ActivityAbility_BossChallenge_Water_FreezeTriggerCJB",
    "KMBGEFCAJGB": 11707813188520472069,
    "NGGEFNONDKA": 3780508111,
    "JBIACLIKKCG": 1831678294,
    "descParam": [8.0, 0.0, 0.0]
  },
  {
    "id": 2,
    "abilityName": "ActivityAbility_BossChallenge_Water_ElementAddHurt_Ice",
    "KMBGEFCAJGB": 10119435538542784213,
    "NGGEFNONDKA": 1720006775,
    "JBIACLIKKCG": 739275726,
    "descParam": [150.0, 12.0, 0.0]
  },
  {
    "id": 3,
    "abilityName": "ActivityAbility_BossChallenge_Water_ElementAddHurt_Elec",
    "KMBGEFCAJGB": 9557220215481537994,
    "NGGEFNONDKA": 4270370447,
    "JBIACLIKKCG": 753363374,
    "descParam": [150.0, 12.0, 0.0]
  },
  {
    "id": 4,
    "abilityName": "ActivityAbility_BossChallenge_Water_KillMonsterHealHp",
    "KMBGEFCAJGB": 16721629069773043469,
    "NGGEFNONDKA": 1994254239,
    "JBIACLIKKCG": 1114672110,
    "descParam": [60.0, 1.0, 8.0]
  },
  {
    "id": 5,
    "abilityName": "ActivityAbility_BossChallenge_Fire_ElementAddHurt_Water",
    "KMBGEFCAJGB": 14443850525930844290,
    "NGGEFNONDKA": 1190176391,
    "JBIACLIKKCG": 195174702,
    "descParam": [150.0, 12.0, 0.0]
  },
  {
    "id": 6,
    "abilityName": "ActivityAbility_BossChallenge_Fire_Rain",
    "KMBGEFCAJGB": 2806618406199510929,
    "NGGEFNONDKA": 3504434895,
    "JBIACLIKKCG": 3515205134,
    "descParam": [4.0, 0.0, 0.0]
  },
  {
    "id": 7,
    "abilityName": "ActivityAbility_BossChallenge_Fire_KillMonsterAttackUp",
    "KMBGEFCAJGB": 1002771433557873841,
    "NGGEFNONDKA": 3392219703,
    "JBIACLIKKCG": 1477557830,
    "descParam": [12.0, 0.0, 0.0]
  },
  {
    "id": 8,
    "abilityName": "ActivityAbility_BossChallenge_Fire_SubHurtDeltaDown",
    "KMBGEFCAJGB": 6372371392925102266,
    "NGGEFNONDKA": 3816649887,
    "JBIACLIKKCG": 2195164206,
    "descParam": [75.0, 12.0, 0.0]
  },
  {
    "id": 9,
    "abilityName": "ActivityAbility_BossChallenge_Ice_DoubleDestoryShield",
    "KMBGEFCAJGB": 2218579290383498401,
    "NGGEFNONDKA": 3214840423,
    "JBIACLIKKCG": 4098656582,
    "descParam": [150.0, 8.0, 0.0]
  },
  {
    "id": 10,
    "abilityName": "ActivityAbility_BossChallenge_Ice_DestoryWall",
    "KMBGEFCAJGB": 130361255533547322,
    "NGGEFNONDKA": 696004711,
    "JBIACLIKKCG": 992292094,
    "descParam": [8.0, 0.0, 0.0]
  },
  {
    "id": 11,
    "abilityName": "ActivityAbility_BossChallenge_Ice_ElementAddHurt_Fire",
    "KMBGEFCAJGB": 18190503620672940864,
    "NGGEFNONDKA": 3266841247,
    "JBIACLIKKCG": 79667710,
    "descParam": [150.0, 12.0, 0.0]
  },
  {
    "id": 12,
    "abilityName": "ActivityAbility_BossChallenge_Ice_HealHp",
    "KMBGEFCAJGB": 5745404669087669999,
    "NGGEFNONDKA": 671912303,
    "JBIACLIKKCG": 1877377134,
    "descParam": [80.0, 0.0, 0.0]
  },
  {
    "id": 13,
    "abilityName": "ActivityAbility_BossChallenge_Grass_ChangeTriggerDamageUp",
    "KMBGEFCAJGB": 1002771433557873841,
    "NGGEFNONDKA": 228771623,
    "JBIACLIKKCG": 2347708998,
    "descParam": [500.0, 50.0, 12.0]
  },
  {
    "id": 14,
    "abilityName": "ActivityAbility_BossChallenge_Grass_HealHp",
    "KMBGEFCAJGB": 6891050163128825298,
    "NGGEFNONDKA": 1245944631,
    "JBIACLIKKCG": 1310651406,
    "descParam": [1.0, 12.5, 12.0]
  }
]
