[
  {
    "id": 1,
    "order": 1,
    "icon": "UI_EmotionTagIcon_01"
  },
  {
    "id": 2,
    "order": 2,
    "icon": "UI_EmotionTagIcon_02"
  },
  {
    "id": 3,
    "order": 3,
    "icon": "UI_EmotionTagIcon_03"
  },
  {
    "id": 4,
    "order": 4,
    "icon": "UI_EmotionTagIcon_04"
  },
  {
    "id": 5,
    "order": 5,
    "icon": "UI_EmotionTagIcon_05"
  },
  {
    "id": 6,
    "order": 6,
    "icon": "UI_EmotionTagIcon_06"
  },
  {
    "id": 7,
    "order": 7,
    "icon": "UI_EmotionTagIcon_07"
  },
  {
    "id": 8,
    "order": 8,
    "icon": "UI_EmotionTagIcon_08"
  },
  {
    "id": 9,
    "order": 9,
    "icon": "UI_EmotionTagIcon_09"
  },
  {
    "id": 10,
    "order": 10,
    "icon": "UI_EmotionTagIcon_10"
  },
  {
    "id": 11,
    "order": 11,
    "icon": "UI_EmotionTagIcon_11"
  },
  {
    "id": 12,
    "order": 12,
    "icon": "UI_EmotionTagIcon_12"
  },
  {
    "id": 13,
    "order": 13,
    "icon": "UI_EmotionTagIcon_13"
  },
  {
    "id": 14,
    "order": 14,
    "icon": "UI_EmotionTagIcon_14"
  },
  {
    "id": 15,
    "order": 15,
    "icon": "UI_EmotionTagIcon_15"
  },
  {
    "id": 16,
    "order": 16,
    "icon": "UI_EmotionTagIcon_16"
  },
  {
    "id": 17,
    "order": 17,
    "icon": "UI_EmotionTagIcon_17"
  },
  {
    "id": 18,
    "order": 18,
    "icon": "UI_EmotionTagIcon_18"
  },
  {
    "id": 19,
    "order": 19,
    "icon": "UI_EmotionTagIcon_19"
  },
  {
    "id": 20,
    "order": 20,
    "icon": "UI_EmotionTagIcon_20"
  },
  {
    "id": 21,
    "order": 21,
    "icon": "UI_EmotionTagIcon_21"
  },
  {
    "id": 22,
    "order": 22,
    "icon": "UI_EmotionTagIcon_22"
  }
]
