[
  {
    "id": 1,
    "activityId": 2020,
    "DOLMLHDKDGC": 70529,
    "CIGKHBCCDPL": 6114,
    "LJFIKLFELCH": 70528,
    "OPGBGNIFKHP": 6119,
    "HPJHONDKLGD": 10,
    "DPDEHLIFBAI": [10, 600, 10],
    "DFGAOIMKJGL": 1007,
    "PILEKKOKBLE": 70530,
    "AKGDFDDBAPD": 6113,
    "PNADFNKENIH": [220018, 220020, 220070, 220077]
  }
]
