[
  {
    "id": 70360056,
    "showType": "GRAP"
  },
  {
    "id": 70360057,
    "showType": "GRAP"
  },
  {
    "id": 70360058,
    "showType": "GRAP"
  },
  {
    "id": 70360059,
    "showType": "GRAP"
  },
  {
    "id": 70330024,
    "showType": "GRAP"
  },
  {
    "id": 70360087,
    "showType": "GRAP"
  },
  {
    "id": 70710021
  },
  {
    "id": 70710022
  },
  {
    "id": 70710023
  },
  {
    "id": 70217005
  },
  {
    "id": 70360048,
    "showType": "GRAP"
  },
  {
    "id": 70800001,
    "showType": "GRAP"
  },
  {
    "id": 70710071
  },
  {
    "id": 70710072
  },
  {
    "id": 70710073
  },
  {
    "id": 70710074
  },
  {
    "id": 70710075
  },
  {
    "id": 70710076
  },
  {
    "id": 70710077
  },
  {
    "id": 71700123,
    "showType": "GRAP"
  },
  {
    "id": 71700149,
    "showType": "GRAP"
  },
  {
    "id": 70360092
  },
  {
    "id": 71700103
  },
  {
    "id": 71700104
  },
  {
    "id": 70950015
  },
  {
    "id": 70950019
  },
  {
    "id": 70950020
  },
  {
    "id": 70710207
  },
  {
    "id": 70710208
  },
  {
    "id": 70710209
  },
  {
    "id": 70900361
  },
  {
    "id": 70800028
  },
  {
    "id": 70710188
  },
  {
    "id": 70710189
  },
  {
    "id": 70710190
  },
  {
    "id": 70360125,
    "showType": "GRAP"
  },
  {
    "id": 70360126,
    "showType": "GRAP"
  },
  {
    "id": 70360146
  },
  {
    "id": 70360149
  },
  {
    "id": 70360152
  },
  {
    "id": 70360153
  },
  {
    "id": 70710294
  },
  {
    "id": 70710295
  },
  {
    "id": 71700198
  },
  {
    "id": 71700199
  },
  {
    "id": 71700197
  },
  {
    "id": 71700192
  },
  {
    "id": 71700193
  },
  {
    "id": 71700194
  },
  {
    "id": 70710301
  },
  {
    "id": 70710302
  },
  {
    "id": 71700184
  },
  {
    "id": 71700195
  },
  {
    "id": 70710269
  },
  {
    "id": 70710270
  },
  {
    "id": 70710273
  },
  {
    "id": 70710303,
    "showType": "GRAP"
  },
  {
    "id": 70710304,
    "showType": "GRAP"
  },
  {
    "id": 70710305,
    "showType": "GRAP"
  },
  {
    "id": 70710306,
    "showType": "GRAP"
  },
  {
    "id": 70710307,
    "showType": "GRAP"
  },
  {
    "id": 70710308,
    "showType": "GRAP"
  },
  {
    "id": 77204042
  },
  {
    "id": 70350261
  },
  {
    "id": 70380274
  },
  {
    "id": 70380275
  },
  {
    "id": 70360272,
    "showType": "GRAP"
  },
  {
    "id": 70360286
  },
  {
    "id": 70710041,
    "showType": "GRAP"
  },
  {
    "id": 70360166
  },
  {
    "id": 70950098
  },
  {
    "id": 70710031
  },
  {
    "id": 70710032
  },
  {
    "id": 70710033
  },
  {
    "id": 70710447
  },
  {
    "id": 70710448
  },
  {
    "id": 70800039,
    "showType": "GRAP"
  },
  {
    "id": 70800040,
    "showType": "GRAP"
  },
  {
    "id": 71700316
  },
  {
    "id": 71700319
  },
  {
    "id": 70360180
  },
  {
    "id": 70360181
  },
  {
    "id": 70360182
  },
  {
    "id": 70360183
  },
  {
    "id": 70360313
  },
  {
    "id": 70800086
  },
  {
    "id": 71700335
  },
  {
    "id": 71700336
  },
  {
    "id": 71700337
  },
  {
    "id": 70290312
  },
  {
    "id": 70330152
  },
  {
    "id": 70330138,
    "showType": "GRAP"
  },
  {
    "id": 70330139,
    "showType": "GRAP"
  },
  {
    "id": 70330140,
    "showType": "GRAP"
  },
  {
    "id": 70330160,
    "showType": "GRAP"
  },
  {
    "id": 70330150,
    "showType": "GRAP"
  },
  {
    "id": 70330164
  },
  {
    "id": 70290322,
    "showType": "GRAP"
  },
  {
    "id": 70330142,
    "showType": "GRAP"
  },
  {
    "id": 70330143,
    "showType": "GRAP"
  },
  {
    "id": 70290206,
    "showType": "GRAP"
  },
  {
    "id": 70290207,
    "showType": "GRAP"
  },
  {
    "id": 70290208,
    "showType": "GRAP"
  },
  {
    "id": 70290212,
    "showType": "GRAP"
  },
  {
    "id": 70290347,
    "showType": "GRAP"
  },
  {
    "id": 70310185,
    "showType": "GRAP"
  },
  {
    "id": 70290327,
    "showType": "GRAP"
  },
  {
    "id": 70290332,
    "showType": "GRAP"
  },
  {
    "id": 70290366,
    "showType": "GRAP"
  },
  {
    "id": 70230091
  },
  {
    "id": 70230092
  },
  {
    "id": 70230093
  },
  {
    "id": 70230094
  },
  {
    "id": 70230095
  },
  {
    "id": 70230096
  },
  {
    "id": 70230097
  },
  {
    "id": 70230098
  },
  {
    "id": 70230099
  },
  {
    "id": 70800113
  },
  {
    "id": 70710717
  },
  {
    "id": 70710690
  },
  {
    "id": 70710691
  },
  {
    "id": 70710692
  },
  {
    "id": 70710682
  },
  {
    "id": 70350454
  },
  {
    "id": 70310330
  },
  {
    "id": 70310399
  },
  {
    "id": 70310458
  },
  {
    "id": 70290425
  },
  {
    "id": 70290426
  },
  {
    "id": 70380233
  },
  {
    "id": 70380236
  },
  {
    "id": 70710750
  },
  {
    "id": 70710751
  },
  {
    "id": 70710752
  },
  {
    "id": 70710753
  },
  {
    "id": 70710754
  },
  {
    "id": 70710755
  },
  {
    "id": 70710756
  },
  {
    "id": 70710757
  },
  {
    "id": 70710766
  },
  {
    "id": 70290379
  },
  {
    "id": 70290415
  },
  {
    "id": 70350436
  },
  {
    "id": 70330230
  },
  {
    "id": 70310193
  },
  {
    "id": 70310194
  },
  {
    "id": 70310229
  },
  {
    "id": 70310230
  },
  {
    "id": 70330242
  },
  {
    "id": 70290500
  },
  {
    "id": 70290473
  },
  {
    "id": 70310217
  },
  {
    "id": 70310218
  },
  {
    "id": 70320004
  },
  {
    "id": 70500036
  },
  {
    "id": 70500033
  },
  {
    "id": 70500053
  },
  {
    "id": 70500054
  },
  {
    "id": 71700389
  },
  {
    "id": 70310173
  },
  {
    "id": 70310257
  },
  {
    "id": 70310259
  },
  {
    "id": 70310261
  },
  {
    "id": 70310263
  },
  {
    "id": 70310265
  },
  {
    "id": 70310175
  },
  {
    "id": 70310258
  },
  {
    "id": 70310260
  },
  {
    "id": 70310262
  },
  {
    "id": 70310264
  },
  {
    "id": 70310266
  },
  {
    "id": 70310332
  },
  {
    "id": 70310472
  },
  {
    "id": 70900423
  },
  {
    "id": 70310344
  },
  {
    "id": 70310345
  },
  {
    "id": 70310346
  },
  {
    "id": 70350457,
    "showType": "GRAP"
  },
  {
    "id": 70290429,
    "showType": "GRAP"
  },
  {
    "id": 70290430,
    "showType": "GRAP"
  },
  {
    "id": 70290431,
    "showType": "GRAP"
  },
  {
    "id": 70290432,
    "showType": "GRAP"
  },
  {
    "id": 70290433,
    "showType": "GRAP"
  },
  {
    "id": 70290434,
    "showType": "GRAP"
  },
  {
    "id": 70800272
  },
  {
    "id": 70800279
  },
  {
    "id": 70330227
  },
  {
    "id": 70330228
  },
  {
    "id": 70330257
  },
  {
    "id": 70330263
  },
  {
    "id": 70330265
  },
  {
    "id": 70330267
  },
  {
    "id": 70330277
  },
  {
    "id": 70330356
  },
  {
    "id": 70330357
  },
  {
    "id": 70330358
  },
  {
    "id": 70330359
  },
  {
    "id": 70330360
  },
  {
    "id": 70330361
  },
  {
    "id": 70330362
  },
  {
    "id": 70330363
  },
  {
    "id": 70330364
  },
  {
    "id": 70330320
  },
  {
    "id": 70330279
  },
  {
    "id": 70330283
  },
  {
    "id": 70330300
  },
  {
    "id": 70330309
  },
  {
    "id": 70330310
  },
  {
    "id": 70330311
  },
  {
    "id": 70330312
  },
  {
    "id": 70330313
  },
  {
    "id": 70330314
  },
  {
    "id": 70330315
  },
  {
    "id": 70330333
  },
  {
    "id": 70330334
  },
  {
    "id": 70330341
  },
  {
    "id": 70330459
  },
  {
    "id": 70330343
  },
  {
    "id": 70330344
  },
  {
    "id": 70330355
  },
  {
    "id": 70330438
  },
  {
    "id": 70330439
  },
  {
    "id": 70330440
  },
  {
    "id": 70330285
  },
  {
    "id": 70360391,
    "showType": "GRAP"
  },
  {
    "id": 70290657
  },
  {
    "id": 70290720
  },
  {
    "id": 71700536
  },
  {
    "id": 70291025
  },
  {
    "id": 70291026
  },
  {
    "id": 70291015
  },
  {
    "id": 70310498
  },
  {
    "id": 70310532
  },
  {
    "id": 70310533
  }
]
