[
  {
    "id": 1,
    "PGKHGCKNEFP": true,
    "FJGMABDEMAJ": "CARD_TAG",
    "JABOPINGEDO": 2898754250,
    "paramList": [301, 302, 303, 304, 307, 305, 306],
    "EMCNFCINLEE": 1702719397
  },
  {
    "id": 2,
    "PGKHGCKNEFP": true,
    "FJGMABDEMAJ": "CARD_TAG",
    "JABOPINGEDO": 4130406122,
    "paramList": [201, 202, 203, 204, 205],
    "GNPMMOKBODD": true,
    "EMCNFCINLEE": 1208187341
  },
  {
    "id": 3,
    "PGKHGCKNEFP": true,
    "FJGMABDEMAJ": "CARD_TAG",
    "JABOPINGEDO": 4139357962,
    "paramList": [401, 402, 403, 404, 501, 502, 503],
    "EMCNFCINLEE": 3206503541
  },
  {
    "id": 4,
    "IOCMMOCPKGB": true,
    "FJGMABDEMAJ": "CARD_TYPE",
    "JABOPINGEDO": 2068225106,
    "paramList": [2, 5, 6],
    "EMCNFCINLEE": 3839654221
  },
  {
    "id": 5,
    "IOCMMOCPKGB": true,
    "FJGMABDEMAJ": "CARD_TAG",
    "JABOPINGEDO": 2435174714,
    "paramList": [3, 4, 6, 101, 102, 103, 104, 105],
    "GNPMMOKBODD": true,
    "EMCNFCINLEE": 1928235365
  },
  {
    "id": 6,
    "IOCMMOCPKGB": true,
    "FJGMABDEMAJ": "CARD_COST",
    "JABOPINGEDO": 3654412338,
    "paramList": [0, 1, 2, 3, 4, 5, 6],
    "GNPMMOKBODD": true,
    "EMCNFCINLEE": 2503424845
  }
]
