[
  {
    "id": 1001,
    "KJBKPJOAEKD": "UI_Gcg_InSide_01",
    "titleTextMapHash": 134254614,
    "contentTextMapHash": 1474820603
  },
  {
    "id": 1002,
    "PJGBHMCGIDM": true,
    "KJBKPJOAEKD": "",
    "titleTextMapHash": 2612067318,
    "contentTextMapHash": 3528830963
  },
  {
    "id": 1003,
    "PJGBHMCGIDM": true,
    "KJBKPJOAEKD": "",
    "titleTextMapHash": 3896450814,
    "contentTextMapHash": 1584201203
  },
  {
    "id": 1004,
    "PJGBHMCGIDM": true,
    "KJBKPJOAEKD": "",
    "titleTextMapHash": 3912423126,
    "contentTextMapHash": 4000257875
  },
  {
    "id": 2001,
    "KJBKPJOAEKD": "UI_Gcg_InSide_11",
    "titleTextMapHash": 2983793054,
    "contentTextMapHash": 3396623051
  },
  {
    "id": 2002,
    "PJGBHMCGIDM": true,
    "KJBKPJOAEKD": "",
    "titleTextMapHash": 4060393782,
    "contentTextMapHash": 3938599771
  },
  {
    "id": 2003,
    "PJGBHMCGIDM": true,
    "KJBKPJOAEKD": "",
    "titleTextMapHash": 4262629446,
    "contentTextMapHash": 2481072171
  },
  {
    "id": 2004,
    "PJGBHMCGIDM": true,
    "KJBKPJOAEKD": "",
    "titleTextMapHash": 1597150950,
    "contentTextMapHash": 3086648811
  },
  {
    "id": 3001,
    "KJBKPJOAEKD": "",
    "titleTextMapHash": 1695779270,
    "contentTextMapHash": 1903707627
  },
  {
    "id": 3002,
    "PJGBHMCGIDM": true,
    "KJBKPJOAEKD": "",
    "titleTextMapHash": 373870046,
    "contentTextMapHash": 3068476779
  },
  {
    "id": 3003,
    "PJGBHMCGIDM": true,
    "KJBKPJOAEKD": "",
    "titleTextMapHash": 3839572510,
    "contentTextMapHash": 1149097907
  },
  {
    "id": 3004,
    "PJGBHMCGIDM": true,
    "KJBKPJOAEKD": "",
    "titleTextMapHash": 1726562734,
    "contentTextMapHash": 823471595
  },
  {
    "id": 3005,
    "PJGBHMCGIDM": true,
    "KJBKPJOAEKD": "",
    "titleTextMapHash": 441556350,
    "contentTextMapHash": 2190144507
  },
  {
    "id": 3006,
    "PJGBHMCGIDM": true,
    "KJBKPJOAEKD": "",
    "titleTextMapHash": 4105927326,
    "contentTextMapHash": 965224091
  },
  {
    "id": 4001,
    "PJGBHMCGIDM": true,
    "KJBKPJOAEKD": "UI_Gcg_InSide_12",
    "titleTextMapHash": 3054007182,
    "contentTextMapHash": 3437207851
  },
  {
    "id": 4002,
    "PJGBHMCGIDM": true,
    "KJBKPJOAEKD": "UI_Gcg_InSide_13",
    "titleTextMapHash": 1641861062,
    "contentTextMapHash": 1720940323
  },
  {
    "id": 5001,
    "PJGBHMCGIDM": true,
    "HFPCIGMCMOF": 101,
    "KJBKPJOAEKD": "",
    "titleTextMapHash": 1184864630,
    "contentTextMapHash": 1904070275
  },
  {
    "id": 5002,
    "PJGBHMCGIDM": true,
    "HFPCIGMCMOF": 102,
    "KJBKPJOAEKD": "",
    "titleTextMapHash": 2625199078,
    "contentTextMapHash": 2862340587
  },
  {
    "id": 5003,
    "PJGBHMCGIDM": true,
    "HFPCIGMCMOF": 103,
    "KJBKPJOAEKD": "",
    "titleTextMapHash": 377415998,
    "contentTextMapHash": 4000931611
  },
  {
    "id": 5004,
    "PJGBHMCGIDM": true,
    "HFPCIGMCMOF": 104,
    "KJBKPJOAEKD": "",
    "titleTextMapHash": 3044401462,
    "contentTextMapHash": 4044230267
  },
  {
    "id": 5005,
    "PJGBHMCGIDM": true,
    "HFPCIGMCMOF": 105,
    "KJBKPJOAEKD": "",
    "titleTextMapHash": 3568586854,
    "contentTextMapHash": 2303246059
  },
  {
    "id": 5006,
    "PJGBHMCGIDM": true,
    "HFPCIGMCMOF": 106,
    "KJBKPJOAEKD": "",
    "titleTextMapHash": 3097520990,
    "contentTextMapHash": 1921822475
  },
  {
    "id": 5007,
    "PJGBHMCGIDM": true,
    "HFPCIGMCMOF": 107,
    "KJBKPJOAEKD": "",
    "titleTextMapHash": 2482467334,
    "contentTextMapHash": 3845338619
  },
  {
    "id": 5008,
    "PJGBHMCGIDM": true,
    "HFPCIGMCMOF": 108,
    "KJBKPJOAEKD": "",
    "titleTextMapHash": 1430732974,
    "contentTextMapHash": 2606232051
  },
  {
    "id": 5009,
    "PJGBHMCGIDM": true,
    "HFPCIGMCMOF": 109,
    "KJBKPJOAEKD": "",
    "titleTextMapHash": 2349711014,
    "contentTextMapHash": 1970996923
  },
  {
    "id": 5010,
    "PJGBHMCGIDM": true,
    "HFPCIGMCMOF": 110,
    "KJBKPJOAEKD": "",
    "titleTextMapHash": 2668047974,
    "contentTextMapHash": 3991122459
  },
  {
    "id": 5011,
    "PJGBHMCGIDM": true,
    "HFPCIGMCMOF": 111,
    "KJBKPJOAEKD": "",
    "titleTextMapHash": 3385143942,
    "contentTextMapHash": 2571490131
  },
  {
    "id": 5012,
    "PJGBHMCGIDM": true,
    "HFPCIGMCMOF": 112,
    "KJBKPJOAEKD": "",
    "titleTextMapHash": 1362973894,
    "contentTextMapHash": 1519120467
  },
  {
    "id": 5013,
    "PJGBHMCGIDM": true,
    "HFPCIGMCMOF": 113,
    "KJBKPJOAEKD": "",
    "titleTextMapHash": 4284814294,
    "contentTextMapHash": 184552619
  },
  {
    "id": 5014,
    "PJGBHMCGIDM": true,
    "HFPCIGMCMOF": 114,
    "KJBKPJOAEKD": "",
    "titleTextMapHash": 2821593766,
    "contentTextMapHash": 1648918043
  },
  {
    "id": 5015,
    "PJGBHMCGIDM": true,
    "HFPCIGMCMOF": 115,
    "KJBKPJOAEKD": "",
    "titleTextMapHash": 1516189830,
    "contentTextMapHash": 2257001179
  },
  {
    "id": 5016,
    "PJGBHMCGIDM": true,
    "HFPCIGMCMOF": 116,
    "KJBKPJOAEKD": "",
    "titleTextMapHash": 1216168406,
    "contentTextMapHash": 13014131
  },
  {
    "id": 5017,
    "PJGBHMCGIDM": true,
    "HFPCIGMCMOF": 117,
    "KJBKPJOAEKD": "",
    "titleTextMapHash": 2818975062,
    "contentTextMapHash": 2941336939
  },
  {
    "id": 6001,
    "PJGBHMCGIDM": true,
    "KJBKPJOAEKD": "",
    "titleTextMapHash": 3703894262,
    "contentTextMapHash": 3950524299
  },
  {
    "id": 6002,
    "PJGBHMCGIDM": true,
    "KJBKPJOAEKD": "",
    "titleTextMapHash": 1588063806,
    "contentTextMapHash": 3858954603
  },
  {
    "id": 6003,
    "PJGBHMCGIDM": true,
    "KJBKPJOAEKD": "",
    "titleTextMapHash": 1584118606,
    "contentTextMapHash": 3729142715
  },
  {
    "id": 6004,
    "PJGBHMCGIDM": true,
    "KJBKPJOAEKD": "",
    "titleTextMapHash": 848526310,
    "contentTextMapHash": 2298889979
  },
  {
    "id": 6005,
    "PJGBHMCGIDM": true,
    "KJBKPJOAEKD": "",
    "titleTextMapHash": 1640523006,
    "contentTextMapHash": 1535022627
  },
  {
    "id": 6006,
    "PJGBHMCGIDM": true,
    "KJBKPJOAEKD": "",
    "titleTextMapHash": 805240742,
    "contentTextMapHash": 1796093995
  },
  {
    "id": 6007,
    "PJGBHMCGIDM": true,
    "KJBKPJOAEKD": "",
    "titleTextMapHash": 4093968838,
    "contentTextMapHash": 2319247451
  },
  {
    "id": 7001,
    "KJBKPJOAEKD": "UI_Gcg_InSide_14",
    "titleTextMapHash": 850467646,
    "contentTextMapHash": 3576315299
  },
  {
    "id": 7002,
    "PJGBHMCGIDM": true,
    "KJBKPJOAEKD": "",
    "titleTextMapHash": 2323111278,
    "contentTextMapHash": 26915731
  },
  {
    "id": 7003,
    "PJGBHMCGIDM": true,
    "KJBKPJOAEKD": "",
    "titleTextMapHash": 255675014,
    "contentTextMapHash": 2089759539
  },
  {
    "id": 7004,
    "PJGBHMCGIDM": true,
    "KJBKPJOAEKD": "",
    "titleTextMapHash": 741663206,
    "contentTextMapHash": 3686205123
  },
  {
    "id": 7005,
    "PJGBHMCGIDM": true,
    "KJBKPJOAEKD": "",
    "titleTextMapHash": 1044156438,
    "contentTextMapHash": 97729619
  },
  {
    "id": 7006,
    "PJGBHMCGIDM": true,
    "KJBKPJOAEKD": "",
    "titleTextMapHash": 1222038158,
    "contentTextMapHash": 1450823707
  },
  {
    "id": 7007,
    "PJGBHMCGIDM": true,
    "KJBKPJOAEKD": "",
    "titleTextMapHash": 3167605990,
    "contentTextMapHash": 631920739
  }
]
