[
  {
    "id": 1,
    "CLBBFPCMIIN": 5,
    "NLGJOOFCIAJ": 5,
    "MFDNMGFFGHO": 2,
    "EBDNNLBGNKA": [
      101, 102, 103, 104, 105, 106, 107, 108, 109, 110, 111, 112, 113, 114, 115,
      116, 117
    ],
    "GKAHMEJKJDJ": 10,
    "CBCDMLFMFKF": 45,
    "GECFDAGABKK": 40,
    "FCGLJIAHLAO": 60,
    "JODJMGHJAMP": 25,
    "KHNEJKCECPH": 120,
    "MPJBLAEOPII": 100,
    "FDLAEPNAEFM": 21,
    "GGIJPKNLGKM": 10,
    "ADMGKEOHFIM": 15,
    "OMMNIKNMNED": 25,
    "CMKJABKHMKF": 0.5
  },
  {
    "id": 2,
    "CLBBFPCMIIN": 5,
    "NLGJOOFCIAJ": 5,
    "MFDNMGFFGHO": 2,
    "EBDNNLBGNKA": [
      101, 102, 103, 104, 105, 106, 107, 108, 109, 110, 111, 112, 113, 114, 115,
      116, 117
    ],
    "GKAHMEJKJDJ": 10
  }
]
