[
  {
    "guideName": "GuideWeaponChange",
    "type": "GET_NEW_ITEM",
    "openState": "OPEN_STATE_WEAPON_CHANGE_GUIDE"
  },
  {
    "guideName": "GuideAvatarUpgrade",
    "type": "GET_NEW_ITEM",
    "openState": "OPEN_STATE_PLAYER_LVUP_GUIDE"
  },
  {
    "guideName": "GuideRelic",
    "type": "GET_NEW_ITEM",
    "openState": "OPEN_STATE_GUIDE_RELIC"
  },
  {
    "guideName": "GuideWeaponUpgrade",
    "type": "OPENSTATE_CHANGE",
    "openState": "OPEN_STATE_WEAPON_PROMOTE_GUIDE"
  },
  {
    "guideName": "GuideTalent",
    "type": "OPENSTATE_CHANGE",
    "openState": "OPEN_STATE_GUIDE_TALENT"
  },
  {
    "guideName": "GuideRelicPromote",
    "type": "OPENSTATE_CHANGE",
    "openState": "OPEN_STATE_GUIDE_RELIC_PROM"
  },
  {
    "guideName": "GuideGacha",
    "type": "OPENSTATE_CHANGE",
    "openState": "OPEN_STATE_GUIDE_GACHA"
  },
  {
    "guideName": "GuideTeam",
    "type": "HAS_AVATAR_NUM",
    "param1": 5
  },
  {
    "guideName": "GuideAvatarPromote",
    "type": "ANY_AVATAR_LEVEL",
    "param1": 20
  },
  {
    "guideName": "GuideBag",
    "type": "GET_NEW_ITEM",
    "openState": "OPEN_STATE_GUIDE_BAG"
  },
  {
    "guideName": "GuideMultiplayer",
    "type": "OPENSTATE_CHANGE",
    "openState": "OPEN_STATE_GUIDE_MULTIPLAYER"
  },
  {
    "guideName": "GuideDungeonReward",
    "type": "OPENSTATE_CHANGE",
    "openState": "OPEN_STATE_GUIDE_DUNGEONREWARD"
  },
  {
    "guideName": "GuidePersonalLine",
    "type": "OPENSTATE_CHANGE",
    "openState": "OPEN_STATE_GUIDE_PERSONAL_LINE"
  },
  {
    "guideName": "GuideAppearance",
    "type": "OPENSTATE_CHANGE",
    "openState": "OPEN_STATE_GUIDE_APPEARANCE"
  },
  {
    "guideName": "GuidePersonalLineKey",
    "type": "PERSONALLINE_KEY",
    "openState": "OPEN_STATE_GUIDE_PERSONAL_LINE_KEY"
  },
  {
    "guideName": "GuideProcess",
    "type": "OPENSTATE_CHANGE",
    "openState": "OPEN_STATE_GUIDE_PROCESS"
  },
  {
    "guideName": "GuideWidget",
    "type": "GET_NEW_ITEM",
    "openState": "OPEN_STATE_GUIDE_WIDGET"
  },
  {
    "guideName": "GuideExitMultiplayer",
    "type": "WORLDPLAYER_UPDATE",
    "openState": "OPEN_STATE_GUIDE_EXITMULTIPLAYER"
  },
  {
    "guideName": "GuideColdClimateEntry",
    "type": "CLIMATE_TYPE_CHANGE",
    "openState": "OPEN_STATE_GUIDE_COLDCLIMATE"
  },
  {
    "guideName": "GuideTheatreMachanicusBuildios",
    "type": "OPENSTATE_CHANGE",
    "openState": "OPEN_STATE_GUIDE_THEATREMACHANICUS_BUILD"
  },
  {
    "guideName": "GuideTheatreMachanicusRebuildios",
    "type": "OPENSTATE_CHANGE",
    "openState": "OPEN_STATE_GUIDE_THEATREMACHANICUS_REBUILD"
  },
  {
    "guideName": "GuideTheatreMachanicusCardios",
    "type": "OPENSTATE_CHANGE",
    "openState": "OPEN_STATE_GUIDE_THEATREMACHANICUS_CARD"
  },
  {
    "guideName": "GuideTheatreMachanicusMissionCheck",
    "type": "OPENSTATE_CHANGE",
    "openState": "OPEN_STATE_GUIDE_THEATREMACHANICUS_MISSION_CHECK"
  },
  {
    "guideName": "GuideTheatreMachanicusBuildSelect",
    "type": "OPENSTATE_CHANGE",
    "openState": "OPEN_STATE_GUIDE_THEATREMACHANICUS_BUILD_SELECT"
  },
  {
    "guideName": "GuideTheatreMachanicusChallegeStart",
    "type": "OPENSTATE_CHANGE",
    "openState": "OPEN_STATE_GUIDE_THEATREMACHANICUS_CHALLENGE_START"
  },
  {
    "guideName": "GuideTheatreMachanicusMonsterios",
    "type": "OPENSTATE_CHANGE",
    "openState": "OPEN_STATE_GUIDE_THEATREMACHANICUS_MONSTER"
  },
  {
    "guideName": "GuideSynthesisConvert",
    "type": "OPENSTATE_CHANGE",
    "openState": "OPEN_STATE_GUIDE_CONVERT"
  },
  {
    "guideName": "GuideTheatreMachanicusMultiplayerios",
    "type": "OPENSTATE_CHANGE",
    "openState": "OPEN_STATE_GUIDE_THEATREMACHANICUS_MULTIPLAYER"
  },
  {
    "guideName": "GuideCoopTask",
    "type": "OPENSTATE_CHANGE",
    "openState": "OPEN_STATE_GUIDE_COOP_TASK"
  },
  {
    "guideName": "GuideAdeptiAbode",
    "type": "GET_NEW_ITEM",
    "openState": "OPEN_STATE_GUIDE_HOMEWORLD_ADEPTIABODE"
  },
  {
    "guideName": "GuideChannellerSlabEquip",
    "type": "OPENSTATE_CHANGE",
    "openState": "OPEN_STATE_GUIDE_CHANNELLERSLAB_EQUIP"
  },
  {
    "guideName": "GuideChannellerSlabMpSolution",
    "type": "OPENSTATE_CHANGE",
    "openState": "OPEN_STATE_GUIDE_CHANNELLERSLAB_MP_SOLUTION"
  },
  {
    "guideName": "GuideChannellerSlabPower",
    "type": "OPENSTATE_CHANGE",
    "openState": "OPEN_STATE_GUIDE_CHANNELLERSLAB_POWER"
  },
  {
    "guideName": "GuideHideandSeekSkill",
    "type": "OPENSTATE_CHANGE",
    "openState": "OPEN_STATE_GUIDE_HIDEANDSEEK_SKILL"
  },
  {
    "guideName": "GuideHomeMapList",
    "type": "OPENSTATE_CHANGE",
    "openState": "OPEN_STATE_GUIDE_HOMEWORLD_MAPLIST"
  },
  {
    "guideName": "GuideRelicResolve",
    "type": "OPENSTATE_CHANGE",
    "openState": "OPEN_STATE_GUIDE_RELICRESOLVE"
  },
  {
    "guideName": "GuideGguideHint",
    "type": "PUSHTIPS_NOTIFY_FINISH",
    "openState": "OPEN_STATE_GUIDE_GGUIDE_HINT"
  },
  {
    "guideName": "GuideGguide",
    "type": "NEW_PUSHTIPS",
    "openState": "OPEN_STATE_GUIDE_GGUIDE"
  },
  {
    "guideName": "GuildChessMissonCheck",
    "type": "OPENSTATE_CHANGE",
    "openState": "OPEN_STATE_GUIDE_CHESS_MISSION_CHECK"
  },
  {
    "guideName": "GuideChessBuild",
    "type": "OPENSTATE_CHANGE",
    "openState": "OPEN_STATE_GUIDE_CHESS_BUILD"
  },
  {
    "guideName": "GuideChessWindTowerCircle",
    "type": "OPENSTATE_CHANGE",
    "openState": "OPEN_STATE_GUIDE_CHESS_WIND_TOWER_CIRCLE"
  },
  {
    "guideName": "GuideChessCardSelect",
    "type": "OPENSTATE_CHANGE",
    "openState": "OPEN_STATE_GUIDE_CHESS_CARD_SELECT"
  },
  {
    "guideName": "GuidePlayerLvInfo",
    "type": "OPENSTATE_CHANGE",
    "openState": "OPEN_STATE_GUIDE_PAIMON_LVINFO"
  },
  {
    "guideName": "GuideFlyStart",
    "type": "OPENSTATE_CHANGE",
    "openState": "OPEN_STATE_GUIDE_FLY_SECOND"
  },
  {
    "guideName": "GuideSumoTeamSkill",
    "type": "OPENSTATE_CHANGE",
    "openState": "OPEN_STATE_GUIDE_SUMO_TEAM_SKILL"
  },
  {
    "guideName": "GuideFishRecipe",
    "type": "OPENSTATE_CHANGE",
    "openState": "OPEN_STATE_GUIDE_FISH_RECIPE"
  },
  {
    "guideName": "GuideRogueMap",
    "type": "OPENSTATE_CHANGE",
    "openState": "OPEN_STATE_GUIDE_ROGUE_MAP"
  },
  {
    "guideName": "GuideRogueRune",
    "type": "OPENSTATE_CHANGE",
    "openState": "OPEN_STATE_GUIDE_ROGUE_RUNE"
  },
  {
    "guideName": "GuideChannellerSlabEquip_V2",
    "type": "OPENSTATE_CHANGE",
    "openState": "OPEN_STATE_GUIDE_CHANNELLERSLAB_EQUIP_V2"
  },
  {
    "guideName": "GuideChannellerSlabMpSolution_V2",
    "type": "OPENSTATE_CHANGE",
    "openState": "OPEN_STATE_GUIDE_CHANNELLERSLAB_MP_SOLUTION_V2"
  },
  {
    "guideName": "GuideChannellerSlabPower_V2",
    "type": "OPENSTATE_CHANGE",
    "openState": "OPEN_STATE_GUIDE_CHANNELLERSLAB_POWER_V2"
  },
  {
    "guideName": "GuidePotionConfigure",
    "type": "OPENSTATE_CHANGE",
    "openState": "OPEN_STATE_GUIDE_POTION_CONFIGURE"
  },
  {
    "guideName": "GuideLanV2Firework",
    "type": "OPENSTATE_CHANGE",
    "openState": "OPEN_STATE_GUIDE_LANV2_FIREWORK"
  },
  {
    "guideName": "GuideBartenderFormula",
    "type": "OPENSTATE_CHANGE",
    "openState": "OPEN_STATE_GUIDE_BARTENDER_FORMULA"
  },
  {
    "guideName": "GuideBartenderMix",
    "type": "OPENSTATE_CHANGE",
    "openState": "OPEN_STATE_GUIDE_BARTENDER_MIX"
  },
  {
    "guideName": "GuideBartenderCup",
    "type": "OPENSTATE_CHANGE",
    "openState": "OPEN_STATE_GUIDE_BARTENDER_CUP"
  },
  {
    "guideName": "GuideQuickTeamMemberChange",
    "type": "HAS_AVATAR_NUM",
    "param1": 5,
    "openState": "OPEN_STATE_GUIDE_QUICK_TEAMMEMBERCHANGE"
  },
  {
    "guideName": "GuideCrystalLink",
    "type": "OPENSTATE_CHANGE",
    "openState": "OPEN_STATE_GUIDE_CRYSTALLINK_BUFF"
  },
  {
    "guideName": "GuideFragileResin",
    "type": "GET_NEW_ITEM",
    "openState": "OPEN_STATE_GUIDE_FRAGILE_RESIN"
  },
  {
    "guideName": "GuideRobotGacha",
    "type": "OPENSTATE_CHANGE",
    "openState": "OPEN_STATE_GUIDE_ROBOTGACHA"
  },
  {
    "guideName": "GuideWindField",
    "type": "OPENSTATE_CHANGE",
    "openState": "OPEN_STATE_GUIDE_WINDFIELD_SKILL"
  },
  {
    "guideName": "GuideVintageMarketUpgrade",
    "type": "OPENSTATE_CHANGE",
    "openState": "OPEN_STATE_GUIDE_VINTAGE_MARKET_UPGRADE"
  },
  {
    "guideName": "GuideVintageMarketSkill",
    "type": "OPENSTATE_CHANGE",
    "openState": "OPEN_STATE_GUIDE_VINTAGE_MARKET_SKILL"
  },
  {
    "guideName": "GuideVintageMarketStaff",
    "type": "OPENSTATE_CHANGE",
    "openState": "OPEN_STATE_GUIDE_VINTAGE_MARKET_STAFF"
  },
  {
    "guideName": "GuideFungusFighter",
    "type": "OPENSTATE_CHANGE",
    "openState": "OPEN_STATE_GUIDE_FUNGUSFIGHTER_1"
  },
  {
    "guideName": "GuideBrickBreaker",
    "type": "OPENSTATE_CHANGE",
    "openState": "OPEN_STATE_GUIDE_BRICKBREAKER_SKILL"
  },
  {
    "guideName": "GuideMistMap",
    "type": "OPENSTATE_CHANGE",
    "openState": "OPEN_STATE_GUIDE_MISTTRIAL_MAP"
  },
  {
    "guideName": "GuideMistTips",
    "type": "OPENSTATE_CHANGE",
    "openState": "OPEN_STATE_GUIDE_MISTTRIAL_GAME_TIPS"
  },
  {
    "guideName": "GuideLanV3Shadow",
    "type": "OPENSTATE_CHANGE",
    "openState": "OPEN_STATE_GUIDE_LANV3_SHADOW"
  },
  {
    "guideName": "GuideMusicUgc_01",
    "type": "OPENSTATE_CHANGE",
    "openState": "OPEN_STATE_GUIDE_MUSIC_GAME_V4_REAL_TIME_EDIT"
  },
  {
    "guideName": "GuideMusicUgc_02",
    "type": "OPENSTATE_CHANGE",
    "openState": "OPEN_STATE_GUIDE_MUSIC_GAME_V4_TIMELINE_EDIT"
  },
  {
    "guideName": "GuideMusicSetting",
    "type": "OPENSTATE_CHANGE",
    "openState": "OPEN_STATE_GUIDE_MUSIC_GAME_V4_SETTING"
  },
  {
    "guideName": "GuideCrystalLink_V2",
    "type": "OPENSTATE_CHANGE",
    "openState": "OPEN_STATE_GUIDE_CRYSTALLINK_BUFF_V2"
  },
  {
    "guideName": "GuideAkafesArchitect",
    "type": "OPENSTATE_CHANGE",
    "openState": "OPEN_STATE_GUIDE_AKAFES_ARCHITECT"
  },
  {
    "guideName": "GuideFungusFighterV2Codex",
    "type": "OPENSTATE_CHANGE",
    "openState": "OPEN_STATE_GUIDE_FUNGUSFIGHTERV2_CODEX"
  },
  {
    "guideName": "GuideFungusFighterV2CodexEntry",
    "type": "OPENSTATE_CHANGE",
    "openState": "OPEN_STATE_GUIDE_FUNGUSFIGHTERV2_CODEX_ENTRY"
  },
  {
    "guideName": "GuideAkafesAstrolabeRotate",
    "type": "OPENSTATE_CHANGE",
    "openState": "OPEN_STATE_GUIDE_AKAFES_ASTROLABE_ROTATE"
  },
  {
    "guideName": "GuideAkafesAstrolabeRotate2",
    "type": "OPENSTATE_CHANGE",
    "openState": "OPEN_STATE_GUIDE_AKAFES_ASTROLABE_ROTATE_PS"
  },
  {
    "guideName": "GuideAkafesAstrolabeHeight",
    "type": "OPENSTATE_CHANGE",
    "openState": "OPEN_STATE_GUIDE_AKAFES_ASTROLABE_HEIGHT"
  },
  {
    "guideName": "GuideAkafesAstrolabeHeight2",
    "type": "OPENSTATE_CHANGE",
    "openState": "OPEN_STATE_GUIDE_AKAFES_ASTROLABE_HEIGHT_PS"
  }
]
