[
  {
    "woodId": 101301,
    "EICOCDGCIAC": 10,
    "materialList": [
      [101001, 3, 1],
      [101002, 2, 1],
      [101003, 1, 1],
      [101004, 1, 1],
      [101008, 1, 1],
      [101006, 1, 1]
    ]
  },
  {
    "woodId": 101302,
    "EICOCDGCIAC": 20,
    "materialList": [
      [101001, 3, 1],
      [101002, 2, 1],
      [101003, 1, 1],
      [101004, 1, 1],
      [101008, 1, 1],
      [101006, 1, 1]
    ]
  },
  {
    "woodId": 101303,
    "EICOCDGCIAC": 30,
    "materialList": [
      [101001, 3, 1],
      [101002, 2, 1],
      [101003, 1, 1],
      [101004, 1, 1],
      [101008, 1, 1],
      [101006, 1, 1]
    ]
  },
  {
    "woodId": 101304,
    "EICOCDGCIAC": 40,
    "materialList": [
      [101001, 3, 1],
      [101002, 2, 1],
      [101003, 1, 1],
      [101004, 1, 1],
      [101008, 1, 1],
      [101006, 1, 1]
    ]
  },
  {
    "woodId": 101305,
    "EICOCDGCIAC": 50,
    "materialList": [
      [101001, 3, 1],
      [101002, 2, 1],
      [101003, 1, 1],
      [101004, 1, 1],
      [101008, 1, 1],
      [101006, 1, 1]
    ]
  },
  {
    "woodId": 101307,
    "EICOCDGCIAC": 60,
    "materialList": [
      [101001, 3, 1],
      [101002, 2, 1],
      [101003, 1, 1],
      [101004, 1, 1],
      [101008, 1, 1],
      [101006, 1, 1]
    ]
  },
  {
    "woodId": 101308,
    "EICOCDGCIAC": 70,
    "materialList": [
      [101001, 3, 1],
      [101002, 2, 1],
      [101003, 1, 1],
      [101004, 1, 1],
      [101008, 1, 1],
      [101006, 1, 1]
    ]
  },
  {
    "woodId": 101309,
    "EICOCDGCIAC": 80,
    "materialList": [
      [101001, 3, 1],
      [101002, 2, 1],
      [101003, 1, 1],
      [101004, 1, 1],
      [101008, 1, 1],
      [101006, 1, 1]
    ]
  },
  {
    "woodId": 101310,
    "EICOCDGCIAC": 90,
    "materialList": [
      [101001, 3, 1],
      [101002, 2, 1],
      [101003, 1, 1],
      [101004, 1, 1],
      [101008, 1, 1],
      [101006, 1, 1]
    ]
  },
  {
    "woodId": 101311,
    "EICOCDGCIAC": 100,
    "materialList": [
      [101001, 3, 1],
      [101002, 2, 1],
      [101003, 1, 1],
      [101004, 1, 1],
      [101008, 1, 1],
      [101006, 1, 1]
    ]
  },
  {
    "woodId": 101312,
    "EICOCDGCIAC": 110,
    "materialList": [
      [101001, 3, 1],
      [101002, 2, 1],
      [101003, 1, 1],
      [101004, 1, 1],
      [101008, 1, 1],
      [101006, 1, 1]
    ]
  },
  {
    "woodId": 101313,
    "EICOCDGCIAC": 120,
    "materialList": [
      [101001, 3, 1],
      [101002, 2, 1],
      [101003, 1, 1],
      [101004, 1, 1],
      [101008, 1, 1],
      [101006, 1, 1]
    ]
  },
  {
    "woodId": 101314,
    "EICOCDGCIAC": 130,
    "materialList": [
      [101001, 3, 1],
      [101002, 2, 1],
      [101003, 1, 1],
      [101004, 1, 1],
      [101008, 1, 1],
      [101006, 1, 1]
    ]
  },
  {
    "woodId": 101315,
    "EICOCDGCIAC": 140,
    "materialList": [
      [101001, 3, 1],
      [101002, 2, 1],
      [101003, 1, 1],
      [101004, 1, 1],
      [101008, 1, 1],
      [101006, 1, 1]
    ]
  },
  {
    "woodId": 101316,
    "EICOCDGCIAC": 150,
    "materialList": [
      [101001, 3, 1],
      [101002, 2, 1],
      [101003, 1, 1],
      [101004, 1, 1],
      [101008, 1, 1],
      [101006, 1, 1]
    ]
  },
  {
    "woodId": 101317,
    "EICOCDGCIAC": 160,
    "materialList": [
      [101001, 3, 1],
      [101002, 2, 1],
      [101003, 1, 1],
      [101004, 1, 1],
      [101008, 1, 1],
      [101006, 1, 1]
    ]
  }
]
