[
  {
    "id": 1,
    "BFKIDOOKECL": [0, 15],
    "FGAEOCNOEBG": 1352001231,
    "HCEGJMIDFEJ": 2829445854
  },
  {
    "id": 2,
    "BFKIDOOKECL": [15, 30],
    "FGAEOCNOEBG": 1485645855,
    "HCEGJMIDFEJ": 1644151894
  },
  {
    "id": 3,
    "BFKIDOOKECL": [30, 100],
    "FGAEOCNOEBG": 3354022439,
    "HCEGJMIDFEJ": 2753250646
  }
]
