[
  {
    "id": 60901,
    "FMFBICLMFGM": "MONSTER_POLY_DROP_GV",
    "PMBGKPBBFKO": "_MONSTER_FUNGUSSTATE_",
    "LHLKAEFEFNK": [
      {
        "paramList": [0],
        "OIMJONFKJDG": "\u8548\u517d",
        "monsterRarity": "MONSTER_RARITY_SMALL_MONSTER"
      },
      {
        "paramList": [1],
        "OIMJONFKJDG": "\u5f02\u5316\u8548\u517d",
        "monsterRarity": "MONSTER_RARITY_ELITE_MONSTER"
      },
      {
        "paramList": [2],
        "OIMJONFKJDG": "\u5f02\u5316\u8548\u517d",
        "monsterRarity": "MONSTER_RARITY_ELITE_MONSTER"
      }
    ]
  },
  {
    "id": 60902,
    "FMFBICLMFGM": "MONSTER_POLY_DROP_GV",
    "PMBGKPBBFKO": "_MONSTER_FUNGUSSTATE_",
    "LHLKAEFEFNK": [
      {
        "paramList": [0],
        "OIMJONFKJDG": "\u8548\u517d",
        "monsterRarity": "MONSTER_RARITY_SMALL_MONSTER"
      },
      {
        "paramList": [1],
        "OIMJONFKJDG": "\u5f02\u5316\u8548\u517d",
        "monsterRarity": "MONSTER_RARITY_ELITE_MONSTER"
      },
      {
        "paramList": [2],
        "OIMJONFKJDG": "\u5f02\u5316\u8548\u517d",
        "monsterRarity": "MONSTER_RARITY_ELITE_MONSTER"
      }
    ]
  },
  {
    "id": 60903,
    "FMFBICLMFGM": "MONSTER_POLY_DROP_GV",
    "PMBGKPBBFKO": "_MONSTER_FUNGUSSTATE_",
    "LHLKAEFEFNK": [
      {
        "paramList": [0],
        "OIMJONFKJDG": "\u8548\u517d",
        "monsterRarity": "MONSTER_RARITY_SMALL_MONSTER"
      },
      {
        "paramList": [1],
        "OIMJONFKJDG": "\u5f02\u5316\u8548\u517d",
        "monsterRarity": "MONSTER_RARITY_ELITE_MONSTER"
      },
      {
        "paramList": [2],
        "OIMJONFKJDG": "\u5f02\u5316\u8548\u517d",
        "monsterRarity": "MONSTER_RARITY_ELITE_MONSTER"
      }
    ]
  },
  {
    "id": 60904,
    "FMFBICLMFGM": "MONSTER_POLY_DROP_GV",
    "PMBGKPBBFKO": "_MONSTER_FUNGUSSTATE_",
    "LHLKAEFEFNK": [
      {
        "paramList": [0],
        "OIMJONFKJDG": "\u8548\u517d",
        "monsterRarity": "MONSTER_RARITY_SMALL_MONSTER"
      },
      {
        "paramList": [1],
        "OIMJONFKJDG": "\u5f02\u5316\u8548\u517d",
        "monsterRarity": "MONSTER_RARITY_ELITE_MONSTER"
      },
      {
        "paramList": [2],
        "OIMJONFKJDG": "\u5f02\u5316\u8548\u517d",
        "monsterRarity": "MONSTER_RARITY_ELITE_MONSTER"
      }
    ]
  },
  {
    "id": 60905,
    "FMFBICLMFGM": "MONSTER_POLY_DROP_GV",
    "PMBGKPBBFKO": "_MONSTER_FUNGUSSTATE_",
    "LHLKAEFEFNK": [
      {
        "paramList": [0],
        "OIMJONFKJDG": "\u8548\u517d",
        "monsterRarity": "MONSTER_RARITY_SMALL_MONSTER"
      },
      {
        "paramList": [1],
        "OIMJONFKJDG": "\u5f02\u5316\u8548\u517d",
        "monsterRarity": "MONSTER_RARITY_ELITE_MONSTER"
      },
      {
        "paramList": [2],
        "OIMJONFKJDG": "\u5f02\u5316\u8548\u517d",
        "monsterRarity": "MONSTER_RARITY_ELITE_MONSTER"
      }
    ]
  },
  {
    "id": 60906,
    "FMFBICLMFGM": "MONSTER_POLY_DROP_GV",
    "PMBGKPBBFKO": "_MONSTER_FUNGUSSTATE_",
    "LHLKAEFEFNK": [
      {
        "paramList": [0],
        "OIMJONFKJDG": "\u8548\u517d",
        "monsterRarity": "MONSTER_RARITY_SMALL_MONSTER"
      },
      {
        "paramList": [1],
        "OIMJONFKJDG": "\u5f02\u5316\u8548\u517d",
        "monsterRarity": "MONSTER_RARITY_ELITE_MONSTER"
      },
      {
        "paramList": [2],
        "OIMJONFKJDG": "\u5f02\u5316\u8548\u517d",
        "monsterRarity": "MONSTER_RARITY_ELITE_MONSTER"
      }
    ]
  },
  {
    "id": 60907,
    "FMFBICLMFGM": "MONSTER_POLY_DROP_GV",
    "PMBGKPBBFKO": "_MONSTER_FUNGUSSTATE_",
    "LHLKAEFEFNK": [
      {
        "paramList": [0],
        "OIMJONFKJDG": "\u8548\u517d",
        "monsterRarity": "MONSTER_RARITY_SMALL_MONSTER"
      },
      {
        "paramList": [1],
        "OIMJONFKJDG": "\u5f02\u5316\u8548\u517d",
        "monsterRarity": "MONSTER_RARITY_ELITE_MONSTER"
      },
      {
        "paramList": [2],
        "OIMJONFKJDG": "\u5f02\u5316\u8548\u517d",
        "monsterRarity": "MONSTER_RARITY_ELITE_MONSTER"
      }
    ]
  },
  {
    "id": 60908,
    "FMFBICLMFGM": "MONSTER_POLY_DROP_GV",
    "PMBGKPBBFKO": "_MONSTER_FUNGUSSTATE_",
    "LHLKAEFEFNK": [
      {
        "paramList": [0],
        "OIMJONFKJDG": "\u8548\u517d",
        "monsterRarity": "MONSTER_RARITY_SMALL_MONSTER"
      },
      {
        "paramList": [1],
        "OIMJONFKJDG": "\u5f02\u5316\u8548\u517d",
        "monsterRarity": "MONSTER_RARITY_ELITE_MONSTER"
      },
      {
        "paramList": [2],
        "OIMJONFKJDG": "\u5f02\u5316\u8548\u517d",
        "monsterRarity": "MONSTER_RARITY_ELITE_MONSTER"
      }
    ]
  },
  {
    "id": 60909,
    "FMFBICLMFGM": "MONSTER_POLY_DROP_GV",
    "PMBGKPBBFKO": "_MONSTER_FUNGUSSTATE_",
    "LHLKAEFEFNK": [
      {
        "paramList": [0],
        "OIMJONFKJDG": "\u8548\u517d",
        "monsterRarity": "MONSTER_RARITY_SMALL_MONSTER"
      },
      {
        "paramList": [1],
        "OIMJONFKJDG": "\u5f02\u5316\u8548\u517d",
        "monsterRarity": "MONSTER_RARITY_ELITE_MONSTER"
      },
      {
        "paramList": [2],
        "OIMJONFKJDG": "\u5f02\u5316\u8548\u517d",
        "monsterRarity": "MONSTER_RARITY_ELITE_MONSTER"
      }
    ]
  },
  {
    "id": 60910,
    "FMFBICLMFGM": "MONSTER_POLY_DROP_GV",
    "PMBGKPBBFKO": "_MONSTER_FUNGUSSTATE_",
    "LHLKAEFEFNK": [
      {
        "paramList": [0],
        "OIMJONFKJDG": "\u8548\u517d",
        "monsterRarity": "MONSTER_RARITY_SMALL_MONSTER"
      },
      {
        "paramList": [1],
        "OIMJONFKJDG": "\u5f02\u5316\u8548\u517d",
        "monsterRarity": "MONSTER_RARITY_ELITE_MONSTER"
      },
      {
        "paramList": [2],
        "OIMJONFKJDG": "\u5f02\u5316\u8548\u517d",
        "monsterRarity": "MONSTER_RARITY_ELITE_MONSTER"
      }
    ]
  },
  {
    "id": 61201,
    "FMFBICLMFGM": "MONSTER_POLY_DROP_GV",
    "PMBGKPBBFKO": "_MONSTER_FUNGUSSTATE_",
    "LHLKAEFEFNK": [
      {
        "paramList": [0],
        "OIMJONFKJDG": "\u5927\u8548\u517d",
        "monsterRarity": "MONSTER_RARITY_SMALL_MONSTER"
      },
      {
        "paramList": [1],
        "OIMJONFKJDG": "\u5927\u5f02\u5316\u8548\u517d",
        "monsterRarity": "MONSTER_RARITY_ELITE_MONSTER"
      },
      {
        "paramList": [2],
        "OIMJONFKJDG": "\u5927\u5f02\u5316\u8548\u517d",
        "monsterRarity": "MONSTER_RARITY_ELITE_MONSTER"
      }
    ]
  },
  {
    "id": 61202,
    "FMFBICLMFGM": "MONSTER_POLY_DROP_GV",
    "PMBGKPBBFKO": "_MONSTER_FUNGUSSTATE_",
    "LHLKAEFEFNK": [
      {
        "paramList": [0],
        "OIMJONFKJDG": "\u5927\u8548\u517d",
        "monsterRarity": "MONSTER_RARITY_SMALL_MONSTER"
      },
      {
        "paramList": [1],
        "OIMJONFKJDG": "\u5927\u5f02\u5316\u8548\u517d",
        "monsterRarity": "MONSTER_RARITY_ELITE_MONSTER"
      },
      {
        "paramList": [2],
        "OIMJONFKJDG": "\u5927\u5f02\u5316\u8548\u517d",
        "monsterRarity": "MONSTER_RARITY_ELITE_MONSTER"
      }
    ]
  },
  {
    "id": 61203,
    "FMFBICLMFGM": "MONSTER_POLY_DROP_GV",
    "PMBGKPBBFKO": "_MONSTER_FUNGUSSTATE_",
    "LHLKAEFEFNK": [
      {
        "paramList": [0],
        "OIMJONFKJDG": "\u5927\u8548\u517d",
        "monsterRarity": "MONSTER_RARITY_SMALL_MONSTER"
      },
      {
        "paramList": [1],
        "OIMJONFKJDG": "\u5927\u5f02\u5316\u8548\u517d",
        "monsterRarity": "MONSTER_RARITY_ELITE_MONSTER"
      },
      {
        "paramList": [2],
        "OIMJONFKJDG": "\u5927\u5f02\u5316\u8548\u517d",
        "monsterRarity": "MONSTER_RARITY_ELITE_MONSTER"
      }
    ]
  },
  {
    "id": 61204,
    "FMFBICLMFGM": "MONSTER_POLY_DROP_GV",
    "PMBGKPBBFKO": "_MONSTER_FUNGUSSTATE_",
    "LHLKAEFEFNK": [
      {
        "paramList": [0],
        "OIMJONFKJDG": "\u5927\u8548\u517d",
        "monsterRarity": "MONSTER_RARITY_SMALL_MONSTER"
      },
      {
        "paramList": [1],
        "OIMJONFKJDG": "\u5927\u5f02\u5316\u8548\u517d",
        "monsterRarity": "MONSTER_RARITY_ELITE_MONSTER"
      },
      {
        "paramList": [2],
        "OIMJONFKJDG": "\u5927\u5f02\u5316\u8548\u517d",
        "monsterRarity": "MONSTER_RARITY_ELITE_MONSTER"
      }
    ]
  }
]
