[
  {
    "id": 1,
    "activityId": 5041,
    "AFNLCEPKFBP": [1, 3, 2, 4, 6, 5, 7, 8, 9],
    "NLMOHAIBJEM": 1019,
    "NGFCEOFKPHB": 5,
    "IKGPDDDKMAC": 10007,
    "EELOHOGFAJI": 32201,
    "pushTipsId": 6030,
    "MJAFPMCAJHH": [72659, 72661, 72662, 72663, 72667, 72668],
    "FOHMPMBJCAM": [2013, 70661]
  }
]
