[
  {
    "id": 5023001,
    "activityId": 5023,
    "rewardID": 3014001,
    "score": 300,
    "activityScoreTipsTextMapHash": 2530615193,
    "activityScoreExtraTipsTextMapHash": 1473860363
  },
  {
    "id": 5023002,
    "activityId": 5023,
    "rewardID": 3014002,
    "score": 600,
    "activityScoreTipsTextMapHash": 4020159881,
    "activityScoreExtraTipsTextMapHash": 165551899
  },
  {
    "id": 5023003,
    "activityId": 5023,
    "rewardID": 3014003,
    "score": 900,
    "activityScoreTipsTextMapHash": 822420873,
    "activityScoreExtraTipsTextMapHash": 3494428075
  },
  {
    "id": 5023004,
    "activityId": 5023,
    "rewardID": 3014004,
    "score": 1200,
    "activityScoreTipsTextMapHash": 1053419545,
    "activityScoreExtraTipsTextMapHash": 3224352395
  },
  {
    "id": 5023005,
    "activityId": 5023,
    "rewardID": 3014005,
    "score": 1500,
    "activityScoreTipsTextMapHash": 36044001,
    "activityScoreExtraTipsTextMapHash": 1627839843
  },
  {
    "id": 5023006,
    "activityId": 5023,
    "rewardID": 3014006,
    "score": 1800,
    "activityScoreTipsTextMapHash": 2446442553,
    "activityScoreExtraTipsTextMapHash": 1158437915
  },
  {
    "id": 5023007,
    "activityId": 5023,
    "rewardID": 3014007,
    "score": 2100,
    "activityScoreTipsTextMapHash": 1580027097,
    "activityScoreExtraTipsTextMapHash": 2098011427
  },
  {
    "id": 5023008,
    "activityId": 5023,
    "rewardID": 3014008,
    "score": 2400,
    "activityScoreTipsTextMapHash": 1142746961,
    "activityScoreExtraTipsTextMapHash": 3273823403
  },
  {
    "id": 5023009,
    "activityId": 5023,
    "rewardID": 3014009,
    "score": 2700,
    "activityScoreTipsTextMapHash": 1207310337,
    "activityScoreExtraTipsTextMapHash": 4023407507
  },
  {
    "id": 5023010,
    "activityId": 5023,
    "rewardID": 3014010,
    "score": 3000,
    "activityScoreTipsTextMapHash": 1445829105,
    "activityScoreExtraTipsTextMapHash": 3955646971
  },
  {
    "id": 5023011,
    "activityId": 5023,
    "rewardID": 3014011,
    "score": 3400,
    "activityScoreTipsTextMapHash": 1777986377,
    "activityScoreExtraTipsTextMapHash": 1256900939
  },
  {
    "id": 5023012,
    "activityId": 5023,
    "rewardID": 3014012,
    "score": 3800,
    "activityScoreTipsTextMapHash": 929842233,
    "activityScoreExtraTipsTextMapHash": 2809608835
  },
  {
    "id": 5023013,
    "activityId": 5023,
    "rewardID": 3014013,
    "score": 4200,
    "activityScoreTipsTextMapHash": 843969457,
    "activityScoreExtraTipsTextMapHash": 2449896107
  },
  {
    "id": 5023014,
    "activityId": 5023,
    "rewardID": 3014014,
    "score": 4600,
    "activityScoreTipsTextMapHash": 3210741873,
    "activityScoreExtraTipsTextMapHash": 1474401339
  },
  {
    "id": 5023015,
    "activityId": 5023,
    "rewardID": 3014015,
    "score": 5000,
    "activityScoreTipsTextMapHash": 1116321465,
    "activityScoreExtraTipsTextMapHash": 1437878667
  },
  {
    "id": 5023016,
    "activityId": 5023,
    "rewardID": 3014016,
    "score": 5500,
    "activityScoreTipsTextMapHash": 2786277465,
    "activityScoreExtraTipsTextMapHash": 4016023899
  },
  {
    "id": 5023017,
    "activityId": 5023,
    "rewardID": 3014017,
    "score": 6000,
    "activityScoreTipsTextMapHash": 942831785,
    "activityScoreExtraTipsTextMapHash": 4000689771
  },
  {
    "id": 5111001,
    "activityId": 5111,
    "rewardID": 3014001,
    "score": 200,
    "activityScoreTipsTextMapHash": 4229523617,
    "activityScoreExtraTipsTextMapHash": 2643975059
  },
  {
    "id": 5111002,
    "activityId": 5111,
    "rewardID": 3014002,
    "score": 400,
    "activityScoreTipsTextMapHash": 3974557961,
    "activityScoreExtraTipsTextMapHash": 2015866667
  },
  {
    "id": 5111003,
    "activityId": 5111,
    "rewardID": 3014003,
    "score": 600,
    "activityScoreTipsTextMapHash": 2103517425,
    "activityScoreExtraTipsTextMapHash": 377976699
  },
  {
    "id": 5111004,
    "activityId": 5111,
    "rewardID": 3014004,
    "score": 800,
    "activityScoreTipsTextMapHash": 3704433977,
    "activityScoreExtraTipsTextMapHash": 2469295331
  },
  {
    "id": 5111005,
    "activityId": 5111,
    "rewardID": 3014005,
    "score": 1000,
    "activityScoreTipsTextMapHash": 3642051737,
    "activityScoreExtraTipsTextMapHash": 952199219
  },
  {
    "id": 5111006,
    "activityId": 5111,
    "rewardID": 3014006,
    "score": 1200,
    "activityScoreTipsTextMapHash": 329307137,
    "activityScoreExtraTipsTextMapHash": 1617453523
  },
  {
    "id": 5111007,
    "activityId": 5111,
    "rewardID": 3014007,
    "score": 1500,
    "activityScoreTipsTextMapHash": 2239858113,
    "activityScoreExtraTipsTextMapHash": 3996180883
  },
  {
    "id": 5111008,
    "activityId": 5111,
    "rewardID": 3014008,
    "score": 1800,
    "activityScoreTipsTextMapHash": 2848882145,
    "activityScoreExtraTipsTextMapHash": 286669187
  },
  {
    "id": 5111009,
    "activityId": 5111,
    "rewardID": 3014009,
    "score": 2100,
    "activityScoreTipsTextMapHash": 398108825,
    "activityScoreExtraTipsTextMapHash": 440311363
  },
  {
    "id": 5111010,
    "activityId": 5111,
    "rewardID": 3014010,
    "score": 2400,
    "activityScoreTipsTextMapHash": 3030795441,
    "activityScoreExtraTipsTextMapHash": 1867028819
  },
  {
    "id": 5111011,
    "activityId": 5111,
    "rewardID": 3014011,
    "score": 2700,
    "activityScoreTipsTextMapHash": 1297703609,
    "activityScoreExtraTipsTextMapHash": 1689757611
  },
  {
    "id": 5111012,
    "activityId": 5111,
    "rewardID": 3014012,
    "score": 3000,
    "activityScoreTipsTextMapHash": 2431292809,
    "activityScoreExtraTipsTextMapHash": 1182931579
  },
  {
    "id": 5111013,
    "activityId": 5111,
    "rewardID": 3014013,
    "score": 3400,
    "activityScoreTipsTextMapHash": 3180833481,
    "activityScoreExtraTipsTextMapHash": 1131506171
  },
  {
    "id": 5111014,
    "activityId": 5111,
    "rewardID": 3014014,
    "score": 3800,
    "activityScoreTipsTextMapHash": 4070808665,
    "activityScoreExtraTipsTextMapHash": 3929165603
  },
  {
    "id": 5111015,
    "activityId": 5111,
    "rewardID": 3014015,
    "score": 4200,
    "activityScoreTipsTextMapHash": 982759081,
    "activityScoreExtraTipsTextMapHash": 1207185691
  },
  {
    "id": 5111016,
    "activityId": 5111,
    "rewardID": 3014016,
    "score": 4600,
    "activityScoreTipsTextMapHash": 1119910825,
    "activityScoreExtraTipsTextMapHash": 2170831515
  },
  {
    "id": 5111017,
    "activityId": 5111,
    "rewardID": 3014017,
    "score": 5000,
    "activityScoreTipsTextMapHash": 3909931081,
    "activityScoreExtraTipsTextMapHash": 714333307
  },
  {
    "id": 5111018,
    "activityId": 5111,
    "rewardID": 3014018,
    "score": 5500,
    "activityScoreTipsTextMapHash": 818714401,
    "activityScoreExtraTipsTextMapHash": 4258663307
  },
  {
    "id": 5111019,
    "activityId": 5111,
    "rewardID": 3014019,
    "score": 6000,
    "activityScoreTipsTextMapHash": 1597226009,
    "activityScoreExtraTipsTextMapHash": 2485799283
  },
  {
    "id": 2019001,
    "activityId": 2019,
    "rewardID": 3065201,
    "score": 500,
    "activityScoreTipsTextMapHash": 4169433753,
    "activityScoreExtraTipsTextMapHash": 2141922355
  },
  {
    "id": 2019002,
    "activityId": 2019,
    "rewardID": 3065202,
    "score": 1000,
    "activityScoreTipsTextMapHash": 401414289,
    "activityScoreExtraTipsTextMapHash": 1385116563
  },
  {
    "id": 2019003,
    "activityId": 2019,
    "rewardID": 3065203,
    "score": 1500,
    "activityScoreTipsTextMapHash": 3801845585,
    "activityScoreExtraTipsTextMapHash": 2208240803
  },
  {
    "id": 2019004,
    "activityId": 2019,
    "rewardID": 3065204,
    "score": 2000,
    "activityScoreTipsTextMapHash": 1221625361,
    "activityScoreExtraTipsTextMapHash": 611252251
  },
  {
    "id": 2019005,
    "activityId": 2019,
    "rewardID": 3065205,
    "score": 2500,
    "activityScoreTipsTextMapHash": 456473817,
    "activityScoreExtraTipsTextMapHash": 2726336467
  },
  {
    "id": 2019006,
    "activityId": 2019,
    "rewardID": 3065206,
    "score": 3000,
    "activityScoreTipsTextMapHash": 2245903017,
    "activityScoreExtraTipsTextMapHash": 773933571
  },
  {
    "id": 2019007,
    "activityId": 2019,
    "rewardID": 3065207,
    "score": 3500,
    "activityScoreTipsTextMapHash": 246739665,
    "activityScoreExtraTipsTextMapHash": 3477991675
  },
  {
    "id": 2019008,
    "activityId": 2019,
    "rewardID": 3065208,
    "score": 4000,
    "activityScoreTipsTextMapHash": 2822029929,
    "activityScoreExtraTipsTextMapHash": 552564019
  },
  {
    "id": 2019009,
    "activityId": 2019,
    "rewardID": 3065209,
    "score": 4500,
    "activityScoreTipsTextMapHash": 1259383889,
    "activityScoreExtraTipsTextMapHash": 1720249259
  },
  {
    "id": 2019010,
    "activityId": 2019,
    "rewardID": 3065210,
    "score": 5000,
    "activityScoreTipsTextMapHash": 1862942809,
    "activityScoreExtraTipsTextMapHash": 176809979
  }
]
