[
  {
    "offeringId": 6,
    "LHFBFMFLPKG": 313007,
    "CKABGLOGGOG": 30,
    "pointType": 4015,
    "BCIKBBOKKJI": [70500000, 70350496],
    "MLKIIKGAJJP": [
      133316044, 133316047, 133316065, 133316110, 133316117, 133316121,
      133316124, 133316127, 133316129, 133316130, 133316132, 133316160,
      133316163, 133316178, 133316196, 133316207, 133316277, 133316315,
      133316353, 133316355, 133316371, 133316383, 133316385, 133316387,
      133316388, 133316394, 133316395, 133316407, 133317003, 133317005,
      133317012, 133317013, 133317082, 133317105, 133317122, 133317283
    ],
    "FBKOIFJLFAI": 50.0,
    "DENENLJLFHC": 80.0,
    "ALDIJJCDPDD": 33394
  }
]
