[
  {
    "emotionName": "",
    "phonemeName": "",
    "icon": "UI_EmotIcon_Normal",
    "emotionDescriptionTextMapHash": 1425691205,
    "unlockDescTextMapHash": 32196458,
    "fetterId": 10401,
    "avatarId": 10000021,
    "openConds": [
      {
        "paramList": []
      }
    ],
    "NPOOEPIOLKH": []
  },
  {
    "emotionName": "HiClosed_02",
    "phonemeName": "P_Smile_05",
    "icon": "UI_EmotIcon_Happy",
    "emotionDescriptionTextMapHash": 218730669,
    "unlockDescTextMapHash": 550424018,
    "fetterId": 10402,
    "avatarId": 10000021,
    "openConds": [
      {
        "condType": "FETTER_COND_FETTER_LEVEL",
        "paramList": [2]
      }
    ],
    "NPOOEPIOLKH": []
  },
  {
    "emotionName": "HiClosed_07",
    "phonemeName": "P_Doya_01",
    "icon": "UI_EmotIcon_Blink",
    "emotionDescriptionTextMapHash": 30379941,
    "unlockDescTextMapHash": 2777886834,
    "fetterId": 10403,
    "avatarId": 10000021,
    "openConds": [
      {
        "condType": "FETTER_COND_FETTER_LEVEL",
        "paramList": [4]
      }
    ],
    "NPOOEPIOLKH": []
  },
  {
    "emotionName": "",
    "phonemeName": "",
    "icon": "UI_EmotIcon_Normal",
    "emotionDescriptionTextMapHash": 1595072269,
    "unlockDescTextMapHash": 1179319362,
    "fetterId": 4401,
    "avatarId": 10000003,
    "openConds": [
      {
        "paramList": []
      }
    ],
    "NPOOEPIOLKH": []
  },
  {
    "emotionName": "Gentle_02",
    "phonemeName": "P_N_01",
    "icon": "UI_EmotIcon_Lose",
    "emotionDescriptionTextMapHash": 4022704373,
    "unlockDescTextMapHash": 1672630938,
    "fetterId": 4402,
    "avatarId": 10000003,
    "openConds": [
      {
        "condType": "FETTER_COND_FETTER_LEVEL",
        "paramList": [2]
      }
    ],
    "NPOOEPIOLKH": []
  },
  {
    "emotionName": "HiClosed_01",
    "phonemeName": "P_Default_01",
    "icon": "UI_EmotIcon_Smile",
    "emotionDescriptionTextMapHash": 999197205,
    "unlockDescTextMapHash": 1258176650,
    "fetterId": 4403,
    "avatarId": 10000003,
    "openConds": [
      {
        "condType": "FETTER_COND_FETTER_LEVEL",
        "paramList": [4]
      }
    ],
    "NPOOEPIOLKH": []
  },
  {
    "emotionName": "",
    "phonemeName": "",
    "icon": "UI_EmotIcon_Normal",
    "emotionDescriptionTextMapHash": 256711077,
    "unlockDescTextMapHash": 4085990250,
    "fetterId": 1401,
    "avatarId": 10000005,
    "openConds": [
      {
        "paramList": []
      }
    ],
    "NPOOEPIOLKH": []
  },
  {
    "emotionName": "Gentle_01",
    "phonemeName": "P_Smile_04",
    "icon": "UI_EmotIcon_Happy",
    "emotionDescriptionTextMapHash": 2959014501,
    "unlockDescTextMapHash": 2670927282,
    "fetterId": 1402,
    "avatarId": 10000005,
    "openConds": [
      {
        "paramList": []
      }
    ],
    "NPOOEPIOLKH": []
  },
  {
    "emotionName": "Gentle_03",
    "phonemeName": "P_Angry_01",
    "icon": "UI_EmotIcon_Lose",
    "emotionDescriptionTextMapHash": 1290896925,
    "unlockDescTextMapHash": 1618589322,
    "fetterId": 1403,
    "avatarId": 10000005,
    "openConds": [
      {
        "paramList": []
      }
    ],
    "NPOOEPIOLKH": []
  },
  {
    "emotionName": "",
    "phonemeName": "",
    "icon": "UI_EmotIcon_Normal",
    "emotionDescriptionTextMapHash": 773037317,
    "unlockDescTextMapHash": 4222878538,
    "fetterId": 5401,
    "avatarId": 10000006,
    "openConds": [
      {
        "paramList": []
      }
    ],
    "NPOOEPIOLKH": []
  },
  {
    "emotionName": "Gentle_02",
    "phonemeName": "P_Angry_01",
    "icon": "UI_EmotIcon_Lose",
    "emotionDescriptionTextMapHash": 809099733,
    "unlockDescTextMapHash": 2669180906,
    "fetterId": 5402,
    "avatarId": 10000006,
    "openConds": [
      {
        "condType": "FETTER_COND_FETTER_LEVEL",
        "paramList": [2]
      }
    ],
    "NPOOEPIOLKH": []
  },
  {
    "emotionName": "HiClosed_01",
    "phonemeName": "P_Smile_01",
    "icon": "UI_EmotIcon_Smile",
    "emotionDescriptionTextMapHash": 3724046365,
    "unlockDescTextMapHash": 1543483946,
    "fetterId": 5403,
    "avatarId": 10000006,
    "openConds": [
      {
        "condType": "FETTER_COND_FETTER_LEVEL",
        "paramList": [4]
      }
    ],
    "NPOOEPIOLKH": []
  },
  {
    "emotionName": "",
    "phonemeName": "",
    "icon": "UI_EmotIcon_Normal",
    "emotionDescriptionTextMapHash": 1541030309,
    "unlockDescTextMapHash": 2627288362,
    "fetterId": 2401,
    "avatarId": 10000007,
    "openConds": [
      {
        "paramList": []
      }
    ],
    "NPOOEPIOLKH": []
  },
  {
    "emotionName": "Gentle_01",
    "phonemeName": "P_Smile_04",
    "icon": "UI_EmotIcon_Happy",
    "emotionDescriptionTextMapHash": 2481636341,
    "unlockDescTextMapHash": 830223242,
    "fetterId": 2402,
    "avatarId": 10000007,
    "openConds": [
      {
        "paramList": []
      }
    ],
    "NPOOEPIOLKH": []
  },
  {
    "emotionName": "Gentle_03",
    "phonemeName": "P_Angry_01",
    "icon": "UI_EmotIcon_Lose",
    "emotionDescriptionTextMapHash": 714068205,
    "unlockDescTextMapHash": 3349325882,
    "fetterId": 2403,
    "avatarId": 10000007,
    "openConds": [
      {
        "paramList": []
      }
    ],
    "NPOOEPIOLKH": []
  },
  {
    "emotionName": "",
    "phonemeName": "",
    "icon": "UI_EmotIcon_Normal",
    "emotionDescriptionTextMapHash": 80446133,
    "unlockDescTextMapHash": 3510141130,
    "fetterId": 6401,
    "avatarId": 10000014,
    "openConds": [
      {
        "paramList": []
      }
    ],
    "NPOOEPIOLKH": []
  },
  {
    "emotionName": "Gentle_04",
    "phonemeName": "P_Angry_01",
    "icon": "UI_EmotIcon_Lose",
    "emotionDescriptionTextMapHash": 2620191021,
    "unlockDescTextMapHash": 4092165074,
    "fetterId": 6402,
    "avatarId": 10000014,
    "openConds": [
      {
        "condType": "FETTER_COND_FETTER_LEVEL",
        "paramList": [2]
      }
    ],
    "NPOOEPIOLKH": []
  },
  {
    "emotionName": "HiClosed_06",
    "phonemeName": "P_Smile_04",
    "icon": "UI_EmotIcon_Blink",
    "emotionDescriptionTextMapHash": 2170230029,
    "unlockDescTextMapHash": 1170471706,
    "fetterId": 6403,
    "avatarId": 10000014,
    "openConds": [
      {
        "condType": "FETTER_COND_FETTER_LEVEL",
        "paramList": [4]
      }
    ],
    "NPOOEPIOLKH": []
  },
  {
    "emotionName": "",
    "phonemeName": "",
    "icon": "UI_EmotIcon_Normal",
    "emotionDescriptionTextMapHash": 2382049549,
    "unlockDescTextMapHash": 1789911066,
    "fetterId": 7401,
    "avatarId": 10000015,
    "openConds": [
      {
        "paramList": []
      }
    ],
    "NPOOEPIOLKH": []
  },
  {
    "emotionName": "Gentle_02",
    "phonemeName": "P_N_01",
    "icon": "UI_EmotIcon_Lose",
    "emotionDescriptionTextMapHash": 2049345173,
    "unlockDescTextMapHash": 118594066,
    "fetterId": 7402,
    "avatarId": 10000015,
    "openConds": [
      {
        "condType": "FETTER_COND_FETTER_LEVEL",
        "paramList": [2]
      }
    ],
    "NPOOEPIOLKH": []
  },
  {
    "emotionName": "HiClosed_01",
    "phonemeName": "P_Doya_01",
    "icon": "UI_EmotIcon_Smile",
    "emotionDescriptionTextMapHash": 1486133989,
    "unlockDescTextMapHash": 1381281138,
    "fetterId": 7403,
    "avatarId": 10000015,
    "openConds": [
      {
        "condType": "FETTER_COND_FETTER_LEVEL",
        "paramList": [4]
      }
    ],
    "NPOOEPIOLKH": []
  },
  {
    "emotionName": "",
    "phonemeName": "",
    "icon": "UI_EmotIcon_Normal",
    "emotionDescriptionTextMapHash": 1378770125,
    "unlockDescTextMapHash": 869340746,
    "fetterId": 8401,
    "avatarId": 10000016,
    "openConds": [
      {
        "paramList": []
      }
    ],
    "NPOOEPIOLKH": []
  },
  {
    "emotionName": "Normal_05",
    "phonemeName": "P_Neko_01",
    "icon": "UI_EmotIcon_Happy",
    "emotionDescriptionTextMapHash": 316735037,
    "unlockDescTextMapHash": 3363486570,
    "fetterId": 8402,
    "avatarId": 10000016,
    "openConds": [
      {
        "condType": "FETTER_COND_FETTER_LEVEL",
        "paramList": [2]
      }
    ],
    "NPOOEPIOLKH": []
  },
  {
    "emotionName": "Gentle_01",
    "phonemeName": "P_Angry_01",
    "icon": "UI_EmotIcon_Lose",
    "emotionDescriptionTextMapHash": 3290088813,
    "unlockDescTextMapHash": 4197406538,
    "fetterId": 8403,
    "avatarId": 10000016,
    "openConds": [
      {
        "condType": "FETTER_COND_FETTER_LEVEL",
        "paramList": [4]
      }
    ],
    "NPOOEPIOLKH": []
  },
  {
    "emotionName": "",
    "phonemeName": "",
    "icon": "UI_EmotIcon_Normal",
    "emotionDescriptionTextMapHash": 2328091061,
    "unlockDescTextMapHash": 3571115098,
    "fetterId": 9401,
    "avatarId": 10000020,
    "openConds": [
      {
        "paramList": []
      }
    ],
    "NPOOEPIOLKH": []
  },
  {
    "emotionName": "Normal_05",
    "phonemeName": "P_N_01",
    "icon": "UI_EmotIcon_Lose",
    "emotionDescriptionTextMapHash": 523972749,
    "unlockDescTextMapHash": 3157422010,
    "fetterId": 9402,
    "avatarId": 10000020,
    "openConds": [
      {
        "condType": "FETTER_COND_FETTER_LEVEL",
        "paramList": [2]
      }
    ],
    "NPOOEPIOLKH": []
  },
  {
    "emotionName": "Angry_03",
    "phonemeName": "P_Angry_03",
    "icon": "UI_EmotIcon_Earnest",
    "emotionDescriptionTextMapHash": 3606460565,
    "unlockDescTextMapHash": 1611478770,
    "fetterId": 9403,
    "avatarId": 10000020,
    "openConds": [
      {
        "condType": "FETTER_COND_FETTER_LEVEL",
        "paramList": [4]
      }
    ],
    "NPOOEPIOLKH": []
  },
  {
    "emotionName": "",
    "phonemeName": "",
    "icon": "UI_EmotIcon_Normal",
    "emotionDescriptionTextMapHash": 806966245,
    "unlockDescTextMapHash": 3243816770,
    "fetterId": 11401,
    "avatarId": 10000022,
    "openConds": [
      {
        "paramList": []
      }
    ],
    "NPOOEPIOLKH": []
  },
  {
    "emotionName": "Gentle_01",
    "phonemeName": "P_Smile_04",
    "icon": "UI_EmotIcon_Happy",
    "emotionDescriptionTextMapHash": 271383445,
    "unlockDescTextMapHash": 1361752522,
    "fetterId": 11402,
    "avatarId": 10000022,
    "openConds": [
      {
        "condType": "FETTER_COND_FETTER_LEVEL",
        "paramList": [2]
      }
    ],
    "NPOOEPIOLKH": []
  },
  {
    "emotionName": "HiClosed_06",
    "phonemeName": "P_Pero_02",
    "icon": "UI_EmotIcon_Blink",
    "emotionDescriptionTextMapHash": 2686200237,
    "unlockDescTextMapHash": 2844632786,
    "fetterId": 11403,
    "avatarId": 10000022,
    "openConds": [
      {
        "condType": "FETTER_COND_FETTER_LEVEL",
        "paramList": [4]
      }
    ],
    "NPOOEPIOLKH": []
  },
  {
    "emotionName": "",
    "phonemeName": "",
    "icon": "UI_EmotIcon_Normal",
    "emotionDescriptionTextMapHash": 1459167821,
    "unlockDescTextMapHash": 1014878146,
    "fetterId": 12401,
    "avatarId": 10000023,
    "openConds": [
      {
        "paramList": []
      }
    ],
    "NPOOEPIOLKH": []
  },
  {
    "emotionName": "Gentle_04",
    "phonemeName": "P_Angry_02",
    "icon": "UI_EmotIcon_Lose",
    "emotionDescriptionTextMapHash": 492370549,
    "unlockDescTextMapHash": 3726545642,
    "fetterId": 12402,
    "avatarId": 10000023,
    "openConds": [
      {
        "condType": "FETTER_COND_FETTER_LEVEL",
        "paramList": [2]
      }
    ],
    "NPOOEPIOLKH": []
  },
  {
    "emotionName": "Surprise_01",
    "phonemeName": "P_Smile_05",
    "icon": "UI_EmotIcon_Expect",
    "emotionDescriptionTextMapHash": 3122361893,
    "unlockDescTextMapHash": 3140565938,
    "fetterId": 12403,
    "avatarId": 10000023,
    "openConds": [
      {
        "condType": "FETTER_COND_FETTER_LEVEL",
        "paramList": [4]
      }
    ],
    "NPOOEPIOLKH": []
  },
  {
    "emotionName": "",
    "phonemeName": "",
    "icon": "UI_EmotIcon_Normal",
    "emotionDescriptionTextMapHash": 1972952373,
    "unlockDescTextMapHash": 2271549882,
    "fetterId": 14401,
    "avatarId": 10000024,
    "openConds": [
      {
        "paramList": []
      }
    ],
    "NPOOEPIOLKH": []
  },
  {
    "emotionName": "Angry_01",
    "phonemeName": "P_Smile_04",
    "icon": "UI_EmotIcon_Happy",
    "emotionDescriptionTextMapHash": 1490773981,
    "unlockDescTextMapHash": 423426786,
    "fetterId": 14402,
    "avatarId": 10000024,
    "openConds": [
      {
        "condType": "FETTER_COND_FETTER_LEVEL",
        "paramList": [2]
      }
    ],
    "NPOOEPIOLKH": []
  },
  {
    "emotionName": "Default_01",
    "phonemeName": "P_Smile_03",
    "icon": "UI_EmotIcon_Confidence",
    "emotionDescriptionTextMapHash": 1120513413,
    "unlockDescTextMapHash": 2523462770,
    "fetterId": 14403,
    "avatarId": 10000024,
    "openConds": [
      {
        "condType": "FETTER_COND_FETTER_LEVEL",
        "paramList": [4]
      }
    ],
    "NPOOEPIOLKH": []
  },
  {
    "emotionName": "",
    "phonemeName": "",
    "icon": "UI_EmotIcon_Normal",
    "emotionDescriptionTextMapHash": 386957469,
    "unlockDescTextMapHash": 771767706,
    "fetterId": 13401,
    "avatarId": 10000025,
    "openConds": [
      {
        "paramList": []
      }
    ],
    "NPOOEPIOLKH": []
  },
  {
    "emotionName": "Gentle_03",
    "phonemeName": "P_N_01",
    "icon": "UI_EmotIcon_Lose",
    "emotionDescriptionTextMapHash": 1621311789,
    "unlockDescTextMapHash": 3609347090,
    "fetterId": 13402,
    "avatarId": 10000025,
    "openConds": [
      {
        "condType": "FETTER_COND_FETTER_LEVEL",
        "paramList": [2]
      }
    ],
    "NPOOEPIOLKH": []
  },
  {
    "emotionName": "HiClosed_01",
    "phonemeName": "P_Smile_02",
    "icon": "UI_EmotIcon_Smile",
    "emotionDescriptionTextMapHash": 1078293821,
    "unlockDescTextMapHash": 3092903010,
    "fetterId": 13403,
    "avatarId": 10000025,
    "openConds": [
      {
        "condType": "FETTER_COND_FETTER_LEVEL",
        "paramList": [4]
      }
    ],
    "NPOOEPIOLKH": []
  },
  {
    "emotionName": "",
    "phonemeName": "",
    "icon": "UI_EmotIcon_Normal",
    "emotionDescriptionTextMapHash": 3455193349,
    "unlockDescTextMapHash": 2169422386,
    "fetterId": 15401,
    "avatarId": 10000027,
    "openConds": [
      {
        "paramList": []
      }
    ],
    "NPOOEPIOLKH": []
  },
  {
    "emotionName": "Gentle_02",
    "phonemeName": "P_N_01",
    "icon": "UI_EmotIcon_Lose",
    "emotionDescriptionTextMapHash": 4034873573,
    "unlockDescTextMapHash": 351247906,
    "fetterId": 15402,
    "avatarId": 10000027,
    "openConds": [
      {
        "condType": "FETTER_COND_FETTER_LEVEL",
        "paramList": [2]
      }
    ],
    "NPOOEPIOLKH": []
  },
  {
    "emotionName": "LowClosed_01",
    "phonemeName": "P_Default_01",
    "icon": "UI_EmotIcon_Smile",
    "emotionDescriptionTextMapHash": 2766012405,
    "unlockDescTextMapHash": 2871179778,
    "fetterId": 15403,
    "avatarId": 10000027,
    "openConds": [
      {
        "condType": "FETTER_COND_FETTER_LEVEL",
        "paramList": [4]
      }
    ],
    "NPOOEPIOLKH": []
  },
  {
    "emotionName": "",
    "phonemeName": "",
    "icon": "UI_EmotIcon_Normal",
    "emotionDescriptionTextMapHash": 2980898701,
    "unlockDescTextMapHash": 3166858778,
    "fetterId": 18401,
    "avatarId": 10000029,
    "openConds": [
      {
        "paramList": []
      }
    ],
    "NPOOEPIOLKH": []
  },
  {
    "emotionName": "HiClosed_01",
    "phonemeName": "P_Smile_05",
    "icon": "UI_EmotIcon_Happy",
    "emotionDescriptionTextMapHash": 233179893,
    "unlockDescTextMapHash": 2503152362,
    "fetterId": 18402,
    "avatarId": 10000029,
    "openConds": [
      {
        "condType": "FETTER_COND_FETTER_LEVEL",
        "paramList": [2]
      }
    ],
    "NPOOEPIOLKH": []
  },
  {
    "emotionName": "Gentle_04",
    "phonemeName": "P_Angry_04",
    "icon": "UI_EmotIcon_Lose",
    "emotionDescriptionTextMapHash": 3612814613,
    "unlockDescTextMapHash": 2386467946,
    "fetterId": 18403,
    "avatarId": 10000029,
    "openConds": [
      {
        "condType": "FETTER_COND_FETTER_LEVEL",
        "paramList": [4]
      }
    ],
    "NPOOEPIOLKH": []
  },
  {
    "emotionName": "",
    "phonemeName": "",
    "icon": "UI_EmotIcon_Normal",
    "emotionDescriptionTextMapHash": 2848242853,
    "unlockDescTextMapHash": 798468802,
    "fetterId": 17401,
    "avatarId": 10000030,
    "openConds": [
      {
        "paramList": []
      }
    ],
    "NPOOEPIOLKH": []
  },
  {
    "emotionName": "Gentle_01",
    "phonemeName": "P_Smile_01",
    "icon": "UI_EmotIcon_Happy",
    "emotionDescriptionTextMapHash": 2769887149,
    "unlockDescTextMapHash": 3757281010,
    "fetterId": 17402,
    "avatarId": 10000030,
    "openConds": [
      {
        "condType": "FETTER_COND_FETTER_LEVEL",
        "paramList": [2]
      }
    ],
    "NPOOEPIOLKH": []
  },
  {
    "emotionName": "LowClosed_01",
    "phonemeName": "P_N_01",
    "icon": "UI_EmotIcon_Ponder",
    "emotionDescriptionTextMapHash": 853655885,
    "unlockDescTextMapHash": 277251066,
    "fetterId": 17403,
    "avatarId": 10000030,
    "openConds": [
      {
        "condType": "FETTER_COND_FETTER_LEVEL",
        "paramList": [4]
      }
    ],
    "NPOOEPIOLKH": []
  },
  {
    "emotionName": "",
    "phonemeName": "",
    "icon": "UI_EmotIcon_Normal",
    "emotionDescriptionTextMapHash": 4058610341,
    "unlockDescTextMapHash": 194285202,
    "fetterId": 19401,
    "avatarId": 10000031,
    "openConds": [
      {
        "paramList": []
      }
    ],
    "NPOOEPIOLKH": []
  },
  {
    "emotionName": "Gentle_03",
    "phonemeName": "P_U_01",
    "icon": "UI_EmotIcon_Lose",
    "emotionDescriptionTextMapHash": 1457658765,
    "unlockDescTextMapHash": 674497066,
    "fetterId": 19402,
    "avatarId": 10000031,
    "openConds": [
      {
        "condType": "FETTER_COND_FETTER_LEVEL",
        "paramList": [2]
      }
    ],
    "NPOOEPIOLKH": []
  },
  {
    "emotionName": "Angry_02",
    "phonemeName": "P_Doya_02",
    "icon": "UI_EmotIcon_Confidence",
    "emotionDescriptionTextMapHash": 3488374429,
    "unlockDescTextMapHash": 4250497066,
    "fetterId": 19403,
    "avatarId": 10000031,
    "openConds": [
      {
        "condType": "FETTER_COND_FETTER_LEVEL",
        "paramList": [4]
      }
    ],
    "NPOOEPIOLKH": []
  },
  {
    "emotionName": "",
    "phonemeName": "",
    "icon": "UI_EmotIcon_Normal",
    "emotionDescriptionTextMapHash": 1608402437,
    "unlockDescTextMapHash": 2263688874,
    "fetterId": 20401,
    "avatarId": 10000032,
    "openConds": [
      {
        "paramList": []
      }
    ],
    "NPOOEPIOLKH": []
  },
  {
    "emotionName": "Normal_01",
    "phonemeName": "P_Smile_05",
    "icon": "UI_EmotIcon_Happy",
    "emotionDescriptionTextMapHash": 2216871725,
    "unlockDescTextMapHash": 3461547098,
    "fetterId": 20402,
    "avatarId": 10000032,
    "openConds": [
      {
        "condType": "FETTER_COND_FETTER_LEVEL",
        "paramList": [2]
      }
    ],
    "NPOOEPIOLKH": []
  },
  {
    "emotionName": "Angry_03",
    "phonemeName": "P_Doya_02",
    "icon": "UI_EmotIcon_Confidence",
    "emotionDescriptionTextMapHash": 1197784541,
    "unlockDescTextMapHash": 436942634,
    "fetterId": 20403,
    "avatarId": 10000032,
    "openConds": [
      {
        "condType": "FETTER_COND_FETTER_LEVEL",
        "paramList": [4]
      }
    ],
    "NPOOEPIOLKH": []
  },
  {
    "emotionName": "",
    "phonemeName": "",
    "icon": "UI_EmotIcon_Normal",
    "emotionDescriptionTextMapHash": 341689541,
    "unlockDescTextMapHash": 3437009970,
    "fetterId": 23401,
    "avatarId": 10000033,
    "openConds": [
      {
        "paramList": []
      }
    ],
    "NPOOEPIOLKH": []
  },
  {
    "emotionName": "HiClosed_01",
    "phonemeName": "P_Smile_02",
    "icon": "UI_EmotIcon_Happy",
    "emotionDescriptionTextMapHash": 527134061,
    "unlockDescTextMapHash": 713172722,
    "fetterId": 23402,
    "avatarId": 10000033,
    "openConds": [
      {
        "condType": "FETTER_COND_FETTER_LEVEL",
        "paramList": [2]
      }
    ],
    "NPOOEPIOLKH": []
  },
  {
    "emotionName": "Angry_02",
    "phonemeName": "P_Smile_01",
    "icon": "UI_EmotIcon_Confidence",
    "emotionDescriptionTextMapHash": 63878621,
    "unlockDescTextMapHash": 4236658602,
    "fetterId": 23403,
    "avatarId": 10000033,
    "openConds": [
      {
        "condType": "FETTER_COND_FETTER_LEVEL",
        "paramList": [4]
      }
    ],
    "NPOOEPIOLKH": []
  },
  {
    "emotionName": "",
    "phonemeName": "",
    "icon": "UI_EmotIcon_Normal",
    "emotionDescriptionTextMapHash": 1283175149,
    "unlockDescTextMapHash": 3600223562,
    "fetterId": 21401,
    "avatarId": 10000034,
    "openConds": [
      {
        "paramList": []
      }
    ],
    "NPOOEPIOLKH": []
  },
  {
    "emotionName": "Gentle_01",
    "phonemeName": "P_Smile_04",
    "icon": "UI_EmotIcon_Happy",
    "emotionDescriptionTextMapHash": 1876736189,
    "unlockDescTextMapHash": 3908853674,
    "fetterId": 21402,
    "avatarId": 10000034,
    "openConds": [
      {
        "condType": "FETTER_COND_FETTER_LEVEL",
        "paramList": [2]
      }
    ],
    "NPOOEPIOLKH": []
  },
  {
    "emotionName": "Gentle_03",
    "phonemeName": "P_Angry_01",
    "icon": "UI_EmotIcon_Lose",
    "emotionDescriptionTextMapHash": 1734122709,
    "unlockDescTextMapHash": 2364045570,
    "fetterId": 21403,
    "avatarId": 10000034,
    "openConds": [
      {
        "condType": "FETTER_COND_FETTER_LEVEL",
        "paramList": [4]
      }
    ],
    "NPOOEPIOLKH": []
  },
  {
    "emotionName": "",
    "phonemeName": "",
    "icon": "UI_EmotIcon_Normal",
    "emotionDescriptionTextMapHash": 681218157,
    "unlockDescTextMapHash": 3322826450,
    "fetterId": 24401,
    "avatarId": 10000035,
    "openConds": [
      {
        "paramList": []
      }
    ],
    "NPOOEPIOLKH": []
  },
  {
    "emotionName": "Default_01",
    "phonemeName": "P_Default_01",
    "icon": "UI_EmotIcon_Happy",
    "emotionDescriptionTextMapHash": 98573045,
    "unlockDescTextMapHash": 2752413490,
    "fetterId": 24402,
    "avatarId": 10000035,
    "openConds": [
      {
        "condType": "FETTER_COND_FETTER_LEVEL",
        "paramList": [2]
      }
    ],
    "NPOOEPIOLKH": []
  },
  {
    "emotionName": "Gentle_02",
    "phonemeName": "P_Default_01",
    "icon": "UI_EmotIcon_Lose",
    "emotionDescriptionTextMapHash": 154318925,
    "unlockDescTextMapHash": 465256194,
    "fetterId": 24403,
    "avatarId": 10000035,
    "openConds": [
      {
        "condType": "FETTER_COND_FETTER_LEVEL",
        "paramList": [4]
      }
    ],
    "NPOOEPIOLKH": []
  },
  {
    "emotionName": "",
    "phonemeName": "",
    "icon": "UI_EmotIcon_Normal",
    "emotionDescriptionTextMapHash": 804914437,
    "unlockDescTextMapHash": 1365883082,
    "fetterId": 22401,
    "avatarId": 10000036,
    "openConds": [
      {
        "paramList": []
      }
    ],
    "NPOOEPIOLKH": []
  },
  {
    "emotionName": "Gentle_03",
    "phonemeName": "P_N_01",
    "icon": "UI_EmotIcon_Lose",
    "emotionDescriptionTextMapHash": 1573197197,
    "unlockDescTextMapHash": 3000599402,
    "fetterId": 22402,
    "avatarId": 10000036,
    "openConds": [
      {
        "condType": "FETTER_COND_FETTER_LEVEL",
        "paramList": [2]
      }
    ],
    "NPOOEPIOLKH": []
  },
  {
    "emotionName": "Surpreise_01",
    "phonemeName": "P_O_01",
    "icon": "UI_EmotIcon_Expect",
    "emotionDescriptionTextMapHash": 105872733,
    "unlockDescTextMapHash": 1870890570,
    "fetterId": 22403,
    "avatarId": 10000036,
    "openConds": [
      {
        "condType": "FETTER_COND_FETTER_LEVEL",
        "paramList": [4]
      }
    ],
    "NPOOEPIOLKH": []
  },
  {
    "emotionName": "",
    "phonemeName": "",
    "icon": "UI_EmotIcon_Normal",
    "emotionDescriptionTextMapHash": 1541142589,
    "unlockDescTextMapHash": 990219274,
    "fetterId": 25401,
    "avatarId": 10000037,
    "openConds": [
      {
        "paramList": []
      }
    ],
    "NPOOEPIOLKH": []
  },
  {
    "emotionName": "Gentle_03",
    "phonemeName": "P_Angry_01",
    "icon": "UI_EmotIcon_Lose",
    "emotionDescriptionTextMapHash": 770016501,
    "unlockDescTextMapHash": 1926530802,
    "fetterId": 25402,
    "avatarId": 10000037,
    "openConds": [
      {
        "condType": "FETTER_COND_FETTER_LEVEL",
        "paramList": [2]
      }
    ],
    "NPOOEPIOLKH": []
  },
  {
    "emotionName": "MidClosed_05",
    "phonemeName": "P_Angry_01",
    "icon": "UI_EmotIcon_Ponder",
    "emotionDescriptionTextMapHash": 45500269,
    "unlockDescTextMapHash": 2622779194,
    "fetterId": 25403,
    "avatarId": 10000037,
    "openConds": [
      {
        "condType": "FETTER_COND_FETTER_LEVEL",
        "paramList": [4]
      }
    ],
    "NPOOEPIOLKH": []
  },
  {
    "emotionName": "",
    "phonemeName": "",
    "icon": "UI_EmotIcon_Normal",
    "emotionDescriptionTextMapHash": 3767532637,
    "unlockDescTextMapHash": 767406610,
    "fetterId": 35401,
    "avatarId": 10000038,
    "openConds": [
      {
        "paramList": []
      }
    ],
    "NPOOEPIOLKH": []
  },
  {
    "emotionName": "Gentle_02",
    "phonemeName": "P_N_01",
    "icon": "UI_EmotIcon_Lose",
    "emotionDescriptionTextMapHash": 700938013,
    "unlockDescTextMapHash": 1948510826,
    "fetterId": 35402,
    "avatarId": 10000038,
    "openConds": [
      {
        "condType": "FETTER_COND_FETTER_LEVEL",
        "paramList": [2]
      }
    ],
    "NPOOEPIOLKH": []
  },
  {
    "emotionName": "Doubt_01",
    "phonemeName": "P_Default_01",
    "icon": "UI_EmotIcon_Ponder",
    "emotionDescriptionTextMapHash": 2749273437,
    "unlockDescTextMapHash": 2856655298,
    "fetterId": 35403,
    "avatarId": 10000038,
    "openConds": [
      {
        "condType": "FETTER_COND_FETTER_LEVEL",
        "paramList": [4]
      }
    ],
    "NPOOEPIOLKH": []
  },
  {
    "emotionName": "",
    "phonemeName": "",
    "icon": "UI_EmotIcon_Normal",
    "emotionDescriptionTextMapHash": 2724000933,
    "unlockDescTextMapHash": 978574418,
    "fetterId": 34401,
    "avatarId": 10000039,
    "openConds": [
      {
        "paramList": []
      }
    ],
    "NPOOEPIOLKH": []
  },
  {
    "emotionName": "Gentle_01",
    "phonemeName": "P_Smile_04",
    "icon": "UI_EmotIcon_Happy",
    "emotionDescriptionTextMapHash": 1127341405,
    "unlockDescTextMapHash": 1015144850,
    "fetterId": 34402,
    "avatarId": 10000039,
    "openConds": [
      {
        "condType": "FETTER_COND_FETTER_LEVEL",
        "paramList": [2]
      }
    ],
    "NPOOEPIOLKH": []
  },
  {
    "emotionName": "Sweat_03",
    "phonemeName": "P_Neko_02",
    "icon": "UI_EmotIcon_Confidence",
    "emotionDescriptionTextMapHash": 1505844669,
    "unlockDescTextMapHash": 1901920562,
    "fetterId": 34403,
    "avatarId": 10000039,
    "openConds": [
      {
        "condType": "FETTER_COND_FETTER_LEVEL",
        "paramList": [4]
      }
    ],
    "NPOOEPIOLKH": []
  },
  {
    "emotionName": "",
    "phonemeName": "",
    "icon": "UI_EmotIcon_Normal",
    "emotionDescriptionTextMapHash": 1891039661,
    "unlockDescTextMapHash": 3448444258,
    "fetterId": 30401,
    "avatarId": 10000041,
    "openConds": [
      {
        "paramList": []
      }
    ],
    "NPOOEPIOLKH": []
  },
  {
    "emotionName": "Angry_02",
    "phonemeName": "P_Smile_04",
    "icon": "UI_EmotIcon_Happy",
    "emotionDescriptionTextMapHash": 1593085941,
    "unlockDescTextMapHash": 4277800826,
    "fetterId": 30402,
    "avatarId": 10000041,
    "openConds": [
      {
        "condType": "FETTER_COND_FETTER_LEVEL",
        "paramList": [2]
      }
    ],
    "NPOOEPIOLKH": []
  },
  {
    "emotionName": "Gentle_03",
    "phonemeName": "P_N_01",
    "icon": "UI_EmotIcon_Lose",
    "emotionDescriptionTextMapHash": 2596275981,
    "unlockDescTextMapHash": 867724626,
    "fetterId": 30403,
    "avatarId": 10000041,
    "openConds": [
      {
        "condType": "FETTER_COND_FETTER_LEVEL",
        "paramList": [4]
      }
    ],
    "NPOOEPIOLKH": []
  },
  {
    "emotionName": "",
    "phonemeName": "",
    "icon": "UI_EmotIcon_Normal",
    "emotionDescriptionTextMapHash": 679585301,
    "unlockDescTextMapHash": 1360555562,
    "fetterId": 32401,
    "avatarId": 10000042,
    "openConds": [
      {
        "paramList": []
      }
    ],
    "NPOOEPIOLKH": []
  },
  {
    "emotionName": "HiClosed_01",
    "phonemeName": "P_Smile_02",
    "icon": "UI_EmotIcon_Happy",
    "emotionDescriptionTextMapHash": 3319589877,
    "unlockDescTextMapHash": 799459706,
    "fetterId": 32402,
    "avatarId": 10000042,
    "openConds": [
      {
        "condType": "FETTER_COND_FETTER_LEVEL",
        "paramList": [2]
      }
    ],
    "NPOOEPIOLKH": []
  },
  {
    "emotionName": "Normal_05",
    "phonemeName": "P_Angry_01",
    "icon": "UI_EmotIcon_Lose",
    "emotionDescriptionTextMapHash": 3554126565,
    "unlockDescTextMapHash": 2326420706,
    "fetterId": 32403,
    "avatarId": 10000042,
    "openConds": [
      {
        "condType": "FETTER_COND_FETTER_LEVEL",
        "paramList": [4]
      }
    ],
    "NPOOEPIOLKH": []
  },
  {
    "emotionName": "",
    "phonemeName": "",
    "icon": "UI_EmotIcon_Normal",
    "emotionDescriptionTextMapHash": 1020381205,
    "unlockDescTextMapHash": 2982681250,
    "fetterId": 31401,
    "avatarId": 10000043,
    "openConds": [
      {
        "paramList": []
      }
    ],
    "NPOOEPIOLKH": []
  },
  {
    "emotionName": "Gentle_04",
    "phonemeName": "P_U_01",
    "icon": "UI_EmotIcon_Lose",
    "emotionDescriptionTextMapHash": 3792926773,
    "unlockDescTextMapHash": 4201590722,
    "fetterId": 31402,
    "avatarId": 10000043,
    "openConds": [
      {
        "condType": "FETTER_COND_FETTER_LEVEL",
        "paramList": [2]
      }
    ],
    "NPOOEPIOLKH": []
  },
  {
    "emotionName": "Angry_02",
    "phonemeName": "P_Pero_01",
    "icon": "UI_EmotIcon_Expect",
    "emotionDescriptionTextMapHash": 2401892269,
    "unlockDescTextMapHash": 2112918658,
    "fetterId": 31403,
    "avatarId": 10000043,
    "openConds": [
      {
        "condType": "FETTER_COND_FETTER_LEVEL",
        "paramList": [4]
      }
    ],
    "NPOOEPIOLKH": []
  },
  {
    "emotionName": "",
    "phonemeName": "",
    "icon": "UI_EmotIcon_Normal",
    "emotionDescriptionTextMapHash": 2453261709,
    "unlockDescTextMapHash": 89974010,
    "fetterId": 33401,
    "avatarId": 10000044,
    "openConds": [
      {
        "paramList": []
      }
    ],
    "NPOOEPIOLKH": []
  },
  {
    "emotionName": "HiClosed_01",
    "phonemeName": "P_Smile_05",
    "icon": "UI_EmotIcon_Happy",
    "emotionDescriptionTextMapHash": 455686109,
    "unlockDescTextMapHash": 1998583898,
    "fetterId": 33402,
    "avatarId": 10000044,
    "openConds": [
      {
        "condType": "FETTER_COND_FETTER_LEVEL",
        "paramList": [2]
      }
    ],
    "NPOOEPIOLKH": []
  },
  {
    "emotionName": "Gentle_02",
    "phonemeName": "P_N_01",
    "icon": "UI_EmotIcon_Lose",
    "emotionDescriptionTextMapHash": 3796078221,
    "unlockDescTextMapHash": 1484556338,
    "fetterId": 33403,
    "avatarId": 10000044,
    "openConds": [
      {
        "condType": "FETTER_COND_FETTER_LEVEL",
        "paramList": [4]
      }
    ],
    "NPOOEPIOLKH": []
  },
  {
    "emotionName": "",
    "phonemeName": "",
    "icon": "UI_EmotIcon_Normal",
    "emotionDescriptionTextMapHash": 1703332381,
    "unlockDescTextMapHash": 3928747058,
    "fetterId": 16401,
    "avatarId": 10000026,
    "openConds": [
      {
        "paramList": []
      }
    ],
    "NPOOEPIOLKH": []
  },
  {
    "emotionName": "Angry_01",
    "phonemeName": "P_Default_01",
    "icon": "UI_EmotIcon_Earnest",
    "emotionDescriptionTextMapHash": 3285780805,
    "unlockDescTextMapHash": 175712122,
    "fetterId": 16402,
    "avatarId": 10000026,
    "openConds": [
      {
        "condType": "FETTER_COND_FETTER_LEVEL",
        "paramList": [2]
      }
    ],
    "NPOOEPIOLKH": []
  },
  {
    "emotionName": "LowClosed_01",
    "phonemeName": "P_Normal_01",
    "icon": "UI_EmotIcon_Ponder",
    "emotionDescriptionTextMapHash": 2823426397,
    "unlockDescTextMapHash": 275699338,
    "fetterId": 16403,
    "avatarId": 10000026,
    "openConds": [
      {
        "condType": "FETTER_COND_FETTER_LEVEL",
        "paramList": [4]
      }
    ],
    "NPOOEPIOLKH": []
  },
  {
    "emotionName": "",
    "phonemeName": "",
    "icon": "UI_EmotIcon_Normal",
    "emotionDescriptionTextMapHash": 2439131765,
    "unlockDescTextMapHash": 549669386,
    "fetterId": 36401,
    "avatarId": 10000046,
    "openConds": [
      {
        "paramList": []
      }
    ],
    "NPOOEPIOLKH": []
  },
  {
    "emotionName": "HiClosed_07",
    "phonemeName": "P_Pero_02",
    "icon": "UI_EmotIcon_Happy",
    "emotionDescriptionTextMapHash": 3092151261,
    "unlockDescTextMapHash": 1303214202,
    "fetterId": 36402,
    "avatarId": 10000046,
    "openConds": [
      {
        "condType": "FETTER_COND_FETTER_LEVEL",
        "paramList": [2]
      }
    ],
    "NPOOEPIOLKH": []
  },
  {
    "emotionName": "MidClosed_01",
    "phonemeName": "P_Smile_02",
    "icon": "UI_EmotIcon_Lose",
    "emotionDescriptionTextMapHash": 4267657117,
    "unlockDescTextMapHash": 424554298,
    "fetterId": 36403,
    "avatarId": 10000046,
    "openConds": [
      {
        "condType": "FETTER_COND_FETTER_LEVEL",
        "paramList": [4]
      }
    ],
    "NPOOEPIOLKH": []
  },
  {
    "emotionName": "",
    "phonemeName": "",
    "icon": "UI_EmotIcon_Normal",
    "emotionDescriptionTextMapHash": 4178887669,
    "unlockDescTextMapHash": 3393510410,
    "fetterId": 37401,
    "avatarId": 10000045,
    "openConds": [
      {
        "paramList": []
      }
    ],
    "NPOOEPIOLKH": []
  },
  {
    "emotionName": "Angry_02",
    "phonemeName": "P_N_01",
    "icon": "UI_EmotIcon_Earnest",
    "emotionDescriptionTextMapHash": 1366046677,
    "unlockDescTextMapHash": 1582584450,
    "fetterId": 37402,
    "avatarId": 10000045,
    "openConds": [
      {
        "condType": "FETTER_COND_FETTER_LEVEL",
        "paramList": [2]
      }
    ],
    "NPOOEPIOLKH": []
  },
  {
    "emotionName": "Gentle_02",
    "phonemeName": "P_Doya_01",
    "icon": "UI_EmotIcon_Smile",
    "emotionDescriptionTextMapHash": 620051285,
    "unlockDescTextMapHash": 2016681610,
    "fetterId": 37403,
    "avatarId": 10000045,
    "openConds": [
      {
        "condType": "FETTER_COND_FETTER_LEVEL",
        "paramList": [4]
      }
    ],
    "NPOOEPIOLKH": []
  },
  {
    "emotionName": "",
    "phonemeName": "",
    "icon": "UI_EmotIcon_Normal",
    "emotionDescriptionTextMapHash": 2506729469,
    "unlockDescTextMapHash": 2892616210,
    "fetterId": 38401,
    "avatarId": 10000048,
    "openConds": [
      {
        "paramList": []
      }
    ],
    "NPOOEPIOLKH": []
  },
  {
    "emotionName": "Angry_02",
    "phonemeName": "P_N_01",
    "icon": "UI_EmotIcon_Earnest",
    "emotionDescriptionTextMapHash": 345101029,
    "unlockDescTextMapHash": 3053256218,
    "fetterId": 38402,
    "avatarId": 10000048,
    "openConds": [
      {
        "condType": "FETTER_COND_FETTER_LEVEL",
        "paramList": [2]
      }
    ],
    "NPOOEPIOLKH": []
  },
  {
    "emotionName": "Gentle_02",
    "phonemeName": "P_Smile_01",
    "icon": "UI_EmotIcon_Confidence",
    "emotionDescriptionTextMapHash": 599307789,
    "unlockDescTextMapHash": 4125745250,
    "fetterId": 38403,
    "avatarId": 10000048,
    "openConds": [
      {
        "condType": "FETTER_COND_FETTER_LEVEL",
        "paramList": [4]
      }
    ],
    "NPOOEPIOLKH": []
  },
  {
    "emotionName": "",
    "phonemeName": "",
    "icon": "UI_EmotIcon_Normal",
    "emotionDescriptionTextMapHash": 205381325,
    "unlockDescTextMapHash": 2757583418,
    "fetterId": 39401,
    "avatarId": 10000051,
    "openConds": [
      {
        "paramList": []
      }
    ],
    "NPOOEPIOLKH": []
  },
  {
    "emotionName": "Normal_04",
    "phonemeName": "P_Normal_01",
    "icon": "UI_EmotIcon_Earnest",
    "emotionDescriptionTextMapHash": 129391837,
    "unlockDescTextMapHash": 3877551714,
    "fetterId": 39402,
    "avatarId": 10000051,
    "openConds": [
      {
        "condType": "FETTER_COND_FETTER_LEVEL",
        "paramList": [2]
      }
    ],
    "NPOOEPIOLKH": []
  },
  {
    "emotionName": "LowClosed_01",
    "phonemeName": "P_N_01",
    "icon": "UI_EmotIcon_Ponder",
    "emotionDescriptionTextMapHash": 1390209373,
    "unlockDescTextMapHash": 2869765850,
    "fetterId": 39403,
    "avatarId": 10000051,
    "openConds": [
      {
        "condType": "FETTER_COND_FETTER_LEVEL",
        "paramList": [4]
      }
    ],
    "NPOOEPIOLKH": []
  },
  {
    "emotionName": "",
    "phonemeName": "",
    "icon": "UI_EmotIcon_Normal",
    "emotionDescriptionTextMapHash": 2225312837,
    "unlockDescTextMapHash": 1536875482,
    "fetterId": 47401,
    "avatarId": 10000047,
    "openConds": [
      {
        "paramList": []
      }
    ],
    "NPOOEPIOLKH": []
  },
  {
    "emotionName": "LowClosed_01",
    "phonemeName": "P_Normal_01",
    "icon": "UI_EmotIcon_Ponder",
    "emotionDescriptionTextMapHash": 3735838109,
    "unlockDescTextMapHash": 2603977386,
    "fetterId": 47402,
    "avatarId": 10000047,
    "openConds": [
      {
        "condType": "FETTER_COND_FETTER_LEVEL",
        "paramList": [2]
      }
    ],
    "NPOOEPIOLKH": []
  },
  {
    "emotionName": "Angry_01",
    "phonemeName": "P_Smile_01",
    "icon": "UI_EmotIcon_Smile",
    "emotionDescriptionTextMapHash": 4035008453,
    "unlockDescTextMapHash": 1510729402,
    "fetterId": 47403,
    "avatarId": 10000047,
    "openConds": [
      {
        "condType": "FETTER_COND_FETTER_LEVEL",
        "paramList": [4]
      }
    ],
    "NPOOEPIOLKH": []
  },
  {
    "emotionName": "",
    "phonemeName": "",
    "icon": "UI_EmotIcon_Normal",
    "emotionDescriptionTextMapHash": 984697701,
    "unlockDescTextMapHash": 2153532594,
    "fetterId": 3401,
    "avatarId": 10000002,
    "openConds": [
      {
        "paramList": []
      }
    ],
    "NPOOEPIOLKH": []
  },
  {
    "emotionName": "Default_01",
    "phonemeName": "P_Smile_01",
    "icon": "UI_EmotIcon_Smile",
    "emotionDescriptionTextMapHash": 4176398453,
    "unlockDescTextMapHash": 2823597378,
    "fetterId": 3402,
    "avatarId": 10000002,
    "openConds": [
      {
        "condType": "FETTER_COND_FETTER_LEVEL",
        "paramList": [2]
      }
    ],
    "NPOOEPIOLKH": []
  },
  {
    "emotionName": "Gentle_01",
    "phonemeName": "P_Smile_01",
    "icon": "UI_EmotIcon_Happy",
    "emotionDescriptionTextMapHash": 3166296813,
    "unlockDescTextMapHash": 1727215938,
    "fetterId": 3403,
    "avatarId": 10000002,
    "openConds": [
      {
        "condType": "FETTER_COND_FETTER_LEVEL",
        "paramList": [4]
      }
    ],
    "NPOOEPIOLKH": []
  },
  {
    "emotionName": "",
    "phonemeName": "",
    "icon": "UI_EmotIcon_Normal",
    "emotionDescriptionTextMapHash": 3982255149,
    "unlockDescTextMapHash": 2246047426,
    "fetterId": 49401,
    "avatarId": 10000049,
    "openConds": [
      {
        "paramList": []
      }
    ],
    "NPOOEPIOLKH": []
  },
  {
    "emotionName": "HiClosed_01",
    "phonemeName": "P_Doya_02",
    "icon": "UI_EmotIcon_Confidence",
    "emotionDescriptionTextMapHash": 3572306885,
    "unlockDescTextMapHash": 150028874,
    "fetterId": 49402,
    "avatarId": 10000049,
    "openConds": [
      {
        "condType": "FETTER_COND_FETTER_LEVEL",
        "paramList": [2]
      }
    ],
    "NPOOEPIOLKH": []
  },
  {
    "emotionName": "HiClosed_06",
    "phonemeName": "P_Smile_04",
    "icon": "UI_EmotIcon_Blink",
    "emotionDescriptionTextMapHash": 1836357301,
    "unlockDescTextMapHash": 3955213346,
    "fetterId": 49403,
    "avatarId": 10000049,
    "openConds": [
      {
        "condType": "FETTER_COND_FETTER_LEVEL",
        "paramList": [4]
      }
    ],
    "NPOOEPIOLKH": []
  },
  {
    "emotionName": "",
    "phonemeName": "",
    "icon": "UI_EmotIcon_Normal",
    "emotionDescriptionTextMapHash": 1017384765,
    "unlockDescTextMapHash": 374638490,
    "fetterId": 53401,
    "avatarId": 10000053,
    "openConds": [
      {
        "paramList": []
      }
    ],
    "NPOOEPIOLKH": []
  },
  {
    "emotionName": "Gentle_01",
    "phonemeName": "P_Default_01",
    "icon": "UI_EmotIcon_Ponder",
    "emotionDescriptionTextMapHash": 1031791621,
    "unlockDescTextMapHash": 1376573042,
    "fetterId": 53402,
    "avatarId": 10000053,
    "openConds": [
      {
        "condType": "FETTER_COND_FETTER_LEVEL",
        "paramList": [2]
      }
    ],
    "NPOOEPIOLKH": []
  },
  {
    "emotionName": "Angry_03",
    "phonemeName": "P_Angry_03",
    "icon": "UI_EmotIcon_Earnest",
    "emotionDescriptionTextMapHash": 2744711509,
    "unlockDescTextMapHash": 54839170,
    "fetterId": 53403,
    "avatarId": 10000053,
    "openConds": [
      {
        "condType": "FETTER_COND_FETTER_LEVEL",
        "paramList": [4]
      }
    ],
    "NPOOEPIOLKH": []
  },
  {
    "emotionName": "",
    "phonemeName": "",
    "icon": "UI_EmotIcon_Normal",
    "emotionDescriptionTextMapHash": 542819797,
    "unlockDescTextMapHash": 2394088450,
    "fetterId": 52401,
    "avatarId": 10000052,
    "openConds": [
      {
        "paramList": []
      }
    ],
    "NPOOEPIOLKH": []
  },
  {
    "emotionName": "Angry_02",
    "phonemeName": "P_Default_01",
    "icon": "UI_EmotIcon_Earnest",
    "emotionDescriptionTextMapHash": 2972572589,
    "unlockDescTextMapHash": 1291650850,
    "fetterId": 52402,
    "avatarId": 10000052,
    "openConds": [
      {
        "condType": "FETTER_COND_FETTER_LEVEL",
        "paramList": [2]
      }
    ],
    "NPOOEPIOLKH": []
  },
  {
    "emotionName": "Gentle_01",
    "phonemeName": "P_Default_01",
    "icon": "UI_EmotIcon_Ponder",
    "emotionDescriptionTextMapHash": 3644540933,
    "unlockDescTextMapHash": 1940113778,
    "fetterId": 52403,
    "avatarId": 10000052,
    "openConds": [
      {
        "condType": "FETTER_COND_FETTER_LEVEL",
        "paramList": [4]
      }
    ],
    "NPOOEPIOLKH": []
  },
  {
    "emotionName": "",
    "phonemeName": "",
    "icon": "UI_EmotIcon_Normal",
    "emotionDescriptionTextMapHash": 3219242605,
    "unlockDescTextMapHash": 2593279266,
    "fetterId": 54401,
    "avatarId": 10000054,
    "openConds": [
      {
        "paramList": []
      }
    ],
    "NPOOEPIOLKH": []
  },
  {
    "emotionName": "Gentle_01",
    "phonemeName": "P_Smile_01",
    "icon": "UI_EmotIcon_Smile",
    "emotionDescriptionTextMapHash": 2805256765,
    "unlockDescTextMapHash": 583435778,
    "fetterId": 54402,
    "avatarId": 10000054,
    "openConds": [
      {
        "condType": "FETTER_COND_FETTER_LEVEL",
        "paramList": [2]
      }
    ],
    "NPOOEPIOLKH": []
  },
  {
    "emotionName": "LowClosed_05",
    "phonemeName": "P_Angry_01",
    "icon": "UI_EmotIcon_Ponder",
    "emotionDescriptionTextMapHash": 1170874429,
    "unlockDescTextMapHash": 2350204082,
    "fetterId": 54403,
    "avatarId": 10000054,
    "openConds": [
      {
        "condType": "FETTER_COND_FETTER_LEVEL",
        "paramList": [4]
      }
    ],
    "NPOOEPIOLKH": []
  },
  {
    "emotionName": "",
    "phonemeName": "",
    "icon": "UI_EmotIcon_Normal",
    "emotionDescriptionTextMapHash": 1001872445,
    "unlockDescTextMapHash": 4117921170,
    "fetterId": 56401,
    "avatarId": 10000056,
    "openConds": [
      {
        "paramList": []
      }
    ],
    "NPOOEPIOLKH": []
  },
  {
    "emotionName": "Normal_04",
    "phonemeName": "P_N_01",
    "icon": "UI_EmotIcon_Earnest",
    "emotionDescriptionTextMapHash": 1786222509,
    "unlockDescTextMapHash": 901528386,
    "fetterId": 56402,
    "avatarId": 10000056,
    "openConds": [
      {
        "condType": "FETTER_COND_FETTER_LEVEL",
        "paramList": [2]
      }
    ],
    "NPOOEPIOLKH": []
  },
  {
    "emotionName": "Angry_01",
    "phonemeName": "P_Neko_01",
    "icon": "UI_EmotIcon_Confidence",
    "emotionDescriptionTextMapHash": 549777149,
    "unlockDescTextMapHash": 3175711290,
    "fetterId": 56403,
    "avatarId": 10000056,
    "openConds": [
      {
        "condType": "FETTER_COND_FETTER_LEVEL",
        "paramList": [4]
      }
    ],
    "NPOOEPIOLKH": []
  },
  {
    "emotionName": "",
    "phonemeName": "",
    "icon": "UI_EmotIcon_Normal",
    "emotionDescriptionTextMapHash": 1845969533,
    "unlockDescTextMapHash": 689667458,
    "fetterId": 62401,
    "avatarId": 10000062,
    "openConds": [
      {
        "paramList": []
      }
    ],
    "NPOOEPIOLKH": []
  },
  {
    "emotionName": "Gentle_01",
    "phonemeName": "P_Doya_01",
    "icon": "UI_EmotIcon_Confidence",
    "emotionDescriptionTextMapHash": 3935979837,
    "unlockDescTextMapHash": 3490541906,
    "fetterId": 62402,
    "avatarId": 10000062,
    "openConds": [
      {
        "condType": "FETTER_COND_FETTER_LEVEL",
        "paramList": [2]
      }
    ],
    "NPOOEPIOLKH": []
  },
  {
    "emotionName": "HiClosed_01",
    "phonemeName": "P_Smile_02",
    "icon": "UI_EmotIcon_Happy",
    "emotionDescriptionTextMapHash": 445086661,
    "unlockDescTextMapHash": 1148251650,
    "fetterId": 62403,
    "avatarId": 10000062,
    "openConds": [
      {
        "condType": "FETTER_COND_FETTER_LEVEL",
        "paramList": [4]
      }
    ],
    "NPOOEPIOLKH": []
  },
  {
    "emotionName": "",
    "phonemeName": "",
    "icon": "UI_EmotIcon_Normal",
    "emotionDescriptionTextMapHash": 2008898709,
    "unlockDescTextMapHash": 3322649482,
    "fetterId": 50401,
    "avatarId": 10000050,
    "openConds": [
      {
        "paramList": []
      }
    ],
    "NPOOEPIOLKH": []
  },
  {
    "emotionName": "HiClosed_01",
    "phonemeName": "P_Smile_01",
    "icon": "UI_EmotIcon_Happy",
    "emotionDescriptionTextMapHash": 1447618789,
    "unlockDescTextMapHash": 3830975634,
    "fetterId": 50402,
    "avatarId": 10000050,
    "openConds": [
      {
        "condType": "FETTER_COND_FETTER_LEVEL",
        "paramList": [2]
      }
    ],
    "NPOOEPIOLKH": []
  },
  {
    "emotionName": "Gentle_01",
    "phonemeName": "P_Smile_03",
    "icon": "UI_EmotIcon_Confidence",
    "emotionDescriptionTextMapHash": 2094845893,
    "unlockDescTextMapHash": 892684162,
    "fetterId": 50403,
    "avatarId": 10000050,
    "openConds": [
      {
        "condType": "FETTER_COND_FETTER_LEVEL",
        "paramList": [4]
      }
    ],
    "NPOOEPIOLKH": []
  },
  {
    "emotionName": "",
    "phonemeName": "",
    "icon": "UI_EmotIcon_Normal",
    "emotionDescriptionTextMapHash": 1905519525,
    "unlockDescTextMapHash": 2477603122,
    "fetterId": 55401,
    "avatarId": 10000055,
    "openConds": [
      {
        "paramList": []
      }
    ],
    "NPOOEPIOLKH": []
  },
  {
    "emotionName": "Angry_02",
    "phonemeName": "P_N_01",
    "icon": "UI_EmotIcon_Earnest",
    "emotionDescriptionTextMapHash": 1253357493,
    "unlockDescTextMapHash": 2223285858,
    "fetterId": 55402,
    "avatarId": 10000055,
    "openConds": [
      {
        "condType": "FETTER_COND_FETTER_LEVEL",
        "paramList": [2]
      }
    ],
    "NPOOEPIOLKH": []
  },
  {
    "emotionName": "Doubt_01",
    "phonemeName": "P_Angry_01",
    "icon": "UI_EmotIcon_Ponder",
    "emotionDescriptionTextMapHash": 2955758077,
    "unlockDescTextMapHash": 4113386746,
    "fetterId": 55403,
    "avatarId": 10000055,
    "openConds": [
      {
        "condType": "FETTER_COND_FETTER_LEVEL",
        "paramList": [4]
      }
    ],
    "NPOOEPIOLKH": []
  },
  {
    "emotionName": "",
    "phonemeName": "",
    "icon": "UI_EmotIcon_Normal",
    "emotionDescriptionTextMapHash": 2210518605,
    "unlockDescTextMapHash": 289613074,
    "fetterId": 57401,
    "avatarId": 10000057,
    "openConds": [
      {
        "paramList": []
      }
    ],
    "NPOOEPIOLKH": []
  },
  {
    "emotionName": "Gentle_02",
    "phonemeName": "P_Doya_01",
    "icon": "UI_EmotIcon_Confidence",
    "emotionDescriptionTextMapHash": 1194492429,
    "unlockDescTextMapHash": 3950524282,
    "fetterId": 57402,
    "avatarId": 10000057,
    "openConds": [
      {
        "condType": "FETTER_COND_FETTER_LEVEL",
        "paramList": [2]
      }
    ],
    "NPOOEPIOLKH": []
  },
  {
    "emotionName": "HiClosed_01",
    "phonemeName": "P_Smile_05",
    "icon": "UI_EmotIcon_Happy",
    "emotionDescriptionTextMapHash": 3618649741,
    "unlockDescTextMapHash": 901052946,
    "fetterId": 57403,
    "avatarId": 10000057,
    "openConds": [
      {
        "condType": "FETTER_COND_FETTER_LEVEL",
        "paramList": [4]
      }
    ],
    "NPOOEPIOLKH": []
  },
  {
    "emotionName": "",
    "phonemeName": "",
    "icon": "UI_EmotIcon_Normal",
    "emotionDescriptionTextMapHash": 3378078397,
    "unlockDescTextMapHash": 2462177642,
    "fetterId": 63401,
    "avatarId": 10000063,
    "openConds": [
      {
        "paramList": []
      }
    ],
    "NPOOEPIOLKH": []
  },
  {
    "emotionName": "Doubt_01",
    "phonemeName": "P_N_01",
    "icon": "UI_EmotIcon_Ponder",
    "emotionDescriptionTextMapHash": 1355799493,
    "unlockDescTextMapHash": 1979016834,
    "fetterId": 63402,
    "avatarId": 10000063,
    "openConds": [
      {
        "condType": "FETTER_COND_FETTER_LEVEL",
        "paramList": [2]
      }
    ],
    "NPOOEPIOLKH": []
  },
  {
    "emotionName": "Default_01",
    "phonemeName": "P_Normal_01",
    "icon": "UI_EmotIcon_Smile",
    "emotionDescriptionTextMapHash": 534042133,
    "unlockDescTextMapHash": 1983537058,
    "fetterId": 63403,
    "avatarId": 10000063,
    "openConds": [
      {
        "condType": "FETTER_COND_FETTER_LEVEL",
        "paramList": [4]
      }
    ],
    "NPOOEPIOLKH": []
  },
  {
    "emotionName": "",
    "phonemeName": "",
    "icon": "UI_EmotIcon_Normal",
    "emotionDescriptionTextMapHash": 2896736333,
    "unlockDescTextMapHash": 3837829378,
    "fetterId": 64401,
    "avatarId": 10000064,
    "openConds": [
      {
        "paramList": []
      }
    ],
    "NPOOEPIOLKH": []
  },
  {
    "emotionName": "Angry_01",
    "phonemeName": "P_Default_01",
    "icon": "UI_EmotIcon_Earnest",
    "emotionDescriptionTextMapHash": 3715284141,
    "unlockDescTextMapHash": 3680780690,
    "fetterId": 64402,
    "avatarId": 10000064,
    "openConds": [
      {
        "condType": "FETTER_COND_FETTER_LEVEL",
        "paramList": [2]
      }
    ],
    "NPOOEPIOLKH": []
  },
  {
    "emotionName": "Gentle_01",
    "phonemeName": "P_Smile_01",
    "icon": "UI_EmotIcon_Happy",
    "emotionDescriptionTextMapHash": 3008593325,
    "unlockDescTextMapHash": 4270630490,
    "fetterId": 64403,
    "avatarId": 10000064,
    "openConds": [
      {
        "condType": "FETTER_COND_FETTER_LEVEL",
        "paramList": [4]
      }
    ],
    "NPOOEPIOLKH": []
  },
  {
    "emotionName": "",
    "phonemeName": "",
    "icon": "UI_EmotIcon_Normal",
    "emotionDescriptionTextMapHash": 681430453,
    "unlockDescTextMapHash": 1233863442,
    "fetterId": 58401,
    "avatarId": 10000058,
    "openConds": [
      {
        "paramList": []
      }
    ],
    "NPOOEPIOLKH": []
  },
  {
    "emotionName": "Angry_01",
    "phonemeName": "P_Default_01",
    "icon": "UI_EmotIcon_Confidence",
    "emotionDescriptionTextMapHash": 325941,
    "unlockDescTextMapHash": 985359906,
    "fetterId": 58402,
    "avatarId": 10000058,
    "openConds": [
      {
        "condType": "FETTER_COND_FETTER_LEVEL",
        "paramList": [2]
      }
    ],
    "NPOOEPIOLKH": []
  },
  {
    "emotionName": "HiClosed_01",
    "phonemeName": "P_Smile_01",
    "icon": "UI_EmotIcon_Happy",
    "emotionDescriptionTextMapHash": 4056127133,
    "unlockDescTextMapHash": 1046555426,
    "fetterId": 58403,
    "avatarId": 10000058,
    "openConds": [
      {
        "condType": "FETTER_COND_FETTER_LEVEL",
        "paramList": [4]
      }
    ],
    "NPOOEPIOLKH": []
  },
  {
    "emotionName": "",
    "phonemeName": "",
    "icon": "UI_EmotIcon_Normal",
    "emotionDescriptionTextMapHash": 2723640429,
    "unlockDescTextMapHash": 3663279306,
    "fetterId": 66401,
    "avatarId": 10000066,
    "openConds": [
      {
        "paramList": []
      }
    ],
    "NPOOEPIOLKH": []
  },
  {
    "emotionName": "Sweat_01",
    "phonemeName": "P_Normal_01",
    "icon": "UI_EmotIcon_Ponder",
    "emotionDescriptionTextMapHash": 3357715437,
    "unlockDescTextMapHash": 622930426,
    "fetterId": 66402,
    "avatarId": 10000066,
    "openConds": [
      {
        "condType": "FETTER_COND_FETTER_LEVEL",
        "paramList": [2]
      }
    ],
    "NPOOEPIOLKH": []
  },
  {
    "emotionName": "Angry_01",
    "phonemeName": "P_Smile_01",
    "icon": "UI_EmotIcon_Confidence",
    "emotionDescriptionTextMapHash": 1685779421,
    "unlockDescTextMapHash": 1121026954,
    "fetterId": 66403,
    "avatarId": 10000066,
    "openConds": [
      {
        "condType": "FETTER_COND_FETTER_LEVEL",
        "paramList": [4]
      }
    ],
    "NPOOEPIOLKH": []
  },
  {
    "emotionName": "",
    "phonemeName": "",
    "icon": "UI_EmotIcon_Normal",
    "emotionDescriptionTextMapHash": 4161394157,
    "unlockDescTextMapHash": 2210786218,
    "fetterId": 60401,
    "avatarId": 10000060,
    "openConds": [
      {
        "paramList": []
      }
    ],
    "NPOOEPIOLKH": []
  },
  {
    "emotionName": "Gentle_01",
    "phonemeName": "P_Smile_01",
    "icon": "UI_EmotIcon_Smile",
    "emotionDescriptionTextMapHash": 2907441437,
    "unlockDescTextMapHash": 1369198514,
    "fetterId": 60402,
    "avatarId": 10000060,
    "openConds": [
      {
        "condType": "FETTER_COND_FETTER_LEVEL",
        "paramList": [2]
      }
    ],
    "NPOOEPIOLKH": []
  },
  {
    "emotionName": "Doubt_01",
    "phonemeName": "P_Normal_01",
    "icon": "UI_EmotIcon_Ponder",
    "emotionDescriptionTextMapHash": 917536693,
    "unlockDescTextMapHash": 3351333226,
    "fetterId": 60403,
    "avatarId": 10000060,
    "openConds": [
      {
        "condType": "FETTER_COND_FETTER_LEVEL",
        "paramList": [4]
      }
    ],
    "NPOOEPIOLKH": []
  },
  {
    "emotionName": "",
    "phonemeName": "",
    "icon": "UI_EmotIcon_Normal",
    "emotionDescriptionTextMapHash": 2266232165,
    "unlockDescTextMapHash": 283961354,
    "fetterId": 65401,
    "avatarId": 10000065,
    "openConds": [
      {
        "paramList": []
      }
    ],
    "NPOOEPIOLKH": []
  },
  {
    "emotionName": "Doubt_01",
    "phonemeName": "P_N_01",
    "icon": "UI_EmotIcon_Ponder",
    "emotionDescriptionTextMapHash": 4243878677,
    "unlockDescTextMapHash": 1155890258,
    "fetterId": 65402,
    "avatarId": 10000065,
    "openConds": [
      {
        "condType": "FETTER_COND_FETTER_LEVEL",
        "paramList": [2]
      }
    ],
    "NPOOEPIOLKH": []
  },
  {
    "emotionName": "Angry_01",
    "phonemeName": "P_Smile_01",
    "icon": "UI_EmotIcon_Confidence",
    "emotionDescriptionTextMapHash": 3679802797,
    "unlockDescTextMapHash": 3957067786,
    "fetterId": 65403,
    "avatarId": 10000065,
    "openConds": [
      {
        "condType": "FETTER_COND_FETTER_LEVEL",
        "paramList": [4]
      }
    ],
    "NPOOEPIOLKH": []
  },
  {
    "emotionName": "",
    "phonemeName": "",
    "icon": "UI_EmotIcon_Normal",
    "emotionDescriptionTextMapHash": 883878981,
    "unlockDescTextMapHash": 3321296018,
    "fetterId": 59401,
    "avatarId": 10000059,
    "openConds": [
      {
        "paramList": []
      }
    ],
    "NPOOEPIOLKH": []
  },
  {
    "emotionName": "HiClosed_01",
    "phonemeName": "P_Smile_01",
    "icon": "UI_EmotIcon_Happy",
    "emotionDescriptionTextMapHash": 1816637093,
    "unlockDescTextMapHash": 4011481498,
    "fetterId": 59402,
    "avatarId": 10000059,
    "openConds": [
      {
        "condType": "FETTER_COND_FETTER_LEVEL",
        "paramList": [2]
      }
    ],
    "NPOOEPIOLKH": []
  },
  {
    "emotionName": "Doubt_01",
    "phonemeName": "P_Normal_01",
    "icon": "UI_EmotIcon_Ponder",
    "emotionDescriptionTextMapHash": 81766269,
    "unlockDescTextMapHash": 943961522,
    "fetterId": 59403,
    "avatarId": 10000059,
    "openConds": [
      {
        "condType": "FETTER_COND_FETTER_LEVEL",
        "paramList": [4]
      }
    ],
    "NPOOEPIOLKH": []
  },
  {
    "emotionName": "",
    "phonemeName": "",
    "icon": "UI_EmotIcon_Normal",
    "emotionDescriptionTextMapHash": 1469699269,
    "unlockDescTextMapHash": 694574114,
    "fetterId": 67401,
    "avatarId": 10000067,
    "openConds": [
      {
        "paramList": []
      }
    ],
    "NPOOEPIOLKH": []
  },
  {
    "emotionName": "Normal_03",
    "phonemeName": "P_Smile_01",
    "icon": "UI_EmotIcon_Smile",
    "emotionDescriptionTextMapHash": 3747969717,
    "unlockDescTextMapHash": 2603679458,
    "fetterId": 67402,
    "avatarId": 10000067,
    "openConds": [
      {
        "condType": "FETTER_COND_FETTER_LEVEL",
        "paramList": [2]
      }
    ],
    "NPOOEPIOLKH": []
  },
  {
    "emotionName": "Gentle_02",
    "phonemeName": "P_N_01",
    "icon": "UI_EmotIcon_Earnest",
    "emotionDescriptionTextMapHash": 3038952869,
    "unlockDescTextMapHash": 3951076730,
    "fetterId": 67403,
    "avatarId": 10000067,
    "openConds": [
      {
        "condType": "FETTER_COND_FETTER_LEVEL",
        "paramList": [4]
      }
    ],
    "NPOOEPIOLKH": []
  },
  {
    "emotionName": "",
    "phonemeName": "",
    "icon": "UI_EmotIcon_Normal",
    "emotionDescriptionTextMapHash": 4225132605,
    "unlockDescTextMapHash": 1712590834,
    "fetterId": 68401,
    "avatarId": 10000068,
    "openConds": [
      {
        "paramList": []
      }
    ],
    "NPOOEPIOLKH": []
  },
  {
    "emotionName": "HiClosed_01",
    "phonemeName": "P_Smile_05",
    "icon": "UI_EmotIcon_Happy",
    "emotionDescriptionTextMapHash": 3012264853,
    "unlockDescTextMapHash": 1457880082,
    "fetterId": 68402,
    "avatarId": 10000068,
    "openConds": [
      {
        "condType": "FETTER_COND_FETTER_LEVEL",
        "paramList": [2]
      }
    ],
    "NPOOEPIOLKH": []
  },
  {
    "emotionName": "Surprise_02",
    "phonemeName": "P_O_01",
    "icon": "UI_EmotIcon_Expect",
    "emotionDescriptionTextMapHash": 899074149,
    "unlockDescTextMapHash": 491968930,
    "fetterId": 68403,
    "avatarId": 10000068,
    "openConds": [
      {
        "condType": "FETTER_COND_FETTER_LEVEL",
        "paramList": [4]
      }
    ],
    "NPOOEPIOLKH": []
  },
  {
    "emotionName": "",
    "phonemeName": "",
    "icon": "UI_EmotIcon_Normal",
    "emotionDescriptionTextMapHash": 2050885341,
    "unlockDescTextMapHash": 2190069354,
    "fetterId": 69401,
    "avatarId": 10000069,
    "openConds": [
      {
        "paramList": []
      }
    ],
    "NPOOEPIOLKH": []
  },
  {
    "emotionName": "Default_01",
    "phonemeName": "P_Smile_01",
    "icon": "UI_EmotIcon_Smile",
    "emotionDescriptionTextMapHash": 3567304469,
    "unlockDescTextMapHash": 1547378378,
    "fetterId": 69402,
    "avatarId": 10000069,
    "openConds": [
      {
        "condType": "FETTER_COND_FETTER_LEVEL",
        "paramList": [2]
      }
    ],
    "NPOOEPIOLKH": []
  },
  {
    "emotionName": "Doubt_01",
    "phonemeName": "P_N_01",
    "icon": "UI_EmotIcon_Ponder",
    "emotionDescriptionTextMapHash": 1849006173,
    "unlockDescTextMapHash": 4242449586,
    "fetterId": 69403,
    "avatarId": 10000069,
    "openConds": [
      {
        "condType": "FETTER_COND_FETTER_LEVEL",
        "paramList": [4]
      }
    ],
    "NPOOEPIOLKH": []
  },
  {
    "emotionName": "",
    "phonemeName": "",
    "icon": "UI_EmotIcon_Normal",
    "emotionDescriptionTextMapHash": 3449963693,
    "unlockDescTextMapHash": 742401282,
    "fetterId": 70401,
    "avatarId": 10000070,
    "openConds": [
      {
        "paramList": []
      }
    ],
    "NPOOEPIOLKH": []
  },
  {
    "emotionName": "HiClosed_01",
    "phonemeName": "P_Default_01",
    "icon": "UI_EmotIcon_Smile",
    "emotionDescriptionTextMapHash": 2399649221,
    "unlockDescTextMapHash": 3636485418,
    "fetterId": 70402,
    "avatarId": 10000070,
    "openConds": [
      {
        "condType": "FETTER_COND_FETTER_LEVEL",
        "paramList": [2]
      }
    ],
    "NPOOEPIOLKH": []
  },
  {
    "emotionName": "Normal_02",
    "phonemeName": "P_U_01",
    "icon": "UI_EmotIcon_Expect",
    "emotionDescriptionTextMapHash": 1720510269,
    "unlockDescTextMapHash": 1316261866,
    "fetterId": 70403,
    "avatarId": 10000070,
    "openConds": [
      {
        "condType": "FETTER_COND_FETTER_LEVEL",
        "paramList": [4]
      }
    ],
    "NPOOEPIOLKH": []
  },
  {
    "emotionName": "",
    "phonemeName": "",
    "icon": "UI_EmotIcon_Normal",
    "emotionDescriptionTextMapHash": 199577589,
    "unlockDescTextMapHash": 3611931418,
    "fetterId": 71401,
    "avatarId": 10000071,
    "openConds": [
      {
        "paramList": []
      }
    ],
    "NPOOEPIOLKH": []
  },
  {
    "emotionName": "Angry_02",
    "phonemeName": "P_Default_01",
    "icon": "UI_EmotIcon_Earnest",
    "emotionDescriptionTextMapHash": 61338933,
    "unlockDescTextMapHash": 4256999042,
    "fetterId": 71402,
    "avatarId": 10000071,
    "openConds": [
      {
        "condType": "FETTER_COND_FETTER_LEVEL",
        "paramList": [2]
      }
    ],
    "NPOOEPIOLKH": []
  },
  {
    "emotionName": "Doubt_01",
    "phonemeName": "P_Angry_01",
    "icon": "UI_EmotIcon_Ponder",
    "emotionDescriptionTextMapHash": 3344547333,
    "unlockDescTextMapHash": 4208381994,
    "fetterId": 71403,
    "avatarId": 10000071,
    "openConds": [
      {
        "condType": "FETTER_COND_FETTER_LEVEL",
        "paramList": [4]
      }
    ],
    "NPOOEPIOLKH": []
  },
  {
    "emotionName": "",
    "phonemeName": "",
    "icon": "UI_EmotIcon_Normal",
    "emotionDescriptionTextMapHash": 696035885,
    "unlockDescTextMapHash": 2603013786,
    "fetterId": 72401,
    "avatarId": 10000072,
    "openConds": [
      {
        "paramList": []
      }
    ],
    "NPOOEPIOLKH": []
  },
  {
    "emotionName": "Gentle_01",
    "phonemeName": "P_Smile_01",
    "icon": "UI_EmotIcon_Smile",
    "emotionDescriptionTextMapHash": 2661117693,
    "unlockDescTextMapHash": 2466158530,
    "fetterId": 72402,
    "avatarId": 10000072,
    "openConds": [
      {
        "condType": "FETTER_COND_FETTER_LEVEL",
        "paramList": [2]
      }
    ],
    "NPOOEPIOLKH": []
  },
  {
    "emotionName": "Angry_02",
    "phonemeName": "P_N_01",
    "icon": "UI_EmotIcon_Earnest",
    "emotionDescriptionTextMapHash": 3914035597,
    "unlockDescTextMapHash": 2192442114,
    "fetterId": 72403,
    "avatarId": 10000072,
    "openConds": [
      {
        "condType": "FETTER_COND_FETTER_LEVEL",
        "paramList": [4]
      }
    ],
    "NPOOEPIOLKH": []
  },
  {
    "emotionName": "",
    "phonemeName": "",
    "icon": "UI_EmotIcon_Normal",
    "emotionDescriptionTextMapHash": 3905593549,
    "unlockDescTextMapHash": 3346104386,
    "fetterId": 73401,
    "avatarId": 10000073,
    "openConds": [
      {
        "paramList": []
      }
    ],
    "NPOOEPIOLKH": []
  },
  {
    "emotionName": "HiClosed_01",
    "phonemeName": "P_Smile_01",
    "icon": "UI_EmotIcon_Smile",
    "emotionDescriptionTextMapHash": 4029987269,
    "unlockDescTextMapHash": 1021111186,
    "fetterId": 73402,
    "avatarId": 10000073,
    "openConds": [
      {
        "condType": "FETTER_COND_FETTER_LEVEL",
        "paramList": [2]
      }
    ],
    "NPOOEPIOLKH": []
  },
  {
    "emotionName": "Doubt_01",
    "phonemeName": "P_N_01",
    "icon": "UI_EmotIcon_Ponder",
    "emotionDescriptionTextMapHash": 2168492589,
    "unlockDescTextMapHash": 3724036978,
    "fetterId": 73403,
    "avatarId": 10000073,
    "openConds": [
      {
        "condType": "FETTER_COND_FETTER_LEVEL",
        "paramList": [4]
      }
    ],
    "NPOOEPIOLKH": []
  },
  {
    "emotionName": "",
    "phonemeName": "",
    "icon": "UI_EmotIcon_Normal",
    "emotionDescriptionTextMapHash": 1177414405,
    "unlockDescTextMapHash": 4233631482,
    "fetterId": 74401,
    "avatarId": 10000074,
    "openConds": [
      {
        "paramList": []
      }
    ],
    "NPOOEPIOLKH": []
  },
  {
    "emotionName": "Normal_05",
    "phonemeName": "P_Angry_02",
    "icon": "UI_EmotIcon_Lose",
    "emotionDescriptionTextMapHash": 3985750661,
    "unlockDescTextMapHash": 1229910794,
    "fetterId": 74402,
    "avatarId": 10000074,
    "openConds": [
      {
        "condType": "FETTER_COND_FETTER_LEVEL",
        "paramList": [2]
      }
    ],
    "NPOOEPIOLKH": []
  },
  {
    "emotionName": "Normal_03",
    "phonemeName": "P_N_01",
    "icon": "UI_EmotIcon_Ponder",
    "emotionDescriptionTextMapHash": 2468290229,
    "unlockDescTextMapHash": 654403810,
    "fetterId": 74403,
    "avatarId": 10000074,
    "openConds": [
      {
        "condType": "FETTER_COND_FETTER_LEVEL",
        "paramList": [4]
      }
    ],
    "NPOOEPIOLKH": []
  },
  {
    "emotionName": "",
    "phonemeName": "",
    "icon": "UI_EmotIcon_Normal",
    "emotionDescriptionTextMapHash": 4224161037,
    "unlockDescTextMapHash": 815590226,
    "fetterId": 75401,
    "avatarId": 10000075,
    "openConds": [
      {
        "paramList": []
      }
    ],
    "NPOOEPIOLKH": []
  },
  {
    "emotionName": "Angry_02",
    "phonemeName": "P_Default_01",
    "icon": "UI_EmotIcon_Confidence",
    "emotionDescriptionTextMapHash": 2832694693,
    "unlockDescTextMapHash": 2742498690,
    "fetterId": 75402,
    "avatarId": 10000075,
    "openConds": [
      {
        "condType": "FETTER_COND_FETTER_LEVEL",
        "paramList": [2]
      }
    ],
    "NPOOEPIOLKH": []
  },
  {
    "emotionName": "Doubt_01",
    "phonemeName": "P_Normal_01",
    "icon": "UI_EmotIcon_Ponder",
    "emotionDescriptionTextMapHash": 4081692677,
    "unlockDescTextMapHash": 2875073306,
    "fetterId": 75403,
    "avatarId": 10000075,
    "openConds": [
      {
        "condType": "FETTER_COND_FETTER_LEVEL",
        "paramList": [4]
      }
    ],
    "NPOOEPIOLKH": []
  },
  {
    "emotionName": "",
    "phonemeName": "",
    "icon": "UI_EmotIcon_Normal",
    "emotionDescriptionTextMapHash": 1036585221,
    "unlockDescTextMapHash": 4129846786,
    "fetterId": 76401,
    "avatarId": 10000076,
    "openConds": [
      {
        "paramList": []
      }
    ],
    "NPOOEPIOLKH": []
  },
  {
    "emotionName": "Angry_02",
    "phonemeName": "P_Smile_01",
    "icon": "UI_EmotIcon_Confidence",
    "emotionDescriptionTextMapHash": 1266875437,
    "unlockDescTextMapHash": 2245242682,
    "fetterId": 76402,
    "avatarId": 10000076,
    "openConds": [
      {
        "condType": "FETTER_COND_FETTER_LEVEL",
        "paramList": [2]
      }
    ],
    "NPOOEPIOLKH": []
  },
  {
    "emotionName": "Angry_01",
    "phonemeName": "P_Angry_01",
    "icon": "UI_EmotIcon_Earnest",
    "emotionDescriptionTextMapHash": 221068853,
    "unlockDescTextMapHash": 2286950658,
    "fetterId": 76403,
    "avatarId": 10000076,
    "openConds": [
      {
        "condType": "FETTER_COND_FETTER_LEVEL",
        "paramList": [4]
      }
    ],
    "NPOOEPIOLKH": []
  },
  {
    "emotionName": "",
    "phonemeName": "",
    "icon": "UI_EmotIcon_Normal",
    "emotionDescriptionTextMapHash": 1228596173,
    "unlockDescTextMapHash": 4076732650,
    "fetterId": 77401,
    "avatarId": 10000077,
    "openConds": [
      {
        "paramList": []
      }
    ],
    "NPOOEPIOLKH": []
  },
  {
    "emotionName": "HiClosed_01",
    "phonemeName": "P_Smile_04",
    "icon": "UI_EmotIcon_Happy",
    "emotionDescriptionTextMapHash": 1302185133,
    "unlockDescTextMapHash": 1323473122,
    "fetterId": 77402,
    "avatarId": 10000077,
    "openConds": [
      {
        "condType": "FETTER_COND_FETTER_LEVEL",
        "paramList": [2]
      }
    ],
    "NPOOEPIOLKH": []
  },
  {
    "emotionName": "Gentle_01",
    "phonemeName": "P_Smile_02",
    "icon": "UI_EmotIcon_Smile",
    "emotionDescriptionTextMapHash": 2241843125,
    "unlockDescTextMapHash": 2703333962,
    "fetterId": 77403,
    "avatarId": 10000077,
    "openConds": [
      {
        "condType": "FETTER_COND_FETTER_LEVEL",
        "paramList": [4]
      }
    ],
    "NPOOEPIOLKH": []
  },
  {
    "emotionName": "",
    "phonemeName": "",
    "icon": "UI_EmotIcon_Normal",
    "emotionDescriptionTextMapHash": 269194781,
    "unlockDescTextMapHash": 3770591938,
    "fetterId": 78401,
    "avatarId": 10000078,
    "openConds": [
      {
        "paramList": []
      }
    ],
    "NPOOEPIOLKH": []
  },
  {
    "emotionName": "Angry_01",
    "phonemeName": "P_N_01",
    "icon": "UI_EmotIcon_Earnest",
    "emotionDescriptionTextMapHash": 3085518245,
    "unlockDescTextMapHash": 3473803626,
    "fetterId": 78402,
    "avatarId": 10000078,
    "openConds": [
      {
        "condType": "FETTER_COND_FETTER_LEVEL",
        "paramList": [2]
      }
    ],
    "NPOOEPIOLKH": []
  },
  {
    "emotionName": "Doubt_01",
    "phonemeName": "P_Angry_01",
    "icon": "UI_EmotIcon_Ponder",
    "emotionDescriptionTextMapHash": 440120845,
    "unlockDescTextMapHash": 1991881226,
    "fetterId": 78403,
    "avatarId": 10000078,
    "openConds": [
      {
        "condType": "FETTER_COND_FETTER_LEVEL",
        "paramList": [4]
      }
    ],
    "NPOOEPIOLKH": []
  },
  {
    "emotionName": "",
    "phonemeName": "",
    "icon": "UI_EmotIcon_Normal",
    "emotionDescriptionTextMapHash": 771609461,
    "unlockDescTextMapHash": 2133109922,
    "fetterId": 79401,
    "avatarId": 10000079,
    "openConds": [
      {
        "paramList": []
      }
    ],
    "NPOOEPIOLKH": []
  },
  {
    "emotionName": "Angry_01",
    "phonemeName": "P_Default_01",
    "icon": "UI_EmotIcon_Confidence",
    "emotionDescriptionTextMapHash": 3812146701,
    "unlockDescTextMapHash": 1910107538,
    "fetterId": 79402,
    "avatarId": 10000079,
    "openConds": [
      {
        "condType": "FETTER_COND_FETTER_LEVEL",
        "paramList": [2]
      }
    ],
    "NPOOEPIOLKH": []
  },
  {
    "emotionName": "Gentle_01",
    "phonemeName": "P_N_01",
    "icon": "UI_EmotIcon_Ponder",
    "emotionDescriptionTextMapHash": 2625532029,
    "unlockDescTextMapHash": 388964498,
    "fetterId": 79403,
    "avatarId": 10000079,
    "openConds": [
      {
        "condType": "FETTER_COND_FETTER_LEVEL",
        "paramList": [4]
      }
    ],
    "NPOOEPIOLKH": []
  },
  {
    "emotionName": "",
    "phonemeName": "",
    "icon": "UI_EmotIcon_Normal",
    "emotionDescriptionTextMapHash": 2965595333,
    "unlockDescTextMapHash": 190794170,
    "fetterId": 80401,
    "avatarId": 10000080,
    "openConds": [
      {
        "paramList": []
      }
    ],
    "NPOOEPIOLKH": []
  },
  {
    "emotionName": "Doubt_01",
    "phonemeName": "P_Normal_01",
    "icon": "UI_EmotIcon_Ponder",
    "emotionDescriptionTextMapHash": 2029199621,
    "unlockDescTextMapHash": 2158429906,
    "fetterId": 80402,
    "avatarId": 10000080,
    "openConds": [
      {
        "condType": "FETTER_COND_FETTER_LEVEL",
        "paramList": [2]
      }
    ],
    "NPOOEPIOLKH": []
  },
  {
    "emotionName": "Angry_02",
    "phonemeName": "P_Normal_01",
    "icon": "UI_EmotIcon_Earnest",
    "emotionDescriptionTextMapHash": 740120365,
    "unlockDescTextMapHash": 2651243474,
    "fetterId": 80403,
    "avatarId": 10000080,
    "openConds": [
      {
        "condType": "FETTER_COND_FETTER_LEVEL",
        "paramList": [4]
      }
    ],
    "NPOOEPIOLKH": []
  },
  {
    "emotionName": "",
    "phonemeName": "",
    "icon": "UI_EmotIcon_Normal",
    "emotionDescriptionTextMapHash": 1032268533,
    "unlockDescTextMapHash": 3649457554,
    "fetterId": 81401,
    "avatarId": 10000081,
    "openConds": [
      {
        "paramList": []
      }
    ],
    "NPOOEPIOLKH": []
  },
  {
    "emotionName": "Angry_01",
    "phonemeName": "P_Default_01",
    "icon": "UI_EmotIcon_Confidence",
    "emotionDescriptionTextMapHash": 2309249925,
    "unlockDescTextMapHash": 3032465474,
    "fetterId": 81402,
    "avatarId": 10000081,
    "openConds": [
      {
        "condType": "FETTER_COND_FETTER_LEVEL",
        "paramList": [2]
      }
    ],
    "NPOOEPIOLKH": []
  },
  {
    "emotionName": "Gentle_03",
    "phonemeName": "P_Angry_02",
    "icon": "UI_EmotIcon_Lose",
    "emotionDescriptionTextMapHash": 3743423869,
    "unlockDescTextMapHash": 2563629882,
    "fetterId": 81403,
    "avatarId": 10000081,
    "openConds": [
      {
        "condType": "FETTER_COND_FETTER_LEVEL",
        "paramList": [4]
      }
    ],
    "NPOOEPIOLKH": []
  },
  {
    "emotionName": "",
    "phonemeName": "",
    "icon": "UI_EmotIcon_Normal",
    "emotionDescriptionTextMapHash": 2669386581,
    "unlockDescTextMapHash": 3572914402,
    "fetterId": 82401,
    "avatarId": 10000082,
    "openConds": [
      {
        "paramList": []
      }
    ],
    "NPOOEPIOLKH": []
  },
  {
    "emotionName": "Gentle_01",
    "phonemeName": "P_Default_01",
    "icon": "UI_EmotIcon_Smile",
    "emotionDescriptionTextMapHash": 1419791277,
    "unlockDescTextMapHash": 2964443426,
    "fetterId": 82402,
    "avatarId": 10000082,
    "openConds": [
      {
        "condType": "FETTER_COND_FETTER_LEVEL",
        "paramList": [2]
      }
    ],
    "NPOOEPIOLKH": []
  },
  {
    "emotionName": "Doubt_01",
    "phonemeName": "P_Normal_01",
    "icon": "UI_EmotIcon_Ponder",
    "emotionDescriptionTextMapHash": 624944973,
    "unlockDescTextMapHash": 1866548554,
    "fetterId": 82403,
    "avatarId": 10000082,
    "openConds": [
      {
        "condType": "FETTER_COND_FETTER_LEVEL",
        "paramList": [4]
      }
    ],
    "NPOOEPIOLKH": []
  }
]
