[
  {
    "poseFile": "Standby",
    "poseIcon": "UI_PoseIcon_Default",
    "poseNameTextMapHash": 3844864745,
    "unlockDescTextMapHash": 3044280939,
    "fetterId": 10301,
    "avatarId": 10000021,
    "openConds": [
      {
        "paramList": []
      }
    ],
    "NPOOEPIOLKH": []
  },
  {
    "poseFile": "Think01",
    "animatorstateId": 20101,
    "poseIcon": "UI_PoseIcon_Thinking",
    "poseNameTextMapHash": 3413356177,
    "unlockDescTextMapHash": 4258109499,
    "fetterId": 10302,
    "avatarId": 10000021,
    "openConds": [
      {
        "paramList": []
      }
    ],
    "NPOOEPIOLKH": []
  },
  {
    "poseFile": "Akimbo02",
    "animatorstateId": 20111,
    "poseIcon": "UI_PoseIcon_Akimbo",
    "poseNameTextMapHash": 4144582801,
    "unlockDescTextMapHash": 4169451832,
    "fetterId": 10303,
    "avatarId": 10000021,
    "openConds": [
      {
        "paramList": []
      }
    ],
    "NPOOEPIOLKH": []
  },
  {
    "poseFile": "Standby",
    "poseIcon": "UI_PoseIcon_Default",
    "poseNameTextMapHash": 3423816857,
    "unlockDescTextMapHash": 2495194931,
    "fetterId": 3301,
    "avatarId": 10000002,
    "openConds": [
      {
        "paramList": []
      }
    ],
    "NPOOEPIOLKH": []
  },
  {
    "poseFile": "Think01",
    "animatorstateId": 20101,
    "poseIcon": "UI_PoseIcon_Thinking",
    "poseNameTextMapHash": 3424825185,
    "unlockDescTextMapHash": 612186363,
    "fetterId": 3302,
    "avatarId": 10000002,
    "openConds": [
      {
        "paramList": []
      }
    ],
    "NPOOEPIOLKH": []
  },
  {
    "poseFile": "Akimbo02",
    "animatorstateId": 20111,
    "poseIcon": "UI_PoseIcon_Akimbo",
    "poseNameTextMapHash": 4249941609,
    "unlockDescTextMapHash": 3739029339,
    "fetterId": 3303,
    "avatarId": 10000002,
    "openConds": [
      {
        "paramList": []
      }
    ],
    "NPOOEPIOLKH": []
  },
  {
    "poseFile": "Standby",
    "poseIcon": "UI_PoseIcon_Default",
    "poseNameTextMapHash": 3919972993,
    "unlockDescTextMapHash": 2460279147,
    "fetterId": 4301,
    "avatarId": 10000003,
    "openConds": [
      {
        "paramList": []
      }
    ],
    "NPOOEPIOLKH": []
  },
  {
    "poseFile": "Think01",
    "animatorstateId": 20101,
    "poseIcon": "UI_PoseIcon_Thinking",
    "poseNameTextMapHash": 1211064993,
    "unlockDescTextMapHash": 2236156139,
    "fetterId": 4302,
    "avatarId": 10000003,
    "openConds": [
      {
        "paramList": []
      }
    ],
    "NPOOEPIOLKH": []
  },
  {
    "poseFile": "Akimbo02",
    "animatorstateId": 20111,
    "poseIcon": "UI_PoseIcon_Akimbo",
    "poseNameTextMapHash": 4255404065,
    "unlockDescTextMapHash": 2516096323,
    "fetterId": 4303,
    "avatarId": 10000003,
    "openConds": [
      {
        "paramList": []
      }
    ],
    "NPOOEPIOLKH": []
  },
  {
    "poseFile": "Standby",
    "poseIcon": "UI_PoseIcon_Default",
    "poseNameTextMapHash": 3167224609,
    "unlockDescTextMapHash": 1290368155,
    "fetterId": 1301,
    "avatarId": 10000005,
    "openConds": [
      {
        "paramList": []
      }
    ],
    "NPOOEPIOLKH": []
  },
  {
    "poseFile": "Think01",
    "animatorstateId": 20101,
    "poseIcon": "UI_PoseIcon_Thinking",
    "poseNameTextMapHash": 2283711601,
    "unlockDescTextMapHash": 1428796603,
    "fetterId": 1302,
    "avatarId": 10000005,
    "openConds": [
      {
        "paramList": []
      }
    ],
    "NPOOEPIOLKH": []
  },
  {
    "poseFile": "Akimbo02",
    "animatorstateId": 20111,
    "poseIcon": "UI_PoseIcon_Akimbo",
    "poseNameTextMapHash": 2585217849,
    "unlockDescTextMapHash": 2525159547,
    "fetterId": 1303,
    "avatarId": 10000005,
    "openConds": [
      {
        "paramList": []
      }
    ],
    "NPOOEPIOLKH": []
  },
  {
    "poseFile": "Standby",
    "poseIcon": "UI_PoseIcon_Default",
    "poseNameTextMapHash": 2904578369,
    "unlockDescTextMapHash": 3449090787,
    "fetterId": 5301,
    "avatarId": 10000006,
    "openConds": [
      {
        "paramList": []
      }
    ],
    "NPOOEPIOLKH": []
  },
  {
    "poseFile": "Think01",
    "animatorstateId": 20101,
    "poseIcon": "UI_PoseIcon_Thinking",
    "poseNameTextMapHash": 3103705993,
    "unlockDescTextMapHash": 4162460435,
    "fetterId": 5302,
    "avatarId": 10000006,
    "openConds": [
      {
        "paramList": []
      }
    ],
    "NPOOEPIOLKH": []
  },
  {
    "poseFile": "Akimbo02",
    "animatorstateId": 20111,
    "poseIcon": "UI_PoseIcon_Akimbo",
    "poseNameTextMapHash": 3333594889,
    "unlockDescTextMapHash": 2417609379,
    "fetterId": 5303,
    "avatarId": 10000006,
    "openConds": [
      {
        "paramList": []
      }
    ],
    "NPOOEPIOLKH": []
  },
  {
    "poseFile": "Standby",
    "poseIcon": "UI_PoseIcon_Default",
    "poseNameTextMapHash": 1050057769,
    "unlockDescTextMapHash": 307543171,
    "fetterId": 2301,
    "avatarId": 10000007,
    "openConds": [
      {
        "paramList": []
      }
    ],
    "NPOOEPIOLKH": []
  },
  {
    "poseFile": "Think01",
    "animatorstateId": 20101,
    "poseIcon": "UI_PoseIcon_Thinking",
    "poseNameTextMapHash": 1394773577,
    "unlockDescTextMapHash": 694420347,
    "fetterId": 2302,
    "avatarId": 10000007,
    "openConds": [
      {
        "paramList": []
      }
    ],
    "NPOOEPIOLKH": []
  },
  {
    "poseFile": "Akimbo02",
    "animatorstateId": 20111,
    "poseIcon": "UI_PoseIcon_Akimbo",
    "poseNameTextMapHash": 3692504609,
    "unlockDescTextMapHash": 2833074555,
    "fetterId": 2303,
    "avatarId": 10000007,
    "openConds": [
      {
        "paramList": []
      }
    ],
    "NPOOEPIOLKH": []
  },
  {
    "poseFile": "Standby",
    "poseIcon": "UI_PoseIcon_Default",
    "poseNameTextMapHash": 1242136033,
    "unlockDescTextMapHash": 472519779,
    "fetterId": 6301,
    "avatarId": 10000014,
    "openConds": [
      {
        "paramList": []
      }
    ],
    "NPOOEPIOLKH": []
  },
  {
    "poseFile": "Think01",
    "animatorstateId": 20101,
    "poseIcon": "UI_PoseIcon_Thinking",
    "poseNameTextMapHash": 3815662169,
    "unlockDescTextMapHash": 3469723835,
    "fetterId": 6302,
    "avatarId": 10000014,
    "openConds": [
      {
        "paramList": []
      }
    ],
    "NPOOEPIOLKH": []
  },
  {
    "poseFile": "Akimbo02",
    "animatorstateId": 20111,
    "poseIcon": "UI_PoseIcon_Akimbo",
    "poseNameTextMapHash": 3640874305,
    "unlockDescTextMapHash": 3387681227,
    "fetterId": 6303,
    "avatarId": 10000014,
    "openConds": [
      {
        "paramList": []
      }
    ],
    "NPOOEPIOLKH": []
  },
  {
    "poseFile": "Standby",
    "poseIcon": "UI_PoseIcon_Default",
    "poseNameTextMapHash": 3792238889,
    "unlockDescTextMapHash": 1311643427,
    "fetterId": 7301,
    "avatarId": 10000015,
    "openConds": [
      {
        "paramList": []
      }
    ],
    "NPOOEPIOLKH": []
  },
  {
    "poseFile": "Think01",
    "animatorstateId": 20101,
    "poseIcon": "UI_PoseIcon_Thinking",
    "poseNameTextMapHash": 3375516745,
    "unlockDescTextMapHash": 528870459,
    "fetterId": 7302,
    "avatarId": 10000015,
    "openConds": [
      {
        "paramList": []
      }
    ],
    "NPOOEPIOLKH": []
  },
  {
    "poseFile": "Akimbo02",
    "animatorstateId": 20111,
    "poseIcon": "UI_PoseIcon_Akimbo",
    "poseNameTextMapHash": 4214971425,
    "unlockDescTextMapHash": 1602057595,
    "fetterId": 7303,
    "avatarId": 10000015,
    "openConds": [
      {
        "paramList": []
      }
    ],
    "NPOOEPIOLKH": []
  },
  {
    "poseFile": "Standby",
    "poseIcon": "UI_PoseIcon_Default",
    "poseNameTextMapHash": 2765154929,
    "unlockDescTextMapHash": 3603293995,
    "fetterId": 8301,
    "avatarId": 10000016,
    "openConds": [
      {
        "paramList": []
      }
    ],
    "NPOOEPIOLKH": []
  },
  {
    "poseFile": "Think01",
    "animatorstateId": 20101,
    "poseIcon": "UI_PoseIcon_Thinking",
    "poseNameTextMapHash": 923886945,
    "unlockDescTextMapHash": 3463368523,
    "fetterId": 8302,
    "avatarId": 10000016,
    "openConds": [
      {
        "paramList": []
      }
    ],
    "NPOOEPIOLKH": []
  },
  {
    "poseFile": "Akimbo02",
    "animatorstateId": 20111,
    "poseIcon": "UI_PoseIcon_Akimbo",
    "poseNameTextMapHash": 3053795337,
    "unlockDescTextMapHash": 460198827,
    "fetterId": 8303,
    "avatarId": 10000016,
    "openConds": [
      {
        "paramList": []
      }
    ],
    "NPOOEPIOLKH": []
  },
  {
    "poseFile": "Standby",
    "poseIcon": "UI_PoseIcon_Default",
    "poseNameTextMapHash": 1595610513,
    "unlockDescTextMapHash": 1197801427,
    "fetterId": 9301,
    "avatarId": 10000020,
    "openConds": [
      {
        "paramList": []
      }
    ],
    "NPOOEPIOLKH": []
  },
  {
    "poseFile": "Think01",
    "animatorstateId": 20101,
    "poseIcon": "UI_PoseIcon_Thinking",
    "poseNameTextMapHash": 3419603857,
    "unlockDescTextMapHash": 52728483,
    "fetterId": 9302,
    "avatarId": 10000020,
    "openConds": [
      {
        "paramList": []
      }
    ],
    "NPOOEPIOLKH": []
  },
  {
    "poseFile": "Akimbo02",
    "animatorstateId": 20111,
    "poseIcon": "UI_PoseIcon_Akimbo",
    "poseNameTextMapHash": 1200385841,
    "unlockDescTextMapHash": 4138723051,
    "fetterId": 9303,
    "avatarId": 10000020,
    "openConds": [
      {
        "paramList": []
      }
    ],
    "NPOOEPIOLKH": []
  },
  {
    "poseFile": "Standby",
    "poseIcon": "UI_PoseIcon_Default",
    "poseNameTextMapHash": 3698113049,
    "unlockDescTextMapHash": 3838796787,
    "fetterId": 11301,
    "avatarId": 10000022,
    "openConds": [
      {
        "paramList": []
      }
    ],
    "NPOOEPIOLKH": []
  },
  {
    "poseFile": "Think01",
    "animatorstateId": 20101,
    "poseIcon": "UI_PoseIcon_Thinking",
    "poseNameTextMapHash": 2994940961,
    "unlockDescTextMapHash": 751671627,
    "fetterId": 11302,
    "avatarId": 10000022,
    "openConds": [
      {
        "paramList": []
      }
    ],
    "NPOOEPIOLKH": []
  },
  {
    "poseFile": "Akimbo02",
    "animatorstateId": 20111,
    "poseIcon": "UI_PoseIcon_Akimbo",
    "poseNameTextMapHash": 1415514785,
    "unlockDescTextMapHash": 4239007411,
    "fetterId": 11303,
    "avatarId": 10000022,
    "openConds": [
      {
        "paramList": []
      }
    ],
    "NPOOEPIOLKH": []
  },
  {
    "poseFile": "Standby",
    "poseIcon": "UI_PoseIcon_Default",
    "poseNameTextMapHash": 2150474921,
    "unlockDescTextMapHash": 3894383123,
    "fetterId": 12301,
    "avatarId": 10000023,
    "openConds": [
      {
        "paramList": []
      }
    ],
    "NPOOEPIOLKH": []
  },
  {
    "poseFile": "Think01",
    "animatorstateId": 20101,
    "poseIcon": "UI_PoseIcon_Thinking",
    "poseNameTextMapHash": 1158865217,
    "unlockDescTextMapHash": 3789612299,
    "fetterId": 12302,
    "avatarId": 10000023,
    "openConds": [
      {
        "paramList": []
      }
    ],
    "NPOOEPIOLKH": []
  },
  {
    "poseFile": "Akimbo02",
    "animatorstateId": 20111,
    "poseIcon": "UI_PoseIcon_Akimbo",
    "poseNameTextMapHash": 1057990345,
    "unlockDescTextMapHash": 3736908107,
    "fetterId": 12303,
    "avatarId": 10000023,
    "openConds": [
      {
        "paramList": []
      }
    ],
    "NPOOEPIOLKH": []
  },
  {
    "poseFile": "Standby",
    "poseIcon": "UI_PoseIcon_Default",
    "poseNameTextMapHash": 2978942721,
    "unlockDescTextMapHash": 324804755,
    "fetterId": 14301,
    "avatarId": 10000024,
    "openConds": [
      {
        "paramList": []
      }
    ],
    "NPOOEPIOLKH": []
  },
  {
    "poseFile": "Think01",
    "animatorstateId": 20101,
    "poseIcon": "UI_PoseIcon_Thinking",
    "poseNameTextMapHash": 4213128049,
    "unlockDescTextMapHash": 2748126979,
    "fetterId": 14302,
    "avatarId": 10000024,
    "openConds": [
      {
        "paramList": []
      }
    ],
    "NPOOEPIOLKH": []
  },
  {
    "poseFile": "Akimbo02",
    "animatorstateId": 20111,
    "poseIcon": "UI_PoseIcon_Akimbo",
    "poseNameTextMapHash": 1253427497,
    "unlockDescTextMapHash": 3012856387,
    "fetterId": 14303,
    "avatarId": 10000024,
    "openConds": [
      {
        "paramList": []
      }
    ],
    "NPOOEPIOLKH": []
  },
  {
    "poseFile": "Standby",
    "poseIcon": "UI_PoseIcon_Default",
    "poseNameTextMapHash": 2310599025,
    "unlockDescTextMapHash": 4141395899,
    "fetterId": 13301,
    "avatarId": 10000025,
    "openConds": [
      {
        "paramList": []
      }
    ],
    "NPOOEPIOLKH": []
  },
  {
    "poseFile": "Think01",
    "animatorstateId": 20101,
    "poseIcon": "UI_PoseIcon_Thinking",
    "poseNameTextMapHash": 4210444097,
    "unlockDescTextMapHash": 3857567835,
    "fetterId": 13302,
    "avatarId": 10000025,
    "openConds": [
      {
        "paramList": []
      }
    ],
    "NPOOEPIOLKH": []
  },
  {
    "poseFile": "Akimbo02",
    "animatorstateId": 20111,
    "poseIcon": "UI_PoseIcon_Akimbo",
    "poseNameTextMapHash": 1751300313,
    "unlockDescTextMapHash": 2351879187,
    "fetterId": 13303,
    "avatarId": 10000025,
    "openConds": [
      {
        "paramList": []
      }
    ],
    "NPOOEPIOLKH": []
  },
  {
    "poseFile": "Standby",
    "poseIcon": "UI_PoseIcon_Default",
    "poseNameTextMapHash": 798184913,
    "unlockDescTextMapHash": 662632315,
    "fetterId": 16301,
    "avatarId": 10000026,
    "openConds": [
      {
        "paramList": []
      }
    ],
    "NPOOEPIOLKH": []
  },
  {
    "poseFile": "Think01",
    "animatorstateId": 20101,
    "poseIcon": "UI_PoseIcon_Thinking",
    "poseNameTextMapHash": 2231979201,
    "unlockDescTextMapHash": 2478021707,
    "fetterId": 16302,
    "avatarId": 10000026,
    "openConds": [
      {
        "paramList": []
      }
    ],
    "NPOOEPIOLKH": []
  },
  {
    "poseFile": "Akimbo02",
    "animatorstateId": 20111,
    "poseIcon": "UI_PoseIcon_Akimbo",
    "poseNameTextMapHash": 3777097081,
    "unlockDescTextMapHash": 2794840267,
    "fetterId": 16303,
    "avatarId": 10000026,
    "openConds": [
      {
        "paramList": []
      }
    ],
    "NPOOEPIOLKH": []
  },
  {
    "poseFile": "Standby",
    "poseIcon": "UI_PoseIcon_Default",
    "poseNameTextMapHash": 2567341641,
    "unlockDescTextMapHash": 3052149035,
    "fetterId": 15301,
    "avatarId": 10000027,
    "openConds": [
      {
        "paramList": []
      }
    ],
    "NPOOEPIOLKH": []
  },
  {
    "poseFile": "Think01",
    "animatorstateId": 20101,
    "poseIcon": "UI_PoseIcon_Thinking",
    "poseNameTextMapHash": 1178438105,
    "unlockDescTextMapHash": 2831435787,
    "fetterId": 15302,
    "avatarId": 10000027,
    "openConds": [
      {
        "paramList": []
      }
    ],
    "NPOOEPIOLKH": []
  },
  {
    "poseFile": "Akimbo02",
    "animatorstateId": 20111,
    "poseIcon": "UI_PoseIcon_Akimbo",
    "poseNameTextMapHash": 3285384289,
    "unlockDescTextMapHash": 625665971,
    "fetterId": 15303,
    "avatarId": 10000027,
    "openConds": [
      {
        "paramList": []
      }
    ],
    "NPOOEPIOLKH": []
  },
  {
    "poseFile": "Standby",
    "poseIcon": "UI_PoseIcon_Default",
    "poseNameTextMapHash": 3160033793,
    "unlockDescTextMapHash": 157555611,
    "fetterId": 18301,
    "avatarId": 10000029,
    "openConds": [
      {
        "paramList": []
      }
    ],
    "NPOOEPIOLKH": []
  },
  {
    "poseFile": "Think01",
    "animatorstateId": 20101,
    "poseIcon": "UI_PoseIcon_Thinking",
    "poseNameTextMapHash": 2893622441,
    "unlockDescTextMapHash": 3665743435,
    "fetterId": 18302,
    "avatarId": 10000029,
    "openConds": [
      {
        "paramList": []
      }
    ],
    "NPOOEPIOLKH": []
  },
  {
    "poseFile": "Akimbo02",
    "animatorstateId": 20111,
    "poseIcon": "UI_PoseIcon_Akimbo",
    "poseNameTextMapHash": 545593769,
    "unlockDescTextMapHash": 79540355,
    "fetterId": 18303,
    "avatarId": 10000029,
    "openConds": [
      {
        "paramList": []
      }
    ],
    "NPOOEPIOLKH": []
  },
  {
    "poseFile": "Standby",
    "poseIcon": "UI_PoseIcon_Default",
    "poseNameTextMapHash": 271132129,
    "unlockDescTextMapHash": 4063980355,
    "fetterId": 17301,
    "avatarId": 10000030,
    "openConds": [
      {
        "paramList": []
      }
    ],
    "NPOOEPIOLKH": []
  },
  {
    "poseFile": "Think01",
    "animatorstateId": 20101,
    "poseIcon": "UI_PoseIcon_Thinking",
    "poseNameTextMapHash": 3508456313,
    "unlockDescTextMapHash": 2685451867,
    "fetterId": 17302,
    "avatarId": 10000030,
    "openConds": [
      {
        "paramList": []
      }
    ],
    "NPOOEPIOLKH": []
  },
  {
    "poseFile": "Akimbo02",
    "animatorstateId": 20111,
    "poseIcon": "UI_PoseIcon_Akimbo",
    "poseNameTextMapHash": 2975399545,
    "unlockDescTextMapHash": 2418586475,
    "fetterId": 17303,
    "avatarId": 10000030,
    "openConds": [
      {
        "paramList": []
      }
    ],
    "NPOOEPIOLKH": []
  },
  {
    "poseFile": "Standby",
    "poseIcon": "UI_PoseIcon_Default",
    "poseNameTextMapHash": 669393233,
    "unlockDescTextMapHash": 786191627,
    "fetterId": 19301,
    "avatarId": 10000031,
    "openConds": [
      {
        "paramList": []
      }
    ],
    "NPOOEPIOLKH": []
  },
  {
    "poseFile": "Think01",
    "animatorstateId": 20101,
    "poseIcon": "UI_PoseIcon_Thinking",
    "poseNameTextMapHash": 3015749233,
    "unlockDescTextMapHash": 1651928915,
    "fetterId": 19302,
    "avatarId": 10000031,
    "openConds": [
      {
        "paramList": []
      }
    ],
    "NPOOEPIOLKH": []
  },
  {
    "poseFile": "Akimbo02",
    "animatorstateId": 20111,
    "poseIcon": "UI_PoseIcon_Akimbo",
    "poseNameTextMapHash": 1315604249,
    "unlockDescTextMapHash": 3535821963,
    "fetterId": 19303,
    "avatarId": 10000031,
    "openConds": [
      {
        "paramList": []
      }
    ],
    "NPOOEPIOLKH": []
  },
  {
    "poseFile": "Standby",
    "poseIcon": "UI_PoseIcon_Default",
    "poseNameTextMapHash": 1545563321,
    "unlockDescTextMapHash": 1492321883,
    "fetterId": 20301,
    "avatarId": 10000032,
    "openConds": [
      {
        "paramList": []
      }
    ],
    "NPOOEPIOLKH": []
  },
  {
    "poseFile": "Think01",
    "animatorstateId": 20101,
    "poseIcon": "UI_PoseIcon_Thinking",
    "poseNameTextMapHash": 3946584841,
    "unlockDescTextMapHash": 1563430219,
    "fetterId": 20302,
    "avatarId": 10000032,
    "openConds": [
      {
        "paramList": []
      }
    ],
    "NPOOEPIOLKH": []
  },
  {
    "poseFile": "Akimbo02",
    "animatorstateId": 20111,
    "poseIcon": "UI_PoseIcon_Akimbo",
    "poseNameTextMapHash": 1620219377,
    "unlockDescTextMapHash": 1335007747,
    "fetterId": 20303,
    "avatarId": 10000032,
    "openConds": [
      {
        "paramList": []
      }
    ],
    "NPOOEPIOLKH": []
  },
  {
    "poseFile": "Standby",
    "poseIcon": "UI_PoseIcon_Default",
    "poseNameTextMapHash": 3168637361,
    "unlockDescTextMapHash": 2202433539,
    "fetterId": 23301,
    "avatarId": 10000033,
    "openConds": [
      {
        "paramList": []
      }
    ],
    "NPOOEPIOLKH": []
  },
  {
    "poseFile": "Think01",
    "animatorstateId": 20101,
    "poseIcon": "UI_PoseIcon_Thinking",
    "poseNameTextMapHash": 4027843649,
    "unlockDescTextMapHash": 1410528291,
    "fetterId": 23302,
    "avatarId": 10000033,
    "openConds": [
      {
        "paramList": []
      }
    ],
    "NPOOEPIOLKH": []
  },
  {
    "poseFile": "Akimbo02",
    "animatorstateId": 20111,
    "poseIcon": "UI_PoseIcon_Akimbo",
    "poseNameTextMapHash": 1048661665,
    "unlockDescTextMapHash": 4168767011,
    "fetterId": 23303,
    "avatarId": 10000033,
    "openConds": [
      {
        "paramList": []
      }
    ],
    "NPOOEPIOLKH": []
  },
  {
    "poseFile": "Standby",
    "poseIcon": "UI_PoseIcon_Default",
    "poseNameTextMapHash": 3590348377,
    "unlockDescTextMapHash": 167588171,
    "fetterId": 21301,
    "avatarId": 10000034,
    "openConds": [
      {
        "paramList": []
      }
    ],
    "NPOOEPIOLKH": []
  },
  {
    "poseFile": "Think01",
    "animatorstateId": 20101,
    "poseIcon": "UI_PoseIcon_Thinking",
    "poseNameTextMapHash": 2876904633,
    "unlockDescTextMapHash": 1166651379,
    "fetterId": 21302,
    "avatarId": 10000034,
    "openConds": [
      {
        "paramList": []
      }
    ],
    "NPOOEPIOLKH": []
  },
  {
    "poseFile": "Akimbo02",
    "animatorstateId": 20111,
    "poseIcon": "UI_PoseIcon_Akimbo",
    "poseNameTextMapHash": 3211890553,
    "unlockDescTextMapHash": 3436693827,
    "fetterId": 21303,
    "avatarId": 10000034,
    "openConds": [
      {
        "paramList": []
      }
    ],
    "NPOOEPIOLKH": []
  },
  {
    "poseFile": "Standby",
    "poseIcon": "UI_PoseIcon_Default",
    "poseNameTextMapHash": 3684642361,
    "unlockDescTextMapHash": 2039431419,
    "fetterId": 24301,
    "avatarId": 10000035,
    "openConds": [
      {
        "paramList": []
      }
    ],
    "NPOOEPIOLKH": []
  },
  {
    "poseFile": "Think01",
    "animatorstateId": 20101,
    "poseIcon": "UI_PoseIcon_Thinking",
    "poseNameTextMapHash": 3908551529,
    "unlockDescTextMapHash": 464585499,
    "fetterId": 24302,
    "avatarId": 10000035,
    "openConds": [
      {
        "paramList": []
      }
    ],
    "NPOOEPIOLKH": []
  },
  {
    "poseFile": "Akimbo02",
    "animatorstateId": 20111,
    "poseIcon": "UI_PoseIcon_Akimbo",
    "poseNameTextMapHash": 3940219753,
    "unlockDescTextMapHash": 1432257131,
    "fetterId": 24303,
    "avatarId": 10000035,
    "openConds": [
      {
        "paramList": []
      }
    ],
    "NPOOEPIOLKH": []
  },
  {
    "poseFile": "Standby",
    "poseIcon": "UI_PoseIcon_Default",
    "poseNameTextMapHash": 1397563137,
    "unlockDescTextMapHash": 1492843731,
    "fetterId": 22301,
    "avatarId": 10000036,
    "openConds": [
      {
        "paramList": []
      }
    ],
    "NPOOEPIOLKH": []
  },
  {
    "poseFile": "Think01",
    "animatorstateId": 20101,
    "poseIcon": "UI_PoseIcon_Thinking",
    "poseNameTextMapHash": 1713073097,
    "unlockDescTextMapHash": 2364243595,
    "fetterId": 22302,
    "avatarId": 10000036,
    "openConds": [
      {
        "paramList": []
      }
    ],
    "NPOOEPIOLKH": []
  },
  {
    "poseFile": "Akimbo02",
    "animatorstateId": 20111,
    "poseIcon": "UI_PoseIcon_Akimbo",
    "poseNameTextMapHash": 2441195449,
    "unlockDescTextMapHash": 2252548483,
    "fetterId": 22303,
    "avatarId": 10000036,
    "openConds": [
      {
        "paramList": []
      }
    ],
    "NPOOEPIOLKH": []
  },
  {
    "poseFile": "Standby",
    "poseIcon": "UI_PoseIcon_Default",
    "poseNameTextMapHash": 3846103713,
    "unlockDescTextMapHash": 3522946019,
    "fetterId": 25301,
    "avatarId": 10000037,
    "openConds": [
      {
        "paramList": []
      }
    ],
    "NPOOEPIOLKH": []
  },
  {
    "poseFile": "Think01",
    "animatorstateId": 20101,
    "poseIcon": "UI_PoseIcon_Thinking",
    "poseNameTextMapHash": 3659521817,
    "unlockDescTextMapHash": 4092312307,
    "fetterId": 25302,
    "avatarId": 10000037,
    "openConds": [
      {
        "paramList": []
      }
    ],
    "NPOOEPIOLKH": []
  },
  {
    "poseFile": "Akimbo02",
    "animatorstateId": 20111,
    "poseIcon": "UI_PoseIcon_Akimbo",
    "poseNameTextMapHash": 1175634561,
    "unlockDescTextMapHash": 4214948635,
    "fetterId": 25303,
    "avatarId": 10000037,
    "openConds": [
      {
        "paramList": []
      }
    ],
    "NPOOEPIOLKH": []
  },
  {
    "poseFile": "Standby",
    "poseIcon": "UI_PoseIcon_Default",
    "poseNameTextMapHash": 3291642513,
    "unlockDescTextMapHash": 34036003,
    "fetterId": 35301,
    "avatarId": 10000038,
    "openConds": [
      {
        "paramList": []
      }
    ],
    "NPOOEPIOLKH": []
  },
  {
    "poseFile": "Think01",
    "animatorstateId": 20101,
    "poseIcon": "UI_PoseIcon_Thinking",
    "poseNameTextMapHash": 2463914233,
    "unlockDescTextMapHash": 1869737619,
    "fetterId": 35302,
    "avatarId": 10000038,
    "openConds": [
      {
        "paramList": []
      }
    ],
    "NPOOEPIOLKH": []
  },
  {
    "poseFile": "Akimbo02",
    "animatorstateId": 20111,
    "poseIcon": "UI_PoseIcon_Akimbo",
    "poseNameTextMapHash": 369357337,
    "unlockDescTextMapHash": 4219336227,
    "fetterId": 35303,
    "avatarId": 10000038,
    "openConds": [
      {
        "paramList": []
      }
    ],
    "NPOOEPIOLKH": []
  },
  {
    "poseFile": "Standby",
    "poseIcon": "UI_PoseIcon_Default",
    "poseNameTextMapHash": 762131825,
    "unlockDescTextMapHash": 101832419,
    "fetterId": 34301,
    "avatarId": 10000039,
    "openConds": [
      {
        "paramList": []
      }
    ],
    "NPOOEPIOLKH": []
  },
  {
    "poseFile": "Think01",
    "animatorstateId": 20101,
    "poseIcon": "UI_PoseIcon_Thinking",
    "poseNameTextMapHash": 1092166529,
    "unlockDescTextMapHash": 3155607811,
    "fetterId": 34302,
    "avatarId": 10000039,
    "openConds": [
      {
        "paramList": []
      }
    ],
    "NPOOEPIOLKH": []
  },
  {
    "poseFile": "Akimbo02",
    "animatorstateId": 20111,
    "poseIcon": "UI_PoseIcon_Akimbo",
    "poseNameTextMapHash": 3539382105,
    "unlockDescTextMapHash": 2861875515,
    "fetterId": 34303,
    "avatarId": 10000039,
    "openConds": [
      {
        "paramList": []
      }
    ],
    "NPOOEPIOLKH": []
  },
  {
    "poseFile": "Standby",
    "poseIcon": "UI_PoseIcon_Default",
    "poseNameTextMapHash": 846691169,
    "unlockDescTextMapHash": 149358411,
    "fetterId": 30301,
    "avatarId": 10000041,
    "openConds": [
      {
        "paramList": []
      }
    ],
    "NPOOEPIOLKH": []
  },
  {
    "poseFile": "Think01",
    "animatorstateId": 20101,
    "poseIcon": "UI_PoseIcon_Thinking",
    "poseNameTextMapHash": 4020759241,
    "unlockDescTextMapHash": 790706555,
    "fetterId": 30302,
    "avatarId": 10000041,
    "openConds": [
      {
        "paramList": []
      }
    ],
    "NPOOEPIOLKH": []
  },
  {
    "poseFile": "Akimbo02",
    "animatorstateId": 20111,
    "poseIcon": "UI_PoseIcon_Akimbo",
    "poseNameTextMapHash": 239889073,
    "unlockDescTextMapHash": 2360597451,
    "fetterId": 30303,
    "avatarId": 10000041,
    "openConds": [
      {
        "paramList": []
      }
    ],
    "NPOOEPIOLKH": []
  },
  {
    "poseFile": "Standby",
    "poseIcon": "UI_PoseIcon_Default",
    "poseNameTextMapHash": 2089148929,
    "unlockDescTextMapHash": 798128179,
    "fetterId": 32301,
    "avatarId": 10000042,
    "openConds": [
      {
        "paramList": []
      }
    ],
    "NPOOEPIOLKH": []
  },
  {
    "poseFile": "Think01",
    "animatorstateId": 20101,
    "poseIcon": "UI_PoseIcon_Thinking",
    "poseNameTextMapHash": 2245719097,
    "unlockDescTextMapHash": 3327730587,
    "fetterId": 32302,
    "avatarId": 10000042,
    "openConds": [
      {
        "paramList": []
      }
    ],
    "NPOOEPIOLKH": []
  },
  {
    "poseFile": "Akimbo02",
    "animatorstateId": 20111,
    "poseIcon": "UI_PoseIcon_Akimbo",
    "poseNameTextMapHash": 2171374161,
    "unlockDescTextMapHash": 2835873355,
    "fetterId": 32303,
    "avatarId": 10000042,
    "openConds": [
      {
        "paramList": []
      }
    ],
    "NPOOEPIOLKH": []
  },
  {
    "poseFile": "Standby",
    "poseIcon": "UI_PoseIcon_Default",
    "poseNameTextMapHash": 2881127553,
    "unlockDescTextMapHash": 3567232131,
    "fetterId": 31301,
    "avatarId": 10000043,
    "openConds": [
      {
        "paramList": []
      }
    ],
    "NPOOEPIOLKH": []
  },
  {
    "poseFile": "Think01",
    "animatorstateId": 20101,
    "poseIcon": "UI_PoseIcon_Thinking",
    "poseNameTextMapHash": 1400548705,
    "unlockDescTextMapHash": 1061597347,
    "fetterId": 31302,
    "avatarId": 10000043,
    "openConds": [
      {
        "paramList": []
      }
    ],
    "NPOOEPIOLKH": []
  },
  {
    "poseFile": "Akimbo02",
    "animatorstateId": 20111,
    "poseIcon": "UI_PoseIcon_Akimbo",
    "poseNameTextMapHash": 2724461873,
    "unlockDescTextMapHash": 3952170795,
    "fetterId": 31303,
    "avatarId": 10000043,
    "openConds": [
      {
        "paramList": []
      }
    ],
    "NPOOEPIOLKH": []
  },
  {
    "poseFile": "Standby",
    "poseIcon": "UI_PoseIcon_Default",
    "poseNameTextMapHash": 4011043401,
    "unlockDescTextMapHash": 391291211,
    "fetterId": 33301,
    "avatarId": 10000044,
    "openConds": [
      {
        "paramList": []
      }
    ],
    "NPOOEPIOLKH": []
  },
  {
    "poseFile": "Think01",
    "animatorstateId": 20101,
    "poseIcon": "UI_PoseIcon_Thinking",
    "poseNameTextMapHash": 869252105,
    "unlockDescTextMapHash": 622261587,
    "fetterId": 33302,
    "avatarId": 10000044,
    "openConds": [
      {
        "paramList": []
      }
    ],
    "NPOOEPIOLKH": []
  },
  {
    "poseFile": "Akimbo02",
    "animatorstateId": 20111,
    "poseIcon": "UI_PoseIcon_Akimbo",
    "poseNameTextMapHash": 1534245017,
    "unlockDescTextMapHash": 2651345051,
    "fetterId": 33303,
    "avatarId": 10000044,
    "openConds": [
      {
        "paramList": []
      }
    ],
    "NPOOEPIOLKH": []
  },
  {
    "poseFile": "Standby",
    "poseIcon": "UI_PoseIcon_Default",
    "poseNameTextMapHash": 1744092793,
    "unlockDescTextMapHash": 667445507,
    "fetterId": 36301,
    "avatarId": 10000046,
    "openConds": [
      {
        "paramList": []
      }
    ],
    "NPOOEPIOLKH": []
  },
  {
    "poseFile": "Think01",
    "animatorstateId": 20101,
    "poseIcon": "UI_PoseIcon_Thinking",
    "poseNameTextMapHash": 1564379593,
    "unlockDescTextMapHash": 3326439163,
    "fetterId": 36302,
    "avatarId": 10000046,
    "openConds": [
      {
        "paramList": []
      }
    ],
    "NPOOEPIOLKH": []
  },
  {
    "poseFile": "Akimbo02",
    "animatorstateId": 20111,
    "poseIcon": "UI_PoseIcon_Akimbo",
    "poseNameTextMapHash": 3264329905,
    "unlockDescTextMapHash": 194808139,
    "fetterId": 36303,
    "avatarId": 10000046,
    "openConds": [
      {
        "paramList": []
      }
    ],
    "NPOOEPIOLKH": []
  },
  {
    "poseFile": "Standby",
    "poseIcon": "UI_PoseIcon_Default",
    "poseNameTextMapHash": 3593513577,
    "unlockDescTextMapHash": 1423719883,
    "fetterId": 37301,
    "avatarId": 10000045,
    "openConds": [
      {
        "paramList": []
      }
    ],
    "NPOOEPIOLKH": []
  },
  {
    "poseFile": "Think01",
    "animatorstateId": 20101,
    "poseIcon": "UI_PoseIcon_Thinking",
    "poseNameTextMapHash": 2416985233,
    "unlockDescTextMapHash": 2867090251,
    "fetterId": 37302,
    "avatarId": 10000045,
    "openConds": [
      {
        "paramList": []
      }
    ],
    "NPOOEPIOLKH": []
  },
  {
    "poseFile": "Akimbo02",
    "animatorstateId": 20111,
    "poseIcon": "UI_PoseIcon_Akimbo",
    "poseNameTextMapHash": 3592424857,
    "unlockDescTextMapHash": 1403982843,
    "fetterId": 37303,
    "avatarId": 10000045,
    "openConds": [
      {
        "paramList": []
      }
    ],
    "NPOOEPIOLKH": []
  },
  {
    "poseFile": "Standby",
    "poseIcon": "UI_PoseIcon_Default",
    "poseNameTextMapHash": 3020546121,
    "unlockDescTextMapHash": 3479318835,
    "fetterId": 38301,
    "avatarId": 10000048,
    "openConds": [
      {
        "paramList": []
      }
    ],
    "NPOOEPIOLKH": []
  },
  {
    "poseFile": "Think01",
    "animatorstateId": 20101,
    "poseIcon": "UI_PoseIcon_Thinking",
    "poseNameTextMapHash": 97235929,
    "unlockDescTextMapHash": 2899730059,
    "fetterId": 38302,
    "avatarId": 10000048,
    "openConds": [
      {
        "paramList": []
      }
    ],
    "NPOOEPIOLKH": []
  },
  {
    "poseFile": "Akimbo02",
    "animatorstateId": 20111,
    "poseIcon": "UI_PoseIcon_Akimbo",
    "poseNameTextMapHash": 4006332409,
    "unlockDescTextMapHash": 730900875,
    "fetterId": 38303,
    "avatarId": 10000048,
    "openConds": [
      {
        "paramList": []
      }
    ],
    "NPOOEPIOLKH": []
  },
  {
    "poseFile": "Standby",
    "poseIcon": "UI_PoseIcon_Default",
    "poseNameTextMapHash": 875046529,
    "unlockDescTextMapHash": 4030680355,
    "fetterId": 39301,
    "avatarId": 10000051,
    "openConds": [
      {
        "paramList": []
      }
    ],
    "NPOOEPIOLKH": []
  },
  {
    "poseFile": "Think01",
    "animatorstateId": 20101,
    "poseIcon": "UI_PoseIcon_Thinking",
    "poseNameTextMapHash": 1846679257,
    "unlockDescTextMapHash": 720452299,
    "fetterId": 39302,
    "avatarId": 10000051,
    "openConds": [
      {
        "paramList": []
      }
    ],
    "NPOOEPIOLKH": []
  },
  {
    "poseFile": "Akimbo02",
    "animatorstateId": 20111,
    "poseIcon": "UI_PoseIcon_Akimbo",
    "poseNameTextMapHash": 957428705,
    "unlockDescTextMapHash": 2430826411,
    "fetterId": 39303,
    "avatarId": 10000051,
    "openConds": [
      {
        "paramList": []
      }
    ],
    "NPOOEPIOLKH": []
  },
  {
    "poseFile": "Standby",
    "poseIcon": "UI_PoseIcon_Default",
    "poseNameTextMapHash": 3581733945,
    "unlockDescTextMapHash": 3543688979,
    "fetterId": 47301,
    "avatarId": 10000047,
    "openConds": [
      {
        "paramList": []
      }
    ],
    "NPOOEPIOLKH": []
  },
  {
    "poseFile": "Think01",
    "animatorstateId": 20101,
    "poseIcon": "UI_PoseIcon_Thinking",
    "poseNameTextMapHash": 1949156025,
    "unlockDescTextMapHash": 2637636739,
    "fetterId": 47302,
    "avatarId": 10000047,
    "openConds": [
      {
        "paramList": []
      }
    ],
    "NPOOEPIOLKH": []
  },
  {
    "poseFile": "Akimbo02",
    "animatorstateId": 20111,
    "poseIcon": "UI_PoseIcon_Akimbo",
    "poseNameTextMapHash": 1152625993,
    "unlockDescTextMapHash": 1817125595,
    "fetterId": 47303,
    "avatarId": 10000047,
    "openConds": [
      {
        "paramList": []
      }
    ],
    "NPOOEPIOLKH": []
  },
  {
    "poseFile": "Standby",
    "poseIcon": "UI_PoseIcon_Default",
    "poseNameTextMapHash": 2655456113,
    "unlockDescTextMapHash": 1254955715,
    "fetterId": 49301,
    "avatarId": 10000049,
    "openConds": [
      {
        "paramList": []
      }
    ],
    "NPOOEPIOLKH": []
  },
  {
    "poseFile": "Think01",
    "animatorstateId": 20101,
    "poseIcon": "UI_PoseIcon_Thinking",
    "poseNameTextMapHash": 4231285649,
    "unlockDescTextMapHash": 4286328507,
    "fetterId": 49302,
    "avatarId": 10000049,
    "openConds": [
      {
        "paramList": []
      }
    ],
    "NPOOEPIOLKH": []
  },
  {
    "poseFile": "Akimbo02",
    "animatorstateId": 20111,
    "poseIcon": "UI_PoseIcon_Akimbo",
    "poseNameTextMapHash": 1777568497,
    "unlockDescTextMapHash": 3660869035,
    "fetterId": 49303,
    "avatarId": 10000049,
    "openConds": [
      {
        "paramList": []
      }
    ],
    "NPOOEPIOLKH": []
  },
  {
    "poseFile": "Standby",
    "poseIcon": "UI_PoseIcon_Default",
    "poseNameTextMapHash": 1862936089,
    "unlockDescTextMapHash": 2709331315,
    "fetterId": 53301,
    "avatarId": 10000053,
    "openConds": [
      {
        "paramList": []
      }
    ],
    "NPOOEPIOLKH": []
  },
  {
    "poseFile": "Think01",
    "animatorstateId": 20101,
    "poseIcon": "UI_PoseIcon_Thinking",
    "poseNameTextMapHash": 463357177,
    "unlockDescTextMapHash": 2040844275,
    "fetterId": 53302,
    "avatarId": 10000053,
    "openConds": [
      {
        "paramList": []
      }
    ],
    "NPOOEPIOLKH": []
  },
  {
    "poseFile": "Akimbo02",
    "animatorstateId": 20111,
    "poseIcon": "UI_PoseIcon_Akimbo",
    "poseNameTextMapHash": 977522729,
    "unlockDescTextMapHash": 1260627123,
    "fetterId": 53303,
    "avatarId": 10000053,
    "openConds": [
      {
        "paramList": []
      }
    ],
    "NPOOEPIOLKH": []
  },
  {
    "poseFile": "Standby",
    "poseIcon": "UI_PoseIcon_Default",
    "poseNameTextMapHash": 231971713,
    "unlockDescTextMapHash": 1464105155,
    "fetterId": 52301,
    "avatarId": 10000052,
    "openConds": [
      {
        "paramList": []
      }
    ],
    "NPOOEPIOLKH": []
  },
  {
    "poseFile": "Think01",
    "animatorstateId": 20101,
    "poseIcon": "UI_PoseIcon_Thinking",
    "poseNameTextMapHash": 3753418169,
    "unlockDescTextMapHash": 2304838267,
    "fetterId": 52302,
    "avatarId": 10000052,
    "openConds": [
      {
        "paramList": []
      }
    ],
    "NPOOEPIOLKH": []
  },
  {
    "poseFile": "Akimbo02",
    "animatorstateId": 20111,
    "poseIcon": "UI_PoseIcon_Akimbo",
    "poseNameTextMapHash": 140482993,
    "unlockDescTextMapHash": 1404807531,
    "fetterId": 52303,
    "avatarId": 10000052,
    "openConds": [
      {
        "paramList": []
      }
    ],
    "NPOOEPIOLKH": []
  },
  {
    "poseFile": "Standby",
    "poseIcon": "UI_PoseIcon_Default",
    "poseNameTextMapHash": 1022834953,
    "unlockDescTextMapHash": 3384419347,
    "fetterId": 54301,
    "avatarId": 10000054,
    "openConds": [
      {
        "paramList": []
      }
    ],
    "NPOOEPIOLKH": []
  },
  {
    "poseFile": "Think01",
    "animatorstateId": 20101,
    "poseIcon": "UI_PoseIcon_Thinking",
    "poseNameTextMapHash": 515470889,
    "unlockDescTextMapHash": 3096117035,
    "fetterId": 54302,
    "avatarId": 10000054,
    "openConds": [
      {
        "paramList": []
      }
    ],
    "NPOOEPIOLKH": []
  },
  {
    "poseFile": "Akimbo02",
    "animatorstateId": 20111,
    "poseIcon": "UI_PoseIcon_Akimbo",
    "poseNameTextMapHash": 2400669793,
    "unlockDescTextMapHash": 979361219,
    "fetterId": 54303,
    "avatarId": 10000054,
    "openConds": [
      {
        "paramList": []
      }
    ],
    "NPOOEPIOLKH": []
  },
  {
    "poseFile": "Standby",
    "poseIcon": "UI_PoseIcon_Default",
    "poseNameTextMapHash": 1278510977,
    "unlockDescTextMapHash": 934978683,
    "fetterId": 56301,
    "avatarId": 10000056,
    "openConds": [
      {
        "paramList": []
      }
    ],
    "NPOOEPIOLKH": []
  },
  {
    "poseFile": "Think01",
    "animatorstateId": 20101,
    "poseIcon": "UI_PoseIcon_Thinking",
    "poseNameTextMapHash": 1763219657,
    "unlockDescTextMapHash": 1838408851,
    "fetterId": 56302,
    "avatarId": 10000056,
    "openConds": [
      {
        "paramList": []
      }
    ],
    "NPOOEPIOLKH": []
  },
  {
    "poseFile": "Akimbo02",
    "animatorstateId": 20111,
    "poseIcon": "UI_PoseIcon_Akimbo",
    "poseNameTextMapHash": 3571391473,
    "unlockDescTextMapHash": 103107467,
    "fetterId": 56303,
    "avatarId": 10000056,
    "openConds": [
      {
        "paramList": []
      }
    ],
    "NPOOEPIOLKH": []
  },
  {
    "poseFile": "Standby",
    "poseIcon": "UI_PoseIcon_Default",
    "poseNameTextMapHash": 3194783953,
    "unlockDescTextMapHash": 704923427,
    "fetterId": 62301,
    "avatarId": 10000062,
    "openConds": [
      {
        "paramList": []
      }
    ],
    "NPOOEPIOLKH": []
  },
  {
    "poseFile": "Think01",
    "animatorstateId": 20101,
    "poseIcon": "UI_PoseIcon_Thinking",
    "poseNameTextMapHash": 3329050737,
    "unlockDescTextMapHash": 1508020635,
    "fetterId": 62302,
    "avatarId": 10000062,
    "openConds": [
      {
        "paramList": []
      }
    ],
    "NPOOEPIOLKH": []
  },
  {
    "poseFile": "Akimbo02",
    "animatorstateId": 20111,
    "poseIcon": "UI_PoseIcon_Akimbo",
    "poseNameTextMapHash": 3322202105,
    "unlockDescTextMapHash": 3224285355,
    "fetterId": 62303,
    "avatarId": 10000062,
    "openConds": [
      {
        "paramList": []
      }
    ],
    "NPOOEPIOLKH": []
  },
  {
    "poseFile": "Standby",
    "poseIcon": "UI_PoseIcon_Default",
    "poseNameTextMapHash": 2644511721,
    "unlockDescTextMapHash": 2118506803,
    "fetterId": 50301,
    "avatarId": 10000050,
    "openConds": [
      {
        "paramList": []
      }
    ],
    "NPOOEPIOLKH": []
  },
  {
    "poseFile": "Think01",
    "animatorstateId": 20101,
    "poseIcon": "UI_PoseIcon_Thinking",
    "poseNameTextMapHash": 2607700209,
    "unlockDescTextMapHash": 2495457827,
    "fetterId": 50302,
    "avatarId": 10000050,
    "openConds": [
      {
        "paramList": []
      }
    ],
    "NPOOEPIOLKH": []
  },
  {
    "poseFile": "Akimbo02",
    "animatorstateId": 20111,
    "poseIcon": "UI_PoseIcon_Akimbo",
    "poseNameTextMapHash": 3669346305,
    "unlockDescTextMapHash": 545648739,
    "fetterId": 50303,
    "avatarId": 10000050,
    "openConds": [
      {
        "paramList": []
      }
    ],
    "NPOOEPIOLKH": []
  },
  {
    "poseFile": "Standby",
    "poseIcon": "UI_PoseIcon_Default",
    "poseNameTextMapHash": 2461122441,
    "unlockDescTextMapHash": 3344436547,
    "fetterId": 55301,
    "avatarId": 10000055,
    "openConds": [
      {
        "paramList": []
      }
    ],
    "NPOOEPIOLKH": []
  },
  {
    "poseFile": "Think01",
    "animatorstateId": 20101,
    "poseIcon": "UI_PoseIcon_Thinking",
    "poseNameTextMapHash": 2281601129,
    "unlockDescTextMapHash": 1866617059,
    "fetterId": 55302,
    "avatarId": 10000055,
    "openConds": [
      {
        "paramList": []
      }
    ],
    "NPOOEPIOLKH": []
  },
  {
    "poseFile": "Akimbo02",
    "animatorstateId": 20111,
    "poseIcon": "UI_PoseIcon_Akimbo",
    "poseNameTextMapHash": 2998891433,
    "unlockDescTextMapHash": 3503386003,
    "fetterId": 55303,
    "avatarId": 10000055,
    "openConds": [
      {
        "paramList": []
      }
    ],
    "NPOOEPIOLKH": []
  },
  {
    "poseFile": "Standby",
    "poseIcon": "UI_PoseIcon_Default",
    "poseNameTextMapHash": 3800152673,
    "unlockDescTextMapHash": 3948872795,
    "fetterId": 57301,
    "avatarId": 10000057,
    "openConds": [
      {
        "paramList": []
      }
    ],
    "NPOOEPIOLKH": []
  },
  {
    "poseFile": "Think01",
    "animatorstateId": 20101,
    "poseIcon": "UI_PoseIcon_Thinking",
    "poseNameTextMapHash": 3484716993,
    "unlockDescTextMapHash": 4192932347,
    "fetterId": 57302,
    "avatarId": 10000057,
    "openConds": [
      {
        "paramList": []
      }
    ],
    "NPOOEPIOLKH": []
  },
  {
    "poseFile": "Akimbo02",
    "animatorstateId": 20111,
    "poseIcon": "UI_PoseIcon_Akimbo",
    "poseNameTextMapHash": 1440860905,
    "unlockDescTextMapHash": 2005382499,
    "fetterId": 57303,
    "avatarId": 10000057,
    "openConds": [
      {
        "paramList": []
      }
    ],
    "NPOOEPIOLKH": []
  },
  {
    "poseFile": "Standby",
    "poseIcon": "UI_PoseIcon_Default",
    "poseNameTextMapHash": 2630314209,
    "unlockDescTextMapHash": 2186201563,
    "fetterId": 63301,
    "avatarId": 10000063,
    "openConds": [
      {
        "paramList": []
      }
    ],
    "NPOOEPIOLKH": []
  },
  {
    "poseFile": "Think01",
    "animatorstateId": 20101,
    "poseIcon": "UI_PoseIcon_Thinking",
    "poseNameTextMapHash": 1460847073,
    "unlockDescTextMapHash": 1526460931,
    "fetterId": 63302,
    "avatarId": 10000063,
    "openConds": [
      {
        "paramList": []
      }
    ],
    "NPOOEPIOLKH": []
  },
  {
    "poseFile": "Akimbo02",
    "animatorstateId": 20111,
    "poseIcon": "UI_PoseIcon_Akimbo",
    "poseNameTextMapHash": 2076511505,
    "unlockDescTextMapHash": 401104899,
    "fetterId": 63303,
    "avatarId": 10000063,
    "openConds": [
      {
        "paramList": []
      }
    ],
    "NPOOEPIOLKH": []
  },
  {
    "poseFile": "Standby",
    "poseIcon": "UI_PoseIcon_Default",
    "poseNameTextMapHash": 302685633,
    "unlockDescTextMapHash": 1378609427,
    "fetterId": 64301,
    "avatarId": 10000064,
    "openConds": [
      {
        "paramList": []
      }
    ],
    "NPOOEPIOLKH": []
  },
  {
    "poseFile": "Think01",
    "animatorstateId": 20101,
    "poseIcon": "UI_PoseIcon_Thinking",
    "poseNameTextMapHash": 3317728609,
    "unlockDescTextMapHash": 323319811,
    "fetterId": 64302,
    "avatarId": 10000064,
    "openConds": [
      {
        "paramList": []
      }
    ],
    "NPOOEPIOLKH": []
  },
  {
    "poseFile": "Akimbo02",
    "animatorstateId": 20111,
    "poseIcon": "UI_PoseIcon_Akimbo",
    "poseNameTextMapHash": 4172142769,
    "unlockDescTextMapHash": 2545708875,
    "fetterId": 64303,
    "avatarId": 10000064,
    "openConds": [
      {
        "paramList": []
      }
    ],
    "NPOOEPIOLKH": []
  },
  {
    "poseFile": "Standby",
    "poseIcon": "UI_PoseIcon_Default",
    "poseNameTextMapHash": 47342601,
    "unlockDescTextMapHash": 1917927707,
    "fetterId": 58301,
    "avatarId": 10000058,
    "openConds": [
      {
        "paramList": []
      }
    ],
    "NPOOEPIOLKH": []
  },
  {
    "poseFile": "Think01",
    "animatorstateId": 20101,
    "poseIcon": "UI_PoseIcon_Thinking",
    "poseNameTextMapHash": 2845013633,
    "unlockDescTextMapHash": 4107853083,
    "fetterId": 58302,
    "avatarId": 10000058,
    "openConds": [
      {
        "paramList": []
      }
    ],
    "NPOOEPIOLKH": []
  },
  {
    "poseFile": "Akimbo02",
    "animatorstateId": 20111,
    "poseIcon": "UI_PoseIcon_Akimbo",
    "poseNameTextMapHash": 2294961073,
    "unlockDescTextMapHash": 3804912747,
    "fetterId": 58303,
    "avatarId": 10000058,
    "openConds": [
      {
        "paramList": []
      }
    ],
    "NPOOEPIOLKH": []
  },
  {
    "poseFile": "Standby",
    "poseIcon": "UI_PoseIcon_Default",
    "poseNameTextMapHash": 1356893153,
    "unlockDescTextMapHash": 182857731,
    "fetterId": 66301,
    "avatarId": 10000066,
    "openConds": [
      {
        "paramList": []
      }
    ],
    "NPOOEPIOLKH": []
  },
  {
    "poseFile": "Think01",
    "animatorstateId": 20101,
    "poseIcon": "UI_PoseIcon_Thinking",
    "poseNameTextMapHash": 2533043393,
    "unlockDescTextMapHash": 2559206163,
    "fetterId": 66302,
    "avatarId": 10000066,
    "openConds": [
      {
        "paramList": []
      }
    ],
    "NPOOEPIOLKH": []
  },
  {
    "poseFile": "Akimbo02",
    "animatorstateId": 20111,
    "poseIcon": "UI_PoseIcon_Akimbo",
    "poseNameTextMapHash": 525917641,
    "unlockDescTextMapHash": 1136102763,
    "fetterId": 66303,
    "avatarId": 10000066,
    "openConds": [
      {
        "paramList": []
      }
    ],
    "NPOOEPIOLKH": []
  },
  {
    "poseFile": "Standby",
    "poseIcon": "UI_PoseIcon_Default",
    "poseNameTextMapHash": 2772806081,
    "unlockDescTextMapHash": 3508062987,
    "fetterId": 60301,
    "avatarId": 10000060,
    "openConds": [
      {
        "paramList": []
      }
    ],
    "NPOOEPIOLKH": []
  },
  {
    "poseFile": "Think01",
    "animatorstateId": 20101,
    "poseIcon": "UI_PoseIcon_Thinking",
    "poseNameTextMapHash": 1365755129,
    "unlockDescTextMapHash": 3110044859,
    "fetterId": 60302,
    "avatarId": 10000060,
    "openConds": [
      {
        "paramList": []
      }
    ],
    "NPOOEPIOLKH": []
  },
  {
    "poseFile": "Akimbo02",
    "animatorstateId": 20111,
    "poseIcon": "UI_PoseIcon_Akimbo",
    "poseNameTextMapHash": 176321353,
    "unlockDescTextMapHash": 8647379,
    "fetterId": 60303,
    "avatarId": 10000060,
    "openConds": [
      {
        "paramList": []
      }
    ],
    "NPOOEPIOLKH": []
  },
  {
    "poseFile": "Standby",
    "poseIcon": "UI_PoseIcon_Default",
    "poseNameTextMapHash": 574867337,
    "unlockDescTextMapHash": 429148099,
    "fetterId": 65301,
    "avatarId": 10000065,
    "openConds": [
      {
        "paramList": []
      }
    ],
    "NPOOEPIOLKH": []
  },
  {
    "poseFile": "Think01",
    "animatorstateId": 20101,
    "poseIcon": "UI_PoseIcon_Thinking",
    "poseNameTextMapHash": 2447634761,
    "unlockDescTextMapHash": 2000959379,
    "fetterId": 65302,
    "avatarId": 10000065,
    "openConds": [
      {
        "paramList": []
      }
    ],
    "NPOOEPIOLKH": []
  },
  {
    "poseFile": "Akimbo02",
    "animatorstateId": 20111,
    "poseIcon": "UI_PoseIcon_Akimbo",
    "poseNameTextMapHash": 3793910209,
    "unlockDescTextMapHash": 198487763,
    "fetterId": 65303,
    "avatarId": 10000065,
    "openConds": [
      {
        "paramList": []
      }
    ],
    "NPOOEPIOLKH": []
  },
  {
    "poseFile": "Standby",
    "poseIcon": "UI_PoseIcon_Default",
    "poseNameTextMapHash": 2616025929,
    "unlockDescTextMapHash": 3281010115,
    "fetterId": 59301,
    "avatarId": 10000059,
    "openConds": [
      {
        "paramList": []
      }
    ],
    "NPOOEPIOLKH": []
  },
  {
    "poseFile": "Think01",
    "animatorstateId": 20101,
    "poseIcon": "UI_PoseIcon_Thinking",
    "poseNameTextMapHash": 1565444385,
    "unlockDescTextMapHash": 4077325019,
    "fetterId": 59302,
    "avatarId": 10000059,
    "openConds": [
      {
        "paramList": []
      }
    ],
    "NPOOEPIOLKH": []
  },
  {
    "poseFile": "Akimbo02",
    "animatorstateId": 20111,
    "poseIcon": "UI_PoseIcon_Akimbo",
    "poseNameTextMapHash": 2204484233,
    "unlockDescTextMapHash": 3968092667,
    "fetterId": 59303,
    "avatarId": 10000059,
    "openConds": [
      {
        "paramList": []
      }
    ],
    "NPOOEPIOLKH": []
  },
  {
    "poseFile": "Standby",
    "poseIcon": "UI_PoseIcon_Default",
    "poseNameTextMapHash": 2220162313,
    "unlockDescTextMapHash": 1964499379,
    "fetterId": 67301,
    "avatarId": 10000067,
    "openConds": [
      {
        "paramList": []
      }
    ],
    "NPOOEPIOLKH": []
  },
  {
    "poseFile": "Think01",
    "animatorstateId": 20101,
    "poseIcon": "UI_PoseIcon_Thinking",
    "poseNameTextMapHash": 756851593,
    "unlockDescTextMapHash": 1516108091,
    "fetterId": 67302,
    "avatarId": 10000067,
    "openConds": [
      {
        "paramList": []
      }
    ],
    "NPOOEPIOLKH": []
  },
  {
    "poseFile": "Akimbo02",
    "animatorstateId": 20111,
    "poseIcon": "UI_PoseIcon_Akimbo",
    "poseNameTextMapHash": 1363461105,
    "unlockDescTextMapHash": 3750228395,
    "fetterId": 67303,
    "avatarId": 10000067,
    "openConds": [
      {
        "paramList": []
      }
    ],
    "NPOOEPIOLKH": []
  },
  {
    "poseFile": "Standby",
    "poseIcon": "UI_PoseIcon_Default",
    "poseNameTextMapHash": 2392834505,
    "unlockDescTextMapHash": 13516259,
    "fetterId": 68301,
    "avatarId": 10000068,
    "openConds": [
      {
        "paramList": []
      }
    ],
    "NPOOEPIOLKH": []
  },
  {
    "poseFile": "Think01",
    "animatorstateId": 20101,
    "poseIcon": "UI_PoseIcon_Thinking",
    "poseNameTextMapHash": 2888457665,
    "unlockDescTextMapHash": 3270622075,
    "fetterId": 68302,
    "avatarId": 10000068,
    "openConds": [
      {
        "paramList": []
      }
    ],
    "NPOOEPIOLKH": []
  },
  {
    "poseFile": "Akimbo02",
    "animatorstateId": 20111,
    "poseIcon": "UI_PoseIcon_Akimbo",
    "poseNameTextMapHash": 2063590889,
    "unlockDescTextMapHash": 3796849715,
    "fetterId": 68303,
    "avatarId": 10000068,
    "openConds": [
      {
        "paramList": []
      }
    ],
    "NPOOEPIOLKH": []
  },
  {
    "poseFile": "Standby",
    "poseIcon": "UI_PoseIcon_Default",
    "poseNameTextMapHash": 2106118993,
    "unlockDescTextMapHash": 3685116755,
    "fetterId": 69301,
    "avatarId": 10000069,
    "openConds": [
      {
        "paramList": []
      }
    ],
    "NPOOEPIOLKH": []
  },
  {
    "poseFile": "Think01",
    "animatorstateId": 20101,
    "poseIcon": "UI_PoseIcon_Thinking",
    "poseNameTextMapHash": 3136138305,
    "unlockDescTextMapHash": 2570605795,
    "fetterId": 69302,
    "avatarId": 10000069,
    "openConds": [
      {
        "paramList": []
      }
    ],
    "NPOOEPIOLKH": []
  },
  {
    "poseFile": "Akimbo02",
    "animatorstateId": 20111,
    "poseIcon": "UI_PoseIcon_Akimbo",
    "poseNameTextMapHash": 1538575777,
    "unlockDescTextMapHash": 326363267,
    "fetterId": 69303,
    "avatarId": 10000069,
    "openConds": [
      {
        "paramList": []
      }
    ],
    "NPOOEPIOLKH": []
  },
  {
    "poseFile": "Standby",
    "poseIcon": "UI_PoseIcon_Default",
    "poseNameTextMapHash": 1569602833,
    "unlockDescTextMapHash": 3185286347,
    "fetterId": 70301,
    "avatarId": 10000070,
    "openConds": [
      {
        "paramList": []
      }
    ],
    "NPOOEPIOLKH": []
  },
  {
    "poseFile": "Think01",
    "animatorstateId": 20101,
    "poseIcon": "UI_PoseIcon_Thinking",
    "poseNameTextMapHash": 101470553,
    "unlockDescTextMapHash": 499294995,
    "fetterId": 70302,
    "avatarId": 10000070,
    "openConds": [
      {
        "paramList": []
      }
    ],
    "NPOOEPIOLKH": []
  },
  {
    "poseFile": "Akimbo02",
    "animatorstateId": 20111,
    "poseIcon": "UI_PoseIcon_Akimbo",
    "poseNameTextMapHash": 663105841,
    "unlockDescTextMapHash": 1920327347,
    "fetterId": 70303,
    "avatarId": 10000070,
    "openConds": [
      {
        "paramList": []
      }
    ],
    "NPOOEPIOLKH": []
  },
  {
    "poseFile": "Standby",
    "poseIcon": "UI_PoseIcon_Default",
    "poseNameTextMapHash": 2797688617,
    "unlockDescTextMapHash": 3992586859,
    "fetterId": 71301,
    "avatarId": 10000071,
    "openConds": [
      {
        "paramList": []
      }
    ],
    "NPOOEPIOLKH": []
  },
  {
    "poseFile": "Think01",
    "animatorstateId": 20101,
    "poseIcon": "UI_PoseIcon_Thinking",
    "poseNameTextMapHash": 3883372617,
    "unlockDescTextMapHash": 385326203,
    "fetterId": 71302,
    "avatarId": 10000071,
    "openConds": [
      {
        "paramList": []
      }
    ],
    "NPOOEPIOLKH": []
  },
  {
    "poseFile": "Akimbo02",
    "animatorstateId": 20111,
    "poseIcon": "UI_PoseIcon_Akimbo",
    "poseNameTextMapHash": 2477712937,
    "unlockDescTextMapHash": 4217627867,
    "fetterId": 71303,
    "avatarId": 10000071,
    "openConds": [
      {
        "paramList": []
      }
    ],
    "NPOOEPIOLKH": []
  },
  {
    "poseFile": "Standby",
    "poseIcon": "UI_PoseIcon_Default",
    "poseNameTextMapHash": 3703688097,
    "unlockDescTextMapHash": 2954016779,
    "fetterId": 72301,
    "avatarId": 10000072,
    "openConds": [
      {
        "paramList": []
      }
    ],
    "NPOOEPIOLKH": []
  },
  {
    "poseFile": "Think01",
    "animatorstateId": 20101,
    "poseIcon": "UI_PoseIcon_Thinking",
    "poseNameTextMapHash": 1532530625,
    "unlockDescTextMapHash": 297568027,
    "fetterId": 72302,
    "avatarId": 10000072,
    "openConds": [
      {
        "paramList": []
      }
    ],
    "NPOOEPIOLKH": []
  },
  {
    "poseFile": "Akimbo02",
    "animatorstateId": 20111,
    "poseIcon": "UI_PoseIcon_Akimbo",
    "poseNameTextMapHash": 129363545,
    "unlockDescTextMapHash": 2474129027,
    "fetterId": 72303,
    "avatarId": 10000072,
    "openConds": [
      {
        "paramList": []
      }
    ],
    "NPOOEPIOLKH": []
  },
  {
    "poseFile": "Standby",
    "poseIcon": "UI_PoseIcon_Default",
    "poseNameTextMapHash": 215889321,
    "unlockDescTextMapHash": 1930685195,
    "fetterId": 73301,
    "avatarId": 10000073,
    "openConds": [
      {
        "paramList": []
      }
    ],
    "NPOOEPIOLKH": []
  },
  {
    "poseFile": "Think01",
    "animatorstateId": 20101,
    "poseIcon": "UI_PoseIcon_Thinking",
    "poseNameTextMapHash": 3409122825,
    "unlockDescTextMapHash": 2315501307,
    "fetterId": 73302,
    "avatarId": 10000073,
    "openConds": [
      {
        "paramList": []
      }
    ],
    "NPOOEPIOLKH": []
  },
  {
    "poseFile": "Akimbo02",
    "animatorstateId": 20111,
    "poseIcon": "UI_PoseIcon_Akimbo",
    "poseNameTextMapHash": 3858552793,
    "unlockDescTextMapHash": 41843923,
    "fetterId": 73303,
    "avatarId": 10000073,
    "openConds": [
      {
        "paramList": []
      }
    ],
    "NPOOEPIOLKH": []
  },
  {
    "poseFile": "Standby",
    "poseIcon": "UI_PoseIcon_Default",
    "poseNameTextMapHash": 3110091537,
    "unlockDescTextMapHash": 3461216859,
    "fetterId": 74301,
    "avatarId": 10000074,
    "openConds": [
      {
        "paramList": []
      }
    ],
    "NPOOEPIOLKH": []
  },
  {
    "poseFile": "Think01",
    "animatorstateId": 20101,
    "poseIcon": "UI_PoseIcon_Thinking",
    "poseNameTextMapHash": 876902457,
    "unlockDescTextMapHash": 255906859,
    "fetterId": 74302,
    "avatarId": 10000074,
    "openConds": [
      {
        "paramList": []
      }
    ],
    "NPOOEPIOLKH": []
  },
  {
    "poseFile": "Akimbo02",
    "animatorstateId": 20111,
    "poseIcon": "UI_PoseIcon_Akimbo",
    "poseNameTextMapHash": 1571383681,
    "unlockDescTextMapHash": 325508107,
    "fetterId": 74303,
    "avatarId": 10000074,
    "openConds": [
      {
        "paramList": []
      }
    ],
    "NPOOEPIOLKH": []
  },
  {
    "poseFile": "Standby",
    "poseIcon": "UI_PoseIcon_Default",
    "poseNameTextMapHash": 847784017,
    "unlockDescTextMapHash": 2639352779,
    "fetterId": 75301,
    "avatarId": 10000075,
    "openConds": [
      {
        "paramList": []
      }
    ],
    "NPOOEPIOLKH": []
  },
  {
    "poseFile": "Think01",
    "animatorstateId": 20101,
    "poseIcon": "UI_PoseIcon_Thinking",
    "poseNameTextMapHash": 2099074513,
    "unlockDescTextMapHash": 2222701899,
    "fetterId": 75302,
    "avatarId": 10000075,
    "openConds": [
      {
        "paramList": []
      }
    ],
    "NPOOEPIOLKH": []
  },
  {
    "poseFile": "Akimbo02",
    "animatorstateId": 20111,
    "poseIcon": "UI_PoseIcon_Akimbo",
    "poseNameTextMapHash": 1260573545,
    "unlockDescTextMapHash": 1238208507,
    "fetterId": 75303,
    "avatarId": 10000075,
    "openConds": [
      {
        "paramList": []
      }
    ],
    "NPOOEPIOLKH": []
  },
  {
    "poseFile": "Standby",
    "poseIcon": "UI_PoseIcon_Default",
    "poseNameTextMapHash": 1170610257,
    "unlockDescTextMapHash": 2342046427,
    "fetterId": 76301,
    "avatarId": 10000076,
    "openConds": [
      {
        "paramList": []
      }
    ],
    "NPOOEPIOLKH": []
  },
  {
    "poseFile": "Think01",
    "animatorstateId": 20101,
    "poseIcon": "UI_PoseIcon_Thinking",
    "poseNameTextMapHash": 401715033,
    "unlockDescTextMapHash": 3169792435,
    "fetterId": 76302,
    "avatarId": 10000076,
    "openConds": [
      {
        "paramList": []
      }
    ],
    "NPOOEPIOLKH": []
  },
  {
    "poseFile": "Akimbo02",
    "animatorstateId": 20111,
    "poseIcon": "UI_PoseIcon_Akimbo",
    "poseNameTextMapHash": 3489733177,
    "unlockDescTextMapHash": 850917635,
    "fetterId": 76303,
    "avatarId": 10000076,
    "openConds": [
      {
        "paramList": []
      }
    ],
    "NPOOEPIOLKH": []
  },
  {
    "poseFile": "Standby",
    "poseIcon": "UI_PoseIcon_Default",
    "poseNameTextMapHash": 1889144937,
    "unlockDescTextMapHash": 2679608683,
    "fetterId": 77301,
    "avatarId": 10000077,
    "openConds": [
      {
        "paramList": []
      }
    ],
    "NPOOEPIOLKH": []
  },
  {
    "poseFile": "Think01",
    "animatorstateId": 20101,
    "poseIcon": "UI_PoseIcon_Thinking",
    "poseNameTextMapHash": 2762475729,
    "unlockDescTextMapHash": 4052291627,
    "fetterId": 77302,
    "avatarId": 10000077,
    "openConds": [
      {
        "paramList": []
      }
    ],
    "NPOOEPIOLKH": []
  },
  {
    "poseFile": "Akimbo02",
    "animatorstateId": 20111,
    "poseIcon": "UI_PoseIcon_Akimbo",
    "poseNameTextMapHash": 2841455409,
    "unlockDescTextMapHash": 3058234635,
    "fetterId": 77303,
    "avatarId": 10000077,
    "openConds": [
      {
        "paramList": []
      }
    ],
    "NPOOEPIOLKH": []
  },
  {
    "poseFile": "Standby",
    "poseIcon": "UI_PoseIcon_Default",
    "poseNameTextMapHash": 1133955161,
    "unlockDescTextMapHash": 1006644603,
    "fetterId": 78301,
    "avatarId": 10000078,
    "openConds": [
      {
        "paramList": []
      }
    ],
    "NPOOEPIOLKH": []
  },
  {
    "poseFile": "Think01",
    "animatorstateId": 20101,
    "poseIcon": "UI_PoseIcon_Thinking",
    "poseNameTextMapHash": 812574305,
    "unlockDescTextMapHash": 491948907,
    "fetterId": 78302,
    "avatarId": 10000078,
    "openConds": [
      {
        "paramList": []
      }
    ],
    "NPOOEPIOLKH": []
  },
  {
    "poseFile": "Akimbo02",
    "animatorstateId": 20111,
    "poseIcon": "UI_PoseIcon_Akimbo",
    "poseNameTextMapHash": 1225437825,
    "unlockDescTextMapHash": 2448905835,
    "fetterId": 78303,
    "avatarId": 10000078,
    "openConds": [
      {
        "paramList": []
      }
    ],
    "NPOOEPIOLKH": []
  },
  {
    "poseFile": "Standby",
    "poseIcon": "UI_PoseIcon_Default",
    "poseNameTextMapHash": 1366055129,
    "unlockDescTextMapHash": 1435915547,
    "fetterId": 79301,
    "avatarId": 10000079,
    "openConds": [
      {
        "paramList": []
      }
    ],
    "NPOOEPIOLKH": []
  },
  {
    "poseFile": "Think01",
    "animatorstateId": 20101,
    "poseIcon": "UI_PoseIcon_Thinking",
    "poseNameTextMapHash": 380197193,
    "unlockDescTextMapHash": 1505654947,
    "fetterId": 79302,
    "avatarId": 10000079,
    "openConds": [
      {
        "paramList": []
      }
    ],
    "NPOOEPIOLKH": []
  },
  {
    "poseFile": "Akimbo02",
    "animatorstateId": 20111,
    "poseIcon": "UI_PoseIcon_Akimbo",
    "poseNameTextMapHash": 4205414961,
    "unlockDescTextMapHash": 1638324963,
    "fetterId": 79303,
    "avatarId": 10000079,
    "openConds": [
      {
        "paramList": []
      }
    ],
    "NPOOEPIOLKH": []
  },
  {
    "poseFile": "Standby",
    "poseIcon": "UI_PoseIcon_Default",
    "poseNameTextMapHash": 627121849,
    "unlockDescTextMapHash": 997961147,
    "fetterId": 80301,
    "avatarId": 10000080,
    "openConds": [
      {
        "paramList": []
      }
    ],
    "NPOOEPIOLKH": []
  },
  {
    "poseFile": "Think01",
    "animatorstateId": 20101,
    "poseIcon": "UI_PoseIcon_Thinking",
    "poseNameTextMapHash": 820846113,
    "unlockDescTextMapHash": 3534108627,
    "fetterId": 80302,
    "avatarId": 10000080,
    "openConds": [
      {
        "paramList": []
      }
    ],
    "NPOOEPIOLKH": []
  },
  {
    "poseFile": "Akimbo02",
    "animatorstateId": 20111,
    "poseIcon": "UI_PoseIcon_Akimbo",
    "poseNameTextMapHash": 371257281,
    "unlockDescTextMapHash": 3064261995,
    "fetterId": 80303,
    "avatarId": 10000080,
    "openConds": [
      {
        "paramList": []
      }
    ],
    "NPOOEPIOLKH": []
  },
  {
    "poseFile": "Standby",
    "poseIcon": "UI_PoseIcon_Default",
    "poseNameTextMapHash": 635829137,
    "unlockDescTextMapHash": 3760654419,
    "fetterId": 81301,
    "avatarId": 10000081,
    "openConds": [
      {
        "paramList": []
      }
    ],
    "NPOOEPIOLKH": []
  },
  {
    "poseFile": "Think01",
    "animatorstateId": 20101,
    "poseIcon": "UI_PoseIcon_Thinking",
    "poseNameTextMapHash": 2091162849,
    "unlockDescTextMapHash": 2690643507,
    "fetterId": 81302,
    "avatarId": 10000081,
    "openConds": [
      {
        "paramList": []
      }
    ],
    "NPOOEPIOLKH": []
  },
  {
    "poseFile": "Akimbo02",
    "animatorstateId": 20111,
    "poseIcon": "UI_PoseIcon_Akimbo",
    "poseNameTextMapHash": 2778120985,
    "unlockDescTextMapHash": 818839147,
    "fetterId": 81303,
    "avatarId": 10000081,
    "openConds": [
      {
        "paramList": []
      }
    ],
    "NPOOEPIOLKH": []
  },
  {
    "poseFile": "Standby",
    "poseIcon": "UI_PoseIcon_Default",
    "poseNameTextMapHash": 2852444889,
    "unlockDescTextMapHash": 2787521715,
    "fetterId": 82301,
    "avatarId": 10000082,
    "openConds": [
      {
        "paramList": []
      }
    ],
    "NPOOEPIOLKH": []
  },
  {
    "poseFile": "Think01",
    "animatorstateId": 20101,
    "poseIcon": "UI_PoseIcon_Thinking",
    "poseNameTextMapHash": 4051854297,
    "unlockDescTextMapHash": 3600988883,
    "fetterId": 82302,
    "avatarId": 10000082,
    "openConds": [
      {
        "paramList": []
      }
    ],
    "NPOOEPIOLKH": []
  },
  {
    "poseFile": "Akimbo02",
    "animatorstateId": 20111,
    "poseIcon": "UI_PoseIcon_Akimbo",
    "poseNameTextMapHash": 246358113,
    "unlockDescTextMapHash": 3160201563,
    "fetterId": 82303,
    "avatarId": 10000082,
    "openConds": [
      {
        "paramList": []
      }
    ],
    "NPOOEPIOLKH": []
  }
]
