[
  {
    "id": 1,
    "BFIPCEEHFBJ": 1,
    "JGAIMDEHJHH": "QTE_TYPE_NEVER_FAIL",
    "LCKNPMIDOHD": [
      {
        "param": [0]
      },
      {
        "param": [0]
      },
      {
        "param": [0]
      }
    ],
    "GNBEMIEMIAH": [
      {
        "type": "QTE_ACTION_FINISH_QUEST",
        "param": [202007]
      },
      {
        "param": [0]
      },
      {
        "param": [0]
      }
    ],
    "GFOGFEHPDBB": [
      {
        "param": [0]
      },
      {
        "param": [0]
      },
      {
        "param": [0]
      }
    ]
  },
  {
    "id": 2,
    "BFIPCEEHFBJ": 2,
    "JGAIMDEHJHH": "QTE_TYPE_NEVER_FAIL",
    "LCKNPMIDOHD": [
      {
        "param": [0]
      },
      {
        "param": [0]
      },
      {
        "param": [0]
      }
    ],
    "GNBEMIEMIAH": [
      {
        "type": "QTE_ACTION_FINISH_QUEST",
        "param": [202008]
      },
      {
        "param": [0]
      },
      {
        "param": [0]
      }
    ],
    "GFOGFEHPDBB": [
      {
        "param": [0]
      },
      {
        "param": [0]
      },
      {
        "param": [0]
      }
    ]
  },
  {
    "id": 3,
    "BFIPCEEHFBJ": 3,
    "JGAIMDEHJHH": "QTE_TYPE_NEVER_FAIL",
    "LCKNPMIDOHD": [
      {
        "param": [0]
      },
      {
        "param": [0]
      },
      {
        "param": [0]
      }
    ],
    "GNBEMIEMIAH": [
      {
        "param": [0]
      },
      {
        "param": [0]
      },
      {
        "param": [0]
      }
    ],
    "GFOGFEHPDBB": [
      {
        "param": [0]
      },
      {
        "param": [0]
      },
      {
        "param": [0]
      }
    ]
  },
  {
    "id": 4,
    "BFIPCEEHFBJ": 4,
    "JGAIMDEHJHH": "QTE_TYPE_NEVER_FAIL",
    "LCKNPMIDOHD": [
      {
        "param": [0]
      },
      {
        "param": [0]
      },
      {
        "param": [0]
      }
    ],
    "GNBEMIEMIAH": [
      {
        "param": [0]
      },
      {
        "param": [0]
      },
      {
        "param": [0]
      }
    ],
    "GFOGFEHPDBB": [
      {
        "param": [0]
      },
      {
        "param": [0]
      },
      {
        "param": [0]
      }
    ]
  },
  {
    "id": 5,
    "BFIPCEEHFBJ": 5,
    "JGAIMDEHJHH": "QTE_TYPE_NEVER_FAIL",
    "LCKNPMIDOHD": [
      {
        "param": [0]
      },
      {
        "param": [0]
      },
      {
        "param": [0]
      }
    ],
    "GNBEMIEMIAH": [
      {
        "param": [0]
      },
      {
        "param": [0]
      },
      {
        "param": [0]
      }
    ],
    "GFOGFEHPDBB": [
      {
        "param": [0]
      },
      {
        "param": [0]
      },
      {
        "param": [0]
      }
    ]
  },
  {
    "id": 6,
    "BFIPCEEHFBJ": 6,
    "JGAIMDEHJHH": "QTE_TYPE_NEVER_FAIL",
    "LCKNPMIDOHD": [
      {
        "param": [0]
      },
      {
        "param": [0]
      },
      {
        "param": [0]
      }
    ],
    "GNBEMIEMIAH": [
      {
        "param": [0]
      },
      {
        "param": [0]
      },
      {
        "param": [0]
      }
    ],
    "GFOGFEHPDBB": [
      {
        "param": [0]
      },
      {
        "param": [0]
      },
      {
        "param": [0]
      }
    ]
  }
]
