[
  {
    "activityId": 2013,
    "LPOOEDICIKP": 18,
    "DBKHNOGCIIA": 19,
    "HGBEHKMOKJB": [
      71048, 71049, 71044, 71037, 71040, 71041, 71042, 71043, 71045
    ],
    "ILPAGHGEELB": [507101, 201301],
    "OCJAPKBDMLB": [12040, 12041, 12042, 12009, 12025, 12026, 11008],
    "MMEJEDEKNCM": 2013006,
    "NMIFCDCBADC": 20130,
    "worldSceneId": 6
  }
]
