[
  {
    "id": 3000001,
    "beginWay": "TALK_BEGIN_MANUAL",
    "beginCond": [
      {
        "type": "QUEST_COND_STATE_EQUAL",
        "param": ["3000002", "2"]
      },
      {
        "param": ["", "", ""]
      },
      {
        "param": ["", "", ""]
      },
      {
        "param": ["", "", ""]
      },
      {
        "param": ["", "", ""]
      }
    ],
    "priority": 9,
    "nextTalks": [3000004, 3000005],
    "nextRandomTalks": [],
    "initDialog": 300000101,
    "npcId": [157701],
    "performCfg": "",
    "questId": 30000
  },
  {
    "id": 3000002,
    "beginWay": "TALK_BEGIN_MANUAL",
    "beginCondComb": "LOGIC_AND",
    "beginCond": [
      {
        "type": "QUEST_COND_STATE_EQUAL",
        "param": ["3000003", "2"]
      },
      {
        "type": "QUEST_COND_PACK_HAVE_ITEM",
        "param": ["{QuestGatherID}", "{QuestGatherNum}", ""]
      },
      {
        "param": ["", "", ""]
      },
      {
        "param": ["", "", ""]
      },
      {
        "param": ["", "", ""]
      }
    ],
    "nextTalks": [3000006, 3000007, 3000009],
    "nextRandomTalks": [],
    "initDialog": 300000201,
    "npcId": [157701],
    "performCfg": "",
    "questId": 30000
  },
  {
    "id": 3000003,
    "beginWay": "TALK_BEGIN_MANUAL",
    "beginCondComb": "LOGIC_AND",
    "beginCond": [
      {
        "type": "QUEST_COND_STATE_EQUAL",
        "param": ["3000003", "2"]
      },
      {
        "type": "QUEST_COND_ITEM_NUM_LESS_THAN",
        "param": ["{QuestGatherID}", "{QuestGatherNum}", ""]
      },
      {
        "param": ["", "", ""]
      },
      {
        "param": ["", "", ""]
      },
      {
        "param": ["", "", ""]
      }
    ],
    "nextTalks": [3000008, 3000009],
    "nextRandomTalks": [],
    "initDialog": 300000301,
    "npcId": [157701],
    "performCfg": "",
    "questId": 30000
  },
  {
    "id": 3000004,
    "beginCond": [
      {
        "param": ["", ""]
      },
      {
        "param": ["", "", ""]
      },
      {
        "param": ["", "", ""]
      },
      {
        "param": ["", "", ""]
      },
      {
        "param": ["", "", ""]
      }
    ],
    "nextTalks": [],
    "nextRandomTalks": [],
    "initDialog": 300000401,
    "npcId": [157701],
    "performCfg": "",
    "questId": 30000
  },
  {
    "id": 3000005,
    "beginCond": [
      {
        "param": ["", ""]
      },
      {
        "param": ["", "", ""]
      },
      {
        "param": ["", "", ""]
      },
      {
        "param": ["", "", ""]
      },
      {
        "param": ["", "", ""]
      }
    ],
    "nextTalks": [],
    "nextRandomTalks": [],
    "initDialog": 300000501,
    "npcId": [157701],
    "performCfg": "",
    "questId": 30000
  },
  {
    "id": 3000006,
    "beginCond": [
      {
        "param": ["", ""]
      },
      {
        "param": ["", "", ""]
      },
      {
        "param": ["", "", ""]
      },
      {
        "param": ["", "", ""]
      },
      {
        "param": ["", "", ""]
      }
    ],
    "nextTalks": [3000010],
    "nextRandomTalks": [],
    "initDialog": 300000601,
    "npcId": [157701],
    "performCfg": "",
    "questId": 30000
  },
  {
    "id": 3000007,
    "beginCond": [
      {
        "param": ["", ""]
      },
      {
        "param": ["", "", ""]
      },
      {
        "param": ["", "", ""]
      },
      {
        "param": ["", "", ""]
      },
      {
        "param": ["", "", ""]
      }
    ],
    "nextTalks": [],
    "nextRandomTalks": [],
    "initDialog": 300000701,
    "npcId": [157701],
    "performCfg": "",
    "questId": 30000
  },
  {
    "id": 3000008,
    "beginCond": [
      {
        "param": ["", ""]
      },
      {
        "param": ["", "", ""]
      },
      {
        "param": ["", "", ""]
      },
      {
        "param": ["", "", ""]
      },
      {
        "param": ["", "", ""]
      }
    ],
    "nextTalks": [],
    "nextRandomTalks": [],
    "initDialog": 300000801,
    "npcId": [157701],
    "performCfg": "",
    "questId": 30000
  },
  {
    "id": 3000009,
    "beginCond": [
      {
        "param": ["", ""]
      },
      {
        "param": ["", "", ""]
      },
      {
        "param": ["", "", ""]
      },
      {
        "param": ["", "", ""]
      },
      {
        "param": ["", "", ""]
      }
    ],
    "nextTalks": [],
    "nextRandomTalks": [],
    "initDialog": 300000901,
    "npcId": [157701],
    "performCfg": "",
    "questId": 30000
  },
  {
    "id": 3000010,
    "beginCondComb": "LOGIC_AND",
    "beginCond": [
      {
        "type": "QUEST_COND_STATE_EQUAL",
        "param": ["3000002", "3"]
      },
      {
        "param": ["", "", ""]
      },
      {
        "param": ["", "", ""]
      },
      {
        "param": ["", "", ""]
      },
      {
        "param": ["", "", ""]
      }
    ],
    "nextTalks": [],
    "nextRandomTalks": [],
    "initDialog": 300001001,
    "npcId": [157701],
    "performCfg": "",
    "questId": 30000
  },
  {
    "id": 3000011,
    "beginCondComb": "LOGIC_AND",
    "beginCond": [
      {
        "type": "QUEST_COND_STATE_EQUAL",
        "param": ["3000002", "3"]
      },
      {
        "param": ["", "", ""]
      },
      {
        "param": ["", "", ""]
      },
      {
        "param": ["", "", ""]
      },
      {
        "param": ["", "", ""]
      }
    ],
    "nextTalks": [],
    "nextRandomTalks": [],
    "initDialog": 300001101,
    "npcId": [157701],
    "performCfg": "",
    "questId": 30000
  },
  {
    "id": 3000101,
    "beginWay": "TALK_BEGIN_MANUAL",
    "beginCond": [
      {
        "type": "QUEST_COND_STATE_EQUAL",
        "param": ["3000102", "2"]
      },
      {
        "param": ["", "", ""]
      },
      {
        "param": ["", "", ""]
      },
      {
        "param": ["", "", ""]
      },
      {
        "param": ["", "", ""]
      }
    ],
    "priority": 9,
    "nextTalks": [],
    "nextRandomTalks": [],
    "initDialog": 300010101,
    "npcId": [157701],
    "performCfg": "",
    "questId": 30001
  },
  {
    "id": 3000201,
    "beginWay": "TALK_BEGIN_MANUAL",
    "beginCond": [
      {
        "type": "QUEST_COND_STATE_EQUAL",
        "param": ["3000202", "2"]
      },
      {
        "param": ["", "", ""]
      },
      {
        "param": ["", "", ""]
      },
      {
        "param": ["", "", ""]
      },
      {
        "param": ["", "", ""]
      }
    ],
    "priority": 9,
    "nextTalks": [],
    "nextRandomTalks": [],
    "initDialog": 300010101,
    "npcId": [152301],
    "performCfg": "",
    "questId": 30002
  },
  {
    "id": 3000301,
    "beginWay": "TALK_BEGIN_MANUAL",
    "beginCond": [
      {
        "type": "QUEST_COND_STATE_EQUAL",
        "param": ["3000302", "2"]
      },
      {
        "param": ["", "", ""]
      },
      {
        "param": ["", "", ""]
      },
      {
        "param": ["", "", ""]
      },
      {
        "param": ["", "", ""]
      }
    ],
    "priority": 9,
    "nextTalks": [],
    "nextRandomTalks": [],
    "initDialog": 300010101,
    "npcId": [154901],
    "performCfg": "",
    "questId": 30003
  },
  {
    "id": 3000401,
    "beginWay": "TALK_BEGIN_MANUAL",
    "beginCond": [
      {
        "type": "QUEST_COND_STATE_EQUAL",
        "param": ["3000402", "2"]
      },
      {
        "param": ["", "", ""]
      },
      {
        "param": ["", "", ""]
      },
      {
        "param": ["", "", ""]
      },
      {
        "param": ["", "", ""]
      }
    ],
    "priority": 9,
    "nextTalks": [],
    "nextRandomTalks": [],
    "initDialog": 300010101,
    "npcId": [141301],
    "performCfg": "",
    "questId": 30004
  },
  {
    "id": 3000501,
    "beginWay": "TALK_BEGIN_MANUAL",
    "beginCond": [
      {
        "type": "QUEST_COND_STATE_EQUAL",
        "param": ["3000502", "2"]
      },
      {
        "param": ["", "", ""]
      },
      {
        "param": ["", "", ""]
      },
      {
        "param": ["", "", ""]
      },
      {
        "param": ["", "", ""]
      }
    ],
    "priority": 9,
    "nextTalks": [],
    "nextRandomTalks": [],
    "initDialog": 300010101,
    "npcId": [154101],
    "performCfg": "",
    "questId": 30005
  },
  {
    "id": 3000601,
    "beginWay": "TALK_BEGIN_MANUAL",
    "beginCond": [
      {
        "type": "QUEST_COND_STATE_EQUAL",
        "param": ["3000602", "2"]
      },
      {
        "param": ["", "", ""]
      },
      {
        "param": ["", "", ""]
      },
      {
        "param": ["", "", ""]
      },
      {
        "param": ["", "", ""]
      }
    ],
    "priority": 9,
    "nextTalks": [],
    "nextRandomTalks": [],
    "initDialog": 300010101,
    "npcId": [153901],
    "performCfg": "",
    "questId": 30006
  },
  {
    "id": 3000701,
    "beginWay": "TALK_BEGIN_MANUAL",
    "beginCond": [
      {
        "type": "QUEST_COND_STATE_EQUAL",
        "param": ["3000702", "2"]
      },
      {
        "param": ["", "", ""]
      },
      {
        "param": ["", "", ""]
      },
      {
        "param": ["", "", ""]
      },
      {
        "param": ["", "", ""]
      }
    ],
    "priority": 9,
    "nextTalks": [],
    "nextRandomTalks": [],
    "initDialog": 300010101,
    "npcId": [156301],
    "performCfg": "",
    "questId": 30007
  },
  {
    "id": 3001101,
    "beginWay": "TALK_BEGIN_MANUAL",
    "beginCond": [
      {
        "type": "QUEST_COND_STATE_EQUAL",
        "param": ["3001101", "2"]
      },
      {
        "param": ["", "", ""]
      },
      {
        "param": ["", "", ""]
      },
      {
        "param": ["", "", ""]
      },
      {
        "param": ["", "", ""]
      }
    ],
    "priority": 9,
    "nextTalks": [3001104, 3001105],
    "nextRandomTalks": [],
    "initDialog": 300110101,
    "npcId": [147901],
    "performCfg": "",
    "questId": 30011
  },
  {
    "id": 3001102,
    "beginWay": "TALK_BEGIN_MANUAL",
    "beginCondComb": "LOGIC_AND",
    "beginCond": [
      {
        "type": "QUEST_COND_STATE_EQUAL",
        "param": ["3001102", "2"]
      },
      {
        "type": "QUEST_COND_PACK_HAVE_ITEM",
        "param": ["{QuestGatherID}", "{QuestGatherNum}", ""]
      },
      {
        "param": ["", "", ""]
      },
      {
        "param": ["", "", ""]
      },
      {
        "param": ["", "", ""]
      }
    ],
    "priority": 9,
    "nextTalks": [3001106, 3001107],
    "nextRandomTalks": [],
    "initDialog": 300110201,
    "npcId": [147901],
    "performCfg": "",
    "questId": 30011
  },
  {
    "id": 3001103,
    "beginWay": "TALK_BEGIN_MANUAL",
    "beginCondComb": "LOGIC_AND",
    "beginCond": [
      {
        "type": "QUEST_COND_STATE_EQUAL",
        "param": ["3001102", "2"]
      },
      {
        "type": "QUEST_COND_ITEM_NUM_LESS_THAN",
        "param": ["{QuestGatherID}", "{QuestGatherNum}", ""]
      },
      {
        "param": ["", "", ""]
      },
      {
        "param": ["", "", ""]
      },
      {
        "param": ["", "", ""]
      }
    ],
    "priority": 9,
    "nextTalks": [],
    "nextRandomTalks": [],
    "initDialog": 300110301,
    "npcId": [147901],
    "performCfg": "",
    "questId": 30011
  },
  {
    "id": 3001104,
    "beginCond": [
      {
        "param": ["", ""]
      },
      {
        "param": ["", "", ""]
      },
      {
        "param": ["", "", ""]
      },
      {
        "param": ["", "", ""]
      },
      {
        "param": ["", "", ""]
      }
    ],
    "nextTalks": [],
    "nextRandomTalks": [],
    "initDialog": 300110401,
    "npcId": [147901],
    "performCfg": "",
    "questId": 30011
  },
  {
    "id": 3001105,
    "beginCond": [
      {
        "param": ["", ""]
      },
      {
        "param": ["", "", ""]
      },
      {
        "param": ["", "", ""]
      },
      {
        "param": ["", "", ""]
      },
      {
        "param": ["", "", ""]
      }
    ],
    "nextTalks": [],
    "nextRandomTalks": [],
    "initDialog": 300110501,
    "npcId": [147901],
    "performCfg": "",
    "questId": 30011
  },
  {
    "id": 3001106,
    "beginCond": [
      {
        "param": ["", ""]
      },
      {
        "param": ["", "", ""]
      },
      {
        "param": ["", "", ""]
      },
      {
        "param": ["", "", ""]
      },
      {
        "param": ["", "", ""]
      }
    ],
    "nextTalks": [],
    "nextRandomTalks": [],
    "initDialog": 300110601,
    "npcId": [147901],
    "performCfg": "",
    "questId": 30011
  },
  {
    "id": 3001107,
    "beginCond": [
      {
        "param": ["", ""]
      },
      {
        "param": ["", "", ""]
      },
      {
        "param": ["", "", ""]
      },
      {
        "param": ["", "", ""]
      },
      {
        "param": ["", "", ""]
      }
    ],
    "nextTalks": [],
    "nextRandomTalks": [],
    "initDialog": 300110701,
    "npcId": [147901],
    "performCfg": "",
    "questId": 30011
  },
  {
    "id": 3001201,
    "beginWay": "TALK_BEGIN_MANUAL",
    "beginCond": [
      {
        "type": "QUEST_COND_STATE_EQUAL",
        "param": ["3001201", "2"]
      },
      {
        "param": ["", "", ""]
      },
      {
        "param": ["", "", ""]
      },
      {
        "param": ["", "", ""]
      },
      {
        "param": ["", "", ""]
      }
    ],
    "priority": 9,
    "nextTalks": [3001204, 3001205],
    "nextRandomTalks": [],
    "initDialog": 300110101,
    "npcId": [143101],
    "performCfg": "",
    "questId": 30012
  },
  {
    "id": 3001202,
    "beginWay": "TALK_BEGIN_MANUAL",
    "beginCondComb": "LOGIC_AND",
    "beginCond": [
      {
        "type": "QUEST_COND_STATE_EQUAL",
        "param": ["3001202", "2"]
      },
      {
        "type": "QUEST_COND_PACK_HAVE_ITEM",
        "param": ["{QuestGatherID}", "{QuestGatherNum}", ""]
      },
      {
        "param": ["", "", ""]
      },
      {
        "param": ["", "", ""]
      },
      {
        "param": ["", "", ""]
      }
    ],
    "priority": 9,
    "nextTalks": [3001206, 3001207],
    "nextRandomTalks": [],
    "initDialog": 300110201,
    "npcId": [143101],
    "performCfg": "",
    "questId": 30012
  },
  {
    "id": 3001203,
    "beginWay": "TALK_BEGIN_MANUAL",
    "beginCondComb": "LOGIC_AND",
    "beginCond": [
      {
        "type": "QUEST_COND_STATE_EQUAL",
        "param": ["3001202", "2"]
      },
      {
        "type": "QUEST_COND_ITEM_NUM_LESS_THAN",
        "param": ["{QuestGatherID}", "{QuestGatherNum}", ""]
      },
      {
        "param": ["", "", ""]
      },
      {
        "param": ["", "", ""]
      },
      {
        "param": ["", "", ""]
      }
    ],
    "priority": 9,
    "nextTalks": [],
    "nextRandomTalks": [],
    "initDialog": 300110301,
    "npcId": [143101],
    "performCfg": "",
    "questId": 30012
  },
  {
    "id": 3001204,
    "beginCond": [
      {
        "param": ["", ""]
      },
      {
        "param": ["", "", ""]
      },
      {
        "param": ["", "", ""]
      },
      {
        "param": ["", "", ""]
      },
      {
        "param": ["", "", ""]
      }
    ],
    "nextTalks": [],
    "nextRandomTalks": [],
    "initDialog": 300110401,
    "npcId": [143101],
    "performCfg": "",
    "questId": 30012
  },
  {
    "id": 3001205,
    "beginCond": [
      {
        "param": ["", ""]
      },
      {
        "param": ["", "", ""]
      },
      {
        "param": ["", "", ""]
      },
      {
        "param": ["", "", ""]
      },
      {
        "param": ["", "", ""]
      }
    ],
    "nextTalks": [],
    "nextRandomTalks": [],
    "initDialog": 300110501,
    "npcId": [143101],
    "performCfg": "",
    "questId": 30012
  },
  {
    "id": 3001206,
    "beginCond": [
      {
        "param": ["", ""]
      },
      {
        "param": ["", "", ""]
      },
      {
        "param": ["", "", ""]
      },
      {
        "param": ["", "", ""]
      },
      {
        "param": ["", "", ""]
      }
    ],
    "nextTalks": [],
    "nextRandomTalks": [],
    "initDialog": 300110601,
    "npcId": [143101],
    "performCfg": "",
    "questId": 30012
  },
  {
    "id": 3001207,
    "beginCond": [
      {
        "param": ["", ""]
      },
      {
        "param": ["", "", ""]
      },
      {
        "param": ["", "", ""]
      },
      {
        "param": ["", "", ""]
      },
      {
        "param": ["", "", ""]
      }
    ],
    "nextTalks": [],
    "nextRandomTalks": [],
    "initDialog": 300110701,
    "npcId": [143101],
    "performCfg": "",
    "questId": 30012
  },
  {
    "id": 3001301,
    "beginWay": "TALK_BEGIN_MANUAL",
    "beginCond": [
      {
        "type": "QUEST_COND_STATE_EQUAL",
        "param": ["3001301", "2"]
      },
      {
        "param": ["", "", ""]
      },
      {
        "param": ["", "", ""]
      },
      {
        "param": ["", "", ""]
      },
      {
        "param": ["", "", ""]
      }
    ],
    "priority": 9,
    "nextTalks": [3001304, 3001305],
    "nextRandomTalks": [],
    "initDialog": 300110101,
    "npcId": [140801],
    "performCfg": "",
    "questId": 30013
  },
  {
    "id": 3001302,
    "beginWay": "TALK_BEGIN_MANUAL",
    "beginCondComb": "LOGIC_AND",
    "beginCond": [
      {
        "type": "QUEST_COND_STATE_EQUAL",
        "param": ["3001302", "2"]
      },
      {
        "type": "QUEST_COND_PACK_HAVE_ITEM",
        "param": ["{QuestGatherID}", "{QuestGatherNum}", ""]
      },
      {
        "param": ["", "", ""]
      },
      {
        "param": ["", "", ""]
      },
      {
        "param": ["", "", ""]
      }
    ],
    "priority": 9,
    "nextTalks": [3001306, 3001307],
    "nextRandomTalks": [],
    "initDialog": 300110201,
    "npcId": [140801],
    "performCfg": "",
    "questId": 30013
  },
  {
    "id": 3001303,
    "beginWay": "TALK_BEGIN_MANUAL",
    "beginCondComb": "LOGIC_AND",
    "beginCond": [
      {
        "type": "QUEST_COND_STATE_EQUAL",
        "param": ["3001302", "2"]
      },
      {
        "type": "QUEST_COND_ITEM_NUM_LESS_THAN",
        "param": ["{QuestGatherID}", "{QuestGatherNum}", ""]
      },
      {
        "param": ["", "", ""]
      },
      {
        "param": ["", "", ""]
      },
      {
        "param": ["", "", ""]
      }
    ],
    "priority": 9,
    "nextTalks": [],
    "nextRandomTalks": [],
    "initDialog": 300110301,
    "npcId": [140801],
    "performCfg": "",
    "questId": 30013
  },
  {
    "id": 3001304,
    "beginCond": [
      {
        "param": ["", ""]
      },
      {
        "param": ["", "", ""]
      },
      {
        "param": ["", "", ""]
      },
      {
        "param": ["", "", ""]
      },
      {
        "param": ["", "", ""]
      }
    ],
    "nextTalks": [],
    "nextRandomTalks": [],
    "initDialog": 300110401,
    "npcId": [140801],
    "performCfg": "",
    "questId": 30013
  },
  {
    "id": 3001305,
    "beginCond": [
      {
        "param": ["", ""]
      },
      {
        "param": ["", "", ""]
      },
      {
        "param": ["", "", ""]
      },
      {
        "param": ["", "", ""]
      },
      {
        "param": ["", "", ""]
      }
    ],
    "nextTalks": [],
    "nextRandomTalks": [],
    "initDialog": 300110501,
    "npcId": [140801],
    "performCfg": "",
    "questId": 30013
  },
  {
    "id": 3001306,
    "beginCond": [
      {
        "param": ["", ""]
      },
      {
        "param": ["", "", ""]
      },
      {
        "param": ["", "", ""]
      },
      {
        "param": ["", "", ""]
      },
      {
        "param": ["", "", ""]
      }
    ],
    "nextTalks": [],
    "nextRandomTalks": [],
    "initDialog": 300110601,
    "npcId": [140801],
    "performCfg": "",
    "questId": 30013
  },
  {
    "id": 3001307,
    "beginCond": [
      {
        "param": ["", ""]
      },
      {
        "param": ["", "", ""]
      },
      {
        "param": ["", "", ""]
      },
      {
        "param": ["", "", ""]
      },
      {
        "param": ["", "", ""]
      }
    ],
    "nextTalks": [],
    "nextRandomTalks": [],
    "initDialog": 300110701,
    "npcId": [140801],
    "performCfg": "",
    "questId": 30013
  },
  {
    "id": 3001401,
    "beginWay": "TALK_BEGIN_MANUAL",
    "beginCond": [
      {
        "type": "QUEST_COND_STATE_EQUAL",
        "param": ["3001401", "2"]
      },
      {
        "param": ["", "", ""]
      },
      {
        "param": ["", "", ""]
      },
      {
        "param": ["", "", ""]
      },
      {
        "param": ["", "", ""]
      }
    ],
    "priority": 9,
    "nextTalks": [3001404, 3001405],
    "nextRandomTalks": [],
    "initDialog": 300110101,
    "npcId": [152101],
    "performCfg": "",
    "questId": 30014
  },
  {
    "id": 3001402,
    "beginWay": "TALK_BEGIN_MANUAL",
    "beginCondComb": "LOGIC_AND",
    "beginCond": [
      {
        "type": "QUEST_COND_STATE_EQUAL",
        "param": ["3001402", "2"]
      },
      {
        "type": "QUEST_COND_PACK_HAVE_ITEM",
        "param": ["{QuestGatherID}", "{QuestGatherNum}", ""]
      },
      {
        "param": ["", "", ""]
      },
      {
        "param": ["", "", ""]
      },
      {
        "param": ["", "", ""]
      }
    ],
    "priority": 9,
    "nextTalks": [3001406, 3001407],
    "nextRandomTalks": [],
    "initDialog": 300110201,
    "npcId": [152101],
    "performCfg": "",
    "questId": 30014
  },
  {
    "id": 3001403,
    "beginWay": "TALK_BEGIN_MANUAL",
    "beginCondComb": "LOGIC_AND",
    "beginCond": [
      {
        "type": "QUEST_COND_STATE_EQUAL",
        "param": ["3001402", "2"]
      },
      {
        "type": "QUEST_COND_ITEM_NUM_LESS_THAN",
        "param": ["{QuestGatherID}", "{QuestGatherNum}", ""]
      },
      {
        "param": ["", "", ""]
      },
      {
        "param": ["", "", ""]
      },
      {
        "param": ["", "", ""]
      }
    ],
    "priority": 9,
    "nextTalks": [],
    "nextRandomTalks": [],
    "initDialog": 300110301,
    "npcId": [152101],
    "performCfg": "",
    "questId": 30014
  },
  {
    "id": 3001404,
    "beginCond": [
      {
        "param": ["", ""]
      },
      {
        "param": ["", "", ""]
      },
      {
        "param": ["", "", ""]
      },
      {
        "param": ["", "", ""]
      },
      {
        "param": ["", "", ""]
      }
    ],
    "nextTalks": [],
    "nextRandomTalks": [],
    "initDialog": 300110401,
    "npcId": [152101],
    "performCfg": "",
    "questId": 30014
  },
  {
    "id": 3001405,
    "beginCond": [
      {
        "param": ["", ""]
      },
      {
        "param": ["", "", ""]
      },
      {
        "param": ["", "", ""]
      },
      {
        "param": ["", "", ""]
      },
      {
        "param": ["", "", ""]
      }
    ],
    "nextTalks": [],
    "nextRandomTalks": [],
    "initDialog": 300110501,
    "npcId": [152101],
    "performCfg": "",
    "questId": 30014
  },
  {
    "id": 3001406,
    "beginCond": [
      {
        "param": ["", ""]
      },
      {
        "param": ["", "", ""]
      },
      {
        "param": ["", "", ""]
      },
      {
        "param": ["", "", ""]
      },
      {
        "param": ["", "", ""]
      }
    ],
    "nextTalks": [],
    "nextRandomTalks": [],
    "initDialog": 300110601,
    "npcId": [152101],
    "performCfg": "",
    "questId": 30014
  },
  {
    "id": 3001407,
    "beginCond": [
      {
        "param": ["", ""]
      },
      {
        "param": ["", "", ""]
      },
      {
        "param": ["", "", ""]
      },
      {
        "param": ["", "", ""]
      },
      {
        "param": ["", "", ""]
      }
    ],
    "nextTalks": [],
    "nextRandomTalks": [],
    "initDialog": 300110701,
    "npcId": [152101],
    "performCfg": "",
    "questId": 30014
  },
  {
    "id": 3001501,
    "beginWay": "TALK_BEGIN_MANUAL",
    "beginCond": [
      {
        "type": "QUEST_COND_STATE_EQUAL",
        "param": ["3001501", "2"]
      },
      {
        "param": ["", "", ""]
      },
      {
        "param": ["", "", ""]
      },
      {
        "param": ["", "", ""]
      },
      {
        "param": ["", "", ""]
      }
    ],
    "priority": 9,
    "nextTalks": [3001504, 3001505],
    "nextRandomTalks": [],
    "initDialog": 300110101,
    "npcId": [157801],
    "performCfg": "",
    "questId": 30015
  },
  {
    "id": 3001502,
    "beginWay": "TALK_BEGIN_MANUAL",
    "beginCondComb": "LOGIC_AND",
    "beginCond": [
      {
        "type": "QUEST_COND_STATE_EQUAL",
        "param": ["3001502", "2"]
      },
      {
        "type": "QUEST_COND_PACK_HAVE_ITEM",
        "param": ["{QuestGatherID}", "{QuestGatherNum}", ""]
      },
      {
        "param": ["", "", ""]
      },
      {
        "param": ["", "", ""]
      },
      {
        "param": ["", "", ""]
      }
    ],
    "priority": 9,
    "nextTalks": [3001506, 3001507],
    "nextRandomTalks": [],
    "initDialog": 300110201,
    "npcId": [157801],
    "performCfg": "",
    "questId": 30015
  },
  {
    "id": 3001503,
    "beginWay": "TALK_BEGIN_MANUAL",
    "beginCondComb": "LOGIC_AND",
    "beginCond": [
      {
        "type": "QUEST_COND_STATE_EQUAL",
        "param": ["3001502", "2"]
      },
      {
        "type": "QUEST_COND_ITEM_NUM_LESS_THAN",
        "param": ["{QuestGatherID}", "{QuestGatherNum}", ""]
      },
      {
        "param": ["", "", ""]
      },
      {
        "param": ["", "", ""]
      },
      {
        "param": ["", "", ""]
      }
    ],
    "priority": 9,
    "nextTalks": [],
    "nextRandomTalks": [],
    "initDialog": 300110301,
    "npcId": [157801],
    "performCfg": "",
    "questId": 30015
  },
  {
    "id": 3001504,
    "beginCond": [
      {
        "param": ["", ""]
      },
      {
        "param": ["", "", ""]
      },
      {
        "param": ["", "", ""]
      },
      {
        "param": ["", "", ""]
      },
      {
        "param": ["", "", ""]
      }
    ],
    "nextTalks": [],
    "nextRandomTalks": [],
    "initDialog": 300110401,
    "npcId": [157801],
    "performCfg": "",
    "questId": 30015
  },
  {
    "id": 3001505,
    "beginCond": [
      {
        "param": ["", ""]
      },
      {
        "param": ["", "", ""]
      },
      {
        "param": ["", "", ""]
      },
      {
        "param": ["", "", ""]
      },
      {
        "param": ["", "", ""]
      }
    ],
    "nextTalks": [],
    "nextRandomTalks": [],
    "initDialog": 300110501,
    "npcId": [157801],
    "performCfg": "",
    "questId": 30015
  },
  {
    "id": 3001506,
    "beginCond": [
      {
        "param": ["", ""]
      },
      {
        "param": ["", "", ""]
      },
      {
        "param": ["", "", ""]
      },
      {
        "param": ["", "", ""]
      },
      {
        "param": ["", "", ""]
      }
    ],
    "nextTalks": [],
    "nextRandomTalks": [],
    "initDialog": 300110601,
    "npcId": [157801],
    "performCfg": "",
    "questId": 30015
  },
  {
    "id": 3001507,
    "beginCond": [
      {
        "param": ["", ""]
      },
      {
        "param": ["", "", ""]
      },
      {
        "param": ["", "", ""]
      },
      {
        "param": ["", "", ""]
      },
      {
        "param": ["", "", ""]
      }
    ],
    "nextTalks": [],
    "nextRandomTalks": [],
    "initDialog": 300110701,
    "npcId": [157801],
    "performCfg": "",
    "questId": 30015
  },
  {
    "id": 3002101,
    "beginWay": "TALK_BEGIN_MANUAL",
    "beginCond": [
      {
        "type": "QUEST_COND_STATE_EQUAL",
        "param": ["3002101", "2"]
      },
      {
        "param": ["", "", ""]
      },
      {
        "param": ["", "", ""]
      },
      {
        "param": ["", "", ""]
      },
      {
        "param": ["", "", ""]
      }
    ],
    "priority": 9,
    "nextTalks": [3002103, 3002104],
    "nextRandomTalks": [],
    "initDialog": 300210101,
    "npcId": [155301],
    "performCfg": "",
    "questId": 30021
  },
  {
    "id": 3002102,
    "beginWay": "TALK_BEGIN_MANUAL",
    "beginCond": [
      {
        "type": "QUEST_COND_STATE_EQUAL",
        "param": ["3002102", "2"]
      },
      {
        "param": ["", "", ""]
      },
      {
        "param": ["", "", ""]
      },
      {
        "param": ["", "", ""]
      },
      {
        "param": ["", "", ""]
      }
    ],
    "priority": 9,
    "nextTalks": [],
    "nextRandomTalks": [],
    "initDialog": 300210201,
    "npcId": [140901, 141101],
    "performCfg": "",
    "questId": 30021
  },
  {
    "id": 3002103,
    "beginCond": [
      {
        "param": ["", ""]
      },
      {
        "param": ["", "", ""]
      },
      {
        "param": ["", "", ""]
      },
      {
        "param": ["", "", ""]
      },
      {
        "param": ["", "", ""]
      }
    ],
    "nextTalks": [],
    "nextRandomTalks": [],
    "initDialog": 300210301,
    "npcId": [155301],
    "performCfg": "",
    "questId": 30021
  },
  {
    "id": 3002104,
    "beginCond": [
      {
        "param": ["", ""]
      },
      {
        "param": ["", "", ""]
      },
      {
        "param": ["", "", ""]
      },
      {
        "param": ["", "", ""]
      },
      {
        "param": ["", "", ""]
      }
    ],
    "nextTalks": [],
    "nextRandomTalks": [],
    "initDialog": 300210401,
    "npcId": [155301],
    "performCfg": "",
    "questId": 30021
  },
  {
    "id": 3002201,
    "beginWay": "TALK_BEGIN_MANUAL",
    "beginCond": [
      {
        "type": "QUEST_COND_STATE_EQUAL",
        "param": ["3002201", "2"]
      },
      {
        "param": ["", "", ""]
      },
      {
        "param": ["", "", ""]
      },
      {
        "param": ["", "", ""]
      },
      {
        "param": ["", "", ""]
      }
    ],
    "priority": 9,
    "nextTalks": [3002203, 3002204],
    "nextRandomTalks": [],
    "initDialog": 300210101,
    "npcId": [155501],
    "performCfg": "",
    "questId": 30022
  },
  {
    "id": 3002202,
    "beginWay": "TALK_BEGIN_MANUAL",
    "beginCond": [
      {
        "type": "QUEST_COND_STATE_EQUAL",
        "param": ["3002202", "2"]
      },
      {
        "param": ["", "", ""]
      },
      {
        "param": ["", "", ""]
      },
      {
        "param": ["", "", ""]
      },
      {
        "param": ["", "", ""]
      }
    ],
    "priority": 9,
    "nextTalks": [],
    "nextRandomTalks": [],
    "initDialog": 300210201,
    "npcId": [156301],
    "performCfg": "",
    "questId": 30022
  },
  {
    "id": 3002203,
    "beginCond": [
      {
        "param": ["", ""]
      },
      {
        "param": ["", "", ""]
      },
      {
        "param": ["", "", ""]
      },
      {
        "param": ["", "", ""]
      },
      {
        "param": ["", "", ""]
      }
    ],
    "nextTalks": [],
    "nextRandomTalks": [],
    "initDialog": 300210301,
    "npcId": [155501],
    "performCfg": "",
    "questId": 30022
  },
  {
    "id": 3002204,
    "beginCond": [
      {
        "param": ["", ""]
      },
      {
        "param": ["", "", ""]
      },
      {
        "param": ["", "", ""]
      },
      {
        "param": ["", "", ""]
      },
      {
        "param": ["", "", ""]
      }
    ],
    "nextTalks": [],
    "nextRandomTalks": [],
    "initDialog": 300210401,
    "npcId": [155501],
    "performCfg": "",
    "questId": 30022
  },
  {
    "id": 3002301,
    "beginWay": "TALK_BEGIN_MANUAL",
    "beginCond": [
      {
        "type": "QUEST_COND_STATE_EQUAL",
        "param": ["3002301", "2"]
      },
      {
        "param": ["", "", ""]
      },
      {
        "param": ["", "", ""]
      },
      {
        "param": ["", "", ""]
      },
      {
        "param": ["", "", ""]
      }
    ],
    "priority": 9,
    "nextTalks": [3002303, 3002304],
    "nextRandomTalks": [],
    "initDialog": 300210101,
    "npcId": [156301],
    "performCfg": "",
    "questId": 30023
  },
  {
    "id": 3002302,
    "beginWay": "TALK_BEGIN_MANUAL",
    "beginCond": [
      {
        "type": "QUEST_COND_STATE_EQUAL",
        "param": ["3002302", "2"]
      },
      {
        "param": ["", "", ""]
      },
      {
        "param": ["", "", ""]
      },
      {
        "param": ["", "", ""]
      },
      {
        "param": ["", "", ""]
      }
    ],
    "priority": 9,
    "nextTalks": [],
    "nextRandomTalks": [],
    "initDialog": 300210201,
    "npcId": [155501],
    "performCfg": "",
    "questId": 30023
  },
  {
    "id": 3002303,
    "beginCond": [
      {
        "param": ["", ""]
      },
      {
        "param": ["", "", ""]
      },
      {
        "param": ["", "", ""]
      },
      {
        "param": ["", "", ""]
      },
      {
        "param": ["", "", ""]
      }
    ],
    "nextTalks": [],
    "nextRandomTalks": [],
    "initDialog": 300210301,
    "npcId": [156301],
    "performCfg": "",
    "questId": 30023
  },
  {
    "id": 3002304,
    "beginCond": [
      {
        "param": ["", ""]
      },
      {
        "param": ["", "", ""]
      },
      {
        "param": ["", "", ""]
      },
      {
        "param": ["", "", ""]
      },
      {
        "param": ["", "", ""]
      }
    ],
    "nextTalks": [],
    "nextRandomTalks": [],
    "initDialog": 300210401,
    "npcId": [156301],
    "performCfg": "",
    "questId": 30023
  },
  {
    "id": 3002401,
    "beginWay": "TALK_BEGIN_MANUAL",
    "beginCond": [
      {
        "type": "QUEST_COND_STATE_EQUAL",
        "param": ["3002401", "2"]
      },
      {
        "param": ["", "", ""]
      },
      {
        "param": ["", "", ""]
      },
      {
        "param": ["", "", ""]
      },
      {
        "param": ["", "", ""]
      }
    ],
    "priority": 9,
    "nextTalks": [3002403, 3002404],
    "nextRandomTalks": [],
    "initDialog": 300210101,
    "npcId": [153901],
    "performCfg": "",
    "questId": 30024
  },
  {
    "id": 3002402,
    "beginWay": "TALK_BEGIN_MANUAL",
    "beginCond": [
      {
        "type": "QUEST_COND_STATE_EQUAL",
        "param": ["3002402", "2"]
      },
      {
        "param": ["", "", ""]
      },
      {
        "param": ["", "", ""]
      },
      {
        "param": ["", "", ""]
      },
      {
        "param": ["", "", ""]
      }
    ],
    "priority": 9,
    "nextTalks": [],
    "nextRandomTalks": [],
    "initDialog": 300210201,
    "npcId": [153701, 154101],
    "performCfg": "",
    "questId": 30024
  },
  {
    "id": 3002403,
    "beginCond": [
      {
        "param": ["", ""]
      },
      {
        "param": ["", "", ""]
      },
      {
        "param": ["", "", ""]
      },
      {
        "param": ["", "", ""]
      },
      {
        "param": ["", "", ""]
      }
    ],
    "nextTalks": [],
    "nextRandomTalks": [],
    "initDialog": 300210301,
    "npcId": [153901],
    "performCfg": "",
    "questId": 30024
  },
  {
    "id": 3002404,
    "beginCond": [
      {
        "param": ["", ""]
      },
      {
        "param": ["", "", ""]
      },
      {
        "param": ["", "", ""]
      },
      {
        "param": ["", "", ""]
      },
      {
        "param": ["", "", ""]
      }
    ],
    "nextTalks": [],
    "nextRandomTalks": [],
    "initDialog": 300210401,
    "npcId": [153901],
    "performCfg": "",
    "questId": 30024
  },
  {
    "id": 3002501,
    "beginWay": "TALK_BEGIN_MANUAL",
    "beginCond": [
      {
        "type": "QUEST_COND_STATE_EQUAL",
        "param": ["3002501", "2"]
      },
      {
        "param": ["", "", ""]
      },
      {
        "param": ["", "", ""]
      },
      {
        "param": ["", "", ""]
      },
      {
        "param": ["", "", ""]
      }
    ],
    "priority": 9,
    "nextTalks": [3002503, 3002504],
    "nextRandomTalks": [],
    "initDialog": 300210101,
    "npcId": [157901],
    "performCfg": "",
    "questId": 30025
  },
  {
    "id": 3002502,
    "beginWay": "TALK_BEGIN_MANUAL",
    "beginCond": [
      {
        "type": "QUEST_COND_STATE_EQUAL",
        "param": ["3002502", "2"]
      },
      {
        "param": ["", "", ""]
      },
      {
        "param": ["", "", ""]
      },
      {
        "param": ["", "", ""]
      },
      {
        "param": ["", "", ""]
      }
    ],
    "priority": 9,
    "nextTalks": [],
    "nextRandomTalks": [],
    "initDialog": 300210201,
    "npcId": [153701, 154101],
    "performCfg": "",
    "questId": 30025
  },
  {
    "id": 3002503,
    "beginCond": [
      {
        "param": ["", ""]
      },
      {
        "param": ["", "", ""]
      },
      {
        "param": ["", "", ""]
      },
      {
        "param": ["", "", ""]
      },
      {
        "param": ["", "", ""]
      }
    ],
    "nextTalks": [],
    "nextRandomTalks": [],
    "initDialog": 300210301,
    "npcId": [157901],
    "performCfg": "",
    "questId": 30025
  },
  {
    "id": 3002504,
    "beginCond": [
      {
        "param": ["", ""]
      },
      {
        "param": ["", "", ""]
      },
      {
        "param": ["", "", ""]
      },
      {
        "param": ["", "", ""]
      },
      {
        "param": ["", "", ""]
      }
    ],
    "nextTalks": [],
    "nextRandomTalks": [],
    "initDialog": 300210401,
    "npcId": [157901],
    "performCfg": "",
    "questId": 30025
  },
  {
    "id": 3002601,
    "beginWay": "TALK_BEGIN_MANUAL",
    "beginCond": [
      {
        "type": "QUEST_COND_STATE_EQUAL",
        "param": ["3002601", "2"]
      },
      {
        "param": ["", "", ""]
      },
      {
        "param": ["", "", ""]
      },
      {
        "param": ["", "", ""]
      },
      {
        "param": ["", "", ""]
      }
    ],
    "priority": 5,
    "nextTalks": [],
    "nextRandomTalks": [],
    "initDialog": 300260101,
    "npcId": [12087],
    "performCfg": "",
    "heroTalk": "TALK_HERO_MAIN",
    "questId": 30026
  },
  {
    "id": 3002602,
    "beginWay": "TALK_BEGIN_MANUAL",
    "beginCondComb": "LOGIC_AND",
    "beginCond": [
      {
        "type": "QUEST_COND_STATE_EQUAL",
        "param": ["3002602", "2"]
      },
      {
        "type": "QUEST_COND_ITEM_GIVING_ACTIVED",
        "param": ["3002601", "", ""]
      },
      {
        "param": ["", "", ""]
      },
      {
        "param": ["", "", ""]
      },
      {
        "param": ["", "", ""]
      }
    ],
    "priority": 5,
    "nextTalks": [],
    "nextRandomTalks": [],
    "initDialog": 300260201,
    "npcId": [12087],
    "performCfg": "",
    "heroTalk": "TALK_HERO_MAIN",
    "questId": 30026
  },
  {
    "id": 3002615,
    "beginWay": "TALK_BEGIN_MANUAL",
    "beginCondComb": "LOGIC_AND",
    "beginCond": [
      {
        "type": "QUEST_COND_STATE_EQUAL",
        "param": ["3002603", "2"]
      },
      {
        "type": "QUEST_COND_ITEM_GIVING_ACTIVED",
        "param": ["3002602", "", ""]
      },
      {
        "param": ["", "", ""]
      },
      {
        "param": ["", "", ""]
      },
      {
        "param": ["", "", ""]
      }
    ],
    "priority": 5,
    "nextTalks": [],
    "nextRandomTalks": [],
    "initDialog": 300261501,
    "npcId": [12087],
    "performCfg": "",
    "heroTalk": "TALK_HERO_MAIN",
    "questId": 30026
  },
  {
    "id": 3002616,
    "beginWay": "TALK_BEGIN_MANUAL",
    "beginCondComb": "LOGIC_AND",
    "beginCond": [
      {
        "type": "QUEST_COND_STATE_EQUAL",
        "param": ["3002604", "2"]
      },
      {
        "type": "QUEST_COND_ITEM_GIVING_ACTIVED",
        "param": ["3002603", "", ""]
      },
      {
        "param": ["", "", ""]
      },
      {
        "param": ["", "", ""]
      },
      {
        "param": ["", "", ""]
      }
    ],
    "priority": 5,
    "nextTalks": [],
    "nextRandomTalks": [],
    "initDialog": 300261601,
    "npcId": [12087],
    "performCfg": "",
    "heroTalk": "TALK_HERO_MAIN",
    "questId": 30026
  },
  {
    "id": 3002617,
    "beginWay": "TALK_BEGIN_MANUAL",
    "beginCondComb": "LOGIC_AND",
    "beginCond": [
      {
        "type": "QUEST_COND_STATE_EQUAL",
        "param": ["3002605", "2"]
      },
      {
        "type": "QUEST_COND_ITEM_GIVING_ACTIVED",
        "param": ["3002604", "", ""]
      },
      {
        "param": ["", "", ""]
      },
      {
        "param": ["", "", ""]
      },
      {
        "param": ["", "", ""]
      }
    ],
    "priority": 5,
    "nextTalks": [],
    "nextRandomTalks": [],
    "initDialog": 300261701,
    "npcId": [12087],
    "performCfg": "",
    "heroTalk": "TALK_HERO_MAIN",
    "questId": 30026
  },
  {
    "id": 3002603,
    "beginWay": "TALK_BEGIN_MANUAL",
    "beginCondComb": "LOGIC_AND",
    "beginCond": [
      {
        "type": "QUEST_COND_STATE_EQUAL",
        "param": ["3002606", "2"]
      },
      {
        "type": "QUEST_COND_ITEM_GIVING_FINISHED",
        "param": ["3002601", "", ""]
      },
      {
        "param": ["", "", ""]
      },
      {
        "param": ["", "", ""]
      },
      {
        "param": ["", "", ""]
      }
    ],
    "priority": 5,
    "nextTalks": [],
    "nextRandomTalks": [],
    "initDialog": 300260301,
    "npcId": [12087],
    "performCfg": "",
    "heroTalk": "TALK_HERO_MAIN",
    "questId": 30026
  },
  {
    "id": 3002604,
    "beginWay": "TALK_BEGIN_MANUAL",
    "beginCondComb": "LOGIC_AND",
    "beginCond": [
      {
        "type": "QUEST_COND_STATE_EQUAL",
        "param": ["3002607", "2"]
      },
      {
        "type": "QUEST_COND_ITEM_GIVING_FINISHED",
        "param": ["3002601", "", ""]
      },
      {
        "param": ["", "", ""]
      },
      {
        "param": ["", "", ""]
      },
      {
        "param": ["", "", ""]
      }
    ],
    "priority": 5,
    "nextTalks": [],
    "nextRandomTalks": [],
    "initDialog": 300260401,
    "npcId": [12087],
    "performCfg": "",
    "heroTalk": "TALK_HERO_MAIN",
    "questId": 30026
  },
  {
    "id": 3002605,
    "beginWay": "TALK_BEGIN_MANUAL",
    "beginCondComb": "LOGIC_AND",
    "beginCond": [
      {
        "type": "QUEST_COND_STATE_EQUAL",
        "param": ["3002608", "2"]
      },
      {
        "type": "QUEST_COND_ITEM_GIVING_FINISHED",
        "param": ["3002601", "", ""]
      },
      {
        "param": ["", "", ""]
      },
      {
        "param": ["", "", ""]
      },
      {
        "param": ["", "", ""]
      }
    ],
    "priority": 5,
    "nextTalks": [],
    "nextRandomTalks": [],
    "initDialog": 300260501,
    "npcId": [12087],
    "performCfg": "",
    "heroTalk": "TALK_HERO_MAIN",
    "questId": 30026
  },
  {
    "id": 3002606,
    "beginWay": "TALK_BEGIN_MANUAL",
    "beginCondComb": "LOGIC_AND",
    "beginCond": [
      {
        "type": "QUEST_COND_STATE_EQUAL",
        "param": ["3002609", "2"]
      },
      {
        "type": "QUEST_COND_ITEM_GIVING_FINISHED",
        "param": ["3002602", "", ""]
      },
      {
        "param": ["", "", ""]
      },
      {
        "param": ["", "", ""]
      },
      {
        "param": ["", "", ""]
      }
    ],
    "priority": 5,
    "nextTalks": [],
    "nextRandomTalks": [],
    "initDialog": 300260601,
    "npcId": [12087],
    "performCfg": "",
    "heroTalk": "TALK_HERO_MAIN",
    "questId": 30026
  },
  {
    "id": 3002607,
    "beginWay": "TALK_BEGIN_MANUAL",
    "beginCondComb": "LOGIC_AND",
    "beginCond": [
      {
        "type": "QUEST_COND_STATE_EQUAL",
        "param": ["3002610", "2"]
      },
      {
        "type": "QUEST_COND_ITEM_GIVING_FINISHED",
        "param": ["3002602", "", ""]
      },
      {
        "param": ["", "", ""]
      },
      {
        "param": ["", "", ""]
      },
      {
        "param": ["", "", ""]
      }
    ],
    "priority": 5,
    "nextTalks": [],
    "nextRandomTalks": [],
    "initDialog": 300260701,
    "npcId": [12087],
    "performCfg": "",
    "heroTalk": "TALK_HERO_MAIN",
    "questId": 30026
  },
  {
    "id": 3002608,
    "beginWay": "TALK_BEGIN_MANUAL",
    "beginCondComb": "LOGIC_AND",
    "beginCond": [
      {
        "type": "QUEST_COND_STATE_EQUAL",
        "param": ["3002611", "2"]
      },
      {
        "type": "QUEST_COND_ITEM_GIVING_FINISHED",
        "param": ["3002602", "", ""]
      },
      {
        "param": ["", "", ""]
      },
      {
        "param": ["", "", ""]
      },
      {
        "param": ["", "", ""]
      }
    ],
    "priority": 5,
    "nextTalks": [],
    "nextRandomTalks": [],
    "initDialog": 300260801,
    "npcId": [12087],
    "performCfg": "",
    "heroTalk": "TALK_HERO_MAIN",
    "questId": 30026
  },
  {
    "id": 3002609,
    "beginWay": "TALK_BEGIN_MANUAL",
    "beginCondComb": "LOGIC_AND",
    "beginCond": [
      {
        "type": "QUEST_COND_STATE_EQUAL",
        "param": ["3002612", "2"]
      },
      {
        "type": "QUEST_COND_ITEM_GIVING_FINISHED",
        "param": ["3002603", "", ""]
      },
      {
        "param": ["", "", ""]
      },
      {
        "param": ["", "", ""]
      },
      {
        "param": ["", "", ""]
      }
    ],
    "priority": 5,
    "nextTalks": [],
    "nextRandomTalks": [],
    "initDialog": 300260901,
    "npcId": [12087],
    "performCfg": "",
    "heroTalk": "TALK_HERO_MAIN",
    "questId": 30026
  },
  {
    "id": 3002610,
    "beginWay": "TALK_BEGIN_MANUAL",
    "beginCondComb": "LOGIC_AND",
    "beginCond": [
      {
        "type": "QUEST_COND_STATE_EQUAL",
        "param": ["3002613", "2"]
      },
      {
        "type": "QUEST_COND_ITEM_GIVING_FINISHED",
        "param": ["3002603", "", ""]
      },
      {
        "param": ["", "", ""]
      },
      {
        "param": ["", "", ""]
      },
      {
        "param": ["", "", ""]
      }
    ],
    "priority": 5,
    "nextTalks": [],
    "nextRandomTalks": [],
    "initDialog": 300261001,
    "npcId": [12087],
    "performCfg": "",
    "heroTalk": "TALK_HERO_MAIN",
    "questId": 30026
  },
  {
    "id": 3002611,
    "beginWay": "TALK_BEGIN_MANUAL",
    "beginCondComb": "LOGIC_AND",
    "beginCond": [
      {
        "type": "QUEST_COND_STATE_EQUAL",
        "param": ["3002614", "2"]
      },
      {
        "type": "QUEST_COND_ITEM_GIVING_FINISHED",
        "param": ["3002603", "", ""]
      },
      {
        "param": ["", "", ""]
      },
      {
        "param": ["", "", ""]
      },
      {
        "param": ["", "", ""]
      }
    ],
    "priority": 5,
    "nextTalks": [],
    "nextRandomTalks": [],
    "initDialog": 300261101,
    "npcId": [12087],
    "performCfg": "",
    "heroTalk": "TALK_HERO_MAIN",
    "questId": 30026
  },
  {
    "id": 3002612,
    "beginWay": "TALK_BEGIN_MANUAL",
    "beginCondComb": "LOGIC_AND",
    "beginCond": [
      {
        "type": "QUEST_COND_STATE_EQUAL",
        "param": ["3002615", "2"]
      },
      {
        "type": "QUEST_COND_ITEM_GIVING_FINISHED",
        "param": ["3002604", "", ""]
      },
      {
        "param": ["", "", ""]
      },
      {
        "param": ["", "", ""]
      },
      {
        "param": ["", "", ""]
      }
    ],
    "priority": 5,
    "nextTalks": [],
    "nextRandomTalks": [],
    "initDialog": 300261201,
    "npcId": [12087],
    "performCfg": "",
    "heroTalk": "TALK_HERO_MAIN",
    "questId": 30026
  },
  {
    "id": 3002613,
    "beginWay": "TALK_BEGIN_MANUAL",
    "beginCondComb": "LOGIC_AND",
    "beginCond": [
      {
        "type": "QUEST_COND_STATE_EQUAL",
        "param": ["3002616", "2"]
      },
      {
        "type": "QUEST_COND_ITEM_GIVING_FINISHED",
        "param": ["3002604", "", ""]
      },
      {
        "param": ["", "", ""]
      },
      {
        "param": ["", "", ""]
      },
      {
        "param": ["", "", ""]
      }
    ],
    "priority": 5,
    "nextTalks": [],
    "nextRandomTalks": [],
    "initDialog": 300261301,
    "npcId": [12087],
    "performCfg": "",
    "heroTalk": "TALK_HERO_MAIN",
    "questId": 30026
  },
  {
    "id": 3002614,
    "beginWay": "TALK_BEGIN_MANUAL",
    "beginCondComb": "LOGIC_AND",
    "beginCond": [
      {
        "type": "QUEST_COND_STATE_EQUAL",
        "param": ["3002617", "2"]
      },
      {
        "type": "QUEST_COND_ITEM_GIVING_FINISHED",
        "param": ["3002604", "", ""]
      },
      {
        "param": ["", "", ""]
      },
      {
        "param": ["", "", ""]
      },
      {
        "param": ["", "", ""]
      }
    ],
    "priority": 5,
    "nextTalks": [],
    "nextRandomTalks": [],
    "initDialog": 300261401,
    "npcId": [12087],
    "performCfg": "",
    "heroTalk": "TALK_HERO_MAIN",
    "questId": 30026
  },
  {
    "id": 3002701,
    "beginWay": "TALK_BEGIN_MANUAL",
    "beginCond": [
      {
        "type": "QUEST_COND_STATE_EQUAL",
        "param": ["3002701", "2"]
      },
      {
        "param": ["", "", ""]
      },
      {
        "param": ["", "", ""]
      },
      {
        "param": ["", "", ""]
      },
      {
        "param": ["", "", ""]
      }
    ],
    "priority": 5,
    "nextTalks": [],
    "nextRandomTalks": [],
    "initDialog": 300270101,
    "npcId": [12088],
    "performCfg": "",
    "heroTalk": "TALK_HERO_MAIN",
    "questId": 30027
  },
  {
    "id": 3002702,
    "beginWay": "TALK_BEGIN_MANUAL",
    "beginCond": [
      {
        "type": "QUEST_COND_STATE_EQUAL",
        "param": ["3002703", "2"]
      },
      {
        "param": ["", "", ""]
      },
      {
        "param": ["", "", ""]
      },
      {
        "param": ["", "", ""]
      },
      {
        "param": ["", "", ""]
      }
    ],
    "priority": 5,
    "nextTalks": [],
    "nextRandomTalks": [],
    "initDialog": 300270201,
    "npcId": [12088],
    "performCfg": "",
    "heroTalk": "TALK_HERO_MAIN",
    "questId": 30027
  },
  {
    "id": 3002703,
    "beginWay": "TALK_BEGIN_MANUAL",
    "beginCond": [
      {
        "type": "QUEST_COND_STATE_EQUAL",
        "param": ["3002702", "2"]
      },
      {
        "param": ["", "", ""]
      },
      {
        "param": ["", "", ""]
      },
      {
        "param": ["", "", ""]
      },
      {
        "param": ["", "", ""]
      }
    ],
    "priority": 5,
    "nextTalks": [],
    "nextRandomTalks": [],
    "initDialog": 300270301,
    "npcId": [12088],
    "performCfg": "",
    "heroTalk": "TALK_HERO_MAIN",
    "questId": 30027
  },
  {
    "id": 3002801,
    "beginWay": "TALK_BEGIN_MANUAL",
    "beginCond": [
      {
        "type": "QUEST_COND_STATE_EQUAL",
        "param": ["3002801", "2"]
      },
      {
        "param": ["", "", ""]
      },
      {
        "param": ["", "", ""]
      },
      {
        "param": ["", "", ""]
      },
      {
        "param": ["", "", ""]
      }
    ],
    "priority": 5,
    "nextTalks": [],
    "nextRandomTalks": [],
    "initDialog": 300280101,
    "npcId": [12089],
    "performCfg": "",
    "heroTalk": "TALK_HERO_MAIN",
    "questId": 30028
  },
  {
    "id": 3002802,
    "beginWay": "TALK_BEGIN_MANUAL",
    "beginCond": [
      {
        "type": "QUEST_COND_STATE_EQUAL",
        "param": ["3002802", "2"]
      },
      {
        "param": ["", "", ""]
      },
      {
        "param": ["", "", ""]
      },
      {
        "param": ["", "", ""]
      },
      {
        "param": ["", "", ""]
      }
    ],
    "priority": 5,
    "nextTalks": [],
    "nextRandomTalks": [3002804, 3002828, 3002840],
    "showRandomTalkCount": 1,
    "initDialog": 300280401,
    "npcId": [12089],
    "performCfg": "",
    "heroTalk": "TALK_HERO_MAIN",
    "questId": 30028
  },
  {
    "id": 3002804,
    "beginCond": [
      {
        "type": "QUEST_COND_STATE_EQUAL",
        "param": ["3002802", "2"]
      },
      {
        "param": ["", "", ""]
      },
      {
        "param": ["", "", ""]
      },
      {
        "param": ["", "", ""]
      },
      {
        "param": ["", "", ""]
      }
    ],
    "priority": 5,
    "nextTalks": [3002805, 3002806, 3002807],
    "nextRandomTalks": [],
    "initDialog": 300280402,
    "npcId": [12089],
    "performCfg": "",
    "heroTalk": "TALK_HERO_MAIN",
    "questId": 30028
  },
  {
    "id": 3002805,
    "beginCond": [
      {
        "type": "QUEST_COND_STATE_EQUAL",
        "param": ["3002802", "2"]
      },
      {
        "param": ["", "", ""]
      },
      {
        "param": ["", "", ""]
      },
      {
        "param": ["", "", ""]
      },
      {
        "param": ["", "", ""]
      }
    ],
    "priority": 5,
    "nextTalks": [3002808],
    "nextRandomTalks": [],
    "initDialog": 300280501,
    "npcId": [12089],
    "performCfg": "",
    "heroTalk": "TALK_HERO_MAIN",
    "questId": 30028
  },
  {
    "id": 3002806,
    "beginCond": [
      {
        "type": "QUEST_COND_STATE_EQUAL",
        "param": ["3002802", "2"]
      },
      {
        "param": ["", "", ""]
      },
      {
        "param": ["", "", ""]
      },
      {
        "param": ["", "", ""]
      },
      {
        "param": ["", "", ""]
      }
    ],
    "priority": 5,
    "nextTalks": [3002808],
    "nextRandomTalks": [],
    "initDialog": 300280601,
    "npcId": [12089],
    "performCfg": "",
    "heroTalk": "TALK_HERO_MAIN",
    "questId": 30028
  },
  {
    "id": 3002807,
    "beginCond": [
      {
        "type": "QUEST_COND_STATE_EQUAL",
        "param": ["3002802", "2"]
      },
      {
        "param": ["", "", ""]
      },
      {
        "param": ["", "", ""]
      },
      {
        "param": ["", "", ""]
      },
      {
        "param": ["", "", ""]
      }
    ],
    "priority": 5,
    "nextTalks": [3002808],
    "nextRandomTalks": [],
    "initDialog": 300280701,
    "npcId": [12089],
    "performCfg": "",
    "heroTalk": "TALK_HERO_MAIN",
    "questId": 30028
  },
  {
    "id": 3002808,
    "beginCond": [
      {
        "type": "QUEST_COND_STATE_EQUAL",
        "param": ["3002802", "2"]
      },
      {
        "param": ["", "", ""]
      },
      {
        "param": ["", "", ""]
      },
      {
        "param": ["", "", ""]
      },
      {
        "param": ["", "", ""]
      }
    ],
    "priority": 5,
    "nextTalks": [3002809, 3002810, 3002811],
    "nextRandomTalks": [],
    "initDialog": 300280801,
    "npcId": [12089],
    "performCfg": "",
    "heroTalk": "TALK_HERO_MAIN",
    "questId": 30028
  },
  {
    "id": 3002809,
    "beginCond": [
      {
        "type": "QUEST_COND_STATE_EQUAL",
        "param": ["3002802", "2"]
      },
      {
        "param": ["", "", ""]
      },
      {
        "param": ["", "", ""]
      },
      {
        "param": ["", "", ""]
      },
      {
        "param": ["", "", ""]
      }
    ],
    "priority": 5,
    "nextTalks": [3002812],
    "nextRandomTalks": [],
    "initDialog": 300280901,
    "npcId": [12089],
    "performCfg": "",
    "heroTalk": "TALK_HERO_MAIN",
    "questId": 30028
  },
  {
    "id": 3002810,
    "beginCond": [
      {
        "type": "QUEST_COND_STATE_EQUAL",
        "param": ["3002802", "2"]
      },
      {
        "param": ["", "", ""]
      },
      {
        "param": ["", "", ""]
      },
      {
        "param": ["", "", ""]
      },
      {
        "param": ["", "", ""]
      }
    ],
    "priority": 5,
    "nextTalks": [3002812],
    "nextRandomTalks": [],
    "initDialog": 300281001,
    "npcId": [12089],
    "performCfg": "",
    "heroTalk": "TALK_HERO_MAIN",
    "questId": 30028
  },
  {
    "id": 3002811,
    "beginCond": [
      {
        "type": "QUEST_COND_STATE_EQUAL",
        "param": ["3002802", "2"]
      },
      {
        "param": ["", "", ""]
      },
      {
        "param": ["", "", ""]
      },
      {
        "param": ["", "", ""]
      },
      {
        "param": ["", "", ""]
      }
    ],
    "priority": 5,
    "nextTalks": [3002812],
    "nextRandomTalks": [],
    "initDialog": 300281101,
    "npcId": [12089],
    "performCfg": "",
    "heroTalk": "TALK_HERO_MAIN",
    "questId": 30028
  },
  {
    "id": 3002812,
    "beginCond": [
      {
        "type": "QUEST_COND_STATE_EQUAL",
        "param": ["3002802", "2"]
      },
      {
        "param": ["", "", ""]
      },
      {
        "param": ["", "", ""]
      },
      {
        "param": ["", "", ""]
      },
      {
        "param": ["", "", ""]
      }
    ],
    "priority": 5,
    "nextTalks": [3002813, 3002814, 3002815],
    "nextRandomTalks": [],
    "initDialog": 300281201,
    "npcId": [12089],
    "performCfg": "",
    "heroTalk": "TALK_HERO_MAIN",
    "questId": 30028
  },
  {
    "id": 3002813,
    "beginCond": [
      {
        "type": "QUEST_COND_STATE_EQUAL",
        "param": ["3002802", "2"]
      },
      {
        "param": ["", "", ""]
      },
      {
        "param": ["", "", ""]
      },
      {
        "param": ["", "", ""]
      },
      {
        "param": ["", "", ""]
      }
    ],
    "priority": 5,
    "nextTalks": [3002867],
    "nextRandomTalks": [],
    "initDialog": 300281301,
    "npcId": [12089],
    "performCfg": "",
    "heroTalk": "TALK_HERO_MAIN",
    "questId": 30028
  },
  {
    "id": 3002814,
    "beginCond": [
      {
        "type": "QUEST_COND_STATE_EQUAL",
        "param": ["3002802", "2"]
      },
      {
        "param": ["", "", ""]
      },
      {
        "param": ["", "", ""]
      },
      {
        "param": ["", "", ""]
      },
      {
        "param": ["", "", ""]
      }
    ],
    "priority": 5,
    "nextTalks": [3002867],
    "nextRandomTalks": [],
    "initDialog": 300281401,
    "npcId": [12089],
    "performCfg": "",
    "heroTalk": "TALK_HERO_MAIN",
    "questId": 30028
  },
  {
    "id": 3002815,
    "beginCond": [
      {
        "type": "QUEST_COND_STATE_EQUAL",
        "param": ["3002802", "2"]
      },
      {
        "param": ["", "", ""]
      },
      {
        "param": ["", "", ""]
      },
      {
        "param": ["", "", ""]
      },
      {
        "param": ["", "", ""]
      }
    ],
    "priority": 5,
    "nextTalks": [3002867],
    "nextRandomTalks": [],
    "initDialog": 300281501,
    "npcId": [12089],
    "performCfg": "",
    "heroTalk": "TALK_HERO_MAIN",
    "questId": 30028
  },
  {
    "id": 3002828,
    "beginCond": [
      {
        "type": "QUEST_COND_STATE_EQUAL",
        "param": ["3002802", "2"]
      },
      {
        "param": ["", "", ""]
      },
      {
        "param": ["", "", ""]
      },
      {
        "param": ["", "", ""]
      },
      {
        "param": ["", "", ""]
      }
    ],
    "priority": 5,
    "nextTalks": [3002829, 3002830, 3002831],
    "nextRandomTalks": [],
    "initDialog": 300282802,
    "npcId": [12089],
    "performCfg": "",
    "heroTalk": "TALK_HERO_MAIN",
    "questId": 30028
  },
  {
    "id": 3002829,
    "beginCond": [
      {
        "type": "QUEST_COND_STATE_EQUAL",
        "param": ["3002802", "2"]
      },
      {
        "param": ["", "", ""]
      },
      {
        "param": ["", "", ""]
      },
      {
        "param": ["", "", ""]
      },
      {
        "param": ["", "", ""]
      }
    ],
    "priority": 5,
    "nextTalks": [3002832],
    "nextRandomTalks": [],
    "initDialog": 300282901,
    "npcId": [12089],
    "performCfg": "",
    "heroTalk": "TALK_HERO_MAIN",
    "questId": 30028
  },
  {
    "id": 3002830,
    "beginCond": [
      {
        "type": "QUEST_COND_STATE_EQUAL",
        "param": ["3002802", "2"]
      },
      {
        "param": ["", "", ""]
      },
      {
        "param": ["", "", ""]
      },
      {
        "param": ["", "", ""]
      },
      {
        "param": ["", "", ""]
      }
    ],
    "priority": 5,
    "nextTalks": [3002832],
    "nextRandomTalks": [],
    "initDialog": 300283001,
    "npcId": [12089],
    "performCfg": "",
    "heroTalk": "TALK_HERO_MAIN",
    "questId": 30028
  },
  {
    "id": 3002831,
    "beginCond": [
      {
        "type": "QUEST_COND_STATE_EQUAL",
        "param": ["3002802", "2"]
      },
      {
        "param": ["", "", ""]
      },
      {
        "param": ["", "", ""]
      },
      {
        "param": ["", "", ""]
      },
      {
        "param": ["", "", ""]
      }
    ],
    "priority": 5,
    "nextTalks": [3002832],
    "nextRandomTalks": [],
    "initDialog": 300283101,
    "npcId": [12089],
    "performCfg": "",
    "heroTalk": "TALK_HERO_MAIN",
    "questId": 30028
  },
  {
    "id": 3002832,
    "beginCond": [
      {
        "type": "QUEST_COND_STATE_EQUAL",
        "param": ["3002802", "2"]
      },
      {
        "param": ["", "", ""]
      },
      {
        "param": ["", "", ""]
      },
      {
        "param": ["", "", ""]
      },
      {
        "param": ["", "", ""]
      }
    ],
    "priority": 5,
    "nextTalks": [3002833, 3002834, 3002835],
    "nextRandomTalks": [],
    "initDialog": 300283201,
    "npcId": [12089],
    "performCfg": "",
    "heroTalk": "TALK_HERO_MAIN",
    "questId": 30028
  },
  {
    "id": 3002833,
    "beginCond": [
      {
        "type": "QUEST_COND_STATE_EQUAL",
        "param": ["3002802", "2"]
      },
      {
        "param": ["", "", ""]
      },
      {
        "param": ["", "", ""]
      },
      {
        "param": ["", "", ""]
      },
      {
        "param": ["", "", ""]
      }
    ],
    "priority": 5,
    "nextTalks": [3002836],
    "nextRandomTalks": [],
    "initDialog": 300283301,
    "npcId": [12089],
    "performCfg": "",
    "heroTalk": "TALK_HERO_MAIN",
    "questId": 30028
  },
  {
    "id": 3002834,
    "beginCond": [
      {
        "type": "QUEST_COND_STATE_EQUAL",
        "param": ["3002802", "2"]
      },
      {
        "param": ["", "", ""]
      },
      {
        "param": ["", "", ""]
      },
      {
        "param": ["", "", ""]
      },
      {
        "param": ["", "", ""]
      }
    ],
    "priority": 5,
    "nextTalks": [3002836],
    "nextRandomTalks": [],
    "initDialog": 300283401,
    "npcId": [12089],
    "performCfg": "",
    "heroTalk": "TALK_HERO_MAIN",
    "questId": 30028
  },
  {
    "id": 3002835,
    "beginCond": [
      {
        "type": "QUEST_COND_STATE_EQUAL",
        "param": ["3002802", "2"]
      },
      {
        "param": ["", "", ""]
      },
      {
        "param": ["", "", ""]
      },
      {
        "param": ["", "", ""]
      },
      {
        "param": ["", "", ""]
      }
    ],
    "priority": 5,
    "nextTalks": [3002836],
    "nextRandomTalks": [],
    "initDialog": 300283501,
    "npcId": [12089],
    "performCfg": "",
    "heroTalk": "TALK_HERO_MAIN",
    "questId": 30028
  },
  {
    "id": 3002836,
    "beginCond": [
      {
        "type": "QUEST_COND_STATE_EQUAL",
        "param": ["3002802", "2"]
      },
      {
        "param": ["", "", ""]
      },
      {
        "param": ["", "", ""]
      },
      {
        "param": ["", "", ""]
      },
      {
        "param": ["", "", ""]
      }
    ],
    "priority": 5,
    "nextTalks": [3002837, 3002838, 3002839],
    "nextRandomTalks": [],
    "initDialog": 300283601,
    "npcId": [12089],
    "performCfg": "",
    "heroTalk": "TALK_HERO_MAIN",
    "questId": 30028
  },
  {
    "id": 3002837,
    "beginCond": [
      {
        "type": "QUEST_COND_STATE_EQUAL",
        "param": ["3002802", "2"]
      },
      {
        "param": ["", "", ""]
      },
      {
        "param": ["", "", ""]
      },
      {
        "param": ["", "", ""]
      },
      {
        "param": ["", "", ""]
      }
    ],
    "priority": 5,
    "nextTalks": [3002867],
    "nextRandomTalks": [],
    "initDialog": 300283701,
    "npcId": [12089],
    "performCfg": "",
    "heroTalk": "TALK_HERO_MAIN",
    "questId": 30028
  },
  {
    "id": 3002838,
    "beginCond": [
      {
        "type": "QUEST_COND_STATE_EQUAL",
        "param": ["3002802", "2"]
      },
      {
        "param": ["", "", ""]
      },
      {
        "param": ["", "", ""]
      },
      {
        "param": ["", "", ""]
      },
      {
        "param": ["", "", ""]
      }
    ],
    "priority": 5,
    "nextTalks": [3002867],
    "nextRandomTalks": [],
    "initDialog": 300283801,
    "npcId": [12089],
    "performCfg": "",
    "heroTalk": "TALK_HERO_MAIN",
    "questId": 30028
  },
  {
    "id": 3002839,
    "beginCond": [
      {
        "type": "QUEST_COND_STATE_EQUAL",
        "param": ["3002802", "2"]
      },
      {
        "param": ["", "", ""]
      },
      {
        "param": ["", "", ""]
      },
      {
        "param": ["", "", ""]
      },
      {
        "param": ["", "", ""]
      }
    ],
    "priority": 5,
    "nextTalks": [3002867],
    "nextRandomTalks": [],
    "initDialog": 300283901,
    "npcId": [12089],
    "performCfg": "",
    "heroTalk": "TALK_HERO_MAIN",
    "questId": 30028
  },
  {
    "id": 3002840,
    "beginCond": [
      {
        "type": "QUEST_COND_STATE_EQUAL",
        "param": ["3002802", "2"]
      },
      {
        "param": ["", "", ""]
      },
      {
        "param": ["", "", ""]
      },
      {
        "param": ["", "", ""]
      },
      {
        "param": ["", "", ""]
      }
    ],
    "priority": 5,
    "nextTalks": [3002841, 3002842, 3002843],
    "nextRandomTalks": [],
    "initDialog": 300284002,
    "npcId": [12089],
    "performCfg": "",
    "heroTalk": "TALK_HERO_MAIN",
    "questId": 30028
  },
  {
    "id": 3002841,
    "beginCond": [
      {
        "type": "QUEST_COND_STATE_EQUAL",
        "param": ["3002802", "2"]
      },
      {
        "param": ["", "", ""]
      },
      {
        "param": ["", "", ""]
      },
      {
        "param": ["", "", ""]
      },
      {
        "param": ["", "", ""]
      }
    ],
    "priority": 5,
    "nextTalks": [3002844],
    "nextRandomTalks": [],
    "initDialog": 300284101,
    "npcId": [12089],
    "performCfg": "",
    "heroTalk": "TALK_HERO_MAIN",
    "questId": 30028
  },
  {
    "id": 3002842,
    "beginCond": [
      {
        "type": "QUEST_COND_STATE_EQUAL",
        "param": ["3002802", "2"]
      },
      {
        "param": ["", "", ""]
      },
      {
        "param": ["", "", ""]
      },
      {
        "param": ["", "", ""]
      },
      {
        "param": ["", "", ""]
      }
    ],
    "priority": 5,
    "nextTalks": [3002844],
    "nextRandomTalks": [],
    "initDialog": 300284201,
    "npcId": [12089],
    "performCfg": "",
    "heroTalk": "TALK_HERO_MAIN",
    "questId": 30028
  },
  {
    "id": 3002843,
    "beginCond": [
      {
        "type": "QUEST_COND_STATE_EQUAL",
        "param": ["3002802", "2"]
      },
      {
        "param": ["", "", ""]
      },
      {
        "param": ["", "", ""]
      },
      {
        "param": ["", "", ""]
      },
      {
        "param": ["", "", ""]
      }
    ],
    "priority": 5,
    "nextTalks": [3002844],
    "nextRandomTalks": [],
    "initDialog": 300284301,
    "npcId": [12089],
    "performCfg": "",
    "heroTalk": "TALK_HERO_MAIN",
    "questId": 30028
  },
  {
    "id": 3002844,
    "beginCond": [
      {
        "type": "QUEST_COND_STATE_EQUAL",
        "param": ["3002802", "2"]
      },
      {
        "param": ["", "", ""]
      },
      {
        "param": ["", "", ""]
      },
      {
        "param": ["", "", ""]
      },
      {
        "param": ["", "", ""]
      }
    ],
    "priority": 5,
    "nextTalks": [3002845, 3002846, 3002847],
    "nextRandomTalks": [],
    "initDialog": 300284401,
    "npcId": [12089],
    "performCfg": "",
    "heroTalk": "TALK_HERO_MAIN",
    "questId": 30028
  },
  {
    "id": 3002845,
    "beginCond": [
      {
        "type": "QUEST_COND_STATE_EQUAL",
        "param": ["3002802", "2"]
      },
      {
        "param": ["", "", ""]
      },
      {
        "param": ["", "", ""]
      },
      {
        "param": ["", "", ""]
      },
      {
        "param": ["", "", ""]
      }
    ],
    "priority": 5,
    "nextTalks": [3002848],
    "nextRandomTalks": [],
    "initDialog": 300284501,
    "npcId": [12089],
    "performCfg": "",
    "heroTalk": "TALK_HERO_MAIN",
    "questId": 30028
  },
  {
    "id": 3002846,
    "beginCond": [
      {
        "type": "QUEST_COND_STATE_EQUAL",
        "param": ["3002802", "2"]
      },
      {
        "param": ["", "", ""]
      },
      {
        "param": ["", "", ""]
      },
      {
        "param": ["", "", ""]
      },
      {
        "param": ["", "", ""]
      }
    ],
    "priority": 5,
    "nextTalks": [3002848],
    "nextRandomTalks": [],
    "initDialog": 300284601,
    "npcId": [12089],
    "performCfg": "",
    "heroTalk": "TALK_HERO_MAIN",
    "questId": 30028
  },
  {
    "id": 3002847,
    "beginCond": [
      {
        "type": "QUEST_COND_STATE_EQUAL",
        "param": ["3002802", "2"]
      },
      {
        "param": ["", "", ""]
      },
      {
        "param": ["", "", ""]
      },
      {
        "param": ["", "", ""]
      },
      {
        "param": ["", "", ""]
      }
    ],
    "priority": 5,
    "nextTalks": [3002848],
    "nextRandomTalks": [],
    "initDialog": 300284701,
    "npcId": [12089],
    "performCfg": "",
    "heroTalk": "TALK_HERO_MAIN",
    "questId": 30028
  },
  {
    "id": 3002848,
    "beginCond": [
      {
        "type": "QUEST_COND_STATE_EQUAL",
        "param": ["3002802", "2"]
      },
      {
        "param": ["", "", ""]
      },
      {
        "param": ["", "", ""]
      },
      {
        "param": ["", "", ""]
      },
      {
        "param": ["", "", ""]
      }
    ],
    "priority": 5,
    "nextTalks": [3002849, 3002850, 3002851],
    "nextRandomTalks": [],
    "initDialog": 300284801,
    "npcId": [12089],
    "performCfg": "",
    "heroTalk": "TALK_HERO_MAIN",
    "questId": 30028
  },
  {
    "id": 3002849,
    "beginCond": [
      {
        "type": "QUEST_COND_STATE_EQUAL",
        "param": ["3002802", "2"]
      },
      {
        "param": ["", "", ""]
      },
      {
        "param": ["", "", ""]
      },
      {
        "param": ["", "", ""]
      },
      {
        "param": ["", "", ""]
      }
    ],
    "priority": 5,
    "nextTalks": [3002867],
    "nextRandomTalks": [],
    "initDialog": 300284901,
    "npcId": [12089],
    "performCfg": "",
    "heroTalk": "TALK_HERO_MAIN",
    "questId": 30028
  },
  {
    "id": 3002850,
    "beginCond": [
      {
        "type": "QUEST_COND_STATE_EQUAL",
        "param": ["3002802", "2"]
      },
      {
        "param": ["", "", ""]
      },
      {
        "param": ["", "", ""]
      },
      {
        "param": ["", "", ""]
      },
      {
        "param": ["", "", ""]
      }
    ],
    "priority": 5,
    "nextTalks": [3002867],
    "nextRandomTalks": [],
    "initDialog": 300285001,
    "npcId": [12089],
    "performCfg": "",
    "heroTalk": "TALK_HERO_MAIN",
    "questId": 30028
  },
  {
    "id": 3002851,
    "beginCond": [
      {
        "type": "QUEST_COND_STATE_EQUAL",
        "param": ["3002802", "2"]
      },
      {
        "param": ["", "", ""]
      },
      {
        "param": ["", "", ""]
      },
      {
        "param": ["", "", ""]
      },
      {
        "param": ["", "", ""]
      }
    ],
    "priority": 5,
    "nextTalks": [3002867],
    "nextRandomTalks": [],
    "initDialog": 300285101,
    "npcId": [12089],
    "performCfg": "",
    "heroTalk": "TALK_HERO_MAIN",
    "questId": 30028
  },
  {
    "id": 3002867,
    "beginCond": [
      {
        "type": "QUEST_COND_STATE_EQUAL",
        "param": ["3002802", "2"]
      },
      {
        "param": ["", "", ""]
      },
      {
        "param": ["", "", ""]
      },
      {
        "param": ["", "", ""]
      },
      {
        "param": ["", "", ""]
      }
    ],
    "priority": 5,
    "nextTalks": [3002864, 3002865],
    "nextRandomTalks": [],
    "initDialog": 300286701,
    "npcId": [12089],
    "performCfg": "",
    "heroTalk": "TALK_HERO_MAIN",
    "questId": 30028
  },
  {
    "id": 3002864,
    "beginCondComb": "LOGIC_AND",
    "beginCond": [
      {
        "type": "QUEST_COND_STATE_EQUAL",
        "param": ["3002802", "2"]
      },
      {
        "type": "QUEST_COND_QUEST_GLOBAL_VAR_EQUAL",
        "param": ["3002801", "1", ""]
      },
      {
        "type": "QUEST_COND_QUEST_GLOBAL_VAR_EQUAL",
        "param": ["3002802", "1", ""]
      },
      {
        "type": "QUEST_COND_QUEST_GLOBAL_VAR_EQUAL",
        "param": ["3002803", "1", ""]
      },
      {
        "param": ["", "", ""]
      }
    ],
    "priority": 5,
    "nextTalks": [],
    "nextRandomTalks": [],
    "initDialog": 300286401,
    "npcId": [12089],
    "performCfg": "",
    "heroTalk": "TALK_HERO_MAIN",
    "questId": 30028
  },
  {
    "id": 3002865,
    "beginCondComb": "LOGIC_A_AND_ETCOR",
    "beginCond": [
      {
        "type": "QUEST_COND_STATE_EQUAL",
        "param": ["3002802", "2"]
      },
      {
        "type": "QUEST_COND_QUEST_GLOBAL_VAR_EQUAL",
        "param": ["3002801", "2", ""]
      },
      {
        "type": "QUEST_COND_QUEST_GLOBAL_VAR_EQUAL",
        "param": ["3002802", "2", ""]
      },
      {
        "type": "QUEST_COND_QUEST_GLOBAL_VAR_EQUAL",
        "param": ["3002803", "2", ""]
      },
      {
        "param": ["", "", ""]
      }
    ],
    "priority": 5,
    "nextTalks": [],
    "nextRandomTalks": [],
    "initDialog": 300286501,
    "npcId": [12089],
    "performCfg": "",
    "heroTalk": "TALK_HERO_MAIN",
    "questId": 30028
  },
  {
    "id": 3002901,
    "beginWay": "TALK_BEGIN_MANUAL",
    "beginCond": [
      {
        "type": "QUEST_COND_STATE_EQUAL",
        "param": ["3002902", "2"]
      },
      {
        "param": ["", "", ""]
      },
      {
        "param": ["", "", ""]
      },
      {
        "param": ["", "", ""]
      },
      {
        "param": ["", "", ""]
      }
    ],
    "priority": 5,
    "nextTalks": [],
    "nextRandomTalks": [],
    "initDialog": 300290101,
    "npcId": [12090],
    "performCfg": "",
    "heroTalk": "TALK_HERO_MAIN",
    "questId": 30029
  },
  {
    "id": 3003001,
    "beginWay": "TALK_BEGIN_MANUAL",
    "beginCondComb": "LOGIC_AND",
    "beginCond": [
      {
        "type": "QUEST_COND_STATE_EQUAL",
        "param": ["3003002", "2"]
      },
      {
        "type": "QUEST_COND_QUEST_GLOBAL_VAR_EQUAL",
        "param": ["30032", "0", ""]
      },
      {
        "param": ["", "", ""]
      },
      {
        "param": ["", "", ""]
      },
      {
        "param": ["", "", ""]
      }
    ],
    "priority": 5,
    "nextTalks": [],
    "nextRandomTalks": [],
    "initDialog": 300300101,
    "npcId": [12109],
    "performCfg": "",
    "heroTalk": "TALK_HERO_MAIN",
    "questId": 30030
  },
  {
    "id": 3003002,
    "beginWay": "TALK_BEGIN_MANUAL",
    "beginCondComb": "LOGIC_AND",
    "beginCond": [
      {
        "type": "QUEST_COND_STATE_EQUAL",
        "param": ["3003002", "2"]
      },
      {
        "type": "QUEST_COND_QUEST_GLOBAL_VAR_EQUAL",
        "param": ["30032", "1", ""]
      },
      {
        "param": ["", "", ""]
      },
      {
        "param": ["", "", ""]
      },
      {
        "param": ["", "", ""]
      }
    ],
    "priority": 5,
    "nextTalks": [],
    "nextRandomTalks": [],
    "initDialog": 300300301,
    "npcId": [12109],
    "performCfg": "",
    "heroTalk": "TALK_HERO_MAIN",
    "questId": 30030
  },
  {
    "id": 3003101,
    "beginWay": "TALK_BEGIN_MANUAL",
    "beginCond": [
      {
        "type": "QUEST_COND_STATE_EQUAL",
        "param": ["3003101", "2"]
      },
      {
        "param": ["", "", ""]
      },
      {
        "param": ["", "", ""]
      },
      {
        "param": ["", "", ""]
      },
      {
        "param": ["", "", ""]
      }
    ],
    "priority": 5,
    "nextTalks": [],
    "nextRandomTalks": [],
    "initDialog": 300310101,
    "npcId": [12088],
    "performCfg": "",
    "heroTalk": "TALK_HERO_MAIN",
    "questId": 30031
  },
  {
    "id": 3003102,
    "beginWay": "TALK_BEGIN_MANUAL",
    "beginCond": [
      {
        "type": "QUEST_COND_STATE_EQUAL",
        "param": ["3003103", "2"]
      },
      {
        "param": ["", "", ""]
      },
      {
        "param": ["", "", ""]
      },
      {
        "param": ["", "", ""]
      },
      {
        "param": ["", "", ""]
      }
    ],
    "priority": 5,
    "nextTalks": [],
    "nextRandomTalks": [],
    "initDialog": 300310201,
    "npcId": [12088],
    "performCfg": "",
    "heroTalk": "TALK_HERO_MAIN",
    "questId": 30031
  },
  {
    "id": 3003103,
    "beginWay": "TALK_BEGIN_MANUAL",
    "beginCond": [
      {
        "type": "QUEST_COND_STATE_EQUAL",
        "param": ["3003102", "2"]
      },
      {
        "param": ["", "", ""]
      },
      {
        "param": ["", "", ""]
      },
      {
        "param": ["", "", ""]
      },
      {
        "param": ["", "", ""]
      }
    ],
    "priority": 5,
    "nextTalks": [],
    "nextRandomTalks": [],
    "initDialog": 300310301,
    "npcId": [12088],
    "performCfg": "",
    "heroTalk": "TALK_HERO_MAIN",
    "questId": 30031
  },
  {
    "id": 3003201,
    "beginWay": "TALK_BEGIN_MANUAL",
    "beginCond": [
      {
        "type": "QUEST_COND_STATE_EQUAL",
        "param": ["3003202", "2"]
      },
      {
        "param": ["", "", ""]
      },
      {
        "param": ["", "", ""]
      },
      {
        "param": ["", "", ""]
      },
      {
        "param": ["", "", ""]
      }
    ],
    "priority": 5,
    "nextTalks": [3003208, 3003209],
    "nextRandomTalks": [],
    "initDialog": 300320101,
    "npcId": [20910],
    "performCfg": "",
    "heroTalk": "TALK_HERO_MAIN",
    "questId": 30032
  },
  {
    "id": 3003208,
    "beginCond": [
      {
        "type": "QUEST_COND_STATE_EQUAL",
        "param": ["3003202", "2"]
      },
      {
        "param": ["", "", ""]
      },
      {
        "param": ["", "", ""]
      },
      {
        "param": ["", "", ""]
      },
      {
        "param": ["", "", ""]
      }
    ],
    "priority": 5,
    "nextTalks": [],
    "nextRandomTalks": [],
    "initDialog": 300320801,
    "npcId": [20910],
    "performCfg": "",
    "heroTalk": "TALK_HERO_MAIN",
    "questId": 30032
  },
  {
    "id": 3003209,
    "beginCond": [
      {
        "type": "QUEST_COND_STATE_EQUAL",
        "param": ["3003202", "2"]
      },
      {
        "param": ["", "", ""]
      },
      {
        "param": ["", "", ""]
      },
      {
        "param": ["", "", ""]
      },
      {
        "param": ["", "", ""]
      }
    ],
    "priority": 5,
    "nextTalks": [],
    "nextRandomTalks": [],
    "initDialog": 300320901,
    "npcId": [20910],
    "performCfg": "",
    "heroTalk": "TALK_HERO_MAIN",
    "questId": 30032
  },
  {
    "id": 3003202,
    "beginWay": "TALK_BEGIN_MANUAL",
    "beginCond": [
      {
        "type": "QUEST_COND_STATE_EQUAL",
        "param": ["3003204", "2"]
      },
      {
        "param": ["", "", ""]
      },
      {
        "param": ["", "", ""]
      },
      {
        "param": ["", "", ""]
      },
      {
        "param": ["", "", ""]
      }
    ],
    "priority": 5,
    "nextTalks": [3003203, 3003204],
    "nextRandomTalks": [],
    "initDialog": 300320201,
    "npcId": [20910],
    "performCfg": "",
    "heroTalk": "TALK_HERO_MAIN",
    "questId": 30032
  },
  {
    "id": 3003203,
    "beginCond": [
      {
        "type": "QUEST_COND_STATE_EQUAL",
        "param": ["3003204", "2"]
      },
      {
        "param": ["", "", ""]
      },
      {
        "param": ["", "", ""]
      },
      {
        "param": ["", "", ""]
      },
      {
        "param": ["", "", ""]
      }
    ],
    "priority": 5,
    "nextTalks": [],
    "nextRandomTalks": [],
    "initDialog": 300320301,
    "npcId": [20910],
    "performCfg": "",
    "heroTalk": "TALK_HERO_MAIN",
    "questId": 30032
  },
  {
    "id": 3003204,
    "beginCond": [
      {
        "type": "QUEST_COND_STATE_EQUAL",
        "param": ["3003204", "2"]
      },
      {
        "param": ["", "", ""]
      },
      {
        "param": ["", "", ""]
      },
      {
        "param": ["", "", ""]
      },
      {
        "param": ["", "", ""]
      }
    ],
    "priority": 5,
    "nextTalks": [],
    "nextRandomTalks": [],
    "initDialog": 300320401,
    "npcId": [20910],
    "performCfg": "",
    "heroTalk": "TALK_HERO_MAIN",
    "questId": 30032
  },
  {
    "id": 3003205,
    "beginWay": "TALK_BEGIN_MANUAL",
    "beginCond": [
      {
        "type": "QUEST_COND_STATE_EQUAL",
        "param": ["3003205", "2"]
      },
      {
        "param": ["", "", ""]
      },
      {
        "param": ["", "", ""]
      },
      {
        "param": ["", "", ""]
      },
      {
        "param": ["", "", ""]
      }
    ],
    "priority": 5,
    "nextTalks": [3003206, 3003207],
    "nextRandomTalks": [],
    "initDialog": 300320501,
    "npcId": [20910],
    "performCfg": "",
    "heroTalk": "TALK_HERO_MAIN",
    "questId": 30032
  },
  {
    "id": 3003206,
    "beginCond": [
      {
        "type": "QUEST_COND_STATE_EQUAL",
        "param": ["3003205", "2"]
      },
      {
        "param": ["", "", ""]
      },
      {
        "param": ["", "", ""]
      },
      {
        "param": ["", "", ""]
      },
      {
        "param": ["", "", ""]
      }
    ],
    "priority": 5,
    "nextTalks": [],
    "nextRandomTalks": [],
    "initDialog": 300320601,
    "npcId": [20910],
    "performCfg": "",
    "heroTalk": "TALK_HERO_MAIN",
    "questId": 30032
  },
  {
    "id": 3003207,
    "beginCond": [
      {
        "type": "QUEST_COND_STATE_EQUAL",
        "param": ["3003205", "2"]
      },
      {
        "param": ["", "", ""]
      },
      {
        "param": ["", "", ""]
      },
      {
        "param": ["", "", ""]
      },
      {
        "param": ["", "", ""]
      }
    ],
    "priority": 5,
    "nextTalks": [],
    "nextRandomTalks": [],
    "initDialog": 300320701,
    "npcId": [20910],
    "performCfg": "",
    "heroTalk": "TALK_HERO_MAIN",
    "questId": 30032
  },
  {
    "id": 3003301,
    "beginWay": "TALK_BEGIN_MANUAL",
    "beginCondComb": "LOGIC_AND",
    "beginCond": [
      {
        "type": "QUEST_COND_STATE_EQUAL",
        "param": ["3003302", "2"]
      },
      {
        "type": "QUEST_COND_STATE_EQUAL",
        "param": ["3003303", "2", ""]
      },
      {
        "param": ["", "", ""]
      },
      {
        "param": ["", "", ""]
      },
      {
        "param": ["", "", ""]
      }
    ],
    "priority": 5,
    "nextTalks": [],
    "nextRandomTalks": [],
    "initDialog": 300330101,
    "npcId": [12109],
    "performCfg": "",
    "heroTalk": "TALK_HERO_MAIN",
    "questId": 30033
  },
  {
    "id": 3003302,
    "beginWay": "TALK_BEGIN_MANUAL",
    "beginCondComb": "LOGIC_AND",
    "beginCond": [
      {
        "type": "QUEST_COND_STATE_EQUAL",
        "param": ["3003302", "2"]
      },
      {
        "type": "QUEST_COND_STATE_EQUAL",
        "param": ["3003303", "3", ""]
      },
      {
        "param": ["", "", ""]
      },
      {
        "param": ["", "", ""]
      },
      {
        "param": ["", "", ""]
      }
    ],
    "priority": 5,
    "nextTalks": [],
    "nextRandomTalks": [],
    "initDialog": 300330201,
    "npcId": [12109],
    "performCfg": "",
    "heroTalk": "TALK_HERO_MAIN",
    "questId": 30033
  }
]
