[
  {
    "floorId": 1001,
    "floorIndex": 1,
    "levelGroupId": 1,
    "overrideMonsterLevel": 25,
    "teamNum": 1,
    "rewardIdFiveStars": 610001,
    "rewardIdTenStars": 610021,
    "rewardIdFifteenStars": 610041,
    "rewardIdThreeStars": 610001,
    "rewardIdSixStars": 610021,
    "rewardIdNineStars": 610041,
    "unlockStarCount": 6,
    "floorLevelConfigId": 1200,
    "bgImage": "UI_TowerPic_1"
  },
  {
    "floorId": 1002,
    "floorIndex": 2,
    "levelGroupId": 2,
    "overrideMonsterLevel": 40,
    "teamNum": 1,
    "rewardIdFiveStars": 610002,
    "rewardIdTenStars": 610022,
    "rewardIdFifteenStars": 610042,
    "rewardIdThreeStars": 610002,
    "rewardIdSixStars": 610022,
    "rewardIdNineStars": 610042,
    "unlockStarCount": 6,
    "floorLevelConfigId": 1201,
    "bgImage": "UI_TowerPic_1"
  },
  {
    "floorId": 1003,
    "floorIndex": 3,
    "levelGroupId": 3,
    "overrideMonsterLevel": 45,
    "teamNum": 1,
    "rewardIdFiveStars": 610003,
    "rewardIdTenStars": 610023,
    "rewardIdFifteenStars": 610043,
    "rewardIdThreeStars": 610003,
    "rewardIdSixStars": 610023,
    "rewardIdNineStars": 610043,
    "unlockStarCount": 6,
    "floorLevelConfigId": 1202,
    "bgImage": "UI_TowerPic_2"
  },
  {
    "floorId": 1004,
    "floorIndex": 4,
    "levelGroupId": 4,
    "overrideMonsterLevel": 50,
    "teamNum": 1,
    "rewardIdFiveStars": 610004,
    "rewardIdTenStars": 610024,
    "rewardIdFifteenStars": 610044,
    "rewardIdThreeStars": 610004,
    "rewardIdSixStars": 610024,
    "rewardIdNineStars": 610044,
    "unlockStarCount": 6,
    "floorLevelConfigId": 1203,
    "bgImage": "UI_TowerPic_2"
  },
  {
    "floorId": 1005,
    "floorIndex": 5,
    "levelGroupId": 5,
    "overrideMonsterLevel": 55,
    "teamNum": 2,
    "rewardIdFiveStars": 610005,
    "rewardIdTenStars": 610025,
    "rewardIdFifteenStars": 610045,
    "rewardIdThreeStars": 610005,
    "rewardIdSixStars": 610025,
    "rewardIdNineStars": 610045,
    "unlockStarCount": 6,
    "floorLevelConfigId": 1306,
    "bgImage": "UI_TowerPic_2"
  },
  {
    "floorId": 1006,
    "floorIndex": 6,
    "levelGroupId": 6,
    "overrideMonsterLevel": 60,
    "teamNum": 2,
    "rewardIdFiveStars": 610006,
    "rewardIdTenStars": 610026,
    "rewardIdFifteenStars": 610046,
    "rewardIdThreeStars": 610006,
    "rewardIdSixStars": 610026,
    "rewardIdNineStars": 610046,
    "unlockStarCount": 6,
    "floorLevelConfigId": 1307,
    "bgImage": "UI_TowerPic_3"
  },
  {
    "floorId": 1007,
    "floorIndex": 7,
    "levelGroupId": 7,
    "overrideMonsterLevel": 65,
    "teamNum": 2,
    "rewardIdFiveStars": 610007,
    "rewardIdTenStars": 610027,
    "rewardIdFifteenStars": 610047,
    "rewardIdThreeStars": 610007,
    "rewardIdSixStars": 610027,
    "rewardIdNineStars": 610047,
    "unlockStarCount": 6,
    "floorLevelConfigId": 1308,
    "bgImage": "UI_TowerPic_3"
  },
  {
    "floorId": 1008,
    "floorIndex": 8,
    "levelGroupId": 8,
    "overrideMonsterLevel": 70,
    "teamNum": 2,
    "rewardIdFiveStars": 610008,
    "rewardIdTenStars": 610028,
    "rewardIdFifteenStars": 610048,
    "rewardIdThreeStars": 610008,
    "rewardIdSixStars": 610028,
    "rewardIdNineStars": 610048,
    "unlockStarCount": 6,
    "floorLevelConfigId": 1309,
    "bgImage": "UI_TowerPic_3"
  },
  {
    "floorId": 1009,
    "floorIndex": 9,
    "levelGroupId": 9,
    "overrideMonsterLevel": 72,
    "teamNum": 2,
    "rewardIdFiveStars": 610009,
    "rewardIdTenStars": 610029,
    "rewardIdFifteenStars": 610049,
    "rewardIdThreeStars": 610009,
    "rewardIdSixStars": 610029,
    "rewardIdNineStars": 610049,
    "unlockStarCount": 6,
    "floorLevelConfigId": 1219,
    "bgImage": "UI_TowerPic_4"
  },
  {
    "floorId": 1010,
    "floorIndex": 10,
    "levelGroupId": 10,
    "overrideMonsterLevel": 80,
    "teamNum": 2,
    "rewardIdFiveStars": 610010,
    "rewardIdTenStars": 610030,
    "rewardIdFifteenStars": 610050,
    "rewardIdThreeStars": 610010,
    "rewardIdSixStars": 610030,
    "rewardIdNineStars": 610050,
    "unlockStarCount": 6,
    "floorLevelConfigId": 1220,
    "bgImage": "UI_TowerPic_8"
  },
  {
    "floorId": 1011,
    "floorIndex": 11,
    "levelGroupId": 11,
    "overrideMonsterLevel": 88,
    "teamNum": 2,
    "rewardIdFiveStars": 610011,
    "rewardIdTenStars": 610031,
    "rewardIdFifteenStars": 610051,
    "rewardIdThreeStars": 610011,
    "rewardIdSixStars": 610031,
    "rewardIdNineStars": 610051,
    "unlockStarCount": 6,
    "floorLevelConfigId": 1221,
    "bgImage": "UI_TowerPic_5"
  },
  {
    "floorId": 1012,
    "floorIndex": 12,
    "levelGroupId": 12,
    "overrideMonsterLevel": 95,
    "teamNum": 2,
    "rewardIdFiveStars": 610012,
    "rewardIdTenStars": 610032,
    "rewardIdFifteenStars": 610052,
    "rewardIdThreeStars": 610012,
    "rewardIdSixStars": 610032,
    "rewardIdNineStars": 610052,
    "unlockStarCount": 6,
    "floorLevelConfigId": 1222,
    "bgImage": "UI_TowerPic_9"
  },
  {
    "floorId": 1013,
    "floorIndex": 9,
    "levelGroupId": 13,
    "overrideMonsterLevel": 72,
    "teamNum": 2,
    "rewardIdFiveStars": 610009,
    "rewardIdTenStars": 610029,
    "rewardIdFifteenStars": 610049,
    "rewardIdThreeStars": 610009,
    "rewardIdSixStars": 610029,
    "rewardIdNineStars": 610049,
    "unlockStarCount": 6,
    "floorLevelConfigId": 1313,
    "bgImage": "UI_TowerPic_9"
  },
  {
    "floorId": 1014,
    "floorIndex": 10,
    "levelGroupId": 14,
    "overrideMonsterLevel": 80,
    "teamNum": 2,
    "rewardIdFiveStars": 610010,
    "rewardIdTenStars": 610030,
    "rewardIdFifteenStars": 610050,
    "rewardIdThreeStars": 610010,
    "rewardIdSixStars": 610030,
    "rewardIdNineStars": 610050,
    "unlockStarCount": 6,
    "floorLevelConfigId": 1314,
    "bgImage": "UI_TowerPic_9"
  },
  {
    "floorId": 1015,
    "floorIndex": 11,
    "levelGroupId": 15,
    "overrideMonsterLevel": 88,
    "teamNum": 2,
    "rewardIdFiveStars": 610011,
    "rewardIdTenStars": 610031,
    "rewardIdFifteenStars": 610051,
    "rewardIdThreeStars": 610011,
    "rewardIdSixStars": 610031,
    "rewardIdNineStars": 610051,
    "unlockStarCount": 6,
    "floorLevelConfigId": 1316,
    "bgImage": "UI_TowerPic_10"
  },
  {
    "floorId": 1016,
    "floorIndex": 12,
    "levelGroupId": 16,
    "overrideMonsterLevel": 95,
    "teamNum": 2,
    "rewardIdFiveStars": 610012,
    "rewardIdTenStars": 610032,
    "rewardIdFifteenStars": 610052,
    "rewardIdThreeStars": 610012,
    "rewardIdSixStars": 610032,
    "rewardIdNineStars": 610052,
    "unlockStarCount": 6,
    "floorLevelConfigId": 1315,
    "bgImage": "UI_TowerPic_5"
  },
  {
    "floorId": 1017,
    "floorIndex": 12,
    "levelGroupId": 17,
    "overrideMonsterLevel": 95,
    "teamNum": 2,
    "rewardIdFiveStars": 610012,
    "rewardIdTenStars": 610032,
    "rewardIdFifteenStars": 610052,
    "rewardIdThreeStars": 610012,
    "rewardIdSixStars": 610032,
    "rewardIdNineStars": 610052,
    "unlockStarCount": 6,
    "floorLevelConfigId": 1363,
    "bgImage": "UI_TowerPic_5"
  },
  {
    "floorId": 1018,
    "floorIndex": 11,
    "levelGroupId": 18,
    "overrideMonsterLevel": 88,
    "teamNum": 2,
    "rewardIdFiveStars": 610011,
    "rewardIdTenStars": 610031,
    "rewardIdFifteenStars": 610051,
    "rewardIdThreeStars": 610011,
    "rewardIdSixStars": 610031,
    "rewardIdNineStars": 610051,
    "unlockStarCount": 6,
    "floorLevelConfigId": 1380,
    "bgImage": "UI_TowerPic_11"
  },
  {
    "floorId": 1019,
    "floorIndex": 12,
    "levelGroupId": 19,
    "overrideMonsterLevel": 95,
    "teamNum": 2,
    "rewardIdFiveStars": 610012,
    "rewardIdTenStars": 610032,
    "rewardIdFifteenStars": 610052,
    "rewardIdThreeStars": 610012,
    "rewardIdSixStars": 610032,
    "rewardIdNineStars": 610052,
    "unlockStarCount": 6,
    "floorLevelConfigId": 1381,
    "bgImage": "UI_TowerPic_5"
  },
  {
    "floorId": 1020,
    "floorIndex": 9,
    "levelGroupId": 20,
    "overrideMonsterLevel": 72,
    "teamNum": 2,
    "rewardIdFiveStars": 610009,
    "rewardIdTenStars": 610029,
    "rewardIdFifteenStars": 610049,
    "rewardIdThreeStars": 610009,
    "rewardIdSixStars": 610029,
    "rewardIdNineStars": 610049,
    "unlockStarCount": 6,
    "floorLevelConfigId": 1313,
    "bgImage": "UI_TowerPic_9"
  },
  {
    "floorId": 1021,
    "floorIndex": 10,
    "levelGroupId": 21,
    "overrideMonsterLevel": 80,
    "teamNum": 2,
    "rewardIdFiveStars": 610010,
    "rewardIdTenStars": 610030,
    "rewardIdFifteenStars": 610050,
    "rewardIdThreeStars": 610010,
    "rewardIdSixStars": 610030,
    "rewardIdNineStars": 610050,
    "unlockStarCount": 6,
    "floorLevelConfigId": 1314,
    "bgImage": "UI_TowerPic_9"
  },
  {
    "floorId": 1022,
    "floorIndex": 11,
    "levelGroupId": 22,
    "overrideMonsterLevel": 88,
    "teamNum": 2,
    "rewardIdFiveStars": 610011,
    "rewardIdTenStars": 610031,
    "rewardIdFifteenStars": 610051,
    "rewardIdThreeStars": 610011,
    "rewardIdSixStars": 610031,
    "rewardIdNineStars": 610051,
    "unlockStarCount": 6,
    "floorLevelConfigId": 1385,
    "bgImage": "UI_TowerPic_4"
  },
  {
    "floorId": 1023,
    "floorIndex": 12,
    "levelGroupId": 23,
    "overrideMonsterLevel": 95,
    "teamNum": 2,
    "rewardIdFiveStars": 610012,
    "rewardIdTenStars": 610032,
    "rewardIdFifteenStars": 610052,
    "rewardIdThreeStars": 610012,
    "rewardIdSixStars": 610032,
    "rewardIdNineStars": 610052,
    "unlockStarCount": 6,
    "floorLevelConfigId": 1381,
    "bgImage": "UI_TowerPic_5"
  },
  {
    "floorId": 1024,
    "floorIndex": 9,
    "levelGroupId": 24,
    "overrideMonsterLevel": 72,
    "teamNum": 2,
    "rewardIdFiveStars": 610009,
    "rewardIdTenStars": 610029,
    "rewardIdFifteenStars": 610049,
    "rewardIdThreeStars": 610009,
    "rewardIdSixStars": 610029,
    "rewardIdNineStars": 610049,
    "unlockStarCount": 6,
    "floorLevelConfigId": 1600,
    "bgImage": "UI_TowerPic_4"
  },
  {
    "floorId": 1025,
    "floorIndex": 10,
    "levelGroupId": 25,
    "overrideMonsterLevel": 80,
    "teamNum": 2,
    "rewardIdFiveStars": 610010,
    "rewardIdTenStars": 610030,
    "rewardIdFifteenStars": 610050,
    "rewardIdThreeStars": 610010,
    "rewardIdSixStars": 610030,
    "rewardIdNineStars": 610050,
    "unlockStarCount": 6,
    "floorLevelConfigId": 1601,
    "bgImage": "UI_TowerPic_4"
  },
  {
    "floorId": 1026,
    "floorIndex": 11,
    "levelGroupId": 26,
    "overrideMonsterLevel": 88,
    "teamNum": 2,
    "rewardIdFiveStars": 610011,
    "rewardIdTenStars": 610031,
    "rewardIdFifteenStars": 610051,
    "rewardIdThreeStars": 610011,
    "rewardIdSixStars": 610031,
    "rewardIdNineStars": 610051,
    "unlockStarCount": 6,
    "floorLevelConfigId": 1602,
    "bgImage": "UI_TowerPic_4"
  },
  {
    "floorId": 1027,
    "floorIndex": 12,
    "levelGroupId": 27,
    "overrideMonsterLevel": 95,
    "teamNum": 2,
    "rewardIdFiveStars": 610012,
    "rewardIdTenStars": 610032,
    "rewardIdFifteenStars": 610052,
    "rewardIdThreeStars": 610012,
    "rewardIdSixStars": 610032,
    "rewardIdNineStars": 610052,
    "unlockStarCount": 6,
    "floorLevelConfigId": 1603,
    "bgImage": "UI_TowerPic_5"
  },
  {
    "floorId": 1028,
    "floorIndex": 11,
    "levelGroupId": 28,
    "overrideMonsterLevel": 88,
    "teamNum": 2,
    "rewardIdFiveStars": 610011,
    "rewardIdTenStars": 610031,
    "rewardIdFifteenStars": 610051,
    "rewardIdThreeStars": 610011,
    "rewardIdSixStars": 610031,
    "rewardIdNineStars": 610051,
    "unlockStarCount": 6,
    "floorLevelConfigId": 1608,
    "bgImage": "UI_TowerPic_4"
  },
  {
    "floorId": 1029,
    "floorIndex": 12,
    "levelGroupId": 29,
    "overrideMonsterLevel": 95,
    "teamNum": 2,
    "rewardIdFiveStars": 610012,
    "rewardIdTenStars": 610032,
    "rewardIdFifteenStars": 610052,
    "rewardIdThreeStars": 610012,
    "rewardIdSixStars": 610032,
    "rewardIdNineStars": 610052,
    "unlockStarCount": 6,
    "floorLevelConfigId": 1618,
    "bgImage": "UI_TowerPic_5"
  },
  {
    "floorId": 1030,
    "floorIndex": 11,
    "levelGroupId": 30,
    "overrideMonsterLevel": 88,
    "teamNum": 2,
    "rewardIdFiveStars": 610011,
    "rewardIdTenStars": 610031,
    "rewardIdFifteenStars": 610051,
    "rewardIdThreeStars": 610011,
    "rewardIdSixStars": 610031,
    "rewardIdNineStars": 610051,
    "unlockStarCount": 6,
    "floorLevelConfigId": 1627,
    "bgImage": "UI_TowerPic_4"
  },
  {
    "floorId": 1031,
    "floorIndex": 12,
    "levelGroupId": 31,
    "overrideMonsterLevel": 95,
    "teamNum": 2,
    "rewardIdFiveStars": 610012,
    "rewardIdTenStars": 610032,
    "rewardIdFifteenStars": 610052,
    "rewardIdThreeStars": 610012,
    "rewardIdSixStars": 610032,
    "rewardIdNineStars": 610052,
    "unlockStarCount": 6,
    "floorLevelConfigId": 1628,
    "bgImage": "UI_TowerPic_5"
  },
  {
    "floorId": 1032,
    "floorIndex": 11,
    "levelGroupId": 32,
    "overrideMonsterLevel": 88,
    "teamNum": 2,
    "rewardIdFiveStars": 610011,
    "rewardIdTenStars": 610031,
    "rewardIdFifteenStars": 610051,
    "rewardIdThreeStars": 610011,
    "rewardIdSixStars": 610031,
    "rewardIdNineStars": 610051,
    "unlockStarCount": 6,
    "floorLevelConfigId": 1634,
    "bgImage": "UI_TowerPic_4"
  },
  {
    "floorId": 1033,
    "floorIndex": 12,
    "levelGroupId": 33,
    "overrideMonsterLevel": 95,
    "teamNum": 2,
    "rewardIdFiveStars": 610012,
    "rewardIdTenStars": 610032,
    "rewardIdFifteenStars": 610052,
    "rewardIdThreeStars": 610012,
    "rewardIdSixStars": 610032,
    "rewardIdNineStars": 610052,
    "unlockStarCount": 6,
    "floorLevelConfigId": 1635,
    "bgImage": "UI_TowerPic_5"
  },
  {
    "floorId": 1034,
    "floorIndex": 11,
    "levelGroupId": 34,
    "overrideMonsterLevel": 88,
    "teamNum": 2,
    "rewardIdFiveStars": 610011,
    "rewardIdTenStars": 610031,
    "rewardIdFifteenStars": 610051,
    "rewardIdThreeStars": 610011,
    "rewardIdSixStars": 610031,
    "rewardIdNineStars": 610051,
    "unlockStarCount": 6,
    "floorLevelConfigId": 1678,
    "bgImage": "UI_TowerPic_4"
  },
  {
    "floorId": 1035,
    "floorIndex": 12,
    "levelGroupId": 35,
    "overrideMonsterLevel": 95,
    "teamNum": 2,
    "rewardIdFiveStars": 610012,
    "rewardIdTenStars": 610032,
    "rewardIdFifteenStars": 610052,
    "rewardIdThreeStars": 610012,
    "rewardIdSixStars": 610032,
    "rewardIdNineStars": 610052,
    "unlockStarCount": 6,
    "floorLevelConfigId": 1679,
    "bgImage": "UI_TowerPic_5"
  },
  {
    "floorId": 1036,
    "floorIndex": 11,
    "levelGroupId": 36,
    "overrideMonsterLevel": 88,
    "teamNum": 2,
    "rewardIdFiveStars": 610011,
    "rewardIdTenStars": 610031,
    "rewardIdFifteenStars": 610051,
    "rewardIdThreeStars": 610011,
    "rewardIdSixStars": 610031,
    "rewardIdNineStars": 610051,
    "unlockStarCount": 6,
    "floorLevelConfigId": 1686,
    "bgImage": "UI_TowerPic_4"
  },
  {
    "floorId": 1037,
    "floorIndex": 12,
    "levelGroupId": 37,
    "overrideMonsterLevel": 95,
    "teamNum": 2,
    "rewardIdFiveStars": 610012,
    "rewardIdTenStars": 610032,
    "rewardIdFifteenStars": 610052,
    "rewardIdThreeStars": 610012,
    "rewardIdSixStars": 610032,
    "rewardIdNineStars": 610052,
    "unlockStarCount": 6,
    "floorLevelConfigId": 1687,
    "bgImage": "UI_TowerPic_5"
  },
  {
    "floorId": 1038,
    "floorIndex": 11,
    "levelGroupId": 38,
    "overrideMonsterLevel": 88,
    "teamNum": 2,
    "rewardIdFiveStars": 610011,
    "rewardIdTenStars": 610031,
    "rewardIdFifteenStars": 610051,
    "rewardIdThreeStars": 610011,
    "rewardIdSixStars": 610031,
    "rewardIdNineStars": 610051,
    "unlockStarCount": 6,
    "floorLevelConfigId": 1698,
    "bgImage": "UI_TowerPic_4"
  },
  {
    "floorId": 1039,
    "floorIndex": 12,
    "levelGroupId": 39,
    "overrideMonsterLevel": 95,
    "teamNum": 2,
    "rewardIdFiveStars": 610012,
    "rewardIdTenStars": 610032,
    "rewardIdFifteenStars": 610052,
    "rewardIdThreeStars": 610012,
    "rewardIdSixStars": 610032,
    "rewardIdNineStars": 610052,
    "unlockStarCount": 6,
    "floorLevelConfigId": 1699,
    "bgImage": "UI_TowerPic_5"
  },
  {
    "floorId": 1040,
    "floorIndex": 11,
    "levelGroupId": 40,
    "overrideMonsterLevel": 88,
    "teamNum": 2,
    "rewardIdFiveStars": 610011,
    "rewardIdTenStars": 610031,
    "rewardIdFifteenStars": 610051,
    "rewardIdThreeStars": 610011,
    "rewardIdSixStars": 610031,
    "rewardIdNineStars": 610051,
    "unlockStarCount": 6,
    "floorLevelConfigId": 1705,
    "bgImage": "UI_TowerPic_4"
  },
  {
    "floorId": 1041,
    "floorIndex": 12,
    "levelGroupId": 41,
    "overrideMonsterLevel": 95,
    "teamNum": 2,
    "rewardIdFiveStars": 610012,
    "rewardIdTenStars": 610032,
    "rewardIdFifteenStars": 610052,
    "rewardIdThreeStars": 610012,
    "rewardIdSixStars": 610032,
    "rewardIdNineStars": 610052,
    "unlockStarCount": 6,
    "floorLevelConfigId": 1706,
    "bgImage": "UI_TowerPic_5"
  },
  {
    "floorId": 1042,
    "floorIndex": 11,
    "levelGroupId": 42,
    "overrideMonsterLevel": 88,
    "teamNum": 2,
    "rewardIdFiveStars": 610011,
    "rewardIdTenStars": 610031,
    "rewardIdFifteenStars": 610051,
    "rewardIdThreeStars": 610011,
    "rewardIdSixStars": 610031,
    "rewardIdNineStars": 610051,
    "unlockStarCount": 6,
    "floorLevelConfigId": 1711,
    "bgImage": "UI_TowerPic_4"
  },
  {
    "floorId": 1043,
    "floorIndex": 12,
    "levelGroupId": 43,
    "overrideMonsterLevel": 95,
    "teamNum": 2,
    "rewardIdFiveStars": 610012,
    "rewardIdTenStars": 610032,
    "rewardIdFifteenStars": 610052,
    "rewardIdThreeStars": 610012,
    "rewardIdSixStars": 610032,
    "rewardIdNineStars": 610052,
    "unlockStarCount": 6,
    "floorLevelConfigId": 1712,
    "bgImage": "UI_TowerPic_5"
  },
  {
    "floorId": 1044,
    "floorIndex": 9,
    "levelGroupId": 44,
    "overrideMonsterLevel": 72,
    "teamNum": 2,
    "rewardIdFiveStars": 610011,
    "rewardIdTenStars": 610031,
    "rewardIdFifteenStars": 610051,
    "rewardIdThreeStars": 610009,
    "rewardIdSixStars": 610029,
    "rewardIdNineStars": 610049,
    "unlockStarCount": 6,
    "floorLevelConfigId": 1714,
    "bgImage": "UI_TowerPic_4"
  },
  {
    "floorId": 1045,
    "floorIndex": 10,
    "levelGroupId": 45,
    "overrideMonsterLevel": 80,
    "teamNum": 2,
    "rewardIdFiveStars": 610012,
    "rewardIdTenStars": 610032,
    "rewardIdFifteenStars": 610052,
    "rewardIdThreeStars": 610010,
    "rewardIdSixStars": 610030,
    "rewardIdNineStars": 610050,
    "unlockStarCount": 6,
    "floorLevelConfigId": 1715,
    "bgImage": "UI_TowerPic_4"
  },
  {
    "floorId": 1046,
    "floorIndex": 11,
    "levelGroupId": 46,
    "overrideMonsterLevel": 88,
    "teamNum": 2,
    "rewardIdFiveStars": 610011,
    "rewardIdTenStars": 610031,
    "rewardIdFifteenStars": 610051,
    "rewardIdThreeStars": 610011,
    "rewardIdSixStars": 610031,
    "rewardIdNineStars": 610051,
    "unlockStarCount": 6,
    "floorLevelConfigId": 1716,
    "bgImage": "UI_TowerPic_4"
  },
  {
    "floorId": 1047,
    "floorIndex": 12,
    "levelGroupId": 47,
    "overrideMonsterLevel": 95,
    "teamNum": 2,
    "rewardIdFiveStars": 610012,
    "rewardIdTenStars": 610032,
    "rewardIdFifteenStars": 610052,
    "rewardIdThreeStars": 610012,
    "rewardIdSixStars": 610032,
    "rewardIdNineStars": 610052,
    "unlockStarCount": 6,
    "floorLevelConfigId": 1717,
    "bgImage": "UI_TowerPic_5"
  },
  {
    "floorId": 1048,
    "floorIndex": 11,
    "levelGroupId": 48,
    "overrideMonsterLevel": 88,
    "teamNum": 2,
    "rewardIdFiveStars": 610011,
    "rewardIdTenStars": 610031,
    "rewardIdFifteenStars": 610051,
    "rewardIdThreeStars": 610011,
    "rewardIdSixStars": 610031,
    "rewardIdNineStars": 610051,
    "unlockStarCount": 6,
    "floorLevelConfigId": 1738,
    "bgImage": "UI_TowerPic_4"
  },
  {
    "floorId": 1049,
    "floorIndex": 12,
    "levelGroupId": 49,
    "overrideMonsterLevel": 95,
    "teamNum": 2,
    "rewardIdFiveStars": 610012,
    "rewardIdTenStars": 610032,
    "rewardIdFifteenStars": 610052,
    "rewardIdThreeStars": 610012,
    "rewardIdSixStars": 610032,
    "rewardIdNineStars": 610052,
    "unlockStarCount": 6,
    "floorLevelConfigId": 1739,
    "bgImage": "UI_TowerPic_5"
  },
  {
    "floorId": 1050,
    "floorIndex": 11,
    "levelGroupId": 50,
    "overrideMonsterLevel": 88,
    "teamNum": 2,
    "rewardIdFiveStars": 610011,
    "rewardIdTenStars": 610031,
    "rewardIdFifteenStars": 610051,
    "rewardIdThreeStars": 610011,
    "rewardIdSixStars": 610031,
    "rewardIdNineStars": 610051,
    "unlockStarCount": 6,
    "floorLevelConfigId": 1746,
    "bgImage": "UI_TowerPic_4"
  },
  {
    "floorId": 1051,
    "floorIndex": 12,
    "levelGroupId": 51,
    "overrideMonsterLevel": 95,
    "teamNum": 2,
    "rewardIdFiveStars": 610012,
    "rewardIdTenStars": 610032,
    "rewardIdFifteenStars": 610052,
    "rewardIdThreeStars": 610012,
    "rewardIdSixStars": 610032,
    "rewardIdNineStars": 610052,
    "unlockStarCount": 6,
    "floorLevelConfigId": 1747,
    "bgImage": "UI_TowerPic_5"
  },
  {
    "floorId": 1052,
    "floorIndex": 11,
    "levelGroupId": 52,
    "overrideMonsterLevel": 88,
    "teamNum": 2,
    "rewardIdFiveStars": 610011,
    "rewardIdTenStars": 610031,
    "rewardIdFifteenStars": 610051,
    "rewardIdThreeStars": 610011,
    "rewardIdSixStars": 610031,
    "rewardIdNineStars": 610051,
    "unlockStarCount": 6,
    "floorLevelConfigId": 1751,
    "bgImage": "UI_TowerPic_4"
  },
  {
    "floorId": 1053,
    "floorIndex": 12,
    "levelGroupId": 53,
    "overrideMonsterLevel": 95,
    "teamNum": 2,
    "rewardIdFiveStars": 610012,
    "rewardIdTenStars": 610032,
    "rewardIdFifteenStars": 610052,
    "rewardIdThreeStars": 610012,
    "rewardIdSixStars": 610032,
    "rewardIdNineStars": 610052,
    "unlockStarCount": 6,
    "floorLevelConfigId": 1752,
    "bgImage": "UI_TowerPic_5"
  },
  {
    "floorId": 1054,
    "floorIndex": 11,
    "levelGroupId": 54,
    "overrideMonsterLevel": 88,
    "teamNum": 2,
    "rewardIdFiveStars": 610011,
    "rewardIdTenStars": 610031,
    "rewardIdFifteenStars": 610051,
    "rewardIdThreeStars": 610011,
    "rewardIdSixStars": 610031,
    "rewardIdNineStars": 610051,
    "unlockStarCount": 6,
    "floorLevelConfigId": 1766,
    "bgImage": "UI_TowerPic_4"
  },
  {
    "floorId": 1055,
    "floorIndex": 12,
    "levelGroupId": 55,
    "overrideMonsterLevel": 95,
    "teamNum": 2,
    "rewardIdFiveStars": 610012,
    "rewardIdTenStars": 610032,
    "rewardIdFifteenStars": 610052,
    "rewardIdThreeStars": 610012,
    "rewardIdSixStars": 610032,
    "rewardIdNineStars": 610052,
    "unlockStarCount": 6,
    "floorLevelConfigId": 1767,
    "bgImage": "UI_TowerPic_5"
  },
  {
    "floorId": 1056,
    "floorIndex": 11,
    "levelGroupId": 56,
    "overrideMonsterLevel": 88,
    "teamNum": 2,
    "rewardIdFiveStars": 610011,
    "rewardIdTenStars": 610031,
    "rewardIdFifteenStars": 610051,
    "rewardIdThreeStars": 610011,
    "rewardIdSixStars": 610031,
    "rewardIdNineStars": 610051,
    "unlockStarCount": 6,
    "floorLevelConfigId": 1786,
    "bgImage": "UI_TowerPic_4"
  },
  {
    "floorId": 1057,
    "floorIndex": 12,
    "levelGroupId": 57,
    "overrideMonsterLevel": 95,
    "teamNum": 2,
    "rewardIdFiveStars": 610012,
    "rewardIdTenStars": 610032,
    "rewardIdFifteenStars": 610052,
    "rewardIdThreeStars": 610012,
    "rewardIdSixStars": 610032,
    "rewardIdNineStars": 610052,
    "unlockStarCount": 6,
    "floorLevelConfigId": 1787,
    "bgImage": "UI_TowerPic_5"
  },
  {
    "floorId": 1058,
    "floorIndex": 11,
    "levelGroupId": 58,
    "overrideMonsterLevel": 88,
    "teamNum": 2,
    "rewardIdFiveStars": 610011,
    "rewardIdTenStars": 610031,
    "rewardIdFifteenStars": 610051,
    "rewardIdThreeStars": 610011,
    "rewardIdSixStars": 610031,
    "rewardIdNineStars": 610051,
    "unlockStarCount": 6,
    "floorLevelConfigId": 1796,
    "bgImage": "UI_TowerPic_4"
  },
  {
    "floorId": 1059,
    "floorIndex": 12,
    "levelGroupId": 59,
    "overrideMonsterLevel": 95,
    "teamNum": 2,
    "rewardIdFiveStars": 610012,
    "rewardIdTenStars": 610032,
    "rewardIdFifteenStars": 610052,
    "rewardIdThreeStars": 610012,
    "rewardIdSixStars": 610032,
    "rewardIdNineStars": 610052,
    "unlockStarCount": 6,
    "floorLevelConfigId": 1797,
    "bgImage": "UI_TowerPic_5"
  }
]
