[
  {
    "id": 1,
    "scheduleId": 5091001,
    "openDay": 1,
    "galleryId": 26001,
    "BCOAHGHJBDM": 133315072,
    "FLCEHMHBBLC": [72017, 72028, 72034],
    "BDFHBDDOOAE": 72035
  },
  {
    "id": 2,
    "scheduleId": 5091001,
    "openDay": 2,
    "galleryId": 26002,
    "BCOAHGHJBDM": 133301019,
    "FLCEHMHBBLC": [19017, 19028, 19034],
    "BDFHBDDOOAE": 19035
  },
  {
    "id": 3,
    "scheduleId": 5091001,
    "openDay": 3,
    "galleryId": 26003,
    "BCOAHGHJBDM": 133304053,
    "FLCEHMHBBLC": [53017, 53028, 53034],
    "BDFHBDDOOAE": 53035
  },
  {
    "id": 4,
    "scheduleId": 5091001,
    "openDay": 4,
    "galleryId": 26004,
    "BCOAHGHJBDM": 133304231,
    "FLCEHMHBBLC": [231017, 231028, 231034],
    "BDFHBDDOOAE": 231035
  },
  {
    "id": 5,
    "scheduleId": 5091001,
    "openDay": 5,
    "galleryId": 26005,
    "BCOAHGHJBDM": 133302232,
    "FLCEHMHBBLC": [232017, 232028, 232034],
    "BDFHBDDOOAE": 232035
  },
  {
    "id": 6,
    "scheduleId": 5091001,
    "openDay": 6,
    "galleryId": 26006,
    "BCOAHGHJBDM": 133303053,
    "FLCEHMHBBLC": [53017, 53028, 53034],
    "BDFHBDDOOAE": 53035
  }
]
