[
  {
    "Id": 30211101,
    "weaponId": 11101,
    "SortOrder": 1101
  },
  {
    "Id": 30212101,
    "weaponId": 12101,
    "SortOrder": 1201
  },
  {
    "Id": 30213101,
    "weaponId": 13101,
    "SortOrder": 1301
  },
  {
    "Id": 30214101,
    "weaponId": 14101,
    "SortOrder": 1401
  },
  {
    "Id": 30215101,
    "weaponId": 15101,
    "SortOrder": 1501
  },
  {
    "Id": 30211201,
    "weaponId": 11201,
    "SortOrder": 2101
  },
  {
    "Id": 30212201,
    "weaponId": 12201,
    "SortOrder": 2201
  },
  {
    "Id": 30213201,
    "weaponId": 13201,
    "SortOrder": 2301
  },
  {
    "Id": 30214201,
    "weaponId": 14201,
    "SortOrder": 2401
  },
  {
    "Id": 30215201,
    "weaponId": 15201,
    "SortOrder": 2501
  },
  {
    "Id": 30211301,
    "weaponId": 11301,
    "SortOrder": 3101
  },
  {
    "Id": 30211302,
    "weaponId": 11302,
    "SortOrder": 3102
  },
  {
    "Id": 30211303,
    "weaponId": 11303,
    "SortOrder": 3103
  },
  {
    "Id": 30211304,
    "weaponId": 11304,
    "SortOrder": 3104,
    "isDisuse": true
  },
  {
    "Id": 30211305,
    "weaponId": 11305,
    "SortOrder": 3105
  },
  {
    "Id": 30211306,
    "weaponId": 11306,
    "SortOrder": 3106
  },
  {
    "Id": 30212301,
    "weaponId": 12301,
    "SortOrder": 3201
  },
  {
    "Id": 30212302,
    "weaponId": 12302,
    "SortOrder": 3202
  },
  {
    "Id": 30212303,
    "weaponId": 12303,
    "SortOrder": 3203
  },
  {
    "Id": 30212305,
    "weaponId": 12305,
    "SortOrder": 3204
  },
  {
    "Id": 30212306,
    "weaponId": 12306,
    "SortOrder": 3205
  },
  {
    "Id": 30213301,
    "weaponId": 13301,
    "SortOrder": 3301
  },
  {
    "Id": 30213302,
    "weaponId": 13302,
    "SortOrder": 3302
  },
  {
    "Id": 30213303,
    "weaponId": 13303,
    "SortOrder": 3303
  },
  {
    "Id": 30214301,
    "weaponId": 14301,
    "SortOrder": 3401
  },
  {
    "Id": 30214302,
    "weaponId": 14302,
    "SortOrder": 3402
  },
  {
    "Id": 30214303,
    "weaponId": 14303,
    "SortOrder": 3403
  },
  {
    "Id": 30214304,
    "weaponId": 14304,
    "SortOrder": 3404
  },
  {
    "Id": 30214305,
    "weaponId": 14305,
    "SortOrder": 3405
  },
  {
    "Id": 30215301,
    "weaponId": 15301,
    "SortOrder": 3501
  },
  {
    "Id": 30215302,
    "weaponId": 15302,
    "SortOrder": 3502
  },
  {
    "Id": 30215303,
    "weaponId": 15303,
    "SortOrder": 3503
  },
  {
    "Id": 30215304,
    "weaponId": 15304,
    "SortOrder": 3504
  },
  {
    "Id": 30215305,
    "weaponId": 15305,
    "SortOrder": 3505
  },
  {
    "Id": 30211401,
    "weaponId": 11401,
    "SortOrder": 4101
  },
  {
    "Id": 30211402,
    "weaponId": 11402,
    "SortOrder": 4102
  },
  {
    "Id": 30211403,
    "weaponId": 11403,
    "SortOrder": 4103
  },
  {
    "Id": 30211404,
    "weaponId": 11404,
    "SortOrder": 4104
  },
  {
    "Id": 30211405,
    "weaponId": 11405,
    "SortOrder": 4105
  },
  {
    "Id": 30211406,
    "weaponId": 11406,
    "SortOrder": 4106
  },
  {
    "Id": 30211407,
    "weaponId": 11407,
    "SortOrder": 4107
  },
  {
    "Id": 30211408,
    "weaponId": 11408,
    "SortOrder": 4108
  },
  {
    "Id": 30211409,
    "weaponId": 11409,
    "SortOrder": 4109
  },
  {
    "Id": 30211412,
    "weaponId": 11412,
    "SortOrder": 4110
  },
  {
    "Id": 30211413,
    "weaponId": 11413,
    "SortOrder": 4111,
    "showOnlyUnlocked": true
  },
  {
    "Id": 30211410,
    "weaponId": 11410,
    "SortOrder": 4112
  },
  {
    "Id": 30211414,
    "weaponId": 11414,
    "SortOrder": 4113
  },
  {
    "Id": 30211415,
    "weaponId": 11415,
    "SortOrder": 4114,
    "showOnlyUnlocked": true
  },
  {
    "Id": 30211416,
    "weaponId": 11416,
    "SortOrder": 4115,
    "showOnlyUnlocked": true
  },
  {
    "Id": 30211417,
    "weaponId": 11417,
    "SortOrder": 4116
  },
  {
    "Id": 30211418,
    "weaponId": 11418,
    "SortOrder": 4117
  },
  {
    "Id": 30211422,
    "weaponId": 11422,
    "SortOrder": 4118,
    "showOnlyUnlocked": true
  },
  {
    "Id": 30212401,
    "weaponId": 12401,
    "SortOrder": 4201
  },
  {
    "Id": 30212402,
    "weaponId": 12402,
    "SortOrder": 4202
  },
  {
    "Id": 30212403,
    "weaponId": 12403,
    "SortOrder": 4203
  },
  {
    "Id": 30212404,
    "weaponId": 12404,
    "SortOrder": 4204
  },
  {
    "Id": 30212405,
    "weaponId": 12405,
    "SortOrder": 4205
  },
  {
    "Id": 30212406,
    "weaponId": 12406,
    "SortOrder": 4206
  },
  {
    "Id": 30212407,
    "weaponId": 12407,
    "SortOrder": 4207
  },
  {
    "Id": 30212408,
    "weaponId": 12408,
    "SortOrder": 4208
  },
  {
    "Id": 30212409,
    "weaponId": 12409,
    "SortOrder": 4209
  },
  {
    "Id": 30212411,
    "weaponId": 12411,
    "SortOrder": 4210
  },
  {
    "Id": 30212410,
    "weaponId": 12410,
    "SortOrder": 4211
  },
  {
    "Id": 30212414,
    "weaponId": 12414,
    "SortOrder": 4212
  },
  {
    "Id": 30212412,
    "weaponId": 12412,
    "SortOrder": 4213,
    "showOnlyUnlocked": true
  },
  {
    "Id": 30212416,
    "weaponId": 12416,
    "SortOrder": 4214
  },
  {
    "Id": 30212417,
    "weaponId": 12417,
    "SortOrder": 4215
  },
  {
    "Id": 30212415,
    "weaponId": 12415,
    "SortOrder": 4216
  },
  {
    "Id": 30212418,
    "weaponId": 12418,
    "SortOrder": 4217,
    "showOnlyUnlocked": true
  },
  {
    "Id": 30213401,
    "weaponId": 13401,
    "SortOrder": 4301
  },
  {
    "Id": 30213402,
    "weaponId": 13402,
    "SortOrder": 4302
  },
  {
    "Id": 30213403,
    "weaponId": 13403,
    "SortOrder": 4303
  },
  {
    "Id": 30213404,
    "weaponId": 13404,
    "SortOrder": 4304
  },
  {
    "Id": 30213405,
    "weaponId": 13405,
    "SortOrder": 4305
  },
  {
    "Id": 30213407,
    "weaponId": 13407,
    "SortOrder": 4306
  },
  {
    "Id": 30213408,
    "weaponId": 13408,
    "SortOrder": 4307
  },
  {
    "Id": 30213409,
    "weaponId": 13409,
    "SortOrder": 4308
  },
  {
    "Id": 30213406,
    "weaponId": 13406,
    "SortOrder": 4309
  },
  {
    "Id": 30213414,
    "weaponId": 13414,
    "SortOrder": 4310
  },
  {
    "Id": 30213415,
    "weaponId": 13415,
    "SortOrder": 4311
  },
  {
    "Id": 30213416,
    "weaponId": 13416,
    "SortOrder": 4312
  },
  {
    "Id": 30213417,
    "weaponId": 13417,
    "SortOrder": 4313
  },
  {
    "Id": 30213419,
    "weaponId": 13419,
    "SortOrder": 4314,
    "showOnlyUnlocked": true
  },
  {
    "Id": 30214401,
    "weaponId": 14401,
    "SortOrder": 4401
  },
  {
    "Id": 30214402,
    "weaponId": 14402,
    "SortOrder": 4402
  },
  {
    "Id": 30214403,
    "weaponId": 14403,
    "SortOrder": 4403
  },
  {
    "Id": 30214404,
    "weaponId": 14404,
    "SortOrder": 4404
  },
  {
    "Id": 30214405,
    "weaponId": 14405,
    "SortOrder": 4405
  },
  {
    "Id": 30214406,
    "weaponId": 14406,
    "SortOrder": 4406
  },
  {
    "Id": 30214407,
    "weaponId": 14407,
    "SortOrder": 4407
  },
  {
    "Id": 30214408,
    "weaponId": 14408,
    "SortOrder": 4408
  },
  {
    "Id": 30214409,
    "weaponId": 14409,
    "SortOrder": 4409
  },
  {
    "Id": 30214412,
    "weaponId": 14412,
    "SortOrder": 4410
  },
  {
    "Id": 30214410,
    "weaponId": 14410,
    "SortOrder": 4411
  },
  {
    "Id": 30214413,
    "weaponId": 14413,
    "SortOrder": 4412,
    "showOnlyUnlocked": true
  },
  {
    "Id": 30214414,
    "weaponId": 14414,
    "SortOrder": 4414
  },
  {
    "Id": 30214415,
    "weaponId": 14415,
    "SortOrder": 4415,
    "showOnlyUnlocked": true
  },
  {
    "Id": 30214417,
    "weaponId": 14417,
    "SortOrder": 4416
  },
  {
    "Id": 30214416,
    "weaponId": 14416,
    "SortOrder": 4417
  },
  {
    "Id": 30215401,
    "weaponId": 15401,
    "SortOrder": 4501
  },
  {
    "Id": 30215402,
    "weaponId": 15402,
    "SortOrder": 4502
  },
  {
    "Id": 30215403,
    "weaponId": 15403,
    "SortOrder": 4503
  },
  {
    "Id": 30215404,
    "weaponId": 15404,
    "SortOrder": 4504
  },
  {
    "Id": 30215405,
    "weaponId": 15405,
    "SortOrder": 4505
  },
  {
    "Id": 30215406,
    "weaponId": 15406,
    "SortOrder": 4506
  },
  {
    "Id": 30215407,
    "weaponId": 15407,
    "SortOrder": 4507
  },
  {
    "Id": 30215408,
    "weaponId": 15408,
    "SortOrder": 4508
  },
  {
    "Id": 30215409,
    "weaponId": 15409,
    "SortOrder": 4509
  },
  {
    "Id": 30215410,
    "weaponId": 15410,
    "SortOrder": 4510
  },
  {
    "Id": 30215413,
    "weaponId": 15413,
    "SortOrder": 4511,
    "showOnlyUnlocked": true
  },
  {
    "Id": 30215412,
    "weaponId": 15412,
    "SortOrder": 4512
  },
  {
    "Id": 30215414,
    "weaponId": 15414,
    "SortOrder": 4513
  },
  {
    "Id": 30215415,
    "weaponId": 15415,
    "SortOrder": 4514,
    "showOnlyUnlocked": true
  },
  {
    "Id": 30215416,
    "weaponId": 15416,
    "SortOrder": 4515
  },
  {
    "Id": 30215411,
    "weaponId": 15411,
    "SortOrder": 4516,
    "showOnlyUnlocked": true
  },
  {
    "Id": 30215417,
    "weaponId": 15417,
    "SortOrder": 4517
  },
  {
    "Id": 30215418,
    "weaponId": 15418,
    "SortOrder": 4518
  },
  {
    "Id": 30211501,
    "weaponId": 11501,
    "SortOrder": 5101
  },
  {
    "Id": 30211502,
    "weaponId": 11502,
    "SortOrder": 5102
  },
  {
    "Id": 30211504,
    "weaponId": 11504,
    "SortOrder": 5103
  },
  {
    "Id": 30211505,
    "weaponId": 11505,
    "SortOrder": 5104
  },
  {
    "Id": 30211503,
    "weaponId": 11503,
    "SortOrder": 5105
  },
  {
    "Id": 30211509,
    "weaponId": 11509,
    "SortOrder": 5106
  },
  {
    "Id": 30211510,
    "weaponId": 11510,
    "SortOrder": 5107
  },
  {
    "Id": 30211511,
    "weaponId": 11511,
    "SortOrder": 5108
  },
  {
    "Id": 30211512,
    "weaponId": 11512,
    "SortOrder": 5109
  },
  {
    "Id": 30212501,
    "weaponId": 12501,
    "SortOrder": 5201
  },
  {
    "Id": 30212502,
    "weaponId": 12502,
    "SortOrder": 5202
  },
  {
    "Id": 30212504,
    "weaponId": 12504,
    "SortOrder": 5203
  },
  {
    "Id": 30212505,
    "weaponId": 12505,
    "SortOrder": 5204,
    "isDisuse": true
  },
  {
    "Id": 30212503,
    "weaponId": 12503,
    "SortOrder": 5205
  },
  {
    "Id": 30212510,
    "weaponId": 12510,
    "SortOrder": 5206
  },
  {
    "Id": 30212511,
    "weaponId": 12511,
    "SortOrder": 5207
  },
  {
    "Id": 30213505,
    "weaponId": 13505,
    "SortOrder": 5301
  },
  {
    "Id": 30213502,
    "weaponId": 13502,
    "SortOrder": 5302
  },
  {
    "Id": 30213504,
    "weaponId": 13504,
    "SortOrder": 5303
  },
  {
    "Id": 30213501,
    "weaponId": 13501,
    "SortOrder": 5304
  },
  {
    "Id": 30213509,
    "weaponId": 13509,
    "SortOrder": 5305
  },
  {
    "Id": 30213507,
    "weaponId": 13507,
    "SortOrder": 5306
  },
  {
    "Id": 30213511,
    "weaponId": 13511,
    "SortOrder": 5307
  },
  {
    "Id": 30214501,
    "weaponId": 14501,
    "SortOrder": 5401
  },
  {
    "Id": 30214502,
    "weaponId": 14502,
    "SortOrder": 5402
  },
  {
    "Id": 30214504,
    "weaponId": 14504,
    "SortOrder": 5403
  },
  {
    "Id": 30214506,
    "weaponId": 14506,
    "SortOrder": 5405
  },
  {
    "Id": 30214509,
    "weaponId": 14509,
    "SortOrder": 5406
  },
  {
    "Id": 30214511,
    "weaponId": 14511,
    "SortOrder": 5407
  },
  {
    "Id": 30214512,
    "weaponId": 14512,
    "SortOrder": 5408
  },
  {
    "Id": 30214505,
    "weaponId": 14505,
    "SortOrder": 5409
  },
  {
    "Id": 30215501,
    "weaponId": 15501,
    "SortOrder": 5501
  },
  {
    "Id": 30215502,
    "weaponId": 15502,
    "SortOrder": 5502
  },
  {
    "Id": 30215504,
    "weaponId": 15504,
    "SortOrder": 5503,
    "isDisuse": true
  },
  {
    "Id": 30215505,
    "weaponId": 15505,
    "SortOrder": 5504,
    "isDisuse": true
  },
  {
    "Id": 30215503,
    "weaponId": 15503,
    "SortOrder": 5505
  },
  {
    "Id": 30215509,
    "weaponId": 15509,
    "SortOrder": 5506
  },
  {
    "Id": 30215507,
    "weaponId": 15507,
    "SortOrder": 5507
  },
  {
    "Id": 30215508,
    "weaponId": 15508,
    "SortOrder": 5508
  },
  {
    "Id": 30215511,
    "weaponId": 15511,
    "SortOrder": 5509
  }
]
