[
  {
    "ID": 1100,
    "SceneID": 3,
    "AreaType": "LEVEL_1",
    "AreaID1": 1,
    "AreaNameTextMapHash": 124522774,
    "towerPointId": 7,
    "elementType": "Wind",
    "showTips": true,
    "DDBOIOBFNOK": [],
    "FDJGGNIMMGH": [],
    "CHNPKEJLBEN": [],
    "minimapScale": 1.0
  },
  {
    "ID": 1101,
    "SceneID": 3,
    "AreaType": "LEVEL_2",
    "AreaID1": 1,
    "AreaID2": 101,
    "AreaNameTextMapHash": 260846718,
    "showTips": true,
    "DDBOIOBFNOK": [],
    "FDJGGNIMMGH": [],
    "CHNPKEJLBEN": [],
    "minimapScale": 1.0
  },
  {
    "ID": 1102,
    "SceneID": 3,
    "AreaType": "LEVEL_2",
    "AreaID1": 1,
    "AreaID2": 102,
    "AreaNameTextMapHash": 2290454110,
    "terrainType": "AREA_TERRAIN_CITY",
    "showTips": true,
    "DDBOIOBFNOK": [],
    "FDJGGNIMMGH": [],
    "CHNPKEJLBEN": [],
    "minimapScale": 3.0
  },
  {
    "ID": 1103,
    "SceneID": 3,
    "AreaType": "LEVEL_2",
    "AreaID1": 1,
    "AreaID2": 103,
    "AreaNameTextMapHash": 2543315646,
    "terrainType": "AREA_TERRAIN_OUTDOOR",
    "showTips": true,
    "DDBOIOBFNOK": [],
    "FDJGGNIMMGH": [],
    "CHNPKEJLBEN": [],
    "minimapScale": 1.0
  },
  {
    "ID": 1104,
    "SceneID": 3,
    "AreaType": "LEVEL_2",
    "AreaID1": 1,
    "AreaID2": 104,
    "AreaNameTextMapHash": 1183973278,
    "terrainType": "AREA_TERRAIN_OUTDOOR",
    "showTips": true,
    "DDBOIOBFNOK": [],
    "FDJGGNIMMGH": [],
    "CHNPKEJLBEN": [],
    "minimapScale": 1.0
  },
  {
    "ID": 1105,
    "SceneID": 3,
    "AreaType": "LEVEL_2",
    "AreaID1": 1,
    "AreaID2": 105,
    "AreaNameTextMapHash": 2336418534,
    "terrainType": "AREA_TERRAIN_OUTDOOR",
    "showTips": true,
    "DDBOIOBFNOK": [],
    "FDJGGNIMMGH": [],
    "CHNPKEJLBEN": [],
    "minimapScale": 1.0
  },
  {
    "ID": 1106,
    "SceneID": 3,
    "AreaType": "LEVEL_2",
    "AreaID1": 1,
    "AreaID2": 106,
    "AreaNameTextMapHash": 2054079878,
    "terrainType": "AREA_TERRAIN_OUTDOOR",
    "showTips": true,
    "DDBOIOBFNOK": [],
    "FDJGGNIMMGH": [],
    "CHNPKEJLBEN": [],
    "minimapScale": 1.0
  },
  {
    "ID": 1107,
    "SceneID": 3,
    "AreaType": "LEVEL_2",
    "AreaID1": 1,
    "AreaID2": 107,
    "AreaNameTextMapHash": 3025114574,
    "terrainType": "AREA_TERRAIN_OUTDOOR",
    "showTips": true,
    "DDBOIOBFNOK": [],
    "FDJGGNIMMGH": [],
    "CHNPKEJLBEN": [],
    "minimapScale": 1.0
  },
  {
    "ID": 1108,
    "SceneID": 3,
    "AreaType": "LEVEL_2",
    "AreaID1": 1,
    "AreaID2": 108,
    "AreaNameTextMapHash": 916531790,
    "terrainType": "AREA_TERRAIN_OUTDOOR",
    "showTips": true,
    "DDBOIOBFNOK": [],
    "FDJGGNIMMGH": [],
    "CHNPKEJLBEN": [],
    "minimapScale": 1.0
  },
  {
    "ID": 1109,
    "SceneID": 3,
    "AreaType": "LEVEL_2",
    "AreaID1": 1,
    "AreaID2": 109,
    "AreaNameTextMapHash": 4136831606,
    "terrainType": "AREA_TERRAIN_OUTDOOR",
    "DDBOIOBFNOK": [],
    "FDJGGNIMMGH": [],
    "CHNPKEJLBEN": [],
    "minimapScale": 1.0
  },
  {
    "ID": 1110,
    "SceneID": 3,
    "AreaType": "LEVEL_2",
    "AreaID1": 1,
    "AreaID2": 110,
    "AreaNameTextMapHash": 3926016110,
    "terrainType": "AREA_TERRAIN_OUTDOOR",
    "DDBOIOBFNOK": [],
    "FDJGGNIMMGH": [],
    "CHNPKEJLBEN": [],
    "minimapScale": 1.0
  },
  {
    "ID": 1200,
    "SceneID": 3,
    "AreaType": "LEVEL_1",
    "AreaID1": 2,
    "AreaNameTextMapHash": 3158118038,
    "towerPointId": 4,
    "elementType": "Wind",
    "showTips": true,
    "DDBOIOBFNOK": [],
    "FDJGGNIMMGH": [],
    "CHNPKEJLBEN": [],
    "minimapScale": 1.0
  },
  {
    "ID": 1201,
    "SceneID": 3,
    "AreaType": "LEVEL_2",
    "AreaID1": 2,
    "AreaID2": 201,
    "AreaNameTextMapHash": 1989107374,
    "terrainType": "AREA_TERRAIN_OUTDOOR",
    "showTips": true,
    "DDBOIOBFNOK": [],
    "FDJGGNIMMGH": [],
    "CHNPKEJLBEN": [],
    "minimapScale": 1.0
  },
  {
    "ID": 1202,
    "SceneID": 3,
    "AreaType": "LEVEL_2",
    "AreaID1": 2,
    "AreaID2": 202,
    "AreaNameTextMapHash": 698079798,
    "terrainType": "AREA_TERRAIN_OUTDOOR",
    "showTips": true,
    "DDBOIOBFNOK": [],
    "FDJGGNIMMGH": [],
    "CHNPKEJLBEN": [],
    "minimapScale": 1.0
  },
  {
    "ID": 1203,
    "SceneID": 3,
    "AreaType": "LEVEL_2",
    "AreaID1": 2,
    "AreaID2": 203,
    "AreaNameTextMapHash": 1231670926,
    "terrainType": "AREA_TERRAIN_OUTDOOR",
    "showTips": true,
    "DDBOIOBFNOK": [],
    "FDJGGNIMMGH": [],
    "CHNPKEJLBEN": [],
    "minimapScale": 1.0
  },
  {
    "ID": 1204,
    "SceneID": 3,
    "AreaType": "LEVEL_2",
    "AreaID1": 2,
    "AreaID2": 204,
    "AreaNameTextMapHash": 3080746910,
    "terrainType": "AREA_TERRAIN_OUTDOOR",
    "showTips": true,
    "DDBOIOBFNOK": [],
    "FDJGGNIMMGH": [],
    "CHNPKEJLBEN": [],
    "minimapScale": 1.0
  },
  {
    "ID": 1205,
    "SceneID": 3,
    "AreaType": "LEVEL_2",
    "AreaID1": 2,
    "AreaID2": 205,
    "AreaNameTextMapHash": 3521935102,
    "terrainType": "AREA_TERRAIN_OUTDOOR",
    "showTips": true,
    "DDBOIOBFNOK": [],
    "FDJGGNIMMGH": [],
    "CHNPKEJLBEN": [],
    "minimapScale": 1.0
  },
  {
    "ID": 1300,
    "SceneID": 3,
    "AreaType": "LEVEL_1",
    "AreaID1": 3,
    "AreaNameTextMapHash": 141029350,
    "towerPointId": 3,
    "elementType": "Wind",
    "showTips": true,
    "DDBOIOBFNOK": [],
    "FDJGGNIMMGH": [],
    "CHNPKEJLBEN": [],
    "minimapScale": 1.0
  },
  {
    "ID": 1301,
    "SceneID": 3,
    "AreaType": "LEVEL_2",
    "AreaID1": 3,
    "AreaID2": 301,
    "AreaNameTextMapHash": 1869193726,
    "terrainType": "AREA_TERRAIN_CITY",
    "showTips": true,
    "DDBOIOBFNOK": [],
    "FDJGGNIMMGH": [],
    "CHNPKEJLBEN": [],
    "minimapScale": 1.0
  },
  {
    "ID": 1302,
    "SceneID": 3,
    "AreaType": "LEVEL_2",
    "AreaID1": 3,
    "AreaID2": 302,
    "AreaNameTextMapHash": 326905718,
    "terrainType": "AREA_TERRAIN_CITY",
    "showTips": true,
    "DDBOIOBFNOK": [],
    "FDJGGNIMMGH": [],
    "CHNPKEJLBEN": [],
    "minimapScale": 1.0
  },
  {
    "ID": 1400,
    "SceneID": 3,
    "AreaType": "LEVEL_1",
    "AreaID1": 4,
    "AreaNameTextMapHash": 390054910,
    "towerPointId": 29,
    "elementType": "Wind",
    "showTips": true,
    "DDBOIOBFNOK": [],
    "FDJGGNIMMGH": [],
    "CHNPKEJLBEN": [],
    "minimapScale": 1.0
  },
  {
    "ID": 1401,
    "SceneID": 3,
    "AreaType": "LEVEL_2",
    "AreaID1": 4,
    "AreaID2": 401,
    "AreaNameTextMapHash": 3576789510,
    "terrainType": "AREA_TERRAIN_OUTDOOR",
    "showTips": true,
    "DDBOIOBFNOK": [],
    "FDJGGNIMMGH": [],
    "CHNPKEJLBEN": [],
    "minimapScale": 1.0
  },
  {
    "ID": 1402,
    "SceneID": 3,
    "AreaType": "LEVEL_2",
    "AreaID1": 4,
    "AreaID2": 402,
    "AreaNameTextMapHash": 3929729334,
    "terrainType": "AREA_TERRAIN_OUTDOOR",
    "showTips": true,
    "DDBOIOBFNOK": [],
    "FDJGGNIMMGH": [],
    "CHNPKEJLBEN": [],
    "minimapScale": 1.0
  },
  {
    "ID": 1403,
    "SceneID": 3,
    "AreaType": "LEVEL_2",
    "AreaID1": 4,
    "AreaID2": 403,
    "AreaNameTextMapHash": 2081079886,
    "terrainType": "AREA_TERRAIN_OUTDOOR",
    "showTips": true,
    "DDBOIOBFNOK": [],
    "FDJGGNIMMGH": [],
    "CHNPKEJLBEN": [],
    "minimapScale": 1.0
  },
  {
    "ID": 1500,
    "SceneID": 3,
    "AreaType": "LEVEL_1",
    "AreaID1": 10,
    "AreaNameTextMapHash": 4094741662,
    "towerPointId": 204,
    "elementType": "Wind",
    "showTips": true,
    "DDBOIOBFNOK": [],
    "FDJGGNIMMGH": [],
    "CHNPKEJLBEN": [],
    "minimapScale": 1.0
  },
  {
    "ID": 1501,
    "SceneID": 3,
    "AreaType": "LEVEL_2",
    "AreaID1": 10,
    "AreaID2": 1501,
    "AreaNameTextMapHash": 1066117406,
    "terrainType": "AREA_TERRAIN_OUTDOOR",
    "showTips": true,
    "DDBOIOBFNOK": [],
    "FDJGGNIMMGH": [],
    "CHNPKEJLBEN": [],
    "minimapScale": 1.0
  },
  {
    "ID": 1502,
    "SceneID": 3,
    "AreaType": "LEVEL_2",
    "AreaID1": 10,
    "AreaID2": 1502,
    "AreaNameTextMapHash": 730132438,
    "terrainType": "AREA_TERRAIN_OUTDOOR",
    "showTips": true,
    "DDBOIOBFNOK": [],
    "FDJGGNIMMGH": [],
    "CHNPKEJLBEN": [],
    "minimapScale": 1.0
  },
  {
    "ID": 1503,
    "SceneID": 3,
    "AreaType": "LEVEL_2",
    "AreaID1": 10,
    "AreaID2": 1503,
    "AreaNameTextMapHash": 1070037902,
    "terrainType": "AREA_TERRAIN_OUTDOOR",
    "showTips": true,
    "DDBOIOBFNOK": [],
    "FDJGGNIMMGH": [],
    "CHNPKEJLBEN": [],
    "minimapScale": 1.0
  },
  {
    "ID": 1504,
    "SceneID": 3,
    "AreaType": "LEVEL_2",
    "AreaID1": 10,
    "AreaID2": 1504,
    "AreaNameTextMapHash": 591268214,
    "terrainType": "AREA_TERRAIN_OUTDOOR",
    "showTips": true,
    "DDBOIOBFNOK": [],
    "FDJGGNIMMGH": [],
    "CHNPKEJLBEN": [],
    "minimapScale": 1.0
  },
  {
    "ID": 1505,
    "SceneID": 3,
    "AreaType": "LEVEL_2",
    "AreaID1": 10,
    "AreaID2": 1505,
    "AreaNameTextMapHash": 2507791606,
    "terrainType": "AREA_TERRAIN_OUTDOOR",
    "showTips": true,
    "DDBOIOBFNOK": [],
    "FDJGGNIMMGH": [],
    "CHNPKEJLBEN": [],
    "minimapScale": 1.0
  },
  {
    "ID": 1506,
    "SceneID": 3,
    "AreaType": "LEVEL_2",
    "AreaID1": 10,
    "AreaID2": 1506,
    "AreaNameTextMapHash": 1527711278,
    "terrainType": "AREA_TERRAIN_OUTDOOR",
    "showTips": true,
    "DDBOIOBFNOK": [],
    "FDJGGNIMMGH": [],
    "CHNPKEJLBEN": [],
    "minimapScale": 1.0
  },
  {
    "ID": 2500,
    "SceneID": 3,
    "AreaType": "LEVEL_1",
    "AreaID1": 5,
    "AreaNameTextMapHash": 1136517846,
    "towerPointId": 72,
    "elementType": "Rock",
    "showTips": true,
    "DDBOIOBFNOK": [],
    "FDJGGNIMMGH": [],
    "CHNPKEJLBEN": [],
    "minimapScale": 1.0
  },
  {
    "ID": 2501,
    "SceneID": 3,
    "AreaType": "LEVEL_2",
    "AreaID1": 5,
    "AreaID2": 501,
    "AreaNameTextMapHash": 282571438,
    "terrainType": "AREA_TERRAIN_OUTDOOR",
    "showTips": true,
    "DDBOIOBFNOK": [],
    "FDJGGNIMMGH": [],
    "CHNPKEJLBEN": [],
    "minimapScale": 1.0
  },
  {
    "ID": 2502,
    "SceneID": 3,
    "AreaType": "LEVEL_2",
    "AreaID1": 5,
    "AreaID2": 502,
    "AreaNameTextMapHash": 2239497542,
    "terrainType": "AREA_TERRAIN_OUTDOOR",
    "showTips": true,
    "DDBOIOBFNOK": [],
    "FDJGGNIMMGH": [],
    "CHNPKEJLBEN": [],
    "minimapScale": 1.0
  },
  {
    "ID": 2503,
    "SceneID": 3,
    "AreaType": "LEVEL_2",
    "AreaID1": 5,
    "AreaID2": 503,
    "AreaNameTextMapHash": 2497879454,
    "terrainType": "AREA_TERRAIN_OUTDOOR",
    "showTips": true,
    "DDBOIOBFNOK": [],
    "FDJGGNIMMGH": [],
    "CHNPKEJLBEN": [],
    "minimapScale": 1.0
  },
  {
    "ID": 2504,
    "SceneID": 3,
    "AreaType": "LEVEL_2",
    "AreaID1": 5,
    "AreaID2": 504,
    "AreaNameTextMapHash": 3686918334,
    "terrainType": "AREA_TERRAIN_OUTDOOR",
    "showTips": true,
    "DDBOIOBFNOK": [],
    "FDJGGNIMMGH": [],
    "CHNPKEJLBEN": [],
    "minimapScale": 3.0
  },
  {
    "ID": 2507,
    "SceneID": 3,
    "AreaType": "LEVEL_2",
    "AreaID1": 5,
    "AreaID2": 507,
    "AreaNameTextMapHash": 2640274662,
    "terrainType": "AREA_TERRAIN_OUTDOOR",
    "showTips": true,
    "DDBOIOBFNOK": [],
    "FDJGGNIMMGH": [],
    "CHNPKEJLBEN": [],
    "minimapScale": 1.0
  },
  {
    "ID": 2510,
    "SceneID": 3,
    "AreaType": "LEVEL_2",
    "AreaID1": 5,
    "AreaID2": 510,
    "AreaNameTextMapHash": 1903137606,
    "terrainType": "AREA_TERRAIN_OUTDOOR",
    "showTips": true,
    "DDBOIOBFNOK": [],
    "FDJGGNIMMGH": [],
    "CHNPKEJLBEN": [],
    "minimapScale": 1.0
  },
  {
    "ID": 2600,
    "SceneID": 3,
    "AreaType": "LEVEL_1",
    "AreaID1": 6,
    "AreaNameTextMapHash": 105117326,
    "towerPointId": 74,
    "elementType": "Rock",
    "showTips": true,
    "DDBOIOBFNOK": [],
    "FDJGGNIMMGH": [],
    "CHNPKEJLBEN": [],
    "minimapScale": 1.0
  },
  {
    "ID": 2601,
    "SceneID": 3,
    "AreaType": "LEVEL_2",
    "AreaID1": 6,
    "AreaID2": 601,
    "AreaNameTextMapHash": 455287774,
    "terrainType": "AREA_TERRAIN_OUTDOOR",
    "showTips": true,
    "DDBOIOBFNOK": [],
    "FDJGGNIMMGH": [],
    "CHNPKEJLBEN": [],
    "minimapScale": 1.0
  },
  {
    "ID": 2602,
    "SceneID": 3,
    "AreaType": "LEVEL_2",
    "AreaID1": 6,
    "AreaID2": 602,
    "AreaNameTextMapHash": 1812998582,
    "terrainType": "AREA_TERRAIN_OUTDOOR",
    "showTips": true,
    "DDBOIOBFNOK": [],
    "FDJGGNIMMGH": [],
    "CHNPKEJLBEN": [],
    "minimapScale": 1.0
  },
  {
    "ID": 2603,
    "SceneID": 3,
    "AreaType": "LEVEL_2",
    "AreaID1": 6,
    "AreaID2": 603,
    "AreaNameTextMapHash": 3057719390,
    "terrainType": "AREA_TERRAIN_OUTDOOR",
    "showTips": true,
    "DDBOIOBFNOK": [],
    "FDJGGNIMMGH": [],
    "CHNPKEJLBEN": [],
    "minimapScale": 1.0
  },
  {
    "ID": 2604,
    "SceneID": 3,
    "AreaType": "LEVEL_2",
    "AreaID1": 6,
    "AreaID2": 604,
    "AreaNameTextMapHash": 2598254270,
    "terrainType": "AREA_TERRAIN_OUTDOOR",
    "showTips": true,
    "DDBOIOBFNOK": [],
    "FDJGGNIMMGH": [],
    "CHNPKEJLBEN": [],
    "minimapScale": 1.0
  },
  {
    "ID": 2605,
    "SceneID": 3,
    "AreaType": "LEVEL_2",
    "AreaID1": 6,
    "AreaID2": 605,
    "AreaNameTextMapHash": 3734778318,
    "terrainType": "AREA_TERRAIN_OUTDOOR",
    "showTips": true,
    "DDBOIOBFNOK": [],
    "FDJGGNIMMGH": [],
    "CHNPKEJLBEN": [],
    "minimapScale": 1.0
  },
  {
    "ID": 2606,
    "SceneID": 3,
    "AreaType": "LEVEL_2",
    "AreaID1": 6,
    "AreaID2": 606,
    "AreaNameTextMapHash": 1198568174,
    "terrainType": "AREA_TERRAIN_OUTDOOR",
    "showTips": true,
    "DDBOIOBFNOK": [],
    "FDJGGNIMMGH": [],
    "CHNPKEJLBEN": [],
    "minimapScale": 1.0
  },
  {
    "ID": 2607,
    "SceneID": 3,
    "AreaType": "LEVEL_2",
    "AreaID1": 6,
    "AreaID2": 607,
    "AreaNameTextMapHash": 4268537278,
    "terrainType": "AREA_TERRAIN_OUTDOOR",
    "showTips": true,
    "DDBOIOBFNOK": [],
    "FDJGGNIMMGH": [],
    "CHNPKEJLBEN": [],
    "minimapScale": 1.0
  },
  {
    "ID": 2805,
    "SceneID": 3,
    "AreaType": "LEVEL_2",
    "AreaID1": 6,
    "AreaID2": 805,
    "AreaNameTextMapHash": 3678627646,
    "terrainType": "AREA_TERRAIN_OUTDOOR",
    "showTips": true,
    "DDBOIOBFNOK": [],
    "FDJGGNIMMGH": [],
    "CHNPKEJLBEN": [],
    "minimapScale": 1.0
  },
  {
    "ID": 2700,
    "SceneID": 3,
    "AreaType": "LEVEL_1",
    "AreaID1": 7,
    "AreaNameTextMapHash": 2202974,
    "towerPointId": 73,
    "elementType": "Rock",
    "showTips": true,
    "DDBOIOBFNOK": [],
    "FDJGGNIMMGH": [],
    "CHNPKEJLBEN": [],
    "minimapScale": 1.0
  },
  {
    "ID": 2701,
    "SceneID": 3,
    "AreaType": "LEVEL_2",
    "AreaID1": 7,
    "AreaID2": 701,
    "AreaNameTextMapHash": 2498723926,
    "terrainType": "AREA_TERRAIN_CITY",
    "showTips": true,
    "DDBOIOBFNOK": [],
    "FDJGGNIMMGH": [],
    "CHNPKEJLBEN": [],
    "minimapScale": 3.0
  },
  {
    "ID": 2702,
    "SceneID": 3,
    "AreaType": "LEVEL_2",
    "AreaID1": 7,
    "AreaID2": 702,
    "AreaNameTextMapHash": 699256678,
    "terrainType": "AREA_TERRAIN_OUTDOOR",
    "showTips": true,
    "DDBOIOBFNOK": [],
    "FDJGGNIMMGH": [],
    "CHNPKEJLBEN": [],
    "minimapScale": 1.0
  },
  {
    "ID": 2703,
    "SceneID": 3,
    "AreaType": "LEVEL_2",
    "AreaID1": 7,
    "AreaID2": 703,
    "AreaNameTextMapHash": 646236134,
    "terrainType": "AREA_TERRAIN_OUTDOOR",
    "showTips": true,
    "DDBOIOBFNOK": [],
    "FDJGGNIMMGH": [],
    "CHNPKEJLBEN": [],
    "minimapScale": 1.0
  },
  {
    "ID": 2800,
    "SceneID": 3,
    "AreaType": "LEVEL_1",
    "AreaID1": 8,
    "AreaNameTextMapHash": 2923096766,
    "towerPointId": 75,
    "elementType": "Rock",
    "showTips": true,
    "DDBOIOBFNOK": [],
    "FDJGGNIMMGH": [],
    "CHNPKEJLBEN": [],
    "minimapScale": 1.0
  },
  {
    "ID": 2801,
    "SceneID": 3,
    "AreaType": "LEVEL_2",
    "AreaID1": 8,
    "AreaID2": 801,
    "AreaNameTextMapHash": 981199582,
    "terrainType": "AREA_TERRAIN_OUTDOOR",
    "showTips": true,
    "DDBOIOBFNOK": [],
    "FDJGGNIMMGH": [],
    "CHNPKEJLBEN": [],
    "minimapScale": 1.0
  },
  {
    "ID": 2802,
    "SceneID": 3,
    "AreaType": "LEVEL_2",
    "AreaID1": 8,
    "AreaID2": 802,
    "AreaNameTextMapHash": 3663695934,
    "terrainType": "AREA_TERRAIN_OUTDOOR",
    "showTips": true,
    "DDBOIOBFNOK": [],
    "FDJGGNIMMGH": [],
    "CHNPKEJLBEN": [],
    "minimapScale": 1.0
  },
  {
    "ID": 2803,
    "SceneID": 3,
    "AreaType": "LEVEL_2",
    "AreaID1": 8,
    "AreaID2": 803,
    "AreaNameTextMapHash": 2764095638,
    "terrainType": "AREA_TERRAIN_OUTDOOR",
    "showTips": true,
    "DDBOIOBFNOK": [],
    "FDJGGNIMMGH": [],
    "CHNPKEJLBEN": [],
    "minimapScale": 1.0
  },
  {
    "ID": 2900,
    "SceneID": 3,
    "AreaType": "LEVEL_1",
    "AreaID1": 9,
    "AreaNameTextMapHash": 4262053622,
    "towerPointId": 182,
    "elementType": "Rock",
    "showTips": true,
    "DDBOIOBFNOK": [],
    "FDJGGNIMMGH": [],
    "CHNPKEJLBEN": [],
    "minimapScale": 1.0
  },
  {
    "ID": 2505,
    "SceneID": 3,
    "AreaType": "LEVEL_2",
    "AreaID1": 9,
    "AreaID2": 505,
    "AreaNameTextMapHash": 2525002582,
    "terrainType": "AREA_TERRAIN_OUTDOOR",
    "showTips": true,
    "DDBOIOBFNOK": [],
    "FDJGGNIMMGH": [],
    "CHNPKEJLBEN": [],
    "minimapScale": 1.0
  },
  {
    "ID": 2506,
    "SceneID": 3,
    "AreaType": "LEVEL_2",
    "AreaID1": 9,
    "AreaID2": 506,
    "AreaNameTextMapHash": 3892870038,
    "terrainType": "AREA_TERRAIN_OUTDOOR",
    "showTips": true,
    "DDBOIOBFNOK": [],
    "FDJGGNIMMGH": [],
    "CHNPKEJLBEN": [],
    "minimapScale": 1.0
  },
  {
    "ID": 2508,
    "SceneID": 3,
    "AreaType": "LEVEL_2",
    "AreaID1": 9,
    "AreaID2": 508,
    "AreaNameTextMapHash": 322549590,
    "terrainType": "AREA_TERRAIN_OUTDOOR",
    "showTips": true,
    "DDBOIOBFNOK": [],
    "FDJGGNIMMGH": [],
    "CHNPKEJLBEN": [],
    "minimapScale": 1.0
  },
  {
    "ID": 2509,
    "SceneID": 3,
    "AreaType": "LEVEL_2",
    "AreaID1": 9,
    "AreaID2": 509,
    "AreaNameTextMapHash": 662512006,
    "terrainType": "AREA_TERRAIN_OUTDOOR",
    "showTips": true,
    "DDBOIOBFNOK": [],
    "FDJGGNIMMGH": [],
    "CHNPKEJLBEN": [],
    "minimapScale": 1.0
  },
  {
    "ID": 3100,
    "SceneID": 3,
    "AreaType": "LEVEL_1",
    "AreaID1": 11,
    "AreaNameTextMapHash": 1350805630,
    "towerPointId": 234,
    "elementType": "Electric",
    "showTips": true,
    "DDBOIOBFNOK": [],
    "FDJGGNIMMGH": [],
    "CHNPKEJLBEN": [],
    "minimapScale": 1.0
  },
  {
    "ID": 3101,
    "SceneID": 3,
    "AreaType": "LEVEL_2",
    "AreaID1": 11,
    "AreaID2": 1101,
    "AreaNameTextMapHash": 395236350,
    "terrainType": "AREA_TERRAIN_CITY",
    "showTips": true,
    "DDBOIOBFNOK": [],
    "FDJGGNIMMGH": [],
    "CHNPKEJLBEN": [],
    "minimapScale": 3.0
  },
  {
    "ID": 3102,
    "SceneID": 3,
    "AreaType": "LEVEL_2",
    "AreaID1": 11,
    "AreaID2": 1102,
    "AreaNameTextMapHash": 1098146398,
    "terrainType": "AREA_TERRAIN_OUTDOOR",
    "showTips": true,
    "DDBOIOBFNOK": [],
    "FDJGGNIMMGH": [],
    "CHNPKEJLBEN": [],
    "minimapScale": 3.0
  },
  {
    "ID": 3103,
    "SceneID": 3,
    "AreaType": "LEVEL_2",
    "AreaID1": 11,
    "AreaID2": 1103,
    "AreaNameTextMapHash": 3926686486,
    "terrainType": "AREA_TERRAIN_OUTDOOR",
    "showTips": true,
    "DDBOIOBFNOK": [],
    "FDJGGNIMMGH": [],
    "CHNPKEJLBEN": [],
    "minimapScale": 1.0
  },
  {
    "ID": 3104,
    "SceneID": 3,
    "AreaType": "LEVEL_2",
    "AreaID1": 11,
    "AreaID2": 1104,
    "AreaNameTextMapHash": 1750184870,
    "terrainType": "AREA_TERRAIN_OUTDOOR",
    "showTips": true,
    "DDBOIOBFNOK": [],
    "FDJGGNIMMGH": [],
    "CHNPKEJLBEN": [],
    "minimapScale": 1.0
  },
  {
    "ID": 3105,
    "SceneID": 3,
    "AreaType": "LEVEL_2",
    "AreaID1": 11,
    "AreaID2": 1105,
    "AreaNameTextMapHash": 950231454,
    "terrainType": "AREA_TERRAIN_OUTDOOR",
    "showTips": true,
    "DDBOIOBFNOK": [],
    "FDJGGNIMMGH": [],
    "CHNPKEJLBEN": [],
    "minimapScale": 1.0
  },
  {
    "ID": 3106,
    "SceneID": 3,
    "AreaType": "LEVEL_2",
    "AreaID1": 11,
    "AreaID2": 1106,
    "AreaNameTextMapHash": 3354751270,
    "terrainType": "AREA_TERRAIN_OUTDOOR",
    "showTips": true,
    "DDBOIOBFNOK": [],
    "FDJGGNIMMGH": [],
    "CHNPKEJLBEN": [],
    "minimapScale": 1.0
  },
  {
    "ID": 3107,
    "SceneID": 3,
    "AreaType": "LEVEL_2",
    "AreaID1": 11,
    "AreaID2": 1107,
    "AreaNameTextMapHash": 1204437030,
    "terrainType": "AREA_TERRAIN_OUTDOOR",
    "showTips": true,
    "DDBOIOBFNOK": [],
    "FDJGGNIMMGH": [],
    "CHNPKEJLBEN": [],
    "minimapScale": 1.0
  },
  {
    "ID": 3108,
    "SceneID": 3,
    "AreaType": "LEVEL_2",
    "AreaID1": 11,
    "AreaID2": 1108,
    "AreaNameTextMapHash": 429348478,
    "terrainType": "AREA_TERRAIN_OUTDOOR",
    "showTips": true,
    "DDBOIOBFNOK": [],
    "FDJGGNIMMGH": [],
    "CHNPKEJLBEN": [],
    "minimapScale": 1.0
  },
  {
    "ID": 3109,
    "SceneID": 3,
    "AreaType": "LEVEL_2",
    "AreaID1": 11,
    "AreaID2": 1109,
    "AreaNameTextMapHash": 4123172662,
    "terrainType": "AREA_TERRAIN_OUTDOOR",
    "showTips": true,
    "DDBOIOBFNOK": [],
    "FDJGGNIMMGH": [],
    "CHNPKEJLBEN": [],
    "minimapScale": 1.0
  },
  {
    "ID": 3110,
    "SceneID": 3,
    "AreaType": "LEVEL_2",
    "AreaID1": 11,
    "AreaID2": 1110,
    "AreaNameTextMapHash": 2948112646,
    "terrainType": "AREA_TERRAIN_OUTDOOR",
    "showTips": true,
    "DDBOIOBFNOK": [],
    "FDJGGNIMMGH": [],
    "CHNPKEJLBEN": [],
    "minimapScale": 1.0
  },
  {
    "ID": 3111,
    "SceneID": 3,
    "AreaType": "LEVEL_2",
    "AreaID1": 11,
    "AreaID2": 1111,
    "AreaNameTextMapHash": 3754118110,
    "terrainType": "AREA_TERRAIN_OUTDOOR",
    "showTips": true,
    "DDBOIOBFNOK": [],
    "FDJGGNIMMGH": [],
    "CHNPKEJLBEN": [],
    "minimapScale": 1.0
  },
  {
    "ID": 3200,
    "SceneID": 3,
    "AreaType": "LEVEL_1",
    "AreaID1": 12,
    "AreaNameTextMapHash": 3676766086,
    "towerPointId": 235,
    "elementType": "Electric",
    "showTips": true,
    "DDBOIOBFNOK": [],
    "FDJGGNIMMGH": [],
    "CHNPKEJLBEN": [],
    "minimapScale": 1.0
  },
  {
    "ID": 3201,
    "SceneID": 3,
    "AreaType": "LEVEL_2",
    "AreaID1": 12,
    "AreaID2": 1201,
    "AreaNameTextMapHash": 1563071942,
    "terrainType": "AREA_TERRAIN_OUTDOOR",
    "showTips": true,
    "DDBOIOBFNOK": [],
    "FDJGGNIMMGH": [],
    "CHNPKEJLBEN": [],
    "minimapScale": 1.0
  },
  {
    "ID": 3202,
    "SceneID": 3,
    "AreaType": "LEVEL_2",
    "AreaID1": 12,
    "AreaID2": 1202,
    "AreaNameTextMapHash": 4095574118,
    "terrainType": "AREA_TERRAIN_OUTDOOR",
    "showTips": true,
    "DDBOIOBFNOK": [],
    "FDJGGNIMMGH": [],
    "CHNPKEJLBEN": [],
    "minimapScale": 1.0
  },
  {
    "ID": 3300,
    "SceneID": 3,
    "AreaType": "LEVEL_1",
    "AreaID1": 13,
    "AreaNameTextMapHash": 2247491462,
    "towerPointId": 236,
    "elementType": "Electric",
    "showTips": true,
    "DDBOIOBFNOK": [],
    "FDJGGNIMMGH": [],
    "CHNPKEJLBEN": [],
    "minimapScale": 1.0
  },
  {
    "ID": 3302,
    "SceneID": 3,
    "AreaType": "LEVEL_2",
    "AreaID1": 13,
    "AreaID2": 1301,
    "AreaNameTextMapHash": 1079754566,
    "terrainType": "AREA_TERRAIN_OUTDOOR",
    "showTips": true,
    "DDBOIOBFNOK": [],
    "FDJGGNIMMGH": [],
    "CHNPKEJLBEN": [],
    "minimapScale": 1.0
  },
  {
    "ID": 3303,
    "SceneID": 3,
    "AreaType": "LEVEL_2",
    "AreaID1": 13,
    "AreaID2": 1302,
    "AreaNameTextMapHash": 381029262,
    "terrainType": "AREA_TERRAIN_OUTDOOR",
    "showTips": true,
    "DDBOIOBFNOK": [],
    "FDJGGNIMMGH": [],
    "CHNPKEJLBEN": [],
    "minimapScale": 1.0
  },
  {
    "ID": 3304,
    "SceneID": 3,
    "AreaType": "LEVEL_2",
    "AreaID1": 13,
    "AreaID2": 1303,
    "AreaNameTextMapHash": 2190295534,
    "terrainType": "AREA_TERRAIN_OUTDOOR",
    "showTips": true,
    "DDBOIOBFNOK": [],
    "FDJGGNIMMGH": [],
    "CHNPKEJLBEN": [],
    "minimapScale": 1.0
  },
  {
    "ID": 3305,
    "SceneID": 3,
    "AreaType": "LEVEL_2",
    "AreaID1": 13,
    "AreaID2": 1304,
    "AreaNameTextMapHash": 2175554430,
    "terrainType": "AREA_TERRAIN_OUTDOOR",
    "showTips": true,
    "DDBOIOBFNOK": [],
    "FDJGGNIMMGH": [],
    "CHNPKEJLBEN": [],
    "minimapScale": 1.0
  },
  {
    "ID": 3306,
    "SceneID": 3,
    "AreaType": "LEVEL_2",
    "AreaID1": 13,
    "AreaID2": 1305,
    "AreaNameTextMapHash": 1416668086,
    "terrainType": "AREA_TERRAIN_OUTDOOR",
    "showTips": true,
    "DDBOIOBFNOK": [],
    "FDJGGNIMMGH": [],
    "CHNPKEJLBEN": [],
    "minimapScale": 1.0
  },
  {
    "ID": 3307,
    "SceneID": 3,
    "AreaType": "LEVEL_2",
    "AreaID1": 13,
    "AreaID2": 1306,
    "AreaNameTextMapHash": 963667302,
    "terrainType": "AREA_TERRAIN_OUTDOOR",
    "showTips": true,
    "DDBOIOBFNOK": [],
    "FDJGGNIMMGH": [],
    "CHNPKEJLBEN": [],
    "minimapScale": 1.0
  },
  {
    "ID": 3301,
    "SceneID": 3,
    "AreaType": "LEVEL_2",
    "AreaID1": 13,
    "AreaID2": 1307,
    "AreaNameTextMapHash": 4247075190,
    "terrainType": "AREA_TERRAIN_OUTDOOR",
    "showTips": true,
    "DDBOIOBFNOK": [],
    "FDJGGNIMMGH": [],
    "CHNPKEJLBEN": [],
    "minimapScale": 1.0
  },
  {
    "ID": 100100,
    "SceneID": 4,
    "AreaType": "LEVEL_1",
    "AreaID1": 100,
    "AreaDefaultLock": true,
    "AreaNameTextMapHash": 2575710694,
    "towerPointId": 1,
    "terrainType": "AREA_TERRAIN_OUTDOOR",
    "showTips": true,
    "DDBOIOBFNOK": [],
    "FDJGGNIMMGH": [],
    "CHNPKEJLBEN": [],
    "minimapScale": 1.0
  },
  {
    "ID": 100101,
    "SceneID": 4,
    "AreaType": "LEVEL_1",
    "AreaID1": 101,
    "AreaNameTextMapHash": 478064886,
    "towerPointId": 3,
    "terrainType": "AREA_TERRAIN_OUTDOOR",
    "showTips": true,
    "DDBOIOBFNOK": [],
    "FDJGGNIMMGH": [],
    "CHNPKEJLBEN": [],
    "minimapScale": 1.0
  },
  {
    "ID": 100102,
    "SceneID": 4,
    "AreaType": "LEVEL_1",
    "AreaID1": 102,
    "AreaNameTextMapHash": 627398982,
    "towerPointId": 5,
    "terrainType": "AREA_TERRAIN_OUTDOOR",
    "showTips": true,
    "DDBOIOBFNOK": [],
    "FDJGGNIMMGH": [],
    "CHNPKEJLBEN": [],
    "minimapScale": 1.0
  },
  {
    "ID": 100103,
    "SceneID": 4,
    "AreaType": "LEVEL_1",
    "AreaID1": 103,
    "AreaNameTextMapHash": 1223288990,
    "towerPointId": 6,
    "terrainType": "AREA_TERRAIN_OUTDOOR",
    "showTips": true,
    "DDBOIOBFNOK": [],
    "FDJGGNIMMGH": [],
    "CHNPKEJLBEN": [],
    "minimapScale": 1.0
  },
  {
    "ID": 3400,
    "SceneID": 3,
    "AreaType": "LEVEL_1",
    "AreaID1": 14,
    "AreaNameTextMapHash": 333637766,
    "towerPointId": 293,
    "elementType": "Electric",
    "showTips": true,
    "DDBOIOBFNOK": [],
    "FDJGGNIMMGH": [],
    "CHNPKEJLBEN": [],
    "minimapScale": 1.0
  },
  {
    "ID": 3401,
    "SceneID": 3,
    "AreaType": "LEVEL_2",
    "AreaID1": 14,
    "AreaID2": 1401,
    "AreaNameTextMapHash": 786186662,
    "terrainType": "AREA_TERRAIN_OUTDOOR",
    "showTips": true,
    "DDBOIOBFNOK": [],
    "FDJGGNIMMGH": [],
    "CHNPKEJLBEN": [],
    "minimapScale": 1.0
  },
  {
    "ID": 3402,
    "SceneID": 3,
    "AreaType": "LEVEL_2",
    "AreaID1": 14,
    "AreaID2": 1402,
    "AreaNameTextMapHash": 1691205822,
    "terrainType": "AREA_TERRAIN_OUTDOOR",
    "showTips": true,
    "DDBOIOBFNOK": [],
    "FDJGGNIMMGH": [],
    "CHNPKEJLBEN": [],
    "minimapScale": 1.0
  },
  {
    "ID": 3403,
    "SceneID": 3,
    "AreaType": "LEVEL_2",
    "AreaID1": 14,
    "AreaID2": 1403,
    "AreaNameTextMapHash": 1664723286,
    "terrainType": "AREA_TERRAIN_OUTDOOR",
    "showTips": true,
    "DDBOIOBFNOK": [],
    "FDJGGNIMMGH": [],
    "CHNPKEJLBEN": [],
    "minimapScale": 1.0
  },
  {
    "ID": 3404,
    "SceneID": 3,
    "AreaType": "LEVEL_2",
    "AreaID1": 14,
    "AreaID2": 1404,
    "AreaNameTextMapHash": 4160980238,
    "terrainType": "AREA_TERRAIN_OUTDOOR",
    "showTips": true,
    "DDBOIOBFNOK": [],
    "FDJGGNIMMGH": [],
    "CHNPKEJLBEN": [],
    "minimapScale": 1.0
  },
  {
    "ID": 3405,
    "SceneID": 3,
    "AreaType": "LEVEL_2",
    "AreaID1": 14,
    "AreaID2": 1405,
    "AreaNameTextMapHash": 3141571174,
    "terrainType": "AREA_TERRAIN_OUTDOOR",
    "showTips": true,
    "DDBOIOBFNOK": [],
    "FDJGGNIMMGH": [],
    "CHNPKEJLBEN": [],
    "minimapScale": 1.0
  },
  {
    "ID": 99100,
    "SceneID": 3,
    "AreaType": "LEVEL_1",
    "AreaID1": 16,
    "AreaNameTextMapHash": 1270408398,
    "towerPointId": 314,
    "showTips": true,
    "DDBOIOBFNOK": [],
    "FDJGGNIMMGH": [],
    "CHNPKEJLBEN": [],
    "minimapScale": 1.0
  },
  {
    "ID": 3500,
    "SceneID": 3,
    "AreaType": "LEVEL_1",
    "AreaID1": 17,
    "AreaNameTextMapHash": 1306947598,
    "towerPointId": 318,
    "elementType": "Electric",
    "showTips": true,
    "DDBOIOBFNOK": [],
    "FDJGGNIMMGH": [],
    "CHNPKEJLBEN": [],
    "minimapScale": 1.0
  },
  {
    "ID": 3501,
    "SceneID": 3,
    "AreaType": "LEVEL_2",
    "AreaID1": 17,
    "AreaID2": 1701,
    "AreaNameTextMapHash": 767551774,
    "terrainType": "AREA_TERRAIN_OUTDOOR",
    "showTips": true,
    "DDBOIOBFNOK": [],
    "FDJGGNIMMGH": [],
    "CHNPKEJLBEN": [],
    "minimapScale": 1.0
  },
  {
    "ID": 3502,
    "SceneID": 3,
    "AreaType": "LEVEL_2",
    "AreaID1": 17,
    "AreaID2": 1702,
    "AreaNameTextMapHash": 3201987494,
    "terrainType": "AREA_TERRAIN_OUTDOOR",
    "showTips": true,
    "DDBOIOBFNOK": [],
    "FDJGGNIMMGH": [],
    "CHNPKEJLBEN": [],
    "minimapScale": 1.0
  },
  {
    "ID": 3503,
    "SceneID": 3,
    "AreaType": "LEVEL_2",
    "AreaID1": 17,
    "AreaID2": 1703,
    "AreaNameTextMapHash": 1456325558,
    "terrainType": "AREA_TERRAIN_OUTDOOR",
    "showTips": true,
    "DDBOIOBFNOK": [],
    "FDJGGNIMMGH": [],
    "CHNPKEJLBEN": [],
    "minimapScale": 1.0
  },
  {
    "ID": 3504,
    "SceneID": 3,
    "AreaType": "LEVEL_2",
    "AreaID1": 17,
    "AreaID2": 1704,
    "AreaNameTextMapHash": 3050768718,
    "terrainType": "AREA_TERRAIN_OUTDOOR",
    "showTips": true,
    "DDBOIOBFNOK": [],
    "FDJGGNIMMGH": [],
    "CHNPKEJLBEN": [],
    "minimapScale": 1.0
  },
  {
    "ID": 3600,
    "SceneID": 3,
    "AreaType": "LEVEL_1",
    "AreaID1": 18,
    "AreaNameTextMapHash": 2194420718,
    "towerPointId": 316,
    "elementType": "Electric",
    "terrainType": "AREA_TERRAIN_OUTDOOR",
    "showTips": true,
    "DDBOIOBFNOK": [],
    "FDJGGNIMMGH": [],
    "CHNPKEJLBEN": [],
    "minimapScale": 1.0
  },
  {
    "ID": 3601,
    "SceneID": 3,
    "AreaType": "LEVEL_2",
    "AreaID1": 18,
    "AreaID2": 1801,
    "AreaNameTextMapHash": 2584778534,
    "terrainType": "AREA_TERRAIN_OUTDOOR",
    "showTips": true,
    "DDBOIOBFNOK": [],
    "FDJGGNIMMGH": [],
    "CHNPKEJLBEN": [],
    "minimapScale": 1.0
  },
  {
    "ID": 3602,
    "SceneID": 3,
    "AreaType": "LEVEL_2",
    "AreaID1": 18,
    "AreaID2": 1802,
    "AreaNameTextMapHash": 3879056446,
    "terrainType": "AREA_TERRAIN_OUTDOOR",
    "showTips": true,
    "DDBOIOBFNOK": [],
    "FDJGGNIMMGH": [],
    "CHNPKEJLBEN": [],
    "minimapScale": 1.0
  },
  {
    "ID": 3603,
    "SceneID": 3,
    "AreaType": "LEVEL_2",
    "AreaID1": 18,
    "AreaID2": 1803,
    "AreaNameTextMapHash": 1592903998,
    "terrainType": "AREA_TERRAIN_OUTDOOR",
    "showTips": true,
    "DDBOIOBFNOK": [],
    "FDJGGNIMMGH": [],
    "CHNPKEJLBEN": [],
    "minimapScale": 1.0
  },
  {
    "ID": 3604,
    "SceneID": 3,
    "AreaType": "LEVEL_2",
    "AreaID1": 18,
    "AreaID2": 1804,
    "AreaNameTextMapHash": 3215210550,
    "terrainType": "AREA_TERRAIN_OUTDOOR",
    "showTips": true,
    "DDBOIOBFNOK": [],
    "FDJGGNIMMGH": [],
    "CHNPKEJLBEN": [],
    "minimapScale": 1.0
  },
  {
    "ID": 3605,
    "SceneID": 3,
    "AreaType": "LEVEL_2",
    "AreaID1": 18,
    "AreaID2": 1805,
    "AreaNameTextMapHash": 2546331334,
    "terrainType": "AREA_TERRAIN_OUTDOOR",
    "showTips": true,
    "DDBOIOBFNOK": [],
    "FDJGGNIMMGH": [],
    "CHNPKEJLBEN": [],
    "minimapScale": 1.0
  },
  {
    "ID": 3606,
    "SceneID": 3,
    "AreaType": "LEVEL_2",
    "AreaID1": 18,
    "AreaID2": 1806,
    "AreaNameTextMapHash": 1720510694,
    "terrainType": "AREA_TERRAIN_OUTDOOR",
    "showTips": true,
    "DDBOIOBFNOK": [],
    "FDJGGNIMMGH": [],
    "CHNPKEJLBEN": [],
    "minimapScale": 1.0
  },
  {
    "ID": 3607,
    "SceneID": 3,
    "AreaType": "LEVEL_2",
    "AreaID1": 18,
    "AreaID2": 1807,
    "AreaNameTextMapHash": 2548356558,
    "terrainType": "AREA_TERRAIN_OUTDOOR",
    "showTips": true,
    "DDBOIOBFNOK": [],
    "FDJGGNIMMGH": [],
    "CHNPKEJLBEN": [],
    "minimapScale": 1.0
  },
  {
    "ID": 3700,
    "SceneID": 5,
    "AreaType": "LEVEL_1",
    "AreaID1": 200,
    "AreaNameTextMapHash": 1930119374,
    "towerPointId": 39,
    "terrainType": "AREA_TERRAIN_OUTDOOR",
    "showTips": true,
    "DDBOIOBFNOK": [],
    "FDJGGNIMMGH": [],
    "CHNPKEJLBEN": [],
    "minimapScale": 1.0
  },
  {
    "ID": 3701,
    "SceneID": 5,
    "AreaType": "LEVEL_2",
    "AreaID1": 200,
    "AreaID2": 20001,
    "AreaNameTextMapHash": 2237318478,
    "terrainType": "AREA_TERRAIN_OUTDOOR",
    "showTips": true,
    "DDBOIOBFNOK": [],
    "FDJGGNIMMGH": [],
    "CHNPKEJLBEN": [],
    "minimapScale": 1.0
  },
  {
    "ID": 3702,
    "SceneID": 5,
    "AreaType": "LEVEL_2",
    "AreaID1": 200,
    "AreaID2": 20002,
    "AreaNameTextMapHash": 1731194166,
    "terrainType": "AREA_TERRAIN_OUTDOOR",
    "showTips": true,
    "DDBOIOBFNOK": [],
    "FDJGGNIMMGH": [],
    "CHNPKEJLBEN": [],
    "minimapScale": 1.0
  },
  {
    "ID": 3703,
    "SceneID": 5,
    "AreaType": "LEVEL_2",
    "AreaID1": 200,
    "AreaID2": 20003,
    "AreaNameTextMapHash": 2042351838,
    "terrainType": "AREA_TERRAIN_OUTDOOR",
    "showTips": true,
    "DDBOIOBFNOK": [],
    "FDJGGNIMMGH": [],
    "CHNPKEJLBEN": [],
    "minimapScale": 1.0
  },
  {
    "ID": 3704,
    "SceneID": 5,
    "AreaType": "LEVEL_2",
    "AreaID1": 200,
    "AreaID2": 20004,
    "AreaNameTextMapHash": 1143884470,
    "terrainType": "AREA_TERRAIN_OUTDOOR",
    "showTips": true,
    "DDBOIOBFNOK": [],
    "FDJGGNIMMGH": [],
    "CHNPKEJLBEN": [],
    "minimapScale": 1.0
  },
  {
    "ID": 3705,
    "SceneID": 5,
    "AreaType": "LEVEL_2",
    "AreaID1": 200,
    "AreaID2": 20005,
    "AreaNameTextMapHash": 1535460774,
    "terrainType": "AREA_TERRAIN_OUTDOOR",
    "showTips": true,
    "DDBOIOBFNOK": [],
    "FDJGGNIMMGH": [],
    "CHNPKEJLBEN": [],
    "minimapScale": 1.0
  },
  {
    "ID": 3706,
    "SceneID": 5,
    "AreaType": "LEVEL_2",
    "AreaID1": 200,
    "AreaID2": 20006,
    "AreaNameTextMapHash": 2173144174,
    "terrainType": "AREA_TERRAIN_OUTDOOR",
    "showTips": true,
    "DDBOIOBFNOK": [],
    "FDJGGNIMMGH": [],
    "CHNPKEJLBEN": [],
    "minimapScale": 1.0
  },
  {
    "ID": 3707,
    "SceneID": 5,
    "AreaType": "LEVEL_2",
    "AreaID1": 200,
    "AreaID2": 20007,
    "AreaNameTextMapHash": 2895412478,
    "terrainType": "AREA_TERRAIN_OUTDOOR",
    "showTips": true,
    "DDBOIOBFNOK": [],
    "FDJGGNIMMGH": [],
    "CHNPKEJLBEN": [],
    "minimapScale": 1.0
  },
  {
    "ID": 3708,
    "SceneID": 5,
    "AreaType": "LEVEL_2",
    "AreaID1": 200,
    "AreaID2": 20008,
    "AreaNameTextMapHash": 2244375358,
    "terrainType": "AREA_TERRAIN_OUTDOOR",
    "showTips": true,
    "DDBOIOBFNOK": [],
    "FDJGGNIMMGH": [],
    "CHNPKEJLBEN": [],
    "minimapScale": 1.0
  },
  {
    "ID": 3709,
    "SceneID": 5,
    "AreaType": "LEVEL_2",
    "AreaID1": 200,
    "AreaID2": 20009,
    "AreaNameTextMapHash": 614065614,
    "terrainType": "AREA_TERRAIN_OUTDOOR",
    "showTips": true,
    "DDBOIOBFNOK": [],
    "FDJGGNIMMGH": [],
    "CHNPKEJLBEN": [],
    "minimapScale": 1.0
  },
  {
    "ID": 2200,
    "SceneID": 3,
    "AreaType": "LEVEL_1",
    "AreaID1": 19,
    "AreaNameTextMapHash": 1195501630,
    "towerPointId": 442,
    "elementType": "Rock",
    "showTips": true,
    "DDBOIOBFNOK": [],
    "FDJGGNIMMGH": [],
    "CHNPKEJLBEN": [],
    "minimapScale": 1.0
  },
  {
    "ID": 2201,
    "SceneID": 3,
    "AreaType": "LEVEL_2",
    "AreaID1": 19,
    "AreaID2": 1901,
    "AreaNameTextMapHash": 4038607350,
    "terrainType": "AREA_TERRAIN_OUTDOOR",
    "showTips": true,
    "DDBOIOBFNOK": [],
    "FDJGGNIMMGH": [],
    "CHNPKEJLBEN": [],
    "minimapScale": 1.0
  },
  {
    "ID": 2202,
    "SceneID": 3,
    "AreaType": "LEVEL_2",
    "AreaID1": 19,
    "AreaID2": 1902,
    "AreaNameTextMapHash": 3910632142,
    "terrainType": "AREA_TERRAIN_OUTDOOR",
    "showTips": true,
    "DDBOIOBFNOK": [],
    "FDJGGNIMMGH": [],
    "CHNPKEJLBEN": [],
    "minimapScale": 1.0
  },
  {
    "ID": 2203,
    "SceneID": 3,
    "AreaType": "LEVEL_2",
    "AreaID1": 19,
    "AreaID2": 1903,
    "AreaNameTextMapHash": 3465399662,
    "terrainType": "AREA_TERRAIN_OUTDOOR",
    "showTips": true,
    "DDBOIOBFNOK": [],
    "FDJGGNIMMGH": [],
    "CHNPKEJLBEN": [],
    "minimapScale": 1.0
  },
  {
    "ID": 2204,
    "SceneID": 3,
    "AreaType": "LEVEL_2",
    "AreaID1": 19,
    "AreaID2": 1904,
    "AreaNameTextMapHash": 3972935710,
    "terrainType": "AREA_TERRAIN_OUTDOOR",
    "showTips": true,
    "DDBOIOBFNOK": [],
    "FDJGGNIMMGH": [],
    "CHNPKEJLBEN": [],
    "minimapScale": 1.0
  },
  {
    "ID": 2205,
    "SceneID": 3,
    "AreaType": "LEVEL_2",
    "AreaID1": 19,
    "AreaID2": 1905,
    "AreaNameTextMapHash": 2841465878,
    "terrainType": "AREA_TERRAIN_OUTDOOR",
    "showTips": true,
    "DDBOIOBFNOK": [],
    "FDJGGNIMMGH": [],
    "CHNPKEJLBEN": [],
    "minimapScale": 1.0
  },
  {
    "ID": 2206,
    "SceneID": 3,
    "AreaType": "LEVEL_2",
    "AreaID1": 19,
    "AreaID2": 1906,
    "AreaNameTextMapHash": 3010979462,
    "terrainType": "AREA_TERRAIN_OUTDOOR",
    "showTips": true,
    "DDBOIOBFNOK": [],
    "FDJGGNIMMGH": [],
    "CHNPKEJLBEN": [],
    "minimapScale": 1.0
  },
  {
    "ID": 2207,
    "SceneID": 3,
    "AreaType": "LEVEL_2",
    "AreaID1": 19,
    "AreaID2": 1907,
    "AreaNameTextMapHash": 1866843342,
    "terrainType": "AREA_TERRAIN_OUTDOOR",
    "showTips": true,
    "DDBOIOBFNOK": [],
    "FDJGGNIMMGH": [],
    "CHNPKEJLBEN": [],
    "minimapScale": 1.0
  },
  {
    "ID": 4100,
    "SceneID": 3,
    "AreaType": "LEVEL_1",
    "AreaID1": 20,
    "AreaNameTextMapHash": 2453177422,
    "towerPointId": 462,
    "elementType": "Grass",
    "showTips": true,
    "DDBOIOBFNOK": [],
    "FDJGGNIMMGH": [],
    "CHNPKEJLBEN": [],
    "minimapScale": 1.0
  },
  {
    "ID": 4101,
    "SceneID": 3,
    "AreaType": "LEVEL_2",
    "AreaID1": 20,
    "AreaID2": 2001,
    "AreaNameTextMapHash": 994001118,
    "terrainType": "AREA_TERRAIN_OUTDOOR",
    "showTips": true,
    "DDBOIOBFNOK": [],
    "FDJGGNIMMGH": [],
    "CHNPKEJLBEN": [],
    "minimapScale": 1.0
  },
  {
    "ID": 4102,
    "SceneID": 3,
    "AreaType": "LEVEL_2",
    "AreaID1": 20,
    "AreaID2": 2002,
    "AreaNameTextMapHash": 2126756870,
    "terrainType": "AREA_TERRAIN_OUTDOOR",
    "showTips": true,
    "DDBOIOBFNOK": [],
    "FDJGGNIMMGH": [],
    "CHNPKEJLBEN": [],
    "minimapScale": 1.0
  },
  {
    "ID": 4103,
    "SceneID": 3,
    "AreaType": "LEVEL_2",
    "AreaID1": 20,
    "AreaID2": 2003,
    "AreaNameTextMapHash": 3098112230,
    "terrainType": "AREA_TERRAIN_CITY",
    "showTips": true,
    "DDBOIOBFNOK": [],
    "FDJGGNIMMGH": [],
    "CHNPKEJLBEN": [],
    "minimapScale": 1.0
  },
  {
    "ID": 4200,
    "SceneID": 3,
    "AreaType": "LEVEL_1",
    "AreaID1": 21,
    "AreaNameTextMapHash": 924412270,
    "towerPointId": 463,
    "elementType": "Grass",
    "showTips": true,
    "DDBOIOBFNOK": [],
    "FDJGGNIMMGH": [],
    "CHNPKEJLBEN": [],
    "minimapScale": 1.0
  },
  {
    "ID": 4201,
    "SceneID": 3,
    "AreaType": "LEVEL_2",
    "AreaID1": 21,
    "AreaID2": 2101,
    "AreaNameTextMapHash": 2920855990,
    "terrainType": "AREA_TERRAIN_OUTDOOR",
    "showTips": true,
    "DDBOIOBFNOK": [],
    "FDJGGNIMMGH": [],
    "CHNPKEJLBEN": [],
    "minimapScale": 1.0
  },
  {
    "ID": 4202,
    "SceneID": 3,
    "AreaType": "LEVEL_2",
    "AreaID1": 21,
    "AreaID2": 2102,
    "AreaNameTextMapHash": 1982322230,
    "terrainType": "AREA_TERRAIN_CITY",
    "showTips": true,
    "DDBOIOBFNOK": [],
    "FDJGGNIMMGH": [],
    "CHNPKEJLBEN": [],
    "minimapScale": 1.0
  },
  {
    "ID": 4203,
    "SceneID": 3,
    "AreaType": "LEVEL_2",
    "AreaID1": 21,
    "AreaID2": 2103,
    "AreaNameTextMapHash": 2696236358,
    "terrainType": "AREA_TERRAIN_CITY",
    "showTips": true,
    "DDBOIOBFNOK": [],
    "FDJGGNIMMGH": [],
    "CHNPKEJLBEN": [],
    "minimapScale": 3.0
  },
  {
    "ID": 4204,
    "SceneID": 3,
    "AreaType": "LEVEL_2",
    "AreaID1": 21,
    "AreaID2": 2104,
    "AreaNameTextMapHash": 821414214,
    "terrainType": "AREA_TERRAIN_OUTDOOR",
    "showTips": true,
    "DDBOIOBFNOK": [],
    "FDJGGNIMMGH": [],
    "CHNPKEJLBEN": [],
    "minimapScale": 1.0
  },
  {
    "ID": 4300,
    "SceneID": 3,
    "AreaType": "LEVEL_1",
    "AreaID1": 22,
    "AreaNameTextMapHash": 713201742,
    "towerPointId": 625,
    "elementType": "Grass",
    "showTips": true,
    "DDBOIOBFNOK": [],
    "FDJGGNIMMGH": [],
    "CHNPKEJLBEN": [],
    "minimapScale": 1.0
  },
  {
    "ID": 4301,
    "SceneID": 3,
    "AreaType": "LEVEL_2",
    "AreaID1": 22,
    "AreaID2": 2201,
    "AreaNameTextMapHash": 820714678,
    "terrainType": "AREA_TERRAIN_OUTDOOR",
    "showTips": true,
    "DDBOIOBFNOK": [],
    "FDJGGNIMMGH": [],
    "CHNPKEJLBEN": [],
    "minimapScale": 1.0
  },
  {
    "ID": 4400,
    "SceneID": 3,
    "AreaType": "LEVEL_1",
    "AreaID1": 23,
    "AreaNameTextMapHash": 2571216590,
    "towerPointId": 465,
    "elementType": "Grass",
    "showTips": true,
    "DDBOIOBFNOK": [],
    "FDJGGNIMMGH": [],
    "CHNPKEJLBEN": [],
    "minimapScale": 1.0
  },
  {
    "ID": 4401,
    "SceneID": 3,
    "AreaType": "LEVEL_2",
    "AreaID1": 23,
    "AreaID2": 2301,
    "AreaNameTextMapHash": 1090336366,
    "terrainType": "AREA_TERRAIN_OUTDOOR",
    "showTips": true,
    "DDBOIOBFNOK": [],
    "FDJGGNIMMGH": [],
    "CHNPKEJLBEN": [],
    "minimapScale": 1.0
  },
  {
    "ID": 4402,
    "SceneID": 3,
    "AreaType": "LEVEL_2",
    "AreaID1": 23,
    "AreaID2": 2302,
    "AreaNameTextMapHash": 143275486,
    "terrainType": "AREA_TERRAIN_OUTDOOR",
    "showTips": true,
    "DDBOIOBFNOK": [],
    "FDJGGNIMMGH": [],
    "CHNPKEJLBEN": [],
    "minimapScale": 1.0
  },
  {
    "ID": 4403,
    "SceneID": 3,
    "AreaType": "LEVEL_2",
    "AreaID1": 23,
    "AreaID2": 2303,
    "AreaNameTextMapHash": 318209854,
    "terrainType": "AREA_TERRAIN_OUTDOOR",
    "showTips": true,
    "DDBOIOBFNOK": [],
    "FDJGGNIMMGH": [],
    "CHNPKEJLBEN": [],
    "minimapScale": 1.0
  },
  {
    "ID": 4404,
    "SceneID": 3,
    "AreaType": "LEVEL_2",
    "AreaID1": 23,
    "AreaID2": 2304,
    "AreaNameTextMapHash": 2003801846,
    "terrainType": "AREA_TERRAIN_OUTDOOR",
    "showTips": true,
    "DDBOIOBFNOK": [],
    "FDJGGNIMMGH": [],
    "CHNPKEJLBEN": [],
    "minimapScale": 1.0
  },
  {
    "ID": 4405,
    "SceneID": 3,
    "AreaType": "LEVEL_2",
    "AreaID1": 23,
    "AreaID2": 2305,
    "AreaNameTextMapHash": 2416428046,
    "terrainType": "AREA_TERRAIN_OUTDOOR",
    "showTips": true,
    "DDBOIOBFNOK": [],
    "FDJGGNIMMGH": [],
    "CHNPKEJLBEN": [],
    "minimapScale": 1.0
  },
  {
    "ID": 4406,
    "SceneID": 3,
    "AreaType": "LEVEL_2",
    "AreaID1": 23,
    "AreaID2": 2306,
    "AreaNameTextMapHash": 4285898486,
    "terrainType": "AREA_TERRAIN_OUTDOOR",
    "showTips": true,
    "DDBOIOBFNOK": [],
    "FDJGGNIMMGH": [],
    "CHNPKEJLBEN": [],
    "minimapScale": 1.0
  },
  {
    "ID": 4407,
    "SceneID": 3,
    "AreaType": "LEVEL_2",
    "AreaID1": 23,
    "AreaID2": 2307,
    "AreaNameTextMapHash": 149747254,
    "terrainType": "AREA_TERRAIN_OUTDOOR",
    "showTips": true,
    "DDBOIOBFNOK": [],
    "FDJGGNIMMGH": [],
    "CHNPKEJLBEN": [],
    "minimapScale": 1.0
  },
  {
    "ID": 4408,
    "SceneID": 3,
    "AreaType": "LEVEL_2",
    "AreaID1": 23,
    "AreaID2": 2308,
    "AreaNameTextMapHash": 3268777494,
    "terrainType": "AREA_TERRAIN_OUTDOOR",
    "showTips": true,
    "DDBOIOBFNOK": [],
    "FDJGGNIMMGH": [],
    "CHNPKEJLBEN": [],
    "minimapScale": 1.0
  },
  {
    "ID": 4500,
    "SceneID": 3,
    "AreaType": "LEVEL_1",
    "AreaID1": 24,
    "AreaNameTextMapHash": 2469985518,
    "towerPointId": 471,
    "elementType": "Grass",
    "showTips": true,
    "DDBOIOBFNOK": [],
    "FDJGGNIMMGH": [],
    "CHNPKEJLBEN": [],
    "minimapScale": 1.0
  },
  {
    "ID": 4501,
    "SceneID": 3,
    "AreaType": "LEVEL_2",
    "AreaID1": 24,
    "AreaID2": 2401,
    "AreaNameTextMapHash": 3601523270,
    "terrainType": "AREA_TERRAIN_CITY",
    "showTips": true,
    "DDBOIOBFNOK": [],
    "FDJGGNIMMGH": [],
    "CHNPKEJLBEN": [],
    "minimapScale": 1.0
  },
  {
    "ID": 4502,
    "SceneID": 3,
    "AreaType": "LEVEL_2",
    "AreaID1": 24,
    "AreaID2": 2402,
    "AreaNameTextMapHash": 3462911814,
    "terrainType": "AREA_TERRAIN_CITY",
    "showTips": true,
    "DDBOIOBFNOK": [],
    "FDJGGNIMMGH": [],
    "CHNPKEJLBEN": [],
    "minimapScale": 3.0
  },
  {
    "ID": 4503,
    "SceneID": 3,
    "AreaType": "LEVEL_2",
    "AreaID1": 24,
    "AreaID2": 2403,
    "AreaNameTextMapHash": 124772622,
    "terrainType": "AREA_TERRAIN_CITY",
    "showTips": true,
    "DDBOIOBFNOK": [],
    "FDJGGNIMMGH": [],
    "CHNPKEJLBEN": [],
    "minimapScale": 3.0
  },
  {
    "ID": 4504,
    "SceneID": 3,
    "AreaType": "LEVEL_2",
    "AreaID1": 24,
    "AreaID2": 2404,
    "AreaNameTextMapHash": 4162980102,
    "terrainType": "AREA_TERRAIN_CITY",
    "showTips": true,
    "DDBOIOBFNOK": [],
    "FDJGGNIMMGH": [],
    "CHNPKEJLBEN": [],
    "minimapScale": 3.0
  },
  {
    "ID": 4505,
    "SceneID": 3,
    "AreaType": "LEVEL_2",
    "AreaID1": 24,
    "AreaID2": 2405,
    "AreaNameTextMapHash": 3415723150,
    "terrainType": "AREA_TERRAIN_CITY",
    "showTips": true,
    "DDBOIOBFNOK": [],
    "FDJGGNIMMGH": [],
    "CHNPKEJLBEN": [],
    "minimapScale": 3.0
  },
  {
    "ID": 4506,
    "SceneID": 3,
    "AreaType": "LEVEL_2",
    "AreaID1": 24,
    "AreaID2": 2406,
    "AreaNameTextMapHash": 2572204998,
    "terrainType": "AREA_TERRAIN_CITY",
    "showTips": true,
    "DDBOIOBFNOK": [],
    "FDJGGNIMMGH": [],
    "CHNPKEJLBEN": [],
    "minimapScale": 3.0
  },
  {
    "ID": 4507,
    "SceneID": 3,
    "AreaType": "LEVEL_2",
    "AreaID1": 24,
    "AreaID2": 2407,
    "AreaNameTextMapHash": 1338126334,
    "terrainType": "AREA_TERRAIN_CITY",
    "showTips": true,
    "DDBOIOBFNOK": [],
    "FDJGGNIMMGH": [],
    "CHNPKEJLBEN": [],
    "minimapScale": 3.0
  },
  {
    "ID": 4508,
    "SceneID": 3,
    "AreaType": "LEVEL_2",
    "AreaID1": 24,
    "AreaID2": 2408,
    "AreaNameTextMapHash": 1635594094,
    "terrainType": "AREA_TERRAIN_OUTDOOR",
    "showTips": true,
    "DDBOIOBFNOK": [],
    "FDJGGNIMMGH": [],
    "CHNPKEJLBEN": [],
    "minimapScale": 1.0
  },
  {
    "ID": 4509,
    "SceneID": 3,
    "AreaType": "LEVEL_2",
    "AreaID1": 24,
    "AreaID2": 2409,
    "AreaNameTextMapHash": 3813513766,
    "terrainType": "AREA_TERRAIN_OUTDOOR",
    "showTips": true,
    "DDBOIOBFNOK": [],
    "FDJGGNIMMGH": [],
    "CHNPKEJLBEN": [],
    "minimapScale": 1.0
  },
  {
    "ID": 4510,
    "SceneID": 3,
    "AreaType": "LEVEL_2",
    "AreaID1": 24,
    "AreaID2": 2410,
    "AreaNameTextMapHash": 2286605734,
    "terrainType": "AREA_TERRAIN_OUTDOOR",
    "showTips": true,
    "DDBOIOBFNOK": [],
    "FDJGGNIMMGH": [],
    "CHNPKEJLBEN": [],
    "minimapScale": 1.0
  },
  {
    "ID": 4511,
    "SceneID": 3,
    "AreaType": "LEVEL_2",
    "AreaID1": 24,
    "AreaID2": 2411,
    "AreaNameTextMapHash": 1901008822,
    "terrainType": "AREA_TERRAIN_CITY",
    "showTips": true,
    "DDBOIOBFNOK": [],
    "FDJGGNIMMGH": [],
    "CHNPKEJLBEN": [],
    "minimapScale": 3.0
  },
  {
    "ID": 4512,
    "SceneID": 3,
    "AreaType": "LEVEL_2",
    "AreaID1": 24,
    "AreaID2": 2412,
    "AreaNameTextMapHash": 3067328366,
    "terrainType": "AREA_TERRAIN_CITY",
    "showTips": true,
    "DDBOIOBFNOK": [],
    "FDJGGNIMMGH": [],
    "CHNPKEJLBEN": [],
    "minimapScale": 1.0
  },
  {
    "ID": 4600,
    "SceneID": 3,
    "AreaType": "LEVEL_1",
    "AreaID1": 25,
    "AreaNameTextMapHash": 4237130854,
    "towerPointId": 472,
    "elementType": "Grass",
    "showTips": true,
    "DDBOIOBFNOK": [],
    "FDJGGNIMMGH": [],
    "CHNPKEJLBEN": [],
    "minimapScale": 1.0
  },
  {
    "ID": 4601,
    "SceneID": 3,
    "AreaType": "LEVEL_2",
    "AreaID1": 25,
    "AreaID2": 2501,
    "AreaNameTextMapHash": 750944990,
    "terrainType": "AREA_TERRAIN_OUTDOOR",
    "showTips": true,
    "DDBOIOBFNOK": [],
    "FDJGGNIMMGH": [],
    "CHNPKEJLBEN": [],
    "minimapScale": 1.0
  },
  {
    "ID": 4602,
    "SceneID": 3,
    "AreaType": "LEVEL_2",
    "AreaID1": 25,
    "AreaID2": 2502,
    "AreaNameTextMapHash": 930517278,
    "terrainType": "AREA_TERRAIN_OUTDOOR",
    "showTips": true,
    "DDBOIOBFNOK": [],
    "FDJGGNIMMGH": [],
    "CHNPKEJLBEN": [],
    "minimapScale": 1.0
  },
  {
    "ID": 4603,
    "SceneID": 3,
    "AreaType": "LEVEL_2",
    "AreaID1": 25,
    "AreaID2": 2503,
    "AreaNameTextMapHash": 3114952278,
    "terrainType": "AREA_TERRAIN_OUTDOOR",
    "showTips": true,
    "DDBOIOBFNOK": [],
    "FDJGGNIMMGH": [],
    "CHNPKEJLBEN": [],
    "minimapScale": 1.0
  },
  {
    "ID": 4604,
    "SceneID": 3,
    "AreaType": "LEVEL_2",
    "AreaID1": 25,
    "AreaID2": 2504,
    "AreaNameTextMapHash": 2010150318,
    "terrainType": "AREA_TERRAIN_OUTDOOR",
    "showTips": true,
    "DDBOIOBFNOK": [],
    "FDJGGNIMMGH": [],
    "CHNPKEJLBEN": [],
    "minimapScale": 1.0
  },
  {
    "ID": 4700,
    "SceneID": 3,
    "AreaType": "LEVEL_1",
    "AreaID1": 26,
    "AreaNameTextMapHash": 1553735014,
    "towerPointId": 534,
    "elementType": "Grass",
    "showTips": true,
    "DDBOIOBFNOK": [],
    "FDJGGNIMMGH": [],
    "CHNPKEJLBEN": [],
    "minimapScale": 1.0
  },
  {
    "ID": 4701,
    "SceneID": 3,
    "AreaType": "LEVEL_2",
    "AreaID1": 26,
    "AreaID2": 2601,
    "AreaNameTextMapHash": 1547857302,
    "terrainType": "AREA_TERRAIN_OUTDOOR",
    "showTips": true,
    "DDBOIOBFNOK": [],
    "FDJGGNIMMGH": [],
    "CHNPKEJLBEN": [],
    "minimapScale": 1.0
  },
  {
    "ID": 4702,
    "SceneID": 3,
    "AreaType": "LEVEL_2",
    "AreaID1": 26,
    "AreaID2": 2602,
    "AreaNameTextMapHash": 850539830,
    "terrainType": "AREA_TERRAIN_OUTDOOR",
    "showTips": true,
    "DDBOIOBFNOK": [],
    "FDJGGNIMMGH": [],
    "CHNPKEJLBEN": [],
    "minimapScale": 1.0
  },
  {
    "ID": 4703,
    "SceneID": 3,
    "AreaType": "LEVEL_2",
    "AreaID1": 26,
    "AreaID2": 2603,
    "AreaNameTextMapHash": 731476494,
    "terrainType": "AREA_TERRAIN_OUTDOOR",
    "showTips": true,
    "DDBOIOBFNOK": [],
    "FDJGGNIMMGH": [],
    "CHNPKEJLBEN": [],
    "minimapScale": 1.0
  },
  {
    "ID": 4704,
    "SceneID": 3,
    "AreaType": "LEVEL_2",
    "AreaID1": 26,
    "AreaID2": 2604,
    "AreaNameTextMapHash": 3405775342,
    "terrainType": "AREA_TERRAIN_OUTDOOR",
    "showTips": true,
    "DDBOIOBFNOK": [],
    "FDJGGNIMMGH": [],
    "CHNPKEJLBEN": [],
    "minimapScale": 1.0
  },
  {
    "ID": 4800,
    "SceneID": 3,
    "AreaType": "LEVEL_1",
    "AreaID1": 27,
    "AreaNameTextMapHash": 4185041038,
    "towerPointId": 535,
    "elementType": "Grass",
    "showTips": true,
    "DDBOIOBFNOK": [],
    "FDJGGNIMMGH": [],
    "CHNPKEJLBEN": [],
    "minimapScale": 1.0
  },
  {
    "ID": 4801,
    "SceneID": 3,
    "AreaType": "LEVEL_2",
    "AreaID1": 27,
    "AreaID2": 2701,
    "AreaNameTextMapHash": 2181549094,
    "terrainType": "AREA_TERRAIN_OUTDOOR",
    "showTips": true,
    "DDBOIOBFNOK": [],
    "FDJGGNIMMGH": [],
    "CHNPKEJLBEN": [],
    "minimapScale": 1.0
  },
  {
    "ID": 4802,
    "SceneID": 3,
    "AreaType": "LEVEL_2",
    "AreaID1": 27,
    "AreaID2": 2702,
    "AreaNameTextMapHash": 3341602542,
    "terrainType": "AREA_TERRAIN_OUTDOOR",
    "showTips": true,
    "DDBOIOBFNOK": [],
    "FDJGGNIMMGH": [],
    "CHNPKEJLBEN": [],
    "minimapScale": 1.0
  },
  {
    "ID": 4803,
    "SceneID": 3,
    "AreaType": "LEVEL_2",
    "AreaID1": 27,
    "AreaID2": 2703,
    "AreaNameTextMapHash": 4085923886,
    "terrainType": "AREA_TERRAIN_OUTDOOR",
    "showTips": true,
    "DDBOIOBFNOK": [],
    "FDJGGNIMMGH": [],
    "CHNPKEJLBEN": [],
    "minimapScale": 1.0
  },
  {
    "ID": 4804,
    "SceneID": 3,
    "AreaType": "LEVEL_2",
    "AreaID1": 27,
    "AreaID2": 2704,
    "AreaNameTextMapHash": 457743494,
    "terrainType": "AREA_TERRAIN_OUTDOOR",
    "showTips": true,
    "DDBOIOBFNOK": [],
    "FDJGGNIMMGH": [],
    "CHNPKEJLBEN": [],
    "minimapScale": 1.0
  },
  {
    "ID": 4805,
    "SceneID": 3,
    "AreaType": "LEVEL_2",
    "AreaID1": 27,
    "AreaID2": 2705,
    "AreaNameTextMapHash": 3301251974,
    "terrainType": "AREA_TERRAIN_OUTDOOR",
    "showTips": true,
    "DDBOIOBFNOK": [],
    "FDJGGNIMMGH": [],
    "CHNPKEJLBEN": [],
    "minimapScale": 1.0
  },
  {
    "ID": 4806,
    "SceneID": 3,
    "AreaType": "LEVEL_2",
    "AreaID1": 27,
    "AreaID2": 2706,
    "AreaNameTextMapHash": 3638099990,
    "terrainType": "AREA_TERRAIN_OUTDOOR",
    "showTips": true,
    "DDBOIOBFNOK": [],
    "FDJGGNIMMGH": [],
    "CHNPKEJLBEN": [],
    "minimapScale": 1.0
  },
  {
    "ID": 4807,
    "SceneID": 3,
    "AreaType": "LEVEL_2",
    "AreaID1": 27,
    "AreaID2": 2707,
    "AreaNameTextMapHash": 3741261110,
    "terrainType": "AREA_TERRAIN_OUTDOOR",
    "showTips": true,
    "DDBOIOBFNOK": [],
    "FDJGGNIMMGH": [],
    "CHNPKEJLBEN": [],
    "minimapScale": 1.0
  },
  {
    "ID": 4808,
    "SceneID": 3,
    "AreaType": "LEVEL_2",
    "AreaID1": 27,
    "AreaID2": 2708,
    "AreaNameTextMapHash": 814807134,
    "terrainType": "AREA_TERRAIN_OUTDOOR",
    "showTips": true,
    "DDBOIOBFNOK": [],
    "FDJGGNIMMGH": [],
    "CHNPKEJLBEN": [],
    "minimapScale": 1.0
  },
  {
    "ID": 4809,
    "SceneID": 3,
    "AreaType": "LEVEL_2",
    "AreaID1": 27,
    "AreaID2": 2709,
    "AreaNameTextMapHash": 370857294,
    "terrainType": "AREA_TERRAIN_OUTDOOR",
    "showTips": true,
    "DDBOIOBFNOK": [],
    "FDJGGNIMMGH": [],
    "CHNPKEJLBEN": [],
    "minimapScale": 1.0
  },
  {
    "ID": 4810,
    "SceneID": 3,
    "AreaType": "LEVEL_2",
    "AreaID1": 27,
    "AreaID2": 2710,
    "AreaNameTextMapHash": 880926286,
    "terrainType": "AREA_TERRAIN_OUTDOOR",
    "showTips": true,
    "DDBOIOBFNOK": [],
    "FDJGGNIMMGH": [],
    "CHNPKEJLBEN": [],
    "minimapScale": 1.0
  },
  {
    "ID": 4811,
    "SceneID": 3,
    "AreaType": "LEVEL_2",
    "AreaID1": 27,
    "AreaID2": 2711,
    "AreaNameTextMapHash": 3309816494,
    "terrainType": "AREA_TERRAIN_OUTDOOR",
    "showTips": true,
    "DDBOIOBFNOK": [],
    "FDJGGNIMMGH": [],
    "CHNPKEJLBEN": [],
    "minimapScale": 1.0
  },
  {
    "ID": 4900,
    "SceneID": 3,
    "AreaType": "LEVEL_1",
    "AreaID1": 28,
    "AreaNameTextMapHash": 698447358,
    "towerPointId": 536,
    "elementType": "Grass",
    "showTips": true,
    "DDBOIOBFNOK": [],
    "FDJGGNIMMGH": [],
    "CHNPKEJLBEN": [],
    "minimapScale": 1.0
  },
  {
    "ID": 4901,
    "SceneID": 3,
    "AreaType": "LEVEL_2",
    "AreaID1": 28,
    "AreaID2": 2801,
    "AreaNameTextMapHash": 1038630062,
    "terrainType": "AREA_TERRAIN_OUTDOOR",
    "showTips": true,
    "DDBOIOBFNOK": [],
    "FDJGGNIMMGH": [],
    "CHNPKEJLBEN": [],
    "minimapScale": 1.0
  },
  {
    "ID": 4902,
    "SceneID": 3,
    "AreaType": "LEVEL_2",
    "AreaID1": 28,
    "AreaID2": 2802,
    "AreaNameTextMapHash": 2126764086,
    "terrainType": "AREA_TERRAIN_OUTDOOR",
    "showTips": true,
    "DDBOIOBFNOK": [],
    "FDJGGNIMMGH": [],
    "CHNPKEJLBEN": [],
    "minimapScale": 1.0
  },
  {
    "ID": 5000,
    "SceneID": 3,
    "AreaType": "LEVEL_1",
    "AreaID1": 32,
    "AreaNameTextMapHash": 3082860054,
    "towerPointId": 629,
    "elementType": "Grass",
    "terrainType": "AREA_TERRAIN_OUTDOOR",
    "showTips": true,
    "DDBOIOBFNOK": [],
    "FDJGGNIMMGH": [],
    "CHNPKEJLBEN": [],
    "minimapScale": 1.0
  },
  {
    "ID": 5001,
    "SceneID": 3,
    "AreaType": "LEVEL_2",
    "AreaID1": 32,
    "AreaID2": 3101,
    "AreaNameTextMapHash": 588459662,
    "elementType": "Grass",
    "terrainType": "AREA_TERRAIN_OUTDOOR",
    "showTips": true,
    "DDBOIOBFNOK": [],
    "FDJGGNIMMGH": [],
    "CHNPKEJLBEN": [],
    "minimapScale": 1.0
  },
  {
    "ID": 5002,
    "SceneID": 3,
    "AreaType": "LEVEL_2",
    "AreaID1": 32,
    "AreaID2": 3102,
    "AreaNameTextMapHash": 2308652438,
    "elementType": "Grass",
    "terrainType": "AREA_TERRAIN_OUTDOOR",
    "showTips": true,
    "DDBOIOBFNOK": [],
    "FDJGGNIMMGH": [],
    "CHNPKEJLBEN": [],
    "minimapScale": 1.0
  },
  {
    "ID": 5003,
    "SceneID": 3,
    "AreaType": "LEVEL_2",
    "AreaID1": 32,
    "AreaID2": 3103,
    "AreaNameTextMapHash": 4134858726,
    "elementType": "Grass",
    "terrainType": "AREA_TERRAIN_OUTDOOR",
    "showTips": true,
    "DDBOIOBFNOK": [],
    "FDJGGNIMMGH": [],
    "CHNPKEJLBEN": [],
    "minimapScale": 1.0
  },
  {
    "ID": 5004,
    "SceneID": 3,
    "AreaType": "LEVEL_2",
    "AreaID1": 32,
    "AreaID2": 3104,
    "AreaNameTextMapHash": 907979478,
    "elementType": "Grass",
    "terrainType": "AREA_TERRAIN_OUTDOOR",
    "showTips": true,
    "DDBOIOBFNOK": [],
    "FDJGGNIMMGH": [],
    "CHNPKEJLBEN": [],
    "minimapScale": 1.0
  },
  {
    "ID": 5005,
    "SceneID": 3,
    "AreaType": "LEVEL_2",
    "AreaID1": 32,
    "AreaID2": 3105,
    "AreaNameTextMapHash": 3151493014,
    "elementType": "Grass",
    "terrainType": "AREA_TERRAIN_OUTDOOR",
    "showTips": true,
    "DDBOIOBFNOK": [],
    "FDJGGNIMMGH": [],
    "CHNPKEJLBEN": [],
    "minimapScale": 1.0
  },
  {
    "ID": 5006,
    "SceneID": 3,
    "AreaType": "LEVEL_2",
    "AreaID1": 32,
    "AreaID2": 3106,
    "AreaNameTextMapHash": 824185990,
    "elementType": "Grass",
    "terrainType": "AREA_TERRAIN_OUTDOOR",
    "showTips": true,
    "DDBOIOBFNOK": [],
    "FDJGGNIMMGH": [],
    "CHNPKEJLBEN": [],
    "minimapScale": 1.0
  },
  {
    "ID": 5007,
    "SceneID": 3,
    "AreaType": "LEVEL_2",
    "AreaID1": 32,
    "AreaID2": 3107,
    "AreaNameTextMapHash": 511782950,
    "elementType": "Grass",
    "terrainType": "AREA_TERRAIN_OUTDOOR",
    "showTips": true,
    "DDBOIOBFNOK": [],
    "FDJGGNIMMGH": [],
    "CHNPKEJLBEN": [],
    "minimapScale": 1.0
  },
  {
    "ID": 5008,
    "SceneID": 3,
    "AreaType": "LEVEL_2",
    "AreaID1": 32,
    "AreaID2": 3108,
    "AreaNameTextMapHash": 2250058830,
    "elementType": "Grass",
    "terrainType": "AREA_TERRAIN_OUTDOOR",
    "showTips": true,
    "DDBOIOBFNOK": [],
    "FDJGGNIMMGH": [],
    "CHNPKEJLBEN": [],
    "minimapScale": 1.0
  },
  {
    "ID": 5009,
    "SceneID": 3,
    "AreaType": "LEVEL_2",
    "AreaID1": 32,
    "AreaID2": 3109,
    "AreaNameTextMapHash": 3723583710,
    "elementType": "Grass",
    "terrainType": "AREA_TERRAIN_OUTDOOR",
    "showTips": true,
    "DDBOIOBFNOK": [],
    "FDJGGNIMMGH": [],
    "CHNPKEJLBEN": [],
    "minimapScale": 1.0
  },
  {
    "ID": 5010,
    "SceneID": 3,
    "AreaType": "LEVEL_2",
    "AreaID1": 32,
    "AreaID2": 3110,
    "AreaNameTextMapHash": 1489374822,
    "elementType": "Grass",
    "terrainType": "AREA_TERRAIN_OUTDOOR",
    "showTips": true,
    "DDBOIOBFNOK": [],
    "FDJGGNIMMGH": [],
    "CHNPKEJLBEN": [],
    "minimapScale": 1.0
  },
  {
    "ID": 5011,
    "SceneID": 3,
    "AreaType": "LEVEL_2",
    "AreaID1": 32,
    "AreaID2": 3111,
    "AreaNameTextMapHash": 4082108502,
    "elementType": "Grass",
    "terrainType": "AREA_TERRAIN_OUTDOOR",
    "showTips": true,
    "DDBOIOBFNOK": [],
    "FDJGGNIMMGH": [],
    "CHNPKEJLBEN": [],
    "minimapScale": 1.0
  },
  {
    "ID": 5012,
    "SceneID": 3,
    "AreaType": "LEVEL_2",
    "AreaID1": 32,
    "AreaID2": 3112,
    "AreaNameTextMapHash": 389057670,
    "elementType": "Grass",
    "terrainType": "AREA_TERRAIN_OUTDOOR",
    "showTips": true,
    "DDBOIOBFNOK": [],
    "FDJGGNIMMGH": [],
    "CHNPKEJLBEN": [],
    "minimapScale": 1.0
  },
  {
    "ID": 5013,
    "SceneID": 3,
    "AreaType": "LEVEL_2",
    "AreaID1": 32,
    "AreaID2": 3113,
    "AreaNameTextMapHash": 873456158,
    "elementType": "Grass",
    "terrainType": "AREA_TERRAIN_OUTDOOR",
    "showTips": true,
    "DDBOIOBFNOK": [],
    "FDJGGNIMMGH": [],
    "CHNPKEJLBEN": [],
    "minimapScale": 1.0
  },
  {
    "ID": 5014,
    "SceneID": 3,
    "AreaType": "LEVEL_2",
    "AreaID1": 32,
    "AreaID2": 3114,
    "AreaNameTextMapHash": 2017409382,
    "elementType": "Grass",
    "terrainType": "AREA_TERRAIN_OUTDOOR",
    "showTips": true,
    "DDBOIOBFNOK": [],
    "FDJGGNIMMGH": [],
    "CHNPKEJLBEN": [],
    "minimapScale": 1.0
  },
  {
    "ID": 5015,
    "SceneID": 3,
    "AreaType": "LEVEL_2",
    "AreaID1": 32,
    "AreaID2": 3115,
    "AreaNameTextMapHash": 973628886,
    "elementType": "Grass",
    "terrainType": "AREA_TERRAIN_OUTDOOR",
    "showTips": true,
    "DDBOIOBFNOK": [],
    "FDJGGNIMMGH": [],
    "CHNPKEJLBEN": [],
    "minimapScale": 1.0
  },
  {
    "ID": 5016,
    "SceneID": 3,
    "AreaType": "LEVEL_2",
    "AreaID1": 32,
    "AreaID2": 3116,
    "AreaNameTextMapHash": 3396473254,
    "elementType": "Grass",
    "terrainType": "AREA_TERRAIN_OUTDOOR",
    "showTips": true,
    "DDBOIOBFNOK": [],
    "FDJGGNIMMGH": [],
    "CHNPKEJLBEN": [],
    "minimapScale": 1.0
  },
  {
    "ID": 5017,
    "SceneID": 3,
    "AreaType": "LEVEL_2",
    "AreaID1": 32,
    "AreaID2": 3117,
    "AreaNameTextMapHash": 3564490534,
    "elementType": "Grass",
    "terrainType": "AREA_TERRAIN_OUTDOOR",
    "showTips": true,
    "DDBOIOBFNOK": [],
    "FDJGGNIMMGH": [],
    "CHNPKEJLBEN": [],
    "minimapScale": 1.0
  },
  {
    "ID": 5018,
    "SceneID": 3,
    "AreaType": "LEVEL_2",
    "AreaID1": 32,
    "AreaID2": 3118,
    "AreaNameTextMapHash": 677345118,
    "elementType": "Grass",
    "terrainType": "AREA_TERRAIN_OUTDOOR",
    "showTips": true,
    "DDBOIOBFNOK": [],
    "FDJGGNIMMGH": [],
    "CHNPKEJLBEN": [],
    "minimapScale": 1.0
  },
  {
    "ID": 5019,
    "SceneID": 3,
    "AreaType": "LEVEL_2",
    "AreaID1": 32,
    "AreaID2": 3119,
    "AreaNameTextMapHash": 1110576230,
    "elementType": "Grass",
    "terrainType": "AREA_TERRAIN_OUTDOOR",
    "showTips": true,
    "DDBOIOBFNOK": [0, 800, 0],
    "FDJGGNIMMGH": [],
    "CHNPKEJLBEN": [],
    "minimapScale": 1.0
  },
  {
    "ID": 5020,
    "SceneID": 3,
    "AreaType": "LEVEL_2",
    "AreaID1": 32,
    "AreaID2": 3120,
    "AreaNameTextMapHash": 1032532534,
    "elementType": "Grass",
    "terrainType": "AREA_TERRAIN_OUTDOOR",
    "showTips": true,
    "DDBOIOBFNOK": [],
    "FDJGGNIMMGH": [],
    "CHNPKEJLBEN": [],
    "minimapScale": 1.0
  },
  {
    "ID": 5021,
    "SceneID": 3,
    "AreaType": "LEVEL_2",
    "AreaID1": 32,
    "AreaID2": 3121,
    "AreaNameTextMapHash": 655280526,
    "elementType": "Grass",
    "terrainType": "AREA_TERRAIN_OUTDOOR",
    "showTips": true,
    "DDBOIOBFNOK": [],
    "FDJGGNIMMGH": [],
    "CHNPKEJLBEN": [],
    "minimapScale": 1.0
  },
  {
    "ID": 5022,
    "SceneID": 3,
    "AreaType": "LEVEL_2",
    "AreaID1": 32,
    "AreaID2": 3122,
    "AreaNameTextMapHash": 1969390102,
    "elementType": "Grass",
    "terrainType": "AREA_TERRAIN_OUTDOOR",
    "DDBOIOBFNOK": [0, 800, 0],
    "GreyLevel": true,
    "FDJGGNIMMGH": [-765.7719116210938, -338.6712951660156, 5438.47998046875],
    "CHNPKEJLBEN": [-574.6696166992188, -836.5477294921875, 5407.43798828125],
    "minimapScale": 1.0
  },
  {
    "ID": 41000,
    "SceneID": 3,
    "AreaType": "LEVEL_1",
    "AreaID1": 30,
    "AreaNameTextMapHash": 1659805054,
    "towerPointId": 744,
    "elementType": "Grass",
    "terrainType": "AREA_TERRAIN_OUTDOOR",
    "showTips": true,
    "DDBOIOBFNOK": [],
    "FDJGGNIMMGH": [],
    "CHNPKEJLBEN": [],
    "minimapScale": 1.0
  },
  {
    "ID": 41001,
    "SceneID": 3,
    "AreaType": "LEVEL_2",
    "AreaID1": 30,
    "AreaID2": 3001,
    "AreaNameTextMapHash": 3026710982,
    "elementType": "Grass",
    "terrainType": "AREA_TERRAIN_OUTDOOR",
    "showTips": true,
    "DDBOIOBFNOK": [],
    "FDJGGNIMMGH": [],
    "CHNPKEJLBEN": [],
    "minimapScale": 1.0
  },
  {
    "ID": 41002,
    "SceneID": 3,
    "AreaType": "LEVEL_2",
    "AreaID1": 30,
    "AreaID2": 3002,
    "AreaNameTextMapHash": 3589746798,
    "elementType": "Grass",
    "terrainType": "AREA_TERRAIN_OUTDOOR",
    "showTips": true,
    "DDBOIOBFNOK": [],
    "FDJGGNIMMGH": [],
    "CHNPKEJLBEN": [],
    "minimapScale": 1.0
  },
  {
    "ID": 41003,
    "SceneID": 3,
    "AreaType": "LEVEL_2",
    "AreaID1": 30,
    "AreaID2": 3003,
    "AreaNameTextMapHash": 494562942,
    "elementType": "Grass",
    "terrainType": "AREA_TERRAIN_OUTDOOR",
    "showTips": true,
    "DDBOIOBFNOK": [],
    "FDJGGNIMMGH": [],
    "CHNPKEJLBEN": [],
    "minimapScale": 1.0
  },
  {
    "ID": 41004,
    "SceneID": 3,
    "AreaType": "LEVEL_2",
    "AreaID1": 30,
    "AreaID2": 3004,
    "AreaNameTextMapHash": 2257155382,
    "elementType": "Grass",
    "terrainType": "AREA_TERRAIN_OUTDOOR",
    "showTips": true,
    "DDBOIOBFNOK": [],
    "FDJGGNIMMGH": [],
    "CHNPKEJLBEN": [],
    "minimapScale": 1.0
  },
  {
    "ID": 41100,
    "SceneID": 3,
    "AreaType": "LEVEL_1",
    "AreaID1": 31,
    "AreaNameTextMapHash": 3392210742,
    "towerPointId": 811,
    "elementType": "Grass",
    "terrainType": "AREA_TERRAIN_OUTDOOR",
    "showTips": true,
    "DDBOIOBFNOK": [],
    "FDJGGNIMMGH": [],
    "CHNPKEJLBEN": [],
    "minimapScale": 1.0
  },
  {
    "ID": 41101,
    "SceneID": 3,
    "AreaType": "LEVEL_2",
    "AreaID1": 31,
    "AreaID2": 3201,
    "AreaNameTextMapHash": 1985713142,
    "elementType": "Grass",
    "terrainType": "AREA_TERRAIN_OUTDOOR",
    "showTips": true,
    "DDBOIOBFNOK": [],
    "FDJGGNIMMGH": [],
    "CHNPKEJLBEN": [],
    "minimapScale": 1.0
  },
  {
    "ID": 41102,
    "SceneID": 3,
    "AreaType": "LEVEL_2",
    "AreaID1": 31,
    "AreaID2": 3202,
    "AreaNameTextMapHash": 443281662,
    "elementType": "Grass",
    "terrainType": "AREA_TERRAIN_OUTDOOR",
    "showTips": true,
    "DDBOIOBFNOK": [],
    "FDJGGNIMMGH": [],
    "CHNPKEJLBEN": [],
    "minimapScale": 1.0
  },
  {
    "ID": 41103,
    "SceneID": 3,
    "AreaType": "LEVEL_2",
    "AreaID1": 31,
    "AreaID2": 3203,
    "AreaNameTextMapHash": 4194114558,
    "elementType": "Grass",
    "terrainType": "AREA_TERRAIN_OUTDOOR",
    "showTips": true,
    "DDBOIOBFNOK": [],
    "FDJGGNIMMGH": [],
    "CHNPKEJLBEN": [],
    "minimapScale": 1.0
  },
  {
    "ID": 41104,
    "SceneID": 3,
    "AreaType": "LEVEL_2",
    "AreaID1": 31,
    "AreaID2": 3204,
    "AreaNameTextMapHash": 2820657878,
    "elementType": "Grass",
    "terrainType": "AREA_TERRAIN_OUTDOOR",
    "showTips": true,
    "DDBOIOBFNOK": [],
    "FDJGGNIMMGH": [],
    "CHNPKEJLBEN": [],
    "minimapScale": 1.0
  },
  {
    "ID": 41105,
    "SceneID": 3,
    "AreaType": "LEVEL_2",
    "AreaID1": 31,
    "AreaID2": 3205,
    "AreaNameTextMapHash": 3990777990,
    "elementType": "Grass",
    "terrainType": "AREA_TERRAIN_OUTDOOR",
    "showTips": true,
    "DDBOIOBFNOK": [],
    "FDJGGNIMMGH": [],
    "CHNPKEJLBEN": [],
    "minimapScale": 1.0
  },
  {
    "ID": 4000,
    "SceneID": 3,
    "AreaType": "LEVEL_1",
    "AreaID1": 29,
    "AreaNameTextMapHash": 2753638638,
    "towerPointId": 464,
    "elementType": "Grass",
    "showTips": true,
    "DDBOIOBFNOK": [],
    "FDJGGNIMMGH": [],
    "CHNPKEJLBEN": [],
    "minimapScale": 1.0
  },
  {
    "ID": 4001,
    "SceneID": 3,
    "AreaType": "LEVEL_2",
    "AreaID1": 29,
    "AreaID2": 2901,
    "AreaNameTextMapHash": 1441680950,
    "terrainType": "AREA_TERRAIN_CITY",
    "showTips": true,
    "DDBOIOBFNOK": [],
    "FDJGGNIMMGH": [],
    "CHNPKEJLBEN": [],
    "minimapScale": 1.0
  },
  {
    "ID": 3800,
    "SceneID": 7,
    "AreaType": "LEVEL_1",
    "AreaID1": 210,
    "AreaDefaultLock": true,
    "AreaNameTextMapHash": 3524636638,
    "terrainType": "AREA_TERRAIN_OUTDOOR",
    "showTips": true,
    "DDBOIOBFNOK": [],
    "FDJGGNIMMGH": [],
    "CHNPKEJLBEN": [],
    "minimapScale": 1.0
  },
  {
    "ID": 3801,
    "SceneID": 7,
    "AreaType": "LEVEL_2",
    "AreaID1": 210,
    "AreaID2": 21001,
    "AreaNameTextMapHash": 80908286,
    "terrainType": "AREA_TERRAIN_OUTDOOR",
    "DDBOIOBFNOK": [],
    "FDJGGNIMMGH": [],
    "CHNPKEJLBEN": [],
    "minimapScale": 1.0
  },
  {
    "ID": 3802,
    "SceneID": 7,
    "AreaType": "LEVEL_2",
    "AreaID1": 210,
    "AreaID2": 21002,
    "AreaNameTextMapHash": 2208400566,
    "terrainType": "AREA_TERRAIN_OUTDOOR",
    "DDBOIOBFNOK": [],
    "FDJGGNIMMGH": [],
    "CHNPKEJLBEN": [],
    "minimapScale": 1.0
  },
  {
    "ID": 3803,
    "SceneID": 7,
    "AreaType": "LEVEL_2",
    "AreaID1": 210,
    "AreaID2": 21003,
    "AreaNameTextMapHash": 1485737454,
    "terrainType": "AREA_TERRAIN_OUTDOOR",
    "DDBOIOBFNOK": [],
    "FDJGGNIMMGH": [],
    "CHNPKEJLBEN": [],
    "minimapScale": 1.0
  },
  {
    "ID": 3804,
    "SceneID": 7,
    "AreaType": "LEVEL_2",
    "AreaID1": 210,
    "AreaID2": 21004,
    "AreaNameTextMapHash": 1342270254,
    "terrainType": "AREA_TERRAIN_OUTDOOR",
    "DDBOIOBFNOK": [],
    "FDJGGNIMMGH": [],
    "CHNPKEJLBEN": [],
    "minimapScale": 1.0
  },
  {
    "ID": 3805,
    "SceneID": 7,
    "AreaType": "LEVEL_2",
    "AreaID1": 210,
    "AreaID2": 21005,
    "AreaNameTextMapHash": 3483883414,
    "terrainType": "AREA_TERRAIN_OUTDOOR",
    "DDBOIOBFNOK": [],
    "FDJGGNIMMGH": [],
    "CHNPKEJLBEN": [],
    "minimapScale": 1.0
  },
  {
    "ID": 3806,
    "SceneID": 7,
    "AreaType": "LEVEL_2",
    "AreaID1": 210,
    "AreaID2": 21006,
    "AreaNameTextMapHash": 430440494,
    "terrainType": "AREA_TERRAIN_OUTDOOR",
    "DDBOIOBFNOK": [],
    "FDJGGNIMMGH": [],
    "CHNPKEJLBEN": [],
    "minimapScale": 1.0
  },
  {
    "ID": 3807,
    "SceneID": 7,
    "AreaType": "LEVEL_2",
    "AreaID1": 210,
    "AreaID2": 21007,
    "AreaNameTextMapHash": 2828912878,
    "terrainType": "AREA_TERRAIN_OUTDOOR",
    "DDBOIOBFNOK": [],
    "FDJGGNIMMGH": [],
    "CHNPKEJLBEN": [],
    "minimapScale": 1.0
  },
  {
    "ID": 3808,
    "SceneID": 7,
    "AreaType": "LEVEL_2",
    "AreaID1": 210,
    "AreaID2": 21008,
    "AreaNameTextMapHash": 3349434990,
    "terrainType": "AREA_TERRAIN_OUTDOOR",
    "DDBOIOBFNOK": [],
    "FDJGGNIMMGH": [],
    "CHNPKEJLBEN": [],
    "minimapScale": 1.0
  },
  {
    "ID": 3809,
    "SceneID": 7,
    "AreaType": "LEVEL_2",
    "AreaID1": 210,
    "AreaID2": 21009,
    "AreaNameTextMapHash": 2053763358,
    "terrainType": "AREA_TERRAIN_OUTDOOR",
    "DDBOIOBFNOK": [],
    "FDJGGNIMMGH": [],
    "CHNPKEJLBEN": [],
    "minimapScale": 1.0
  },
  {
    "ID": 3900,
    "SceneID": 6,
    "AreaType": "LEVEL_1",
    "AreaID1": 300,
    "AreaNameTextMapHash": 2333606254,
    "terrainType": "AREA_TERRAIN_OUTDOOR",
    "showTips": true,
    "DDBOIOBFNOK": [],
    "FDJGGNIMMGH": [],
    "CHNPKEJLBEN": [],
    "minimapScale": 1.0
  },
  {
    "ID": 3901,
    "SceneID": 6,
    "AreaType": "LEVEL_2",
    "AreaID1": 300,
    "AreaID2": 30001,
    "AreaNameTextMapHash": 757069078,
    "terrainType": "AREA_TERRAIN_OUTDOOR",
    "showTips": true,
    "DDBOIOBFNOK": [],
    "FDJGGNIMMGH": [],
    "CHNPKEJLBEN": [],
    "minimapScale": 1.0
  },
  {
    "ID": 3902,
    "SceneID": 6,
    "AreaType": "LEVEL_2",
    "AreaID1": 300,
    "AreaID2": 30002,
    "AreaNameTextMapHash": 443859246,
    "terrainType": "AREA_TERRAIN_OUTDOOR",
    "showTips": true,
    "DDBOIOBFNOK": [],
    "FDJGGNIMMGH": [],
    "CHNPKEJLBEN": [],
    "minimapScale": 1.0
  },
  {
    "ID": 3903,
    "SceneID": 6,
    "AreaType": "LEVEL_2",
    "AreaID1": 300,
    "AreaID2": 30003,
    "AreaNameTextMapHash": 3442307206,
    "terrainType": "AREA_TERRAIN_OUTDOOR",
    "showTips": true,
    "DDBOIOBFNOK": [],
    "FDJGGNIMMGH": [],
    "CHNPKEJLBEN": [],
    "minimapScale": 1.0
  },
  {
    "ID": 3904,
    "SceneID": 6,
    "AreaType": "LEVEL_2",
    "AreaID1": 300,
    "AreaID2": 30004,
    "AreaNameTextMapHash": 4167701942,
    "terrainType": "AREA_TERRAIN_OUTDOOR",
    "showTips": true,
    "DDBOIOBFNOK": [],
    "FDJGGNIMMGH": [],
    "CHNPKEJLBEN": [],
    "minimapScale": 1.0
  },
  {
    "ID": 3905,
    "SceneID": 6,
    "AreaType": "LEVEL_2",
    "AreaID1": 300,
    "AreaID2": 30005,
    "AreaNameTextMapHash": 3387734878,
    "terrainType": "AREA_TERRAIN_OUTDOOR",
    "showTips": true,
    "DDBOIOBFNOK": [],
    "FDJGGNIMMGH": [],
    "CHNPKEJLBEN": [],
    "minimapScale": 1.0
  },
  {
    "ID": 3906,
    "SceneID": 6,
    "AreaType": "LEVEL_2",
    "AreaID1": 300,
    "AreaID2": 30006,
    "AreaNameTextMapHash": 3209072718,
    "terrainType": "AREA_TERRAIN_OUTDOOR",
    "showTips": true,
    "DDBOIOBFNOK": [],
    "FDJGGNIMMGH": [],
    "CHNPKEJLBEN": [],
    "minimapScale": 1.0
  },
  {
    "ID": 3907,
    "SceneID": 6,
    "AreaType": "LEVEL_2",
    "AreaID1": 300,
    "AreaID2": 30007,
    "AreaNameTextMapHash": 17519566,
    "terrainType": "AREA_TERRAIN_OUTDOOR",
    "showTips": true,
    "DDBOIOBFNOK": [],
    "FDJGGNIMMGH": [],
    "CHNPKEJLBEN": [],
    "minimapScale": 1.0
  },
  {
    "ID": 102100,
    "SceneID": 9,
    "AreaType": "LEVEL_1",
    "AreaID1": 400,
    "AreaNameTextMapHash": 672225206,
    "towerPointId": 1,
    "terrainType": "AREA_TERRAIN_OUTDOOR",
    "showTips": true,
    "DDBOIOBFNOK": [],
    "FDJGGNIMMGH": [],
    "CHNPKEJLBEN": [],
    "minimapScale": 1.0
  },
  {
    "ID": 102200,
    "SceneID": 9,
    "AreaType": "LEVEL_1",
    "AreaID1": 401,
    "AreaNameTextMapHash": 3260479398,
    "towerPointId": 2,
    "terrainType": "AREA_TERRAIN_OUTDOOR",
    "showTips": true,
    "DDBOIOBFNOK": [],
    "FDJGGNIMMGH": [],
    "CHNPKEJLBEN": [],
    "minimapScale": 1.0
  },
  {
    "ID": 102300,
    "SceneID": 9,
    "AreaType": "LEVEL_1",
    "AreaID1": 402,
    "AreaNameTextMapHash": 1140779310,
    "towerPointId": 3,
    "terrainType": "AREA_TERRAIN_OUTDOOR",
    "showTips": true,
    "DDBOIOBFNOK": [],
    "FDJGGNIMMGH": [],
    "CHNPKEJLBEN": [],
    "minimapScale": 1.0
  },
  {
    "ID": 102400,
    "SceneID": 9,
    "AreaType": "LEVEL_1",
    "AreaID1": 403,
    "AreaDefaultLock": true,
    "AreaNameTextMapHash": 3954131942,
    "towerPointId": 4,
    "terrainType": "AREA_TERRAIN_OUTDOOR",
    "showTips": true,
    "DDBOIOBFNOK": [],
    "FDJGGNIMMGH": [],
    "CHNPKEJLBEN": [],
    "minimapScale": 1.0
  }
]
