[
  {
    "Default": {
      "$type": "ConfigAbility",
      "abilityName": "Monster_Sacred_Entity_Attack05Protect",
      "abilityMixins": [
        {
          "$type": "AttachToStateIDMixin",
          "stateIDs": [
            "Sacred_Attack05",
            "Sacred_Attack05_BS",
            "Sacred_Attack05_Loop",
            "Sacred_Attack05_AS"
          ],
          "modifierName": "Attack05Protect"
        }
      ],
      "modifiers": {
        "Attack05Protect": {
          "modifierName": "",
          "bonusCriticalHurt": 100.0,
          "onAdded": [
            {
              "$type": "AttachAbilityStateResistance",
              "resistanceListID": 13002
            },
            {
              "$type": "Predicated",
              "predicates": [
                {
                  "$type": "ByTargetGlobalValue",
                  "target": "Self",
                  "key": "Monster_Scorpion_Sacred",
                  "ratio": 1.0
                }
              ],
              "successActions": [
                {
                  "$type": "KillSelf",
                  "otherTargets": {
                    "$type": "SelectTargetsByChildren",
                    "configID": 42610003
                  }
                },
                {
                  "$type": "KillSelf",
                  "otherTargets": {
                    "$type": "SelectTargetsByChildren",
                    "configID": 42610004
                  }
                },
                {
                  "$type": "KillSelf",
                  "otherTargets": {
                    "$type": "SelectTargetsByChildren",
                    "configID": 42610007
                  }
                },
                {
                  "$type": "KillMultiBullet",
                  "gadgetInfo": {
                    "configID": 42610005
                  },
                  "MJDFCJGFEBD": 1.5
                }
              ]
            },
            {
              "$type": "Predicated",
              "predicates": [
                {
                  "$type": "ByTargetGlobalValue",
                  "target": "Self",
                  "key": "Monster_Vulture_Sacred",
                  "ratio": 1.0
                }
              ],
              "successActions": [
                {
                  "$type": "KillSelf",
                  "otherTargets": {
                    "$type": "SelectTargetsByChildren",
                    "configID": 42610019
                  }
                },
                {
                  "$type": "KillSelf",
                  "otherTargets": {
                    "$type": "SelectTargetsByChildren",
                    "configID": 42610020
                  }
                },
                {
                  "$type": "KillSelf",
                  "otherTargets": {
                    "$type": "SelectTargetsByChildren",
                    "configID": 42610023
                  }
                },
                {
                  "$type": "KillMultiBullet",
                  "gadgetInfo": {
                    "configID": 42610022
                  },
                  "MJDFCJGFEBD": 1.5
                }
              ]
            },
            {
              "$type": "Predicated",
              "predicates": [
                {
                  "$type": "ByTargetGlobalValue",
                  "target": "Self",
                  "key": "Monster_Chrysopelea_Sacred",
                  "ratio": 1.0
                }
              ],
              "successActions": [
                {
                  "$type": "KillSelf",
                  "otherTargets": {
                    "$type": "SelectTargetsByChildren",
                    "configID": 42610026
                  }
                },
                {
                  "$type": "KillSelf",
                  "otherTargets": {
                    "$type": "SelectTargetsByChildren",
                    "configID": 42610027
                  }
                },
                {
                  "$type": "KillSelf",
                  "otherTargets": {
                    "$type": "SelectTargetsByChildren",
                    "configID": 42610034
                  }
                },
                {
                  "$type": "KillMultiBullet",
                  "gadgetInfo": {
                    "configID": 42610032
                  },
                  "MJDFCJGFEBD": 1.5
                }
              ]
            },
            {
              "$type": "Predicated",
              "predicates": [
                {
                  "$type": "ByTargetGlobalValue",
                  "target": "Self",
                  "key": "Monster_Gator_Sacred",
                  "ratio": 1.0
                }
              ],
              "successActions": [
                {
                  "$type": "KillSelf",
                  "otherTargets": {
                    "$type": "SelectTargetsByChildren",
                    "configID": 42610014
                  }
                },
                {
                  "$type": "KillSelf",
                  "otherTargets": {
                    "$type": "SelectTargetsByChildren",
                    "configID": 42610015
                  }
                },
                {
                  "$type": "KillSelf",
                  "otherTargets": {
                    "$type": "SelectTargetsByChildren",
                    "configID": 42610016
                  }
                },
                {
                  "$type": "KillMultiBullet",
                  "gadgetInfo": {
                    "configID": 42610013
                  },
                  "MJDFCJGFEBD": 1.5
                }
              ]
            },
            {
              "$type": "Predicated",
              "predicates": [
                {
                  "$type": "ByTargetGlobalValue",
                  "target": "Self",
                  "key": "Monster_Panther_Sacred",
                  "ratio": 1.0
                }
              ],
              "successActions": [
                {
                  "$type": "KillSelf",
                  "otherTargets": {
                    "$type": "SelectTargetsByChildren",
                    "configID": 42610039
                  }
                },
                {
                  "$type": "KillSelf",
                  "otherTargets": {
                    "$type": "SelectTargetsByChildren",
                    "configID": 42610040
                  }
                },
                {
                  "$type": "KillSelf",
                  "otherTargets": {
                    "$type": "SelectTargetsByChildren",
                    "configID": 42610042
                  }
                },
                {
                  "$type": "KillMultiBullet",
                  "gadgetInfo": {
                    "configID": 42610038
                  },
                  "MJDFCJGFEBD": 1.5
                }
              ]
            }
          ]
        }
      }
    }
  },
  {
    "Default": {
      "$type": "ConfigAbility",
      "abilityName": "Monster_Sacred_Entity_StateTag_ToNormal",
      "abilityMixins": [
        {
          "$type": "AttachToStateIDMixin",
          "stateIDs": [
            "Sacred_Attack05",
            "Sacred_Attack05_BS",
            "Sacred_Attack05_Loop",
            "Sacred_Attack05_AS"
          ],
          "modifierName": "Attack05ToNormal"
        }
      ],
      "modifiers": {
        "Attack05ToNormal": {
          "modifierName": "",
          "bonusCriticalHurt": 100.0,
          "onRemoved": [
            {
              "$type": "Predicated",
              "otherTargets": {
                "$type": "SelectTargetsByChildren",
                "configID": 42610003
              },
              "predicates": [
                {
                  "$type": "ByTargetGlobalValue",
                  "key": "Scorpion_SacredEnergy_Gadget",
                  "ratio": 1.0
                },
                {
                  "$type": "ByTargetGlobalValue",
                  "target": "Self",
                  "key": "Monster_Scorpion_Sacred",
                  "ratio": 1.0
                }
              ],
              "successActions": [
                {
                  "$type": "SetPoseInt",
                  "intID": "StateFlag",
                  "value": 1
                }
              ]
            },
            {
              "$type": "Predicated",
              "otherTargets": {
                "$type": "SelectTargetsByChildren",
                "configID": 42610019
              },
              "predicates": [
                {
                  "$type": "ByTargetGlobalValue",
                  "key": "Vulture_SacredEnergy_Gadget",
                  "ratio": 1.0
                },
                {
                  "$type": "ByTargetGlobalValue",
                  "target": "Self",
                  "key": "Monster_Vulture_Sacred",
                  "ratio": 1.0
                }
              ],
              "successActions": [
                {
                  "$type": "SetPoseInt",
                  "intID": "StateFlag",
                  "value": 1
                }
              ]
            },
            {
              "$type": "Predicated",
              "otherTargets": {
                "$type": "SelectTargetsByChildren",
                "configID": 42610026
              },
              "predicates": [
                {
                  "$type": "ByTargetGlobalValue",
                  "key": "Chrysopelea_SacredEnergy_Gadget",
                  "ratio": 1.0
                },
                {
                  "$type": "ByTargetGlobalValue",
                  "target": "Self",
                  "key": "Monster_Chrysopelea_Sacred",
                  "ratio": 1.0
                }
              ],
              "successActions": [
                {
                  "$type": "SetPoseInt",
                  "intID": "StateFlag",
                  "value": 1
                }
              ]
            },
            {
              "$type": "Predicated",
              "otherTargets": {
                "$type": "SelectTargetsByChildren",
                "configID": 42610014
              },
              "predicates": [
                {
                  "$type": "ByTargetGlobalValue",
                  "key": "Gator_SacredEnergy_Gadget",
                  "ratio": 1.0
                },
                {
                  "$type": "ByTargetGlobalValue",
                  "target": "Self",
                  "key": "Monster_Gator_Sacred",
                  "ratio": 1.0
                }
              ],
              "successActions": [
                {
                  "$type": "SetPoseInt",
                  "intID": "StateFlag",
                  "value": 1
                }
              ]
            },
            {
              "$type": "Predicated",
              "otherTargets": {
                "$type": "SelectTargetsByChildren",
                "configID": 42610039
              },
              "predicates": [
                {
                  "$type": "ByTargetGlobalValue",
                  "key": "Panther_SacredEnergy_Gadget",
                  "ratio": 1.0
                },
                {
                  "$type": "ByTargetGlobalValue",
                  "target": "Self",
                  "key": "Monster_Panther_Sacred",
                  "ratio": 1.0
                }
              ],
              "successActions": [
                {
                  "$type": "SetPoseInt",
                  "intID": "StateFlag",
                  "value": 1
                }
              ]
            }
          ]
        }
      }
    }
  },
  {
    "Default": {
      "$type": "ConfigAbility",
      "abilityName": "Monster_Sacred_Entity_StateTag_ToEnhance",
      "abilityMixins": [
        {
          "$type": "AttachToStateIDMixin",
          "stateIDs": ["Sacred_Enhance"],
          "modifierName": "Sacred_Enhance_Control"
        }
      ],
      "modifiers": {
        "Sacred_Enhance_Control": {
          "modifierName": "",
          "bonusCriticalHurt": 100.0,
          "onRemoved": [
            {
              "$type": "SetGlobalValue",
              "predicates": [
                {
                  "$type": "ByTargetGlobalValue",
                  "target": "Self",
                  "key": "Monster_Scorpion_Sacred",
                  "ratio": 1.0
                }
              ],
              "ratio": 0.0,
              "key": "SacredEnergy_Recover_Scorpion",
              "maxValue": 0.0,
              "minValue": 0.0
            },
            {
              "$type": "SetGlobalValue",
              "predicates": [
                {
                  "$type": "ByTargetGlobalValue",
                  "target": "Self",
                  "key": "Monster_Vulture_Sacred",
                  "ratio": 1.0
                }
              ],
              "ratio": 0.0,
              "key": "SacredEnergy_Recover_Vulture",
              "maxValue": 0.0,
              "minValue": 0.0
            },
            {
              "$type": "SetGlobalValue",
              "predicates": [
                {
                  "$type": "ByTargetGlobalValue",
                  "target": "Self",
                  "key": "Monster_Chrysopelea_Sacred",
                  "ratio": 1.0
                }
              ],
              "ratio": 0.0,
              "key": "SacredEnergy_Recover_Chrysopelea",
              "maxValue": 0.0,
              "minValue": 0.0
            },
            {
              "$type": "SetGlobalValue",
              "predicates": [
                {
                  "$type": "ByTargetGlobalValue",
                  "target": "Self",
                  "key": "Monster_Gator_Sacred",
                  "ratio": 1.0
                }
              ],
              "ratio": 0.0,
              "key": "SacredEnergy_Recover_Gator",
              "maxValue": 0.0,
              "minValue": 0.0
            },
            {
              "$type": "SetGlobalValue",
              "predicates": [
                {
                  "$type": "ByTargetGlobalValue",
                  "target": "Self",
                  "key": "Monster_Panther_Sacred",
                  "ratio": 1.0
                }
              ],
              "ratio": 0.0,
              "key": "SacredEnergy_Recover_Panther",
              "maxValue": 0.0,
              "minValue": 0.0
            }
          ]
        }
      },
      "onAbilityStart": [
        {
          "$type": "SetPoseInt",
          "intID": "StateFlag",
          "value": 2
        }
      ]
    }
  },
  {
    "Default": {
      "$type": "ConfigAbility",
      "abilityName": "Monster_Sacred_Entity_StateTag_ToWeak",
      "abilityMixins": [
        {
          "$type": "AttachToStateIDMixin",
          "stateIDs": ["AirWeak_BS", "Weak_BS", "Weak_Loop", "Weak_AS"],
          "modifierName": "WeakState"
        },
        {
          "$type": "AttachToStateIDMixin",
          "stateIDs": ["Weak_Loop"],
          "modifierName": "WeakDieState"
        }
      ],
      "modifiers": {
        "WeakState": {
          "modifierName": "",
          "bonusCriticalHurt": 100.0,
          "onAdded": [
            {
              "$type": "SetPoseInt",
              "intID": "StateFlag",
              "value": 3
            }
          ],
          "onRemoved": [
            {
              "$type": "SetPoseInt",
              "intID": "StateFlag",
              "value": 1
            },
            {
              "$type": "SetGlobalValue",
              "predicates": [
                {
                  "$type": "ByTargetGlobalValue",
                  "target": "Self",
                  "key": "Monster_Scorpion_Sacred",
                  "ratio": 1.0
                }
              ],
              "ratio": 1.0,
              "key": "SacredEnergy_Recover_Scorpion",
              "maxValue": 0.0,
              "minValue": 0.0
            },
            {
              "$type": "SetGlobalValue",
              "predicates": [
                {
                  "$type": "ByTargetGlobalValue",
                  "target": "Self",
                  "key": "Monster_Vulture_Sacred",
                  "ratio": 1.0
                }
              ],
              "ratio": 1.0,
              "key": "SacredEnergy_Recover_Vulture",
              "maxValue": 0.0,
              "minValue": 0.0
            },
            {
              "$type": "SetGlobalValue",
              "predicates": [
                {
                  "$type": "ByTargetGlobalValue",
                  "target": "Self",
                  "key": "Monster_Chrysopelea_Sacred",
                  "ratio": 1.0
                }
              ],
              "ratio": 1.0,
              "key": "SacredEnergy_Recover_Chrysopelea",
              "maxValue": 0.0,
              "minValue": 0.0
            },
            {
              "$type": "SetGlobalValue",
              "predicates": [
                {
                  "$type": "ByTargetGlobalValue",
                  "target": "Self",
                  "key": "Monster_Gator_Sacred",
                  "ratio": 1.0
                }
              ],
              "ratio": 1.0,
              "key": "SacredEnergy_Recover_Gator",
              "maxValue": 0.0,
              "minValue": 0.0
            },
            {
              "$type": "SetGlobalValue",
              "predicates": [
                {
                  "$type": "ByTargetGlobalValue",
                  "target": "Self",
                  "key": "Monster_Panther_Sacred",
                  "ratio": 1.0
                }
              ],
              "ratio": 1.0,
              "key": "SacredEnergy_Recover_Panther",
              "maxValue": 0.0,
              "minValue": 0.0
            }
          ],
          "LGJBJJBCBEH": [
            {
              "$type": "SetAnimatorTrigger",
              "canBeHandledOnRecover": true,
              "triggerID": "WeakRC",
              "MPTriggerOnRemote": true
            }
          ]
        },
        "WeakDieState": {
          "modifierName": "",
          "bonusCriticalHurt": 100.0,
          "onAdded": [
            {
              "$type": "SetAnimatorBool",
              "boolID": "Weak",
              "ratio": true
            }
          ],
          "onRemoved": [
            {
              "$type": "SetAnimatorBool",
              "boolID": "Weak"
            }
          ]
        }
      }
    }
  },
  {
    "Default": {
      "$type": "ConfigAbility",
      "abilityName": "Monster_Sacred_Entity_BodyMaterial_Effect",
      "abilityMixins": [
        {
          "$type": "AttachToPoseIDMixin",
          "poseIDs": [1, 101, 201, 203],
          "modifierName": "NormalStateSkin"
        },
        {
          "$type": "AttachToPoseIDMixin",
          "poseIDs": [202],
          "modifierName": "EnhanceStateSkin"
        }
      ],
      "modifiers": {
        "EnhanceStateSkin": {
          "modifierName": "",
          "bonusCriticalHurt": 100.0,
          "onAdded": [
            {
              "$type": "SetAnimatorBool",
              "boolID": "EnhanceSkin",
              "ratio": true
            }
          ]
        },
        "NormalStateSkin": {
          "modifierName": "",
          "bonusCriticalHurt": 100.0,
          "onAdded": [
            {
              "$type": "SetAnimatorBool",
              "boolID": "EnhanceSkin"
            }
          ]
        }
      }
    }
  },
  {
    "Default": {
      "$type": "ConfigAbility",
      "abilityName": "Monster_Sacred_Entity_AlertnessTag",
      "abilityMixins": [
        {
          "$type": "AttachToAIAlertnessMixin",
          "alertness": [0],
          "modifierName": "AlertnessTag"
        },
        {
          "$type": "AttachToStateIDMixin",
          "stateIDs": ["Die", "Weak_Die"],
          "modifierName": "DieClearMultiBullet"
        }
      ],
      "modifiers": {
        "DieClearMultiBullet": {
          "modifierName": "",
          "bonusCriticalHurt": 100.0,
          "onAdded": [
            {
              "$type": "KillMultiBullet",
              "predicates": [
                {
                  "$type": "ByTargetGlobalValue",
                  "target": "Self",
                  "key": "Monster_Scorpion_Sacred",
                  "ratio": 1.0
                }
              ],
              "gadgetInfo": {
                "configID": 42610005
              },
              "MJDFCJGFEBD": 1.5
            },
            {
              "$type": "KillMultiBullet",
              "predicates": [
                {
                  "$type": "ByTargetGlobalValue",
                  "target": "Self",
                  "key": "Monster_Vulture_Sacred",
                  "ratio": 1.0
                }
              ],
              "gadgetInfo": {
                "configID": 42610022
              },
              "MJDFCJGFEBD": 1.5
            },
            {
              "$type": "KillMultiBullet",
              "predicates": [
                {
                  "$type": "ByTargetGlobalValue",
                  "target": "Self",
                  "key": "Monster_Chrysopelea_Sacred",
                  "ratio": 1.0
                }
              ],
              "gadgetInfo": {
                "configID": 42610032
              },
              "MJDFCJGFEBD": 1.5
            },
            {
              "$type": "KillMultiBullet",
              "predicates": [
                {
                  "$type": "ByTargetGlobalValue",
                  "target": "Self",
                  "key": "Monster_Gator_Sacred",
                  "ratio": 1.0
                }
              ],
              "gadgetInfo": {
                "configID": 42610013
              },
              "MJDFCJGFEBD": 1.5
            },
            {
              "$type": "KillMultiBullet",
              "predicates": [
                {
                  "$type": "ByTargetGlobalValue",
                  "target": "Self",
                  "key": "Monster_Panther_Sacred",
                  "ratio": 1.0
                }
              ],
              "gadgetInfo": {
                "configID": 42610038
              },
              "MJDFCJGFEBD": 1.5
            }
          ]
        },
        "AlertnessTag": {
          "modifierName": "",
          "bonusCriticalHurt": 100.0,
          "onAdded": [
            {
              "$type": "SetGlobalValue",
              "ratio": 0.0,
              "key": "_SACRED_ENTITY_ALERTNESS_TAG_",
              "maxValue": 0.0,
              "minValue": 0.0
            },
            {
              "$type": "SetPoseInt",
              "intID": "StateFlag",
              "value": 1
            },
            {
              "$type": "SetAISkillCDAvailableNow",
              "skillIDs": [101]
            },
            {
              "$type": "Predicated",
              "predicates": [
                {
                  "$type": "ByTargetGlobalValue",
                  "target": "Self",
                  "key": "Monster_Scorpion_Sacred",
                  "ratio": 1.0
                }
              ],
              "successActions": [
                {
                  "$type": "SetGlobalValue",
                  "ratio": 0.0,
                  "key": "SacredEnergy_Recover_Scorpion",
                  "maxValue": 0.0,
                  "minValue": 0.0
                },
                {
                  "$type": "KillSelf",
                  "otherTargets": {
                    "$type": "SelectTargetsByChildren",
                    "configID": 42610003
                  }
                },
                {
                  "$type": "KillSelf",
                  "otherTargets": {
                    "$type": "SelectTargetsByChildren",
                    "configID": 42610004
                  }
                },
                {
                  "$type": "KillSelf",
                  "otherTargets": {
                    "$type": "SelectTargetsByChildren",
                    "configID": 42610007
                  }
                }
              ]
            },
            {
              "$type": "Predicated",
              "predicates": [
                {
                  "$type": "ByTargetGlobalValue",
                  "target": "Self",
                  "key": "Monster_Vulture_Sacred",
                  "ratio": 1.0
                }
              ],
              "successActions": [
                {
                  "$type": "SetGlobalValue",
                  "ratio": 0.0,
                  "key": "SacredEnergy_Recover_Vulture",
                  "maxValue": 0.0,
                  "minValue": 0.0
                },
                {
                  "$type": "KillSelf",
                  "otherTargets": {
                    "$type": "SelectTargetsByChildren",
                    "configID": 42610019
                  }
                },
                {
                  "$type": "KillSelf",
                  "otherTargets": {
                    "$type": "SelectTargetsByChildren",
                    "configID": 42610020
                  }
                },
                {
                  "$type": "KillSelf",
                  "otherTargets": {
                    "$type": "SelectTargetsByChildren",
                    "configID": 42610023
                  }
                }
              ]
            },
            {
              "$type": "Predicated",
              "predicates": [
                {
                  "$type": "ByTargetGlobalValue",
                  "target": "Self",
                  "key": "Monster_Chrysopelea_Sacred",
                  "ratio": 1.0
                }
              ],
              "successActions": [
                {
                  "$type": "SetGlobalValue",
                  "ratio": 0.0,
                  "key": "SacredEnergy_Recover_Chrysopelea",
                  "maxValue": 0.0,
                  "minValue": 0.0
                },
                {
                  "$type": "KillSelf",
                  "otherTargets": {
                    "$type": "SelectTargetsByChildren",
                    "configID": 42610026
                  }
                },
                {
                  "$type": "KillSelf",
                  "otherTargets": {
                    "$type": "SelectTargetsByChildren",
                    "configID": 42610027
                  }
                },
                {
                  "$type": "KillSelf",
                  "otherTargets": {
                    "$type": "SelectTargetsByChildren",
                    "configID": 42610034
                  }
                }
              ]
            },
            {
              "$type": "Predicated",
              "predicates": [
                {
                  "$type": "ByTargetGlobalValue",
                  "target": "Self",
                  "key": "Monster_Gator_Sacred",
                  "ratio": 1.0
                }
              ],
              "successActions": [
                {
                  "$type": "SetGlobalValue",
                  "ratio": 0.0,
                  "key": "SacredEnergy_Recover_Gator",
                  "maxValue": 0.0,
                  "minValue": 0.0
                },
                {
                  "$type": "KillSelf",
                  "otherTargets": {
                    "$type": "SelectTargetsByChildren",
                    "configID": 42610014
                  }
                },
                {
                  "$type": "KillSelf",
                  "otherTargets": {
                    "$type": "SelectTargetsByChildren",
                    "configID": 42610015
                  }
                },
                {
                  "$type": "KillSelf",
                  "otherTargets": {
                    "$type": "SelectTargetsByChildren",
                    "configID": 42610016
                  }
                }
              ]
            },
            {
              "$type": "Predicated",
              "predicates": [
                {
                  "$type": "ByTargetGlobalValue",
                  "target": "Self",
                  "key": "Monster_Panther_Sacred",
                  "ratio": 1.0
                }
              ],
              "successActions": [
                {
                  "$type": "SetGlobalValue",
                  "ratio": 0.0,
                  "key": "SacredEnergy_Recover_Panther",
                  "maxValue": 0.0,
                  "minValue": 0.0
                },
                {
                  "$type": "KillSelf",
                  "otherTargets": {
                    "$type": "SelectTargetsByChildren",
                    "configID": 42610039
                  }
                },
                {
                  "$type": "KillSelf",
                  "otherTargets": {
                    "$type": "SelectTargetsByChildren",
                    "configID": 42610040
                  }
                },
                {
                  "$type": "KillSelf",
                  "otherTargets": {
                    "$type": "SelectTargetsByChildren",
                    "configID": 42610042
                  }
                }
              ]
            }
          ],
          "onRemoved": [
            {
              "$type": "SetGlobalValue",
              "ratio": 1.0,
              "key": "_SACRED_ENTITY_ALERTNESS_TAG_",
              "maxValue": 0.0,
              "minValue": 0.0
            }
          ]
        }
      }
    }
  }
]
