[
  {
    "Default": {
      "$type": "ConfigAbility",
      "abilityName": "Monster_Fungus_Raptor_01_Steer",
      "abilityMixins": [
        {
          "$type": "SteerAttackMixin",
          "steerStateIDs": ["TurnLeft"],
          "startNormalizedTime": 0.4000000059604645,
          "endNormalizedTime": 0.6399999856948853,
          "angularSpeed": 460.0,
          "attackTrigger": ""
        },
        {
          "$type": "SteerAttackMixin",
          "steerStateIDs": ["TurnRight"],
          "startNormalizedTime": 0.4000000059604645,
          "endNormalizedTime": 0.6399999856948853,
          "angularSpeed": 460.0,
          "attackTrigger": ""
        },
        {
          "$type": "SteerAttackMixin",
          "steerStateIDs": ["Warning"],
          "startNormalizedTime": 0.7400000095367432,
          "endNormalizedTime": 0.8399999737739563,
          "angularSpeed": 240.0,
          "attackTrigger": ""
        },
        {
          "$type": "SteerAttackMixin",
          "steerStateIDs": ["MeleeAttack01_BS"],
          "startNormalizedTime": 0.5,
          "angularSpeed": 240.0,
          "attackTrigger": ""
        },
        {
          "$type": "SteerAttackMixin",
          "steerStateIDs": ["MeleeAttack02_BS"],
          "startNormalizedTime": 0.30000001192092896,
          "angularSpeed": 240.0,
          "attackTrigger": ""
        },
        {
          "$type": "SteerAttackMixin",
          "steerStateIDs": ["MeleeAttack03_BS"],
          "startNormalizedTime": 0.800000011920929,
          "angularSpeed": 240.0,
          "attackTrigger": ""
        },
        {
          "$type": "SteerAttackMixin",
          "steerStateIDs": ["SporeAttack_BS"],
          "endNormalizedTime": 0.6000000238418579,
          "angularSpeed": 240.0,
          "attackTrigger": ""
        },
        {
          "$type": "SteerAttackMixin",
          "steerStateIDs": ["ShootAttack_BS"],
          "angularSpeed": 240.0,
          "attackTrigger": ""
        },
        {
          "$type": "SteerAttackMixin",
          "steerStateIDs": ["PowerAttack_BS"],
          "angularSpeed": 240.0,
          "attackTrigger": ""
        },
        {
          "$type": "SteerAttackMixin",
          "steerStateIDs": ["ChargeAttack_BS"],
          "angularSpeed": 240.0,
          "attackTrigger": ""
        },
        {
          "$type": "SteerAttackMixin",
          "steerStateIDs": ["ChargeAttack_RushLoop"],
          "endNormalizedTime": 99.0,
          "angularSpeed": 15.0,
          "attackTrigger": ""
        },
        {
          "$type": "SteerAttackMixin",
          "steerStateIDs": ["ChargeAttack_TurnLeft"],
          "endNormalizedTime": 0.33000001311302185,
          "angularSpeed": 15.0,
          "attackTrigger": ""
        },
        {
          "$type": "SteerAttackMixin",
          "steerStateIDs": ["ChargeAttack_TurnLeft"],
          "startNormalizedTime": 0.33000001311302185,
          "angularSpeed": 180.0,
          "attackTrigger": ""
        },
        {
          "$type": "SteerAttackMixin",
          "steerStateIDs": ["ChargeAttack_TurnRight"],
          "endNormalizedTime": 0.33000001311302185,
          "angularSpeed": 15.0,
          "attackTrigger": ""
        },
        {
          "$type": "SteerAttackMixin",
          "steerStateIDs": ["ChargeAttack_TurnRight"],
          "startNormalizedTime": 0.33000001311302185,
          "angularSpeed": 180.0,
          "attackTrigger": ""
        },
        {
          "$type": "SteerAttackMixin",
          "steerStateIDs": ["Taunt"],
          "startNormalizedTime": 0.05999999865889549,
          "endNormalizedTime": 0.18000000715255737,
          "angularSpeed": 240.0,
          "attackTrigger": ""
        },
        {
          "$type": "SteerAttackMixin",
          "steerStateIDs": ["Taunt"],
          "startNormalizedTime": 0.5199999809265137,
          "endNormalizedTime": 0.7400000095367432,
          "angularSpeed": 240.0,
          "attackTrigger": ""
        },
        {
          "$type": "SteerAttackMixin",
          "steerStateIDs": ["BackStep"],
          "startNormalizedTime": 0.30000001192092896,
          "endNormalizedTime": 0.6000000238418579,
          "angularSpeed": 240.0,
          "attackTrigger": ""
        },
        {
          "$type": "SteerAttackMixin",
          "steerStateIDs": ["ShootAttackBackStep"],
          "startNormalizedTime": 0.30000001192092896,
          "endNormalizedTime": 0.6000000238418579,
          "angularSpeed": 240.0,
          "attackTrigger": ""
        },
        {
          "$type": "SteerAttackMixin",
          "steerStateIDs": ["LeftStep"],
          "startNormalizedTime": 0.30000001192092896,
          "endNormalizedTime": 0.6000000238418579,
          "angularSpeed": 240.0,
          "attackTrigger": ""
        },
        {
          "$type": "SteerAttackMixin",
          "steerStateIDs": ["RightStep"],
          "startNormalizedTime": 0.30000001192092896,
          "endNormalizedTime": 0.6000000238418579,
          "angularSpeed": 240.0,
          "attackTrigger": ""
        },
        {
          "$type": "SteerAttackMixin",
          "steerStateIDs": ["MeleeAttackLeftStep"],
          "startNormalizedTime": 0.30000001192092896,
          "endNormalizedTime": 0.6000000238418579,
          "angularSpeed": 240.0,
          "attackTrigger": ""
        },
        {
          "$type": "SteerAttackMixin",
          "steerStateIDs": ["MeleeAttackRightStep"],
          "startNormalizedTime": 0.30000001192092896,
          "endNormalizedTime": 0.6000000238418579,
          "angularSpeed": 240.0,
          "attackTrigger": ""
        },
        {
          "$type": "SteerAttackMixin",
          "steerStateIDs": ["ShootAttackLeftStep"],
          "startNormalizedTime": 0.30000001192092896,
          "endNormalizedTime": 0.6000000238418579,
          "angularSpeed": 240.0,
          "attackTrigger": ""
        },
        {
          "$type": "SteerAttackMixin",
          "steerStateIDs": ["ShootAttackRightStep"],
          "startNormalizedTime": 0.30000001192092896,
          "endNormalizedTime": 0.6000000238418579,
          "angularSpeed": 240.0,
          "attackTrigger": ""
        }
      ]
    }
  },
  {
    "Default": {
      "$type": "ConfigAbility",
      "abilityName": "Monster_Fungus_Raptor_01_ReturnToBorn",
      "abilityMixins": [
        {
          "$type": "AttachToPoseIDMixin",
          "poseIDs": [401, 402],
          "modifierName": "ReturnToBornState"
        },
        {
          "$type": "AttachToAnimatorStateIDMixin",
          "stateIDs": ["ReturnToBorn"],
          "modifierName": "ReturnToBornHandler"
        },
        {
          "$type": "AttachToPoseIDMixin",
          "poseIDs": [101],
          "modifierName": "ReturnToBornHandler"
        }
      ],
      "modifiers": {
        "ReturnToBornState": {
          "modifierName": "",
          "bonusCriticalHurt": 100.0,
          "onAdded": [
            {
              "$type": "SetAnimatorTrigger",
              "triggerID": "ReturnToBornTrigger"
            }
          ]
        },
        "ReturnToBornHandler": {
          "modifierName": "",
          "bonusCriticalHurt": 100.0,
          "onAdded": [
            {
              "$type": "SetGlobalValue",
              "ratio": 0.0,
              "key": "_WATCHER_82136_",
              "maxValue": 0.0,
              "minValue": 0.0
            },
            {
              "$type": "SetGlobalValue",
              "ratio": 0.0,
              "key": "_MONSTER_FUNGUSSTATE_",
              "maxValue": 0.0,
              "minValue": 0.0
            },
            {
              "$type": "SetGlobalValue",
              "ratio": 0.0,
              "key": "_MONSTER_FUNGUS_RAPTOR_ISCHARGED_",
              "maxValue": 0.0,
              "minValue": 0.0
            },
            {
              "$type": "SetGlobalValue",
              "predicates": [
                {
                  "$type": "ByTargetGlobalValue",
                  "key": "_MONSTER_FUNGUSSTATE_",
                  "ratio": 0.0
                }
              ],
              "ratio": 0.0,
              "key": "_CHARGEBAR_VALUE",
              "maxValue": 0.0,
              "minValue": 0.0
            },
            {
              "$type": "EnablePushColliderName",
              "pushColliderNames": ["PushCollider"],
              "setEnable": true
            },
            {
              "$type": "EnablePushColliderName",
              "pushColliderNames": ["PushCollider_Upper"],
              "setEnable": true
            },
            {
              "$type": "EnablePushColliderName",
              "pushColliderNames": ["PushColliderExtra"],
              "setEnable": true
            },
            {
              "$type": "EnablePushColliderName",
              "pushColliderNames": ["PushCollider_UpperExtra"],
              "setEnable": true
            },
            {
              "$type": "EnablePushColliderName",
              "pushColliderNames": ["PushCollider_Faint"]
            },
            {
              "$type": "EnablePushColliderName",
              "pushColliderNames": ["PushCollider_Faint_Upper"]
            },
            {
              "$type": "EnablePushColliderName",
              "pushColliderNames": ["PushCollider_Faint02"]
            },
            {
              "$type": "EnablePushColliderName",
              "pushColliderNames": ["PushCollider_Faint02_Upper"]
            },
            {
              "$type": "EnablePushColliderName",
              "pushColliderNames": ["PushCollider_FaintSub"]
            },
            {
              "$type": "EnablePushColliderName",
              "pushColliderNames": ["PushCollider_FaintSub_Upper"]
            },
            {
              "$type": "EnablePushColliderName",
              "pushColliderNames": ["PushCollider_FaintExtra"]
            },
            {
              "$type": "EnablePushColliderName",
              "pushColliderNames": ["PushCollider_Faint_UpperExtra"]
            },
            {
              "$type": "EnablePushColliderName",
              "pushColliderNames": ["PushCollider_FaintSubExtra"]
            },
            {
              "$type": "EnablePushColliderName",
              "pushColliderNames": ["PushCollider_FaintSub_UpperExtra"]
            },
            {
              "$type": "EnablePushColliderName",
              "pushColliderNames": ["PushCollider_Faint02Extra"]
            },
            {
              "$type": "EnablePushColliderName",
              "pushColliderNames": ["PushCollider_Faint02_UpperExtra"]
            },
            {
              "$type": "SetGlobalValue",
              "ratio": 0.0,
              "key": "_FUNGUS_RAPTOR_HASBEENDECAYED_",
              "maxValue": 0.0,
              "minValue": 0.0
            },
            {
              "$type": "SetGlobalValue",
              "ratio": 0.0,
              "key": "_FUNGUS_RAPTOR_HASBEENOVERDOSED_",
              "maxValue": 0.0,
              "minValue": 0.0
            },
            {
              "$type": "SetGlobalValue",
              "ratio": 0.0,
              "key": "_SPOREATTACK_HIT_",
              "maxValue": 0.0,
              "minValue": 0.0
            },
            {
              "$type": "SetGlobalValue",
              "ratio": 0.0,
              "key": "_OVERDOSEATTACK_HIT_",
              "maxValue": 0.0,
              "minValue": 0.0
            },
            {
              "$type": "ApplyModifier",
              "otherTargets": {
                "$type": "SelectTargetsByChildren",
                "configID": 42611003
              },
              "modifierName": "SummonedFungusKillSelf"
            },
            {
              "$type": "ApplyModifier",
              "otherTargets": {
                "$type": "SelectTargetsByChildren",
                "configID": 42611017
              },
              "modifierName": "SummonedFungusKillSelf"
            },
            {
              "$type": "ApplyModifier",
              "otherTargets": {
                "$type": "SelectTargetsByChildren",
                "configID": 26090202
              },
              "modifierName": "SummonedFungusKillSelf"
            },
            {
              "$type": "SetGlobalValue",
              "ratio": 0.0,
              "key": "_WATCHER_82136_",
              "maxValue": 0.0,
              "minValue": 0.0
            }
          ],
          "onRemoved": [
            {
              "$type": "SetGlobalValue",
              "ratio": 0.0,
              "key": "_MONSTER_FUNGUSSTATE_",
              "maxValue": 0.0,
              "minValue": 0.0
            },
            {
              "$type": "SetGlobalValue",
              "ratio": 0.0,
              "key": "_MONSTER_FUNGUS_RAPTOR_ISCHARGED_",
              "maxValue": 0.0,
              "minValue": 0.0
            },
            {
              "$type": "SetGlobalValue",
              "predicates": [
                {
                  "$type": "ByTargetGlobalValue",
                  "key": "_MONSTER_FUNGUSSTATE_",
                  "ratio": 0.0
                }
              ],
              "ratio": 0.0,
              "key": "_CHARGEBAR_VALUE",
              "maxValue": 0.0,
              "minValue": 0.0
            },
            {
              "$type": "EnablePushColliderName",
              "pushColliderNames": ["PushCollider"],
              "setEnable": true
            },
            {
              "$type": "EnablePushColliderName",
              "pushColliderNames": ["PushCollider_Upper"],
              "setEnable": true
            },
            {
              "$type": "EnablePushColliderName",
              "pushColliderNames": ["PushColliderExtra"],
              "setEnable": true
            },
            {
              "$type": "EnablePushColliderName",
              "pushColliderNames": ["PushCollider_UpperExtra"],
              "setEnable": true
            },
            {
              "$type": "EnablePushColliderName",
              "pushColliderNames": ["PushCollider_Faint"]
            },
            {
              "$type": "EnablePushColliderName",
              "pushColliderNames": ["PushCollider_Faint_Upper"]
            },
            {
              "$type": "EnablePushColliderName",
              "pushColliderNames": ["PushCollider_Faint02"]
            },
            {
              "$type": "EnablePushColliderName",
              "pushColliderNames": ["PushCollider_Faint02_Upper"]
            },
            {
              "$type": "EnablePushColliderName",
              "pushColliderNames": ["PushCollider_FaintSub"]
            },
            {
              "$type": "EnablePushColliderName",
              "pushColliderNames": ["PushCollider_FaintSub_Upper"]
            },
            {
              "$type": "EnablePushColliderName",
              "pushColliderNames": ["PushCollider_FaintExtra"]
            },
            {
              "$type": "EnablePushColliderName",
              "pushColliderNames": ["PushCollider_Faint_UpperExtra"]
            },
            {
              "$type": "EnablePushColliderName",
              "pushColliderNames": ["PushCollider_FaintSubExtra"]
            },
            {
              "$type": "EnablePushColliderName",
              "pushColliderNames": ["PushCollider_FaintSub_UpperExtra"]
            },
            {
              "$type": "EnablePushColliderName",
              "pushColliderNames": ["PushCollider_Faint02Extra"]
            },
            {
              "$type": "EnablePushColliderName",
              "pushColliderNames": ["PushCollider_Faint02_UpperExtra"]
            },
            {
              "$type": "SetGlobalValue",
              "ratio": 0.0,
              "key": "_FUNGUS_RAPTOR_HASBEENDECAYED_",
              "maxValue": 0.0,
              "minValue": 0.0
            },
            {
              "$type": "SetGlobalValue",
              "ratio": 0.0,
              "key": "_FUNGUS_RAPTOR_HASBEENOVERDOSED_",
              "maxValue": 0.0,
              "minValue": 0.0
            },
            {
              "$type": "SetGlobalValue",
              "ratio": 0.0,
              "key": "_SPOREATTACK_HIT_",
              "maxValue": 0.0,
              "minValue": 0.0
            },
            {
              "$type": "SetGlobalValue",
              "ratio": 0.0,
              "key": "_OVERDOSEATTACK_HIT_",
              "maxValue": 0.0,
              "minValue": 0.0
            },
            {
              "$type": "ApplyModifier",
              "otherTargets": {
                "$type": "SelectTargetsByChildren",
                "configID": 42611003
              },
              "modifierName": "SummonedFungusKillSelf"
            },
            {
              "$type": "ApplyModifier",
              "otherTargets": {
                "$type": "SelectTargetsByChildren",
                "configID": 42611017
              },
              "modifierName": "SummonedFungusKillSelf"
            },
            {
              "$type": "ApplyModifier",
              "otherTargets": {
                "$type": "SelectTargetsByChildren",
                "configID": 26090202
              },
              "modifierName": "SummonedFungusKillSelf"
            },
            {
              "$type": "SetGlobalValue",
              "ratio": 0.0,
              "key": "_WATCHER_82136_",
              "maxValue": 0.0,
              "minValue": 0.0
            }
          ]
        },
        "SummonedFungusKillSelf": {
          "modifierName": "",
          "bonusCriticalHurt": 100.0,
          "onAdded": [
            {
              "$type": "KillSelf"
            }
          ]
        }
      }
    }
  },
  {
    "Default": {
      "$type": "ConfigAbility",
      "abilityName": "Monster_Fungus_Raptor_01_StateManager",
      "abilityMixins": [
        {
          "$type": "AttachModifierToSelfGlobalValueMixin",
          "globalValueKey": "_MONSTER_FUNGUSSTATE_",
          "defaultGlobalValueOnCreate": 0.0,
          "valueSteps": [-0.5, 0.5, 1.5, 2.5],
          "modifierNameSteps": [
            "UNIQUE_FungusNormalState",
            "UNIQUE_FungusOverdoseState",
            "UNIQUE_FungusDecayedState"
          ]
        },
        {
          "$type": "AttachModifierToSelfGlobalValueMixin",
          "globalValueKey": "_MONSTER_FUNGUS_RAPTOR_ISCHARGED_",
          "defaultGlobalValueOnCreate": 0.0,
          "valueSteps": [-0.5, 0.5, 1.5],
          "modifierNameSteps": ["Empty", "UNIQUE_RaptorCharged"]
        },
        {
          "$type": "DoActionByAnimatorStateIDMixin",
          "stateIDs": ["Standby", "EnterOverdose", "Die", "BackStep"],
          "enterActions": [
            {
              "$type": "TriggerAbility",
              "abilityName": "Monster_Fungus_Raptor_01_ExitCharged"
            }
          ]
        },
        {
          "$type": "AttachToAnimatorStateIDMixin",
          "stateIDs": ["Taunt01"],
          "modifierName": "UNIQUE_Raptor_TauntBreakHandler"
        }
      ],
      "modifiers": {
        "UNIQUE_FungusNormalState": {
          "modifierName": "",
          "isUnique": true,
          "bonusCriticalHurt": 100.0,
          "modifierMixins": [
            {
              "$type": "ChargeBarMixin",
              "DDIGKJFMHED": "Electric",
              "JGHAOKENLDJ": 2,
              "NBBOACENGHG": 0.0,
              "maxValue": 100.0
            },
            {
              "$type": "AttachModifierToSelfGlobalValueMixin",
              "globalValueKey": "_CHARGEBAR_VALUE",
              "defaultGlobalValueOnCreate": 0.0,
              "valueSteps": [-0.5, 0.5, 99.5, 100.5],
              "modifierNameSteps": [
                "Empty",
                "Empty",
                "Raptor_EnterOverdoseHandler"
              ]
            },
            {
              "$type": "DoActionBySelfElementReactionMixin",
              "reactionTypes": [
                "Overdose",
                "OverdoseElectric",
                "OverdoseGrass"
              ],
              "actionQueue": [
                {
                  "$type": "ServerMonsterLog",
                  "predicates": [
                    {
                      "$type": "ByTargetGlobalValue",
                      "key": "_CHARGEBAR_VALUE",
                      "ratio": 0.0,
                      "compareType": "NoneOrEqual"
                    }
                  ],
                  "paramList": [3, 0, 0]
                },
                {
                  "$type": "AddGlobalValue",
                  "ratio": 15.0,
                  "key": "_CHARGEBAR_VALUE",
                  "useLimitRange": true,
                  "maxValue": 100.0,
                  "minValue": 0.0
                }
              ]
            },
            {
              "$type": "DoActionBySelfElementReactionMixin",
              "reactionTypes": ["Burning"],
              "actionQueue": [
                {
                  "$type": "ServerMonsterLog",
                  "predicates": [
                    {
                      "$type": "ByTargetGlobalValue",
                      "key": "_CHARGEBAR_VALUE",
                      "ratio": 0.0,
                      "compareType": "MoreThan"
                    }
                  ],
                  "paramList": [4, 0, 0]
                },
                {
                  "$type": "AddGlobalValue",
                  "ratio": -34.0,
                  "key": "_CHARGEBAR_VALUE",
                  "useLimitRange": true,
                  "maxValue": 100.0,
                  "minValue": 0.0
                },
                {
                  "$type": "SetGlobalValue",
                  "predicates": [
                    {
                      "$type": "ByTargetGlobalValue",
                      "key": "_FUNGUS_RAPTOR_DECAYINCD_",
                      "ratio": 0.0,
                      "compareType": "NoneOrEqual"
                    }
                  ],
                  "ratio": 2.0,
                  "key": "_MONSTER_FUNGUSSTATE_",
                  "maxValue": 0.0,
                  "minValue": 0.0
                }
              ]
            }
          ],
          "onAdded": [
            {
              "$type": "SetPoseInt",
              "intID": "FungusState"
            }
          ],
          "onBeingHit": [
            {
              "$type": "Predicated",
              "targetPredicates": [
                {
                  "$type": "OIEGBANNLOG",
                  "CIMNBKFMPGD": "Electric"
                }
              ],
              "successActions": [
                {
                  "$type": "ServerMonsterLog",
                  "predicates": [
                    {
                      "$type": "ByTargetGlobalValue",
                      "key": "_CHARGEBAR_VALUE",
                      "ratio": 0.0,
                      "compareType": "NoneOrEqual"
                    }
                  ],
                  "paramList": [3, 0, 0]
                },
                {
                  "$type": "AddGlobalValue",
                  "ratio": 2.0,
                  "key": "_CHARGEBAR_VALUE",
                  "useLimitRange": true,
                  "maxValue": 100.0,
                  "minValue": 0.0
                }
              ],
              "failActions": [
                {
                  "$type": "Predicated",
                  "targetPredicates": [
                    {
                      "$type": "OIEGBANNLOG",
                      "CIMNBKFMPGD": "Fire"
                    }
                  ],
                  "successActions": [
                    {
                      "$type": "ServerMonsterLog",
                      "predicates": [
                        {
                          "$type": "ByTargetGlobalValue",
                          "key": "_CHARGEBAR_VALUE",
                          "ratio": 0.0,
                          "compareType": "MoreThan"
                        }
                      ],
                      "paramList": [4, 0, 0]
                    },
                    {
                      "$type": "AddGlobalValue",
                      "ratio": -34.0,
                      "key": "_CHARGEBAR_VALUE",
                      "useLimitRange": true,
                      "maxValue": 100.0,
                      "minValue": 0.0
                    }
                  ]
                }
              ]
            }
          ]
        },
        "UNIQUE_RaptorInBoost": {
          "modifierName": "",
          "isUnique": true,
          "bonusCriticalHurt": 100.0,
          "onAdded": [
            {
              "$type": "SetPoseBool",
              "boolID": "Boost",
              "ratio": true
            }
          ],
          "onRemoved": [
            {
              "$type": "SetPoseBool",
              "boolID": "Boost"
            }
          ]
        },
        "UNIQUE_FungusOverdoseState": {
          "modifierName": "",
          "isUnique": true,
          "bonusCriticalHurt": 100.0,
          "modifierMixins": [
            {
              "$type": "OverrideMonsterMoveSpeedRatioMixin",
              "minValue": 0.0,
              "maxValue": 1.0
            },
            {
              "$type": "AttachToAnimatorStateIDMixin",
              "stateIDs": ["Standby"],
              "modifierName": "FaintManager"
            },
            {
              "$type": "AttachToAnimatorStateIDMixin",
              "stateIDs": ["Faint_Charge"],
              "modifierName": "Faint02Manager"
            }
          ],
          "onAdded": [
            {
              "$type": "SetPoseInt",
              "intID": "FungusState",
              "value": 1
            },
            {
              "$type": "SetPoseBool",
              "boolID": "Boost"
            },
            {
              "$type": "AttachEffect",
              "healLimitedByCasterMaxHPRatio": "Eff_Monster_Fungus_Raptor_OverdoseState",
              "effectTempleteID": -1.0
            },
            {
              "$type": "SetGlobalValue",
              "ratio": 1.0,
              "key": "_FUNGUS_RAPTOR_HASBEENOVERDOSED_",
              "maxValue": 0.0,
              "minValue": 0.0
            },
            {
              "$type": "ServerMonsterLog",
              "paramList": [1, 0, 0]
            }
          ]
        },
        "UNIQUE_FungusDecayedState": {
          "modifierName": "",
          "isUnique": true,
          "bonusCriticalHurt": 100.0,
          "modifierMixins": [
            {
              "$type": "OverrideMonsterMoveSpeedRatioMixin",
              "minValue": -0.800000011920929,
              "maxValue": -0.20000000298023224
            }
          ],
          "properties": {
            "Animator_MoveSpeedRatio": 0.5
          },
          "onAdded": [
            {
              "$type": "SetPoseInt",
              "intID": "FungusState",
              "value": 2
            },
            {
              "$type": "SetPoseBool",
              "boolID": "Boost"
            },
            {
              "$type": "SetGlobalValue",
              "ratio": 0.0,
              "key": "_CHARGEBAR_VALUE",
              "maxValue": 0.0,
              "minValue": 0.0
            },
            {
              "$type": "AttachEffect",
              "healLimitedByCasterMaxHPRatio": "Eff_Monster_Fungus_Raptor_DecayState",
              "effectTempleteID": -1.0
            },
            {
              "$type": "ApplyModifier",
              "modifierName": "Raptor_DecayCDHandler"
            },
            {
              "$type": "ServerMonsterLog",
              "paramList": [2, 0, 0]
            }
          ]
        },
        "Raptor_EnterOverdoseHandler": {
          "modifierName": "",
          "bonusCriticalHurt": 100.0,
          "onAdded": [
            {
              "$type": "SetAnimatorTrigger",
              "triggerID": "EnterOverdoseTrigger"
            },
            {
              "$type": "SetGlobalValue",
              "ratio": 1.0,
              "key": "_MONSTER_FUNGUSSTATE_",
              "maxValue": 0.0,
              "minValue": 0.0
            }
          ]
        },
        "Empty": {
          "modifierName": "",
          "bonusCriticalHurt": 100.0
        },
        "UNIQUE_RaptorCharged": {
          "modifierName": "",
          "isUnique": true,
          "elementType": "Grass",
          "bonusCriticalHurt": 100.0,
          "onAdded": [
            {
              "$type": "AttachEffect",
              "healLimitedByCasterMaxHPRatio": "Eff_Monster_Fungus_Raptor_Charged",
              "effectTempleteID": -1.0
            }
          ]
        },
        "UNIQUE_Raptor_TauntBreakHandler": {
          "modifierName": "",
          "isUnique": true,
          "bonusCriticalHurt": 100.0,
          "modifierMixins": [
            {
              "$type": "DoActionBySelfElementReactionMixin",
              "reactionTypes": ["Overdose", "Burning"],
              "actionQueue": [
                {
                  "$type": "SetAnimatorTrigger",
                  "predicates": [
                    {
                      "$type": "ByTargetGlobalValue",
                      "key": "_MONSTER_FUNGUSSTATE_",
                      "ratio": 0.0
                    }
                  ],
                  "triggerID": "CommonBackStepTrigger"
                },
                {
                  "$type": "SetAISkillCDAvailableNow",
                  "skillIDs": [3021, 3022, 3024, 3211]
                }
              ]
            }
          ]
        },
        "FaintManager": {
          "modifierName": "",
          "bonusCriticalHurt": 100.0,
          "properties": {
            "Animator_MoveSpeedRatio": 1.5,
            "Actor_PhysicalSubHurtDelta": -0.25,
            "Actor_FireSubHurtDelta": -0.25,
            "Actor_ElecSubHurtDelta": -0.25,
            "Actor_WaterSubHurtDelta": -0.25,
            "Actor_GrassSubHurtDelta": -0.25,
            "Actor_WindSubHurtDelta": -0.25,
            "Actor_IceSubHurtDelta": -0.25,
            "Actor_RockSubHurtDelta": -0.25
          },
          "onAdded": [
            {
              "$type": "SetGlobalValue",
              "ratio": 1.0,
              "key": "_WATCHER_82135_",
              "maxValue": 0.0,
              "minValue": 0.0
            },
            {
              "$type": "EnablePushColliderName",
              "pushColliderNames": ["PushCollider"]
            },
            {
              "$type": "EnablePushColliderName",
              "pushColliderNames": ["PushCollider_Upper"]
            },
            {
              "$type": "EnablePushColliderName",
              "pushColliderNames": ["PushColliderExtra"]
            },
            {
              "$type": "EnablePushColliderName",
              "pushColliderNames": ["PushCollider_UpperExtra"]
            },
            {
              "$type": "EnablePushColliderName",
              "pushColliderNames": ["PushCollider_Faint"],
              "setEnable": true
            },
            {
              "$type": "EnablePushColliderName",
              "pushColliderNames": ["PushCollider_Faint_Upper"],
              "setEnable": true
            },
            {
              "$type": "EnablePushColliderName",
              "pushColliderNames": ["PushCollider_Faint02"]
            },
            {
              "$type": "EnablePushColliderName",
              "pushColliderNames": ["PushCollider_Faint02_Upper"]
            },
            {
              "$type": "EnablePushColliderName",
              "pushColliderNames": ["PushCollider_FaintSub"],
              "setEnable": true
            },
            {
              "$type": "EnablePushColliderName",
              "pushColliderNames": ["PushCollider_FaintSub_Upper"],
              "setEnable": true
            },
            {
              "$type": "EnablePushColliderName",
              "pushColliderNames": ["PushCollider_FaintExtra"],
              "setEnable": true
            },
            {
              "$type": "EnablePushColliderName",
              "pushColliderNames": ["PushCollider_Faint_UpperExtra"],
              "setEnable": true
            },
            {
              "$type": "EnablePushColliderName",
              "pushColliderNames": ["PushCollider_FaintSubExtra"],
              "setEnable": true
            },
            {
              "$type": "EnablePushColliderName",
              "pushColliderNames": ["PushCollider_FaintSub_UpperExtra"],
              "setEnable": true
            },
            {
              "$type": "EnablePushColliderName",
              "pushColliderNames": ["PushCollider_Faint02Extra"]
            },
            {
              "$type": "EnablePushColliderName",
              "pushColliderNames": ["PushCollider_Faint02_UpperExtra"]
            },
            {
              "$type": "ServerMonsterLog",
              "paramList": [1, 1, 0]
            }
          ],
          "onRemoved": [
            {
              "$type": "SetGlobalValue",
              "ratio": 0.0,
              "key": "_WATCHER_82135_",
              "maxValue": 0.0,
              "minValue": 0.0
            },
            {
              "$type": "EnablePushColliderName",
              "pushColliderNames": ["PushCollider"],
              "setEnable": true
            },
            {
              "$type": "EnablePushColliderName",
              "pushColliderNames": ["PushCollider_Upper"],
              "setEnable": true
            },
            {
              "$type": "EnablePushColliderName",
              "pushColliderNames": ["PushColliderExtra"],
              "setEnable": true
            },
            {
              "$type": "EnablePushColliderName",
              "pushColliderNames": ["PushCollider_UpperExtra"],
              "setEnable": true
            },
            {
              "$type": "EnablePushColliderName",
              "pushColliderNames": ["PushCollider_Faint"]
            },
            {
              "$type": "EnablePushColliderName",
              "pushColliderNames": ["PushCollider_Faint_Upper"]
            },
            {
              "$type": "EnablePushColliderName",
              "pushColliderNames": ["PushCollider_Faint02"]
            },
            {
              "$type": "EnablePushColliderName",
              "pushColliderNames": ["PushCollider_Faint02_Upper"]
            },
            {
              "$type": "EnablePushColliderName",
              "pushColliderNames": ["PushCollider_FaintSub"]
            },
            {
              "$type": "EnablePushColliderName",
              "pushColliderNames": ["PushCollider_FaintSub_Upper"]
            },
            {
              "$type": "EnablePushColliderName",
              "pushColliderNames": ["PushCollider_FaintExtra"]
            },
            {
              "$type": "EnablePushColliderName",
              "pushColliderNames": ["PushCollider_Faint_UpperExtra"]
            },
            {
              "$type": "EnablePushColliderName",
              "pushColliderNames": ["PushCollider_FaintSubExtra"]
            },
            {
              "$type": "EnablePushColliderName",
              "pushColliderNames": ["PushCollider_FaintSub_UpperExtra"]
            },
            {
              "$type": "EnablePushColliderName",
              "pushColliderNames": ["PushCollider_Faint02Extra"]
            },
            {
              "$type": "EnablePushColliderName",
              "pushColliderNames": ["PushCollider_Faint02_UpperExtra"]
            }
          ]
        },
        "Faint02Manager": {
          "modifierName": "",
          "bonusCriticalHurt": 100.0,
          "properties": {
            "Animator_MoveSpeedRatio": 1.5,
            "Actor_PhysicalSubHurtDelta": -0.25,
            "Actor_FireSubHurtDelta": -0.25,
            "Actor_ElecSubHurtDelta": -0.25,
            "Actor_WaterSubHurtDelta": -0.25,
            "Actor_GrassSubHurtDelta": -0.25,
            "Actor_WindSubHurtDelta": -0.25,
            "Actor_IceSubHurtDelta": -0.25,
            "Actor_RockSubHurtDelta": -0.25
          },
          "onAdded": [
            {
              "$type": "SetGlobalValue",
              "ratio": 1.0,
              "key": "_WATCHER_82135_",
              "maxValue": 0.0,
              "minValue": 0.0
            },
            {
              "$type": "EnablePushColliderName",
              "pushColliderNames": ["PushCollider"]
            },
            {
              "$type": "EnablePushColliderName",
              "pushColliderNames": ["PushCollider_Upper"]
            },
            {
              "$type": "EnablePushColliderName",
              "pushColliderNames": ["PushColliderExtra"]
            },
            {
              "$type": "EnablePushColliderName",
              "pushColliderNames": ["PushCollider_UpperExtra"]
            },
            {
              "$type": "EnablePushColliderName",
              "pushColliderNames": ["PushCollider_Faint"]
            },
            {
              "$type": "EnablePushColliderName",
              "pushColliderNames": ["PushCollider_Faint_Upper"]
            },
            {
              "$type": "EnablePushColliderName",
              "pushColliderNames": ["PushCollider_Faint02"],
              "setEnable": true
            },
            {
              "$type": "EnablePushColliderName",
              "pushColliderNames": ["PushCollider_Faint02_Upper"],
              "setEnable": true
            },
            {
              "$type": "EnablePushColliderName",
              "pushColliderNames": ["PushCollider_FaintSub"]
            },
            {
              "$type": "EnablePushColliderName",
              "pushColliderNames": ["PushCollider_FaintSub_Upper"]
            },
            {
              "$type": "EnablePushColliderName",
              "pushColliderNames": ["PushCollider_FaintExtra"]
            },
            {
              "$type": "EnablePushColliderName",
              "pushColliderNames": ["PushCollider_Faint_UpperExtra"]
            },
            {
              "$type": "EnablePushColliderName",
              "pushColliderNames": ["PushCollider_FaintSubExtra"]
            },
            {
              "$type": "EnablePushColliderName",
              "pushColliderNames": ["PushCollider_FaintSub_UpperExtra"]
            },
            {
              "$type": "EnablePushColliderName",
              "pushColliderNames": ["PushCollider_Faint02Extra"],
              "setEnable": true
            },
            {
              "$type": "EnablePushColliderName",
              "pushColliderNames": ["PushCollider_Faint02_UpperExtra"],
              "setEnable": true
            },
            {
              "$type": "ServerMonsterLog",
              "paramList": [1, 1, 0]
            }
          ],
          "onRemoved": [
            {
              "$type": "SetGlobalValue",
              "ratio": 0.0,
              "key": "_WATCHER_82135_",
              "maxValue": 0.0,
              "minValue": 0.0
            },
            {
              "$type": "EnablePushColliderName",
              "pushColliderNames": ["PushCollider"],
              "setEnable": true
            },
            {
              "$type": "EnablePushColliderName",
              "pushColliderNames": ["PushCollider_Upper"],
              "setEnable": true
            },
            {
              "$type": "EnablePushColliderName",
              "pushColliderNames": ["PushColliderExtra"],
              "setEnable": true
            },
            {
              "$type": "EnablePushColliderName",
              "pushColliderNames": ["PushCollider_UpperExtra"],
              "setEnable": true
            },
            {
              "$type": "EnablePushColliderName",
              "pushColliderNames": ["PushCollider_Faint"]
            },
            {
              "$type": "EnablePushColliderName",
              "pushColliderNames": ["PushCollider_Faint_Upper"]
            },
            {
              "$type": "EnablePushColliderName",
              "pushColliderNames": ["PushCollider_Faint02"]
            },
            {
              "$type": "EnablePushColliderName",
              "pushColliderNames": ["PushCollider_Faint02_Upper"]
            },
            {
              "$type": "EnablePushColliderName",
              "pushColliderNames": ["PushCollider_FaintSub"]
            },
            {
              "$type": "EnablePushColliderName",
              "pushColliderNames": ["PushCollider_FaintSub_Upper"]
            },
            {
              "$type": "EnablePushColliderName",
              "pushColliderNames": ["PushCollider_FaintExtra"]
            },
            {
              "$type": "EnablePushColliderName",
              "pushColliderNames": ["PushCollider_Faint_UpperExtra"]
            },
            {
              "$type": "EnablePushColliderName",
              "pushColliderNames": ["PushCollider_FaintSubExtra"]
            },
            {
              "$type": "EnablePushColliderName",
              "pushColliderNames": ["PushCollider_FaintSub_UpperExtra"]
            },
            {
              "$type": "EnablePushColliderName",
              "pushColliderNames": ["PushCollider_Faint02Extra"]
            },
            {
              "$type": "EnablePushColliderName",
              "pushColliderNames": ["PushCollider_Faint02_UpperExtra"]
            }
          ]
        },
        "Raptor_DecayCDHandler": {
          "stacking": "Unique",
          "modifierName": "",
          "duration": 30.0,
          "bonusCriticalHurt": 100.0,
          "onAdded": [
            {
              "$type": "SetGlobalValue",
              "ratio": 1.0,
              "key": "_FUNGUS_RAPTOR_DECAYINCD_",
              "maxValue": 0.0,
              "minValue": 0.0
            }
          ],
          "onRemoved": [
            {
              "$type": "SetGlobalValue",
              "ratio": 0.0,
              "key": "_FUNGUS_RAPTOR_DECAYINCD_",
              "maxValue": 0.0,
              "minValue": 0.0
            }
          ]
        }
      },
      "onAdded": [
        {
          "$type": "SetGlobalValue",
          "ratio": 0.0,
          "key": "_MONSTER_FUNGUSSTATE_",
          "maxValue": 0.0,
          "minValue": 0.0
        },
        {
          "$type": "SetGlobalValue",
          "ratio": 0.0,
          "key": "_MONSTER_FUNGUS_RAPTOR_ISCHARGED_",
          "maxValue": 0.0,
          "minValue": 0.0
        },
        {
          "$type": "AttachAbilityStateResistance",
          "resistanceListID": 13002
        },
        {
          "$type": "EnablePushColliderName",
          "pushColliderNames": ["PushCollider"],
          "setEnable": true
        },
        {
          "$type": "EnablePushColliderName",
          "pushColliderNames": ["PushCollider_Upper"],
          "setEnable": true
        },
        {
          "$type": "EnablePushColliderName",
          "pushColliderNames": ["PushColliderExtra"],
          "setEnable": true
        },
        {
          "$type": "EnablePushColliderName",
          "pushColliderNames": ["PushCollider_UpperExtra"],
          "setEnable": true
        },
        {
          "$type": "EnablePushColliderName",
          "pushColliderNames": ["PushCollider_Faint"]
        },
        {
          "$type": "EnablePushColliderName",
          "pushColliderNames": ["PushCollider_Faint_Upper"]
        },
        {
          "$type": "EnablePushColliderName",
          "pushColliderNames": ["PushCollider_Faint02"]
        },
        {
          "$type": "EnablePushColliderName",
          "pushColliderNames": ["PushCollider_Faint02_Upper"]
        },
        {
          "$type": "EnablePushColliderName",
          "pushColliderNames": ["PushCollider_FaintSub"]
        },
        {
          "$type": "EnablePushColliderName",
          "pushColliderNames": ["PushCollider_FaintSub_Upper"]
        },
        {
          "$type": "EnablePushColliderName",
          "pushColliderNames": ["PushCollider_FaintExtra"]
        },
        {
          "$type": "EnablePushColliderName",
          "pushColliderNames": ["PushCollider_Faint_UpperExtra"]
        },
        {
          "$type": "EnablePushColliderName",
          "pushColliderNames": ["PushCollider_FaintSubExtra"]
        },
        {
          "$type": "EnablePushColliderName",
          "pushColliderNames": ["PushCollider_FaintSub_UpperExtra"]
        },
        {
          "$type": "EnablePushColliderName",
          "pushColliderNames": ["PushCollider_Faint02Extra"]
        },
        {
          "$type": "EnablePushColliderName",
          "pushColliderNames": ["PushCollider_Faint02_UpperExtra"]
        }
      ],
      "onAbilityStart": [
        {
          "$type": "SetGlobalValue",
          "ratio": 0.0,
          "key": "_MONSTER_FUNGUSSTATE_",
          "maxValue": 0.0,
          "minValue": 0.0
        }
      ]
    }
  },
  {
    "Default": {
      "$type": "ConfigAbility",
      "abilityName": "Monster_Fungus_Raptor_01_EnterCharged",
      "onAbilityStart": [
        {
          "$type": "SetGlobalValue",
          "ratio": 1.0,
          "key": "_MONSTER_FUNGUS_RAPTOR_ISCHARGED_",
          "maxValue": 0.0,
          "minValue": 0.0
        }
      ]
    }
  },
  {
    "Default": {
      "$type": "ConfigAbility",
      "abilityName": "Monster_Fungus_Raptor_01_ExitCharged",
      "onAbilityStart": [
        {
          "$type": "SetGlobalValue",
          "ratio": 0.0,
          "key": "_MONSTER_FUNGUS_RAPTOR_ISCHARGED_",
          "maxValue": 0.0,
          "minValue": 0.0
        }
      ]
    }
  },
  {
    "Default": {
      "$type": "ConfigAbility",
      "abilityName": "Monster_Fungus_Raptor_01_ReduceBoost",
      "onAbilityStart": [
        {
          "$type": "AddGlobalValue",
          "ratio": 0.0,
          "key": "_CHARGEBAR_VALUE",
          "useLimitRange": true,
          "maxValue": 100.0,
          "minValue": 0.0
        }
      ]
    }
  },
  {
    "Default": {
      "$type": "ConfigAbility",
      "abilityName": "Monster_Fungus_Raptor_01_ReduceLessBoost",
      "onAbilityStart": [
        {
          "$type": "AddGlobalValue",
          "ratio": 0.0,
          "key": "_CHARGEBAR_VALUE",
          "useLimitRange": true,
          "maxValue": 100.0,
          "minValue": 0.0
        }
      ]
    }
  },
  {
    "Default": {
      "$type": "ConfigAbility",
      "abilityName": "Monster_Fungus_Raptor_01_ClearBoost",
      "onAbilityStart": [
        {
          "$type": "SetGlobalValue",
          "ratio": 0.0,
          "key": "_CHARGEBAR_VALUE",
          "maxValue": 0.0,
          "minValue": 0.0
        }
      ]
    }
  },
  {
    "Default": {
      "$type": "ConfigAbility",
      "abilityName": "Monster_Fungus_Raptor_01_ComboHandler",
      "abilityMixins": [
        {
          "$type": "AttachToAnimatorStateIDMixin",
          "stateIDs": ["MeleeAttack01_AS", "MeleeAttack02_AS"],
          "modifierName": "Fungus_Raptor_CheckCombo_Melee"
        },
        {
          "$type": "AttachToAnimatorStateIDMixin",
          "stateIDs": ["ShootAttack01_AS", "ShootAttack02_AS"],
          "modifierName": "Fungus_Raptor_CheckCombo_Ranged"
        }
      ],
      "modifiers": {
        "Fungus_Raptor_CheckCombo_Melee": {
          "modifierName": "",
          "bonusCriticalHurt": 100.0,
          "onAdded": [
            {
              "$type": "Randomed",
              "chance": 0.8999999761581421,
              "successActions": [
                {
                  "$type": "Predicated",
                  "target": "SelfAttackTarget",
                  "targetPredicates": [
                    {
                      "$type": "HPJOHDHEPCG",
                      "logic": "LesserOrEqual",
                      "ratio": 8.0
                    }
                  ],
                  "successActions": [
                    {
                      "$type": "SetAnimatorTrigger",
                      "triggerID": "ToSideStepTrigger"
                    },
                    {
                      "$type": "Randomed",
                      "chance": 0.6700000166893005,
                      "successActions": [
                        {
                          "$type": "ApplyModifier",
                          "modifierName": "ToCloseCombo"
                        }
                      ],
                      "failActions": [
                        {
                          "$type": "ApplyModifier",
                          "modifierName": "ToSporeAttackCombo"
                        }
                      ]
                    }
                  ],
                  "failActions": [
                    {
                      "$type": "SetAnimatorTrigger",
                      "triggerID": "ToBackStepTrigger"
                    },
                    {
                      "$type": "ApplyModifier",
                      "modifierName": "ToRangedCombo"
                    }
                  ]
                }
              ]
            }
          ]
        },
        "ToCloseCombo": {
          "stacking": "Unique",
          "modifierName": "",
          "duration": 15.0,
          "bonusCriticalHurt": 100.0,
          "onAdded": [
            {
              "$type": "SetAnimatorTrigger",
              "triggerID": "ToMeleeAttackTrigger"
            },
            {
              "$type": "ReTriggerAISkillInitialCD",
              "skillIDs": [3011, 3012],
              "DGECDABCNCC": true
            }
          ]
        },
        "ToRangedCombo": {
          "stacking": "Unique",
          "modifierName": "",
          "duration": 15.0,
          "bonusCriticalHurt": 100.0,
          "onAdded": [
            {
              "$type": "SetAnimatorTrigger",
              "triggerID": "ToShootAttackTrigger"
            },
            {
              "$type": "ReTriggerAISkillInitialCD",
              "skillIDs": [3014, 3017],
              "DGECDABCNCC": true
            }
          ]
        },
        "ToSporeAttackCombo": {
          "stacking": "Unique",
          "modifierName": "",
          "duration": 25.0,
          "bonusCriticalHurt": 100.0,
          "onAdded": [
            {
              "$type": "SetAnimatorTrigger",
              "triggerID": "ToSporeAttackTrigger"
            },
            {
              "$type": "ReTriggerAISkillInitialCD",
              "skillIDs": [3013],
              "DGECDABCNCC": true
            }
          ]
        },
        "Fungus_Raptor_CheckCombo_Ranged": {
          "modifierName": "",
          "bonusCriticalHurt": 100.0,
          "onAdded": [
            {
              "$type": "Randomed",
              "chance": 0.8999999761581421,
              "successActions": [
                {
                  "$type": "Predicated",
                  "target": "SelfAttackTarget",
                  "targetPredicates": [
                    {
                      "$type": "HPJOHDHEPCG",
                      "logic": "LesserOrEqual",
                      "ratio": 8.0
                    }
                  ],
                  "successActions": [
                    {
                      "$type": "Randomed",
                      "chance": 0.5,
                      "successActions": [
                        {
                          "$type": "ApplyModifier",
                          "modifierName": "ToCloseCombo"
                        }
                      ],
                      "failActions": [
                        {
                          "$type": "Randomed",
                          "chance": 0.5,
                          "successActions": [
                            {
                              "$type": "SetAnimatorTrigger",
                              "triggerID": "ToBackStepTrigger"
                            }
                          ],
                          "failActions": [
                            {
                              "$type": "SetAnimatorTrigger",
                              "triggerID": "ToSideStepTrigger"
                            }
                          ]
                        }
                      ]
                    }
                  ]
                }
              ]
            }
          ]
        }
      }
    }
  },
  {
    "Default": {
      "$type": "ConfigAbility",
      "abilityName": "Monster_Fungus_Raptor_01_MeleeAttack",
      "abilityMixins": [
        {
          "$type": "AttachToAnimatorStateIDMixin",
          "stateIDs": [
            "MeleeAttack01_BS",
            "MeleeAttack02_BS",
            "MeleeAttack03_BS"
          ],
          "modifierName": "MeleeAttackBSEffect"
        },
        {
          "$type": "AttachToAnimatorStateIDMixin",
          "stateIDs": [
            "MeleeAttack01_Attack",
            "MeleeAttack02_Attack",
            "MeleeAttack03_Attack"
          ],
          "modifierName": "MeleeAttackAttackEffect"
        }
      ],
      "modifiers": {
        "MeleeAttackBSEffect": {
          "modifierName": "",
          "bonusCriticalHurt": 100.0
        },
        "MeleeAttackAttackEffect": {
          "modifierName": "",
          "bonusCriticalHurt": 100.0
        }
      }
    }
  },
  {
    "Default": {
      "$type": "ConfigAbility",
      "abilityName": "Monster_Fungus_Raptor_01_ChargeAttack",
      "abilityMixins": [
        {
          "$type": "AttachToAnimatorStateIDMixin",
          "stateIDs": [
            "ChargeAttack_BS02",
            "ChargeAttack_RushLoop01",
            "ChargeAttack_RushLoop02",
            "ChargeAttack_RushLoop03"
          ],
          "modifierName": "ChargeAttackRushLoopEffect"
        },
        {
          "$type": "AttachToAnimatorStateIDMixin",
          "stateIDs": ["ChargeAttack_TurnLeft", "ChargeAttack_TurnRight"],
          "modifierName": "ChargeAttackTurnEffect"
        },
        {
          "$type": "AttachToAnimatorStateIDMixin",
          "stateIDs": ["ChargeAttack_Attack"],
          "modifierName": "ChargeAttackFaintManager"
        }
      ],
      "modifiers": {
        "ChargeAttackRushLoopEffect": {
          "modifierName": "",
          "bonusCriticalHurt": 100.0,
          "onAdded": [
            {
              "$type": "AttachEffect",
              "healLimitedByCasterMaxHPRatio": "Eff_Monster_Fungus_Raptor_ChargeAttack_RushLoop_01",
              "effectTempleteID": -1.0
            }
          ]
        },
        "ChargeAttackTurnEffect": {
          "modifierName": "",
          "bonusCriticalHurt": 100.0
        },
        "ChargeAttackFaintManager": {
          "modifierName": "",
          "bonusCriticalHurt": 100.0,
          "onAdded": [
            {
              "$type": "SetAnimatorFloat",
              "floatID": "ChargeAttackFaintTag",
              "ratio": 1.0
            }
          ]
        }
      },
      "onAdded": [
        {
          "$type": "SetAnimatorFloat",
          "floatID": "ChargeAttackFaintTag",
          "ratio": 0.0
        }
      ],
      "onAbilityStart": [
        {
          "$type": "SetAnimatorFloat",
          "floatID": "ChargeAttackFaintTag",
          "ratio": 0.0
        }
      ]
    }
  },
  {
    "Default": {
      "$type": "ConfigAbility",
      "abilityName": "Monster_Fungus_Raptor_01_SporeAttack",
      "abilityMixins": [
        {
          "$type": "AttachToAnimatorStateIDMixin",
          "stateIDs": [
            "SporeAttack_BS",
            "SporeAttack_Ready",
            "SporeAttack_Attack",
            "SporeAttack_AS"
          ],
          "modifierName": "SporeAttack_AttackEventHandler"
        }
      ],
      "modifiers": {
        "Ring01": {
          "modifierName": "",
          "duration": 0.30000001192092896,
          "bonusCriticalHurt": 100.0,
          "onAdded": [
            {
              "$type": "ApplyModifier",
              "predicates": [
                {
                  "$type": "ByTargetGlobalValue",
                  "key": "_FUNGUS_RAPTOR_SPOREATTACK_STOP",
                  "ratio": 0.0,
                  "compareType": "NoneOrEqual"
                }
              ],
              "modifierName": "Ring01_Alert"
            }
          ],
          "onRemoved": [
            {
              "$type": "ApplyModifier",
              "predicates": [
                {
                  "$type": "ByTargetGlobalValue",
                  "key": "_FUNGUS_RAPTOR_SPOREATTACK_STOP",
                  "ratio": 0.0,
                  "compareType": "NoneOrEqual"
                }
              ],
              "modifierName": "Ring02"
            }
          ]
        },
        "Ring02": {
          "modifierName": "",
          "duration": 0.30000001192092896,
          "bonusCriticalHurt": 100.0,
          "onAdded": [
            {
              "$type": "ApplyModifier",
              "predicates": [
                {
                  "$type": "ByTargetGlobalValue",
                  "key": "_FUNGUS_RAPTOR_SPOREATTACK_STOP",
                  "ratio": 0.0,
                  "compareType": "NoneOrEqual"
                }
              ],
              "modifierName": "Ring02_Alert"
            }
          ]
        },
        "Ring01_Alert": {
          "modifierName": "",
          "duration": 4.599999904632568,
          "bonusCriticalHurt": 100.0,
          "onAdded": [
            {
              "$type": "AttachEffect",
              "healLimitedByCasterMaxHPRatio": "Eff_Monster_Fungus_Raptor_SporeAttack_BS_Ring01",
              "effectTempleteID": -1.0
            }
          ],
          "onRemoved": [
            {
              "$type": "ApplyModifier",
              "predicates": [
                {
                  "$type": "ByTargetGlobalValue",
                  "key": "_FUNGUS_RAPTOR_SPOREATTACK_STOP",
                  "ratio": 0.0,
                  "compareType": "NoneOrEqual"
                }
              ],
              "modifierName": "Ring01_Damage"
            }
          ]
        },
        "Ring01_Damage": {
          "modifierName": "",
          "duration": 0.5,
          "bonusCriticalHurt": 100.0,
          "onAdded": [
            {
              "$type": "FireEffect",
              "healLimitedByCasterMaxHPRatio": "Eff_Monster_Fungus_Raptor_SporeAttack_Explode_Ring01",
              "effectTempleteID": -1.0
            },
            {
              "$type": "TriggerAttackEvent",
              "attackEvent": {
                "attackPattern": {
                  "$type": "ConfigAttackCircle",
                  "triggerType": "TriggerNoRepeat",
                  "born": {
                    "$type": "ConfigBornBySelf",
                    "offset": {
                      "x": 0.0,
                      "y": 0.0,
                      "z": 0.0
                    }
                  },
                  "radius": 6.0,
                  "innerRadius": 0.0
                },
                "attackInfo": {
                  "attackTag": "Monster_Fungus_Raptor_SporeAttack",
                  "attenuationTag": "Monster_Fungus_Raptor_01_SporeAttack_Explode",
                  "attenuationGroup": "Effigy_Ice_Attenuation_1",
                  "attackProperty": {
                    "damagePercentage": 0.5,
                    "damagePercentageRatio": 0.0,
                    "elementType": "Grass",
                    "bonusCriticalHurt": 25.0,
                    "strikeType": "Default",
                    "enBreak": 200.0,
                    "attackType": "Range"
                  },
                  "hitPattern": {
                    "onHitEffectName": "default",
                    "hitImpulseType": "LV6",
                    "hitHaltTimeScale": 0.05000000074505806
                  }
                }
              },
              "targetType": "Enemy"
            }
          ]
        },
        "Ring02_Alert": {
          "modifierName": "",
          "duration": 4.599999904632568,
          "bonusCriticalHurt": 100.0,
          "onAdded": [
            {
              "$type": "AttachEffect",
              "healLimitedByCasterMaxHPRatio": "Eff_Monster_Fungus_Raptor_SporeAttack_BS_Ring02",
              "effectTempleteID": -1.0
            }
          ],
          "onRemoved": [
            {
              "$type": "ApplyModifier",
              "predicates": [
                {
                  "$type": "ByTargetGlobalValue",
                  "key": "_FUNGUS_RAPTOR_SPOREATTACK_STOP",
                  "ratio": 0.0,
                  "compareType": "NoneOrEqual"
                }
              ],
              "modifierName": "Ring02_Damage"
            }
          ]
        },
        "Ring02_Damage": {
          "modifierName": "",
          "duration": 0.5,
          "bonusCriticalHurt": 100.0,
          "onAdded": [
            {
              "$type": "FireEffect",
              "healLimitedByCasterMaxHPRatio": "Eff_Monster_Fungus_Raptor_SporeAttack_Explode_Ring02",
              "effectTempleteID": -1.0
            },
            {
              "$type": "TriggerAttackEvent",
              "attackEvent": {
                "attackPattern": {
                  "$type": "ConfigAttackCircle",
                  "triggerType": "TriggerNoRepeat",
                  "born": {
                    "$type": "ConfigBornBySelf",
                    "offset": {
                      "x": 0.0,
                      "y": 0.0,
                      "z": 0.0
                    }
                  },
                  "radius": 9.0,
                  "innerRadius": 6.0
                },
                "attackInfo": {
                  "attackTag": "Monster_Fungus_Raptor_SporeAttack",
                  "attenuationTag": "Monster_Fungus_Raptor_01_SporeAttack_Explode",
                  "attenuationGroup": "Effigy_Ice_Attenuation_1",
                  "attackProperty": {
                    "damagePercentage": 0.5,
                    "damagePercentageRatio": 0.0,
                    "elementType": "Grass",
                    "bonusCriticalHurt": 25.0,
                    "strikeType": "Default",
                    "enBreak": 200.0,
                    "attackType": "Range"
                  },
                  "hitPattern": {
                    "onHitEffectName": "default",
                    "hitImpulseType": "LV6",
                    "hitHaltTimeScale": 0.05000000074505806
                  }
                }
              },
              "targetType": "Enemy"
            }
          ]
        },
        "SporeAttack_AttackEventHandler": {
          "modifierName": "",
          "bonusCriticalHurt": 100.0,
          "onAdded": [
            {
              "$type": "SetGlobalValue",
              "ratio": 0.0,
              "key": "_FUNGUS_RAPTOR_SPOREATTACK_STOP",
              "maxValue": 0.0,
              "minValue": 0.0
            }
          ],
          "onRemoved": [
            {
              "$type": "SetGlobalValue",
              "ratio": 1.0,
              "key": "_FUNGUS_RAPTOR_SPOREATTACK_STOP",
              "maxValue": 0.0,
              "minValue": 0.0
            },
            {
              "$type": "RemoveModifier",
              "modifierName": "Ring01"
            },
            {
              "$type": "RemoveModifier",
              "modifierName": "Ring02"
            },
            {
              "$type": "RemoveModifier",
              "modifierName": "Ring01_Alert"
            },
            {
              "$type": "RemoveModifier",
              "modifierName": "Ring02_Alert"
            }
          ]
        }
      },
      "onAbilityStart": [
        {
          "$type": "ApplyModifier",
          "modifierName": "Ring01"
        }
      ]
    }
  },
  {
    "Default": {
      "$type": "ConfigAbility",
      "abilityName": "Monster_Fungus_Raptor_01_SporeAttack_Boost",
      "abilityMixins": [
        {
          "$type": "AttachToAnimatorStateIDMixin",
          "stateIDs": [
            "SporeAttack_Boost_BS",
            "SporeAttack_Boost_Ready",
            "SporeAttack_Boost_Attack",
            "SporeAttack_Boost_AS"
          ],
          "modifierName": "SporeAttack_Boost_AttackEventHandler"
        }
      ],
      "modifiers": {
        "Ring01": {
          "modifierName": "",
          "duration": 0.30000001192092896,
          "bonusCriticalHurt": 100.0,
          "onAdded": [
            {
              "$type": "ApplyModifier",
              "predicates": [
                {
                  "$type": "ByTargetGlobalValue",
                  "key": "_FUNGUS_RAPTOR_SPOREATTACK_STOP",
                  "ratio": 0.0,
                  "compareType": "NoneOrEqual"
                }
              ],
              "modifierName": "Ring01_Alert"
            }
          ],
          "onRemoved": [
            {
              "$type": "ApplyModifier",
              "predicates": [
                {
                  "$type": "ByTargetGlobalValue",
                  "key": "_FUNGUS_RAPTOR_SPOREATTACK_STOP",
                  "ratio": 0.0,
                  "compareType": "NoneOrEqual"
                }
              ],
              "modifierName": "Ring02"
            }
          ]
        },
        "Ring02": {
          "modifierName": "",
          "duration": 0.30000001192092896,
          "bonusCriticalHurt": 100.0,
          "onAdded": [
            {
              "$type": "ApplyModifier",
              "predicates": [
                {
                  "$type": "ByTargetGlobalValue",
                  "key": "_FUNGUS_RAPTOR_SPOREATTACK_STOP",
                  "ratio": 0.0,
                  "compareType": "NoneOrEqual"
                }
              ],
              "modifierName": "Ring02_Alert"
            }
          ],
          "onRemoved": [
            {
              "$type": "ApplyModifier",
              "predicates": [
                {
                  "$type": "ByTargetGlobalValue",
                  "key": "_FUNGUS_RAPTOR_SPOREATTACK_STOP",
                  "ratio": 0.0,
                  "compareType": "NoneOrEqual"
                }
              ],
              "modifierName": "Ring03"
            }
          ]
        },
        "Ring03": {
          "modifierName": "",
          "duration": 0.30000001192092896,
          "bonusCriticalHurt": 100.0,
          "onAdded": [
            {
              "$type": "ApplyModifier",
              "predicates": [
                {
                  "$type": "ByTargetGlobalValue",
                  "key": "_FUNGUS_RAPTOR_SPOREATTACK_STOP",
                  "ratio": 0.0,
                  "compareType": "NoneOrEqual"
                }
              ],
              "modifierName": "Ring03_Alert"
            }
          ]
        },
        "Ring01_Alert": {
          "modifierName": "",
          "duration": 4.599999904632568,
          "bonusCriticalHurt": 100.0,
          "onAdded": [
            {
              "$type": "AttachEffect",
              "healLimitedByCasterMaxHPRatio": "Eff_Monster_Fungus_Raptor_SporeAttack_BS_Ring01",
              "effectTempleteID": -1.0
            }
          ],
          "onRemoved": [
            {
              "$type": "ApplyModifier",
              "predicates": [
                {
                  "$type": "ByTargetGlobalValue",
                  "key": "_FUNGUS_RAPTOR_SPOREATTACK_STOP",
                  "ratio": 0.0,
                  "compareType": "NoneOrEqual"
                }
              ],
              "modifierName": "Ring01_Damage"
            }
          ]
        },
        "Ring01_Damage": {
          "modifierName": "",
          "duration": 0.5,
          "bonusCriticalHurt": 100.0,
          "onAdded": [
            {
              "$type": "FireEffect",
              "healLimitedByCasterMaxHPRatio": "Eff_Monster_Fungus_Raptor_SporeAttack_Explode_Ring01",
              "effectTempleteID": -1.0
            },
            {
              "$type": "TriggerAttackEvent",
              "attackEvent": {
                "attackPattern": {
                  "$type": "ConfigAttackCircle",
                  "triggerType": "TriggerNoRepeat",
                  "born": {
                    "$type": "ConfigBornBySelf",
                    "offset": {
                      "x": 0.0,
                      "y": 0.0,
                      "z": 0.0
                    }
                  },
                  "radius": 6.0,
                  "innerRadius": 0.0
                },
                "attackInfo": {
                  "attackTag": "Monster_Fungus_Raptor_SporeAttack",
                  "attenuationTag": "Monster_Fungus_Raptor_01_SporeAttack_Explode",
                  "attenuationGroup": "Effigy_Ice_Attenuation_1",
                  "attackProperty": {
                    "damagePercentage": 0.5,
                    "damagePercentageRatio": 0.0,
                    "elementType": "Grass",
                    "bonusCriticalHurt": 25.0,
                    "strikeType": "Default",
                    "enBreak": 200.0,
                    "attackType": "Range"
                  },
                  "hitPattern": {
                    "onHitEffectName": "default",
                    "hitImpulseType": "LV6",
                    "hitHaltTimeScale": 0.05000000074505806
                  }
                }
              },
              "targetType": "Enemy"
            }
          ]
        },
        "Ring02_Alert": {
          "modifierName": "",
          "duration": 4.599999904632568,
          "bonusCriticalHurt": 100.0,
          "onAdded": [
            {
              "$type": "AttachEffect",
              "healLimitedByCasterMaxHPRatio": "Eff_Monster_Fungus_Raptor_SporeAttack_BS_Ring02",
              "effectTempleteID": -1.0
            }
          ],
          "onRemoved": [
            {
              "$type": "ApplyModifier",
              "predicates": [
                {
                  "$type": "ByTargetGlobalValue",
                  "key": "_FUNGUS_RAPTOR_SPOREATTACK_STOP",
                  "ratio": 0.0,
                  "compareType": "NoneOrEqual"
                }
              ],
              "modifierName": "Ring02_Damage"
            }
          ]
        },
        "Ring02_Damage": {
          "modifierName": "",
          "duration": 0.5,
          "bonusCriticalHurt": 100.0,
          "onAdded": [
            {
              "$type": "FireEffect",
              "healLimitedByCasterMaxHPRatio": "Eff_Monster_Fungus_Raptor_SporeAttack_Explode_Ring02",
              "effectTempleteID": -1.0
            },
            {
              "$type": "TriggerAttackEvent",
              "attackEvent": {
                "attackPattern": {
                  "$type": "ConfigAttackCircle",
                  "triggerType": "TriggerNoRepeat",
                  "born": {
                    "$type": "ConfigBornBySelf",
                    "offset": {
                      "x": 0.0,
                      "y": 0.0,
                      "z": 0.0
                    }
                  },
                  "radius": 9.0,
                  "innerRadius": 6.0
                },
                "attackInfo": {
                  "attackTag": "Monster_Fungus_Raptor_SporeAttack",
                  "attenuationTag": "Monster_Fungus_Raptor_01_SporeAttack_Explode",
                  "attenuationGroup": "Effigy_Ice_Attenuation_1",
                  "attackProperty": {
                    "damagePercentage": 0.5,
                    "damagePercentageRatio": 0.0,
                    "elementType": "Grass",
                    "bonusCriticalHurt": 25.0,
                    "strikeType": "Default",
                    "enBreak": 200.0,
                    "attackType": "Range"
                  },
                  "hitPattern": {
                    "onHitEffectName": "default",
                    "hitImpulseType": "LV6",
                    "hitHaltTimeScale": 0.05000000074505806
                  }
                }
              },
              "targetType": "Enemy"
            }
          ]
        },
        "Ring03_Alert": {
          "modifierName": "",
          "duration": 4.599999904632568,
          "bonusCriticalHurt": 100.0,
          "onAdded": [
            {
              "$type": "AttachEffect",
              "healLimitedByCasterMaxHPRatio": "Eff_Monster_Fungus_Raptor_SporeAttack_BS_Ring03",
              "effectTempleteID": -1.0
            }
          ],
          "onRemoved": [
            {
              "$type": "ApplyModifier",
              "predicates": [
                {
                  "$type": "ByTargetGlobalValue",
                  "key": "_FUNGUS_RAPTOR_SPOREATTACK_STOP",
                  "ratio": 0.0,
                  "compareType": "NoneOrEqual"
                }
              ],
              "modifierName": "Ring03_Damage"
            }
          ]
        },
        "Ring03_Damage": {
          "modifierName": "",
          "duration": 0.5,
          "bonusCriticalHurt": 100.0,
          "onAdded": [
            {
              "$type": "FireEffect",
              "healLimitedByCasterMaxHPRatio": "Eff_Monster_Fungus_Raptor_SporeAttack_Explode_Ring03",
              "effectTempleteID": -1.0
            },
            {
              "$type": "TriggerAttackEvent",
              "attackEvent": {
                "attackPattern": {
                  "$type": "ConfigAttackCircle",
                  "triggerType": "TriggerNoRepeat",
                  "born": {
                    "$type": "ConfigBornBySelf",
                    "offset": {
                      "x": 0.0,
                      "y": 0.0,
                      "z": 0.0
                    }
                  },
                  "radius": 12.0,
                  "innerRadius": 9.0
                },
                "attackInfo": {
                  "attackTag": "Monster_Fungus_Raptor_SporeAttack",
                  "attenuationTag": "Monster_Fungus_Raptor_01_SporeAttack_Explode",
                  "attenuationGroup": "Effigy_Ice_Attenuation_1",
                  "attackProperty": {
                    "damagePercentage": 0.5,
                    "damagePercentageRatio": 0.0,
                    "elementType": "Grass",
                    "bonusCriticalHurt": 25.0,
                    "strikeType": "Default",
                    "enBreak": 200.0,
                    "attackType": "Range"
                  },
                  "hitPattern": {
                    "onHitEffectName": "default",
                    "hitImpulseType": "LV6",
                    "hitHaltTimeScale": 0.05000000074505806
                  }
                }
              },
              "targetType": "Enemy"
            }
          ]
        },
        "SporeAttack_Boost_AttackEventHandler": {
          "modifierName": "",
          "bonusCriticalHurt": 100.0,
          "onAdded": [
            {
              "$type": "SetGlobalValue",
              "ratio": 0.0,
              "key": "_FUNGUS_RAPTOR_SPOREATTACK_STOP",
              "maxValue": 0.0,
              "minValue": 0.0
            }
          ],
          "onRemoved": [
            {
              "$type": "SetGlobalValue",
              "ratio": 1.0,
              "key": "_FUNGUS_RAPTOR_SPOREATTACK_STOP",
              "maxValue": 0.0,
              "minValue": 0.0
            },
            {
              "$type": "RemoveModifier",
              "modifierName": "Ring01"
            },
            {
              "$type": "RemoveModifier",
              "modifierName": "Ring02"
            },
            {
              "$type": "RemoveModifier",
              "modifierName": "Ring03"
            },
            {
              "$type": "RemoveModifier",
              "modifierName": "Ring01_Alert"
            },
            {
              "$type": "RemoveModifier",
              "modifierName": "Ring02_Alert"
            },
            {
              "$type": "RemoveModifier",
              "modifierName": "Ring03_Alert"
            }
          ]
        }
      },
      "onAbilityStart": [
        {
          "$type": "ApplyModifier",
          "modifierName": "Ring01"
        }
      ]
    }
  },
  {
    "Default": {
      "$type": "ConfigAbility",
      "abilityName": "Monster_Fungus_Raptor_01_ShootAttack",
      "abilityMixins": [
        {
          "$type": "AttachToAnimatorStateIDMixin",
          "stateIDs": ["ShootAttack01_BS", "ShootAttack01_Ready"],
          "modifierName": "ShootAttackBSEffect"
        }
      ],
      "modifiers": {
        "ShootAttackBSEffect": {
          "modifierName": "",
          "bonusCriticalHurt": 100.0
        }
      },
      "onAbilityStart": [
        {
          "$type": "FireEffect",
          "healLimitedByCasterMaxHPRatio": "Eff_Monster_Fungus_Raptor_ShootAttack_Fire",
          "born": {
            "$type": "ConfigBornByAttachPoint",
            "attachPointName": "TailBulletSource03"
          },
          "effectTempleteID": -1.0
        },
        {
          "$type": "TriggerBullet",
          "bulletID": 42611001,
          "born": {
            "$type": "ConfigBornByAttachPoint",
            "attachPointName": "TailBulletSource03"
          }
        }
      ]
    }
  },
  {
    "Default": {
      "$type": "ConfigAbility",
      "abilityName": "Monster_Fungus_Raptor_01_ShootAttack02",
      "onAbilityStart": [
        {
          "$type": "FireEffect",
          "healLimitedByCasterMaxHPRatio": "Eff_Monster_Fungus_Raptor_ShootAttack_Fire",
          "born": {
            "$type": "ConfigBornByAttachPoint",
            "attachPointName": "TailBulletSource03"
          },
          "effectTempleteID": -1.0
        },
        {
          "$type": "TriggerBullet",
          "bulletID": 42611004,
          "born": {
            "$type": "ConfigBornByAttachPoint",
            "attachPointName": "TailBulletSource03"
          }
        }
      ]
    }
  },
  {
    "Default": {
      "$type": "ConfigAbility",
      "abilityName": "Monster_Fungus_Raptor_01_ShootAttack03",
      "onAbilityStart": [
        {
          "$type": "FireEffect",
          "healLimitedByCasterMaxHPRatio": "Eff_Monster_Fungus_Raptor_ShootAttack_Fire",
          "born": {
            "$type": "ConfigBornByAttachPoint",
            "attachPointName": "TailBulletSource03"
          },
          "effectTempleteID": -1.0
        },
        {
          "$type": "TriggerBullet",
          "bulletID": 42611005,
          "born": {
            "$type": "ConfigBornByAttachPoint",
            "attachPointName": "TailBulletSource03"
          }
        }
      ]
    }
  },
  {
    "Default": {
      "$type": "ConfigAbility",
      "abilityName": "Monster_Fungus_Raptor_01_ShootAttack01_Boost",
      "abilityMixins": [
        {
          "$type": "AttachToAnimatorStateIDMixin",
          "stateIDs": ["ShootAttack01_BS", "ShootAttack01_Ready"],
          "modifierName": "ShootAttackBSEffect"
        }
      ],
      "modifiers": {
        "ShootAttackBSEffect": {
          "modifierName": "",
          "bonusCriticalHurt": 100.0
        }
      },
      "onAbilityStart": [
        {
          "$type": "FireEffect",
          "healLimitedByCasterMaxHPRatio": "Eff_Monster_Fungus_Raptor_ShootAttack_Fire",
          "born": {
            "$type": "ConfigBornByAttachPoint",
            "attachPointName": "TailBulletSource03"
          },
          "effectTempleteID": -1.0
        },
        {
          "$type": "TriggerBullet",
          "bulletID": 42611006,
          "born": {
            "$type": "ConfigBornByAttachPoint",
            "attachPointName": "TailBulletSource03"
          }
        }
      ]
    }
  },
  {
    "Default": {
      "$type": "ConfigAbility",
      "abilityName": "Monster_Fungus_Raptor_01_ShootAttack02_Boost",
      "onAbilityStart": [
        {
          "$type": "FireEffect",
          "healLimitedByCasterMaxHPRatio": "Eff_Monster_Fungus_Raptor_ShootAttack_Fire",
          "born": {
            "$type": "ConfigBornByAttachPoint",
            "attachPointName": "TailBulletSource03"
          },
          "effectTempleteID": -1.0
        },
        {
          "$type": "TriggerBullet",
          "bulletID": 42611007,
          "born": {
            "$type": "ConfigBornByAttachPoint",
            "attachPointName": "TailBulletSource03"
          }
        }
      ]
    }
  },
  {
    "Default": {
      "$type": "ConfigAbility",
      "abilityName": "Monster_Fungus_Raptor_01_ShootAttack03_Boost",
      "onAbilityStart": [
        {
          "$type": "FireEffect",
          "healLimitedByCasterMaxHPRatio": "Eff_Monster_Fungus_Raptor_ShootAttack_Fire",
          "born": {
            "$type": "ConfigBornByAttachPoint",
            "attachPointName": "TailBulletSource03"
          },
          "effectTempleteID": -1.0
        },
        {
          "$type": "TriggerBullet",
          "bulletID": 42611008,
          "born": {
            "$type": "ConfigBornByAttachPoint",
            "attachPointName": "TailBulletSource03"
          }
        }
      ]
    }
  },
  {
    "Default": {
      "$type": "ConfigAbility",
      "abilityName": "Monster_Fungus_Raptor_01_PowerAttack",
      "abilityMixins": [
        {
          "$type": "AttachToAnimatorStateIDMixin",
          "stateIDs": ["PowerAttack_AttackLoop"],
          "modifierName": "PowerAttackLoop"
        }
      ],
      "modifiers": {
        "PowerAttackLoop": {
          "modifierName": "",
          "bonusCriticalHurt": 100.0,
          "onAdded": [
            {
              "$type": "TriggerBullet",
              "bulletID": 42611002,
              "born": {
                "$type": "ConfigBornByAttachPoint",
                "attachPointName": "TailBulletSource03"
              },
              "lifeByOwnerIsAlive": true
            },
            {
              "$type": "AddGlobalValue",
              "ratio": 0.0,
              "key": "_CHARGEBAR_VALUE",
              "useLimitRange": true,
              "maxValue": 100.0,
              "minValue": 0.0
            }
          ],
          "onRemoved": [
            {
              "$type": "KillMultiBullet",
              "gadgetInfo": {
                "configID": 42611002
              },
              "MJDFCJGFEBD": 3.0
            }
          ]
        }
      }
    }
  },
  {
    "Default": {
      "$type": "ConfigAbility",
      "abilityName": "Monster_Fungus_Raptor_01_DecayedSummonAttack",
      "modifiers": {
        "PutOutFire": {
          "modifierName": "",
          "duration": 0.10000000149011612,
          "elementType": "AntiFire",
          "bonusCriticalHurt": 100.0
        }
      },
      "onAbilityStart": [
        {
          "$type": "TriggerBullet",
          "bulletID": 42611003,
          "born": {
            "$type": "ConfigBornByAttachPoint",
            "attachPointName": "BackBulletSource01"
          }
        },
        {
          "$type": "TriggerBullet",
          "bulletID": 42611003,
          "born": {
            "$type": "ConfigBornByAttachPoint",
            "attachPointName": "BackBulletSource02"
          }
        },
        {
          "$type": "TriggerBullet",
          "bulletID": 42611003,
          "born": {
            "$type": "ConfigBornByAttachPoint",
            "attachPointName": "BackBulletSource03"
          }
        },
        {
          "$type": "ApplyModifier",
          "modifierName": "PutOutFire"
        }
      ]
    }
  },
  {
    "Default": {
      "$type": "ConfigAbility",
      "abilityName": "Monster_Fungus_Raptor_01_FaintTrigger",
      "onAbilityStart": [
        {
          "$type": "ReTriggerAISkillInitialCD",
          "skillIDs": [3119]
        }
      ]
    }
  },
  {
    "Default": {
      "$type": "ConfigAbility",
      "abilityName": "Monster_Fungus_Raptor_01_ShootAttackBullet",
      "onAbilityStart": [
        {
          "$type": "FireSubEmitterEffect",
          "healLimitedByCasterMaxHPRatio": "Eff_Monster_Fungus_Raptor_ShootAttack_Bullet_Hit",
          "born": {
            "$type": "ConfigBornByCollisionPoint"
          }
        },
        {
          "$type": "TriggerAttackEvent",
          "attackEvent": {
            "attackPattern": {
              "$type": "ConfigAttackSphere",
              "triggerType": "TriggerNoRepeat",
              "born": {
                "$type": "ConfigBornByCollisionPoint"
              },
              "radius": 1.0
            },
            "attackInfo": {
              "attackTag": "",
              "attenuationTag": "Monster_Fungus_Raptor_01_ShootAttackBullet",
              "attenuationGroup": "Monster_Fungus_Raptor_ShootAttack",
              "attackProperty": {
                "damagePercentage": 0.30000001192092896,
                "damagePercentageRatio": 0.0,
                "elementType": "Grass",
                "bonusCriticalHurt": 25.0,
                "strikeType": "Default",
                "enBreak": 80.0,
                "attackType": "Range"
              },
              "hitPattern": {
                "onHitEffectName": "default",
                "hitImpulseType": "LV3",
                "hitHaltTimeScale": 0.05000000074505806
              }
            }
          },
          "targetType": "Enemy"
        }
      ]
    }
  },
  {
    "Default": {
      "$type": "ConfigAbility",
      "abilityName": "Monster_Fungus_Raptor_01_PowerAttackBullet",
      "onAbilityStart": [
        {
          "$type": "FireSubEmitterEffect",
          "healLimitedByCasterMaxHPRatio": "Eff_Monster_Fungus_Raptor_PowerAttack_Bullet_Hit",
          "born": {
            "$type": "ConfigBornByCollisionPoint"
          }
        },
        {
          "$type": "TriggerAttackEvent",
          "attackEvent": {
            "attackPattern": {
              "$type": "ConfigAttackSphere",
              "triggerType": "TriggerNoRepeat",
              "born": {
                "$type": "ConfigBornByCollisionPoint"
              },
              "radius": 1.5
            },
            "attackInfo": {
              "attackTag": "Fungus_Raptor_OverdoseAttack",
              "attenuationTag": "Monster_Fungus_Raptor_01_PowerAttackBullet",
              "attenuationGroup": "Monster_Fungus_Raptor_PowerAttack",
              "attackProperty": {
                "damagePercentage": 0.44999998807907104,
                "damagePercentageRatio": 0.0,
                "elementType": "Grass",
                "bonusCriticalHurt": 25.0,
                "strikeType": "Default",
                "enBreak": 0.0,
                "attackType": "Range"
              },
              "hitPattern": {
                "onHitEffectName": "default",
                "hitImpulseType": "LV3",
                "hitHaltTimeScale": 0.05000000074505806
              }
            }
          },
          "targetType": "Enemy"
        }
      ]
    }
  },
  {
    "Default": {
      "$type": "ConfigAbility",
      "abilityName": "Monster_Fungus_Raptor_01_SummonAttackBullet",
      "modifiers": {
        "UNIQUE_SummonAttackBullet_Loop": {
          "modifierName": "",
          "isUnique": true,
          "elementType": "Grass",
          "bonusCriticalHurt": 100.0,
          "onAdded": [
            {
              "$type": "AttachEffect",
              "healLimitedByCasterMaxHPRatio": "Eff_Monster_Fungus_Raptor_DecayedSummonAttack_Bullet",
              "effectTempleteID": -1.0
            },
            {
              "$type": "AttachEffect",
              "healLimitedByCasterMaxHPRatio": "Eff_Monster_Fungus_Raptor_DecayedSummonAttack_Bullet_Trail",
              "effectTempleteID": -1.0
            }
          ]
        }
      },
      "onAdded": [
        {
          "$type": "AttachModifier",
          "modifierName": "UNIQUE_SummonAttackBullet_Loop"
        }
      ],
      "onAbilityStart": [
        {
          "$type": "RemoveUniqueModifier",
          "modifierName": "UNIQUE_SummonAttackBullet_Loop"
        },
        {
          "$type": "FireEffect",
          "healLimitedByCasterMaxHPRatio": "Eff_Monster_Fungus_Raptor_DecayedSummonAttack_Bullet_Hit",
          "born": {
            "$type": "ConfigBornByAttachPoint",
            "attachPointName": "RootNode"
          },
          "effectTempleteID": -1.0
        },
        {
          "$type": "CreateGadget",
          "target": "Owner",
          "ownerIsTarget": true,
          "lifeByOwnerIsAlive": true,
          "born": {
            "$type": "ConfigBornBySelf",
            "DAPKLNIFPID": true,
            "HKNFOKFIKAG": 0.5,
            "BJCIHELGKLP": true
          },
          "sightGroupWithOwner": true,
          "gadgetID": 42611017,
          "campID": 4001,
          "byServer": true
        },
        {
          "$type": "KillSelf"
        }
      ]
    }
  },
  {
    "Default": {
      "$type": "ConfigAbility",
      "abilityName": "Monster_Fungus_Raptor_01_SummonAttackBullet_OnGround",
      "modifiers": {
        "UNIQUE_SummonAttackBullet_OnGround_Loop": {
          "modifierName": "",
          "isUnique": true,
          "elementType": "Grass",
          "bonusCriticalHurt": 1.0,
          "onRemoved": [
            {
              "$type": "FireEffect",
              "healLimitedByCasterMaxHPRatio": "Eff_Monster_Fungus_Raptor_DecayedSummonAttack_Bullet_Break",
              "born": {
                "$type": "ConfigBornBySelf",
                "offset": {
                  "x": 0.0,
                  "y": 0.0,
                  "z": 0.0
                },
                "DAPKLNIFPID": true,
                "BJCIHELGKLP": true
              },
              "effectTempleteID": -1.0
            },
            {
              "$type": "KillSelf"
            }
          ]
        },
        "UNIQUE_SummonAttackBullet_OnGround_Timer": {
          "modifierName": "",
          "isUnique": true,
          "duration": 3.0,
          "bonusCriticalHurt": 100.0,
          "onAdded": [
            {
              "$type": "AttachEffect",
              "healLimitedByCasterMaxHPRatio": "Eff_Monster_Fungus_Raptor_DecayedSummonAttack_Bullet_Loop",
              "effectTempleteID": -1.0
            }
          ],
          "onRemoved": [
            {
              "$type": "TriggerAbility",
              "abilityName": "Monster_Fungus_Raptor_01_SummonAttackBullet_OnGround"
            }
          ]
        }
      },
      "onAdded": [
        {
          "$type": "ApplyModifier",
          "modifierName": "UNIQUE_SummonAttackBullet_OnGround_Loop"
        },
        {
          "$type": "ApplyModifier",
          "modifierName": "UNIQUE_SummonAttackBullet_OnGround_Timer"
        }
      ],
      "onAbilityStart": [
        {
          "$type": "FireEffect",
          "healLimitedByCasterMaxHPRatio": "Eff_Monster_Fungus_Raptor_DecayedSummonAttack_Bullet_Summon",
          "born": {
            "$type": "ConfigBornBySelf",
            "offset": {
              "x": 0.0,
              "y": 0.0,
              "z": 0.0
            },
            "DAPKLNIFPID": true,
            "BJCIHELGKLP": true
          },
          "effectTempleteID": -1.0
        },
        {
          "$type": "Summon",
          "target": "Owner",
          "monsterID": 26090202,
          "born": {
            "$type": "ConfigBornBySelf",
            "DAPKLNIFPID": true
          },
          "summonTag": 26090202,
          "aliveByOwner": true,
          "sightGroupWithOwner": true
        },
        {
          "$type": "TriggerAttackEvent",
          "attackEvent": {
            "attackPattern": {
              "$type": "ConfigAttackSphere",
              "triggerType": "TriggerNoRepeat",
              "born": {
                "$type": "ConfigBornBySelf",
                "offset": {
                  "x": 0.0,
                  "y": 0.0,
                  "z": 0.0
                }
              },
              "radius": 1.5
            },
            "attackInfo": {
              "attackTag": "",
              "attenuationTag": "Monster_Fungus_Raptor_01_SummonAttackBullet",
              "attenuationGroup": "Effigy_Ice_Attenuation_1",
              "attackProperty": {
                "damagePercentage": 0.5,
                "damagePercentageRatio": 0.0,
                "elementType": "Grass",
                "bonusCriticalHurt": 25.0,
                "strikeType": "Default",
                "enBreak": 200.0,
                "attackType": "Range"
              },
              "hitPattern": {
                "onHitEffectName": "default",
                "hitImpulseType": "LV5",
                "hitHaltTimeScale": 0.05000000074505806
              }
            }
          },
          "targetType": "Enemy"
        },
        {
          "$type": "SetGlobalValue",
          "target": "Owner",
          "ratio": 1.0,
          "key": "_FUNGUS_RAPTOR_HASBEENDECAYED_",
          "maxValue": 0.0,
          "minValue": 0.0
        },
        {
          "$type": "KillSelf"
        }
      ]
    }
  },
  {
    "Default": {
      "$type": "ConfigAbility",
      "abilityName": "Monster_Fungus_Raptor_Achievement_82133",
      "abilityMixins": [
        {
          "$type": "DoActionByAnimatorStateIDMixin",
          "stateIDs": ["ConfusedMeleeAttack"],
          "exitActions": [
            {
              "$type": "DoWatcherSystemStageAction",
              "watcherId": 82133,
              "inThreatListOnly": true,
              "stage": 1
            }
          ]
        },
        {
          "$type": "DoActionByAnimatorStateIDMixin",
          "stateIDs": ["PowerAttack_BS02"],
          "exitActions": [
            {
              "$type": "DoWatcherSystemStageAction",
              "watcherId": 82133,
              "inThreatListOnly": true,
              "stage": 2
            }
          ]
        },
        {
          "$type": "DoActionByAnimatorStateIDMixin",
          "stateIDs": ["ChargeAttack_Attack"],
          "enterActions": [
            {
              "$type": "DoWatcherSystemStageAction",
              "watcherId": 82133,
              "inThreatListOnly": true,
              "stage": 3
            }
          ]
        },
        {
          "$type": "ServerFinishWatcherMixin",
          "watcherId": 82135,
          "predicates": [
            {
              "$type": "ByTargetGlobalValue",
              "target": "Self",
              "key": "_WATCHER_82135_",
              "ratio": 1.0
            }
          ]
        },
        {
          "$type": "AttachModifierToSelfGlobalValueMixin",
          "globalValueKey": "_WATCHER_82136_",
          "defaultGlobalValueOnCreate": 0.0,
          "valueSteps": [-0.5, 5.5, 6.5],
          "modifierNameSteps": [
            "Empty",
            "Fungus_Raptor_Achievement_82136_Handler"
          ]
        },
        {
          "$type": "AttachToStateIDMixin",
          "stateIDs": [
            "ConfusedMeleeAttack",
            "ChargeAttack_BS",
            "ChargeAttack_RushLoop",
            "ChargeAttack",
            "ChargeAttack_TurnLeft",
            "ChargeAttack_TurnRight",
            "PowerAttack_BS",
            "PowerAttack",
            "PowerAttack_AS"
          ],
          "modifierName": "Fungus_Raptor_Achievement_82143_Handler"
        },
        {
          "$type": "ServerFinishWatcherMixin",
          "watcherId": 82143,
          "predicates": [
            {
              "$type": "ByTargetGlobalValue",
              "target": "Self",
              "key": "_WATCHER_82143_",
              "ratio": 1.0
            }
          ]
        }
      ],
      "modifiers": {
        "Empty": {
          "modifierName": "",
          "bonusCriticalHurt": 100.0
        },
        "Fungus_Raptor_Achievement_82136_Handler": {
          "modifierName": "",
          "bonusCriticalHurt": 100.0,
          "onAdded": [
            {
              "$type": "DoWatcherSystemAction",
              "watcherId": 82136,
              "inThreatListOnly": true
            }
          ]
        },
        "Fungus_Raptor_Achievement_82143_Handler": {
          "modifierName": "",
          "bonusCriticalHurt": 100.0,
          "onAdded": [
            {
              "$type": "SetGlobalValue",
              "ratio": 1.0,
              "key": "_WATCHER_82143_",
              "maxValue": 0.0,
              "minValue": 0.0
            }
          ],
          "onRemoved": [
            {
              "$type": "SetGlobalValue",
              "ratio": 0.0,
              "key": "_WATCHER_82143_",
              "maxValue": 0.0,
              "minValue": 0.0
            }
          ]
        }
      },
      "onAdded": [
        {
          "$type": "SetGlobalValue",
          "ratio": 0.0,
          "key": "_WATCHER_82136_",
          "maxValue": 0.0,
          "minValue": 0.0
        }
      ]
    }
  }
]
