[
  {
    "Default": {
      "$type": "ConfigAbility",
      "abilityName": "Monster_Apparatus_Enigma_BionicFlora_Initialization",
      "onAdded": [
        {
          "$type": "SetGlobalValue",
          "ratio": 2.0,
          "key": "_GLOBALVALUE_EnigmaType",
          "maxValue": 0.0,
          "minValue": 0.0
        }
      ]
    }
  },
  {
    "Default": {
      "$type": "ConfigAbility",
      "abilityName": "Monster_Apparatus_Enigma_BionicFlora_CoreActive",
      "abilityMixins": [
        {
          "$type": "AttachToAnimatorStateIDMixin",
          "stateIDs": ["PreyLoop"],
          "modifierName": "UNIQUE_Monster_Apparatus_Enigma_BionicFlora_CoreState_Prey"
        },
        {
          "$type": "AttachToAnimatorStateIDMixin",
          "stateIDs": ["ScorchingSandsLoop"],
          "modifierName": "UNIQUE_Monster_Apparatus_Enigma_BionicFlora_CoreState_ScorchingSands"
        },
        {
          "$type": "AttachToPoseIDMixin",
          "poseIDs": [202],
          "modifierName": "Enigma_BionicFlora_Weak"
        }
      ],
      "modifiers": {
        "UNIQUE_Monster_Apparatus_Enigma_BionicFlora_CoreState_Prey": {
          "modifierName": "",
          "isUnique": true,
          "bonusCriticalHurt": 100.0,
          "onAdded": [
            {
              "$type": "AddGlobalValue",
              "ratio": 1.0,
              "key": "_MONSTER_Apparatus_Enigma_CoreActive",
              "useLimitRange": true,
              "maxValue": 1.0,
              "minValue": 0.0
            },
            {
              "$type": "SetAnimatorInt",
              "intID": "PowerStage",
              "ratio": 2.0
            },
            {
              "$type": "EnableHitBoxByName",
              "hitBoxNames": ["CoreBox"],
              "setEnable": true
            },
            {
              "$type": "EnableHitBoxByName",
              "hitBoxNames": [
                "FakeHeadBox",
                "SpineBox1",
                "SpineBox2",
                "SpineBox3",
                "SpineBox4",
                "RootBox"
              ]
            }
          ],
          "onRemoved": [
            {
              "$type": "EnableHitBoxByName",
              "hitBoxNames": ["CoreBox"]
            },
            {
              "$type": "EnableHitBoxByName",
              "hitBoxNames": [
                "FakeHeadBox",
                "SpineBox1",
                "SpineBox2",
                "SpineBox3",
                "SpineBox4",
                "RootBox"
              ],
              "setEnable": true
            },
            {
              "$type": "SetAnimatorInt",
              "predicates": [
                {
                  "$type": "ByAnimatorInt",
                  "ratio": 0,
                  "parameter": "PowerStage"
                }
              ],
              "intID": "PowerStage",
              "ratio": 1.0
            },
            {
              "$type": "AddGlobalValue",
              "ratio": -1.0,
              "key": "_MONSTER_Apparatus_Enigma_CoreActive",
              "useLimitRange": true,
              "maxValue": 1.0,
              "minValue": 0.0
            }
          ]
        },
        "UNIQUE_Monster_Apparatus_Enigma_BionicFlora_CoreState_ScorchingSands": {
          "modifierName": "",
          "isUnique": true,
          "bonusCriticalHurt": 100.0,
          "onAdded": [
            {
              "$type": "AddGlobalValue",
              "ratio": 1.0,
              "key": "_MONSTER_Apparatus_Enigma_CoreActive",
              "useLimitRange": true,
              "maxValue": 1.0,
              "minValue": 0.0
            },
            {
              "$type": "SetAnimatorInt",
              "intID": "PowerStage",
              "ratio": 2.0
            },
            {
              "$type": "EnableHitBoxByName",
              "hitBoxNames": ["CoreBox"],
              "setEnable": true
            },
            {
              "$type": "EnableHitBoxByName",
              "hitBoxNames": ["FakeHeadBox"]
            }
          ],
          "onRemoved": [
            {
              "$type": "EnableHitBoxByName",
              "hitBoxNames": ["CoreBox"]
            },
            {
              "$type": "EnableHitBoxByName",
              "hitBoxNames": ["FakeHeadBox"],
              "setEnable": true
            },
            {
              "$type": "SetAnimatorInt",
              "predicates": [
                {
                  "$type": "ByAnimatorInt",
                  "ratio": 0,
                  "parameter": "PowerStage"
                }
              ],
              "intID": "PowerStage",
              "ratio": 1.0
            },
            {
              "$type": "AddGlobalValue",
              "ratio": -1.0,
              "key": "_MONSTER_Apparatus_Enigma_CoreActive",
              "useLimitRange": true,
              "maxValue": 1.0,
              "minValue": 0.0
            }
          ]
        },
        "Enigma_BionicFlora_Weak": {
          "modifierName": "",
          "bonusCriticalHurt": 100.0,
          "onAdded": [
            {
              "$type": "SetGlobalValue",
              "target": "Owner",
              "ratio": 1.0,
              "key": "_WATCHER_80104_2",
              "maxValue": 0.0,
              "minValue": 0.0
            }
          ]
        }
      },
      "onKill": [
        {
          "$type": "SetGlobalValue",
          "target": "Owner",
          "ratio": 1.0,
          "key": "_WATCHER_80105_",
          "maxValue": 0.0,
          "minValue": 0.0
        }
      ]
    }
  },
  {
    "Default": {
      "$type": "ConfigAbility",
      "abilityName": "Monster_Apparatus_Enigma_BionicFlora_RangeAtk_TriggerBullet",
      "onAbilityStart": [
        {
          "$type": "FireEffect",
          "healLimitedByCasterMaxHPRatio": "Eff_Monster_Apparatus_Enigma_BionicFlora_RangeAtk",
          "effectTempleteID": -1.0
        },
        {
          "$type": "TriggerBullet",
          "bulletID": 42401006,
          "born": {
            "$type": "ConfigBornByAttachPoint",
            "offset": {
              "x": 0.0,
              "y": 0.0,
              "z": 0.0
            },
            "direction": {
              "$type": "HFKFLHCBMLB",
              "LLOEMEPIBII": "Vertical",
              "maxAngle": 30.0
            },
            "attachPointName": "Head"
          }
        }
      ]
    }
  },
  {
    "Default": {
      "$type": "ConfigAbility",
      "abilityName": "Monster_Apparatus_Enigma_BionicFlora_RangeAtk_Bullet",
      "modifiers": {
        "Monster_Apparatus_Enigma_BionicFlora_RangeAtk_BulletEffect": {
          "modifierName": "",
          "bonusCriticalHurt": 100.0,
          "onAdded": [
            {
              "$type": "AttachEffect",
              "healLimitedByCasterMaxHPRatio": "Eff_Monster_Apparatus_Enigma_BionicFlora_RangeAtk_Bullet",
              "effectTempleteID": -1.0
            },
            {
              "$type": "AttachEffect",
              "healLimitedByCasterMaxHPRatio": "Eff_Monster_Apparatus_Enigma_BionicFlora_RangeAtk_Trail",
              "effectTempleteID": -1.0
            }
          ]
        }
      },
      "onAdded": [
        {
          "$type": "ApplyModifier",
          "modifierName": "Monster_Apparatus_Enigma_BionicFlora_RangeAtk_BulletEffect"
        }
      ],
      "onAbilityStart": [
        {
          "$type": "TriggerAttackEvent",
          "attackEvent": {
            "attackPattern": {
              "$type": "ConfigAttackSphere",
              "triggerType": "TriggerNoRepeat",
              "born": {
                "$type": "ConfigBornByCollisionPoint"
              },
              "radius": 0.5
            },
            "attackInfo": {
              "attackTag": "",
              "attenuationTag": "",
              "attenuationGroup": "default",
              "attackProperty": {
                "damagePercentage": 0.4000000059604645,
                "damagePercentageRatio": 0.0,
                "bonusCriticalHurt": 100.0
              },
              "hitPattern": {
                "onHitEffectName": "default",
                "hitImpulseType": "LV1",
                "hitHaltTimeScale": 0.05000000074505806
              },
              "canBeModifiedBy": "OriginOwner"
            }
          },
          "targetType": "Enemy"
        },
        {
          "$type": "FireEffect",
          "healLimitedByCasterMaxHPRatio": "Eff_Monster_Apparatus_Enigma_BionicFlora_RangeAtk_Explode",
          "born": {
            "$type": "ConfigBornByCollisionPoint"
          },
          "effectTempleteID": -1.0
        }
      ]
    }
  },
  {
    "Default": {
      "$type": "ConfigAbility",
      "abilityName": "Monster_Apparatus_Enigma_BionicFlora_Dig",
      "abilityMixins": [
        {
          "$type": "AttachToAnimatorStateIDMixin",
          "stateIDs": ["DigIn", "UnderGround", "DigOut"],
          "modifierName": "Monster_Apparatus_Enigma_BionicFlora_DigState"
        },
        {
          "$type": "AttachToAnimatorStateIDMixin",
          "stateIDs": ["UnderGround"],
          "modifierName": "Monster_Apparatus_Enigma_BionicFlora_ModeManager"
        },
        {
          "$type": "AttachToAnimatorStateIDMixin",
          "stateIDs": ["DigOut", "PreyDigOut"],
          "modifierName": "Monster_Apparatus_Enigma_BionicFlora_DigOut"
        }
      ],
      "modifiers": {
        "Monster_Apparatus_Enigma_BionicFlora_ModeManager": {
          "modifierName": "",
          "bonusCriticalHurt": 100.0,
          "onAdded": [
            {
              "$type": "ClearLockTarget",
              "target": "CurLocalAvatar"
            },
            {
              "$type": "ApplyModifier",
              "predicates": [
                {
                  "$type": "ByTargetGlobalValue",
                  "key": "_MONSTER_Apparatus_Enigma_BionicFlora_DigMode",
                  "ratio": 0.0,
                  "maxValue": 1.0,
                  "compareType": "NoneOrEqual"
                }
              ],
              "modifierName": "Monster_Apparatus_Enigma_BionicFlora_FindPosition_Near"
            },
            {
              "$type": "ApplyModifier",
              "predicates": [
                {
                  "$type": "ByTargetGlobalValue",
                  "key": "_MONSTER_Apparatus_Enigma_BionicFlora_DigMode",
                  "ratio": 1.0,
                  "maxValue": 1.0
                }
              ],
              "modifierName": "Monster_Apparatus_Enigma_BionicFlora_FindPosition_Far"
            }
          ]
        },
        "Monster_Apparatus_Enigma_BionicFlora_DigState": {
          "modifierName": "",
          "bonusCriticalHurt": 100.0,
          "onAdded": [
            {
              "$type": "EnablePushColliderName",
              "pushColliderNames": ["PushCollider"]
            },
            {
              "$type": "HideUIBillBoard",
              "hide": true
            },
            {
              "$type": "ApplyModifier",
              "modifierName": "UnderGround_Invincible"
            },
            {
              "$type": "ApplyModifier",
              "modifierName": "UnderGround_DenyLockOn"
            }
          ],
          "onRemoved": [
            {
              "$type": "EnablePushColliderName",
              "pushColliderNames": ["PushCollider"],
              "setEnable": true
            },
            {
              "$type": "HideUIBillBoard",
              "predicates": [
                {
                  "$type": "ByAny",
                  "predicates": [
                    {
                      "$type": "ByTargetGlobalValue",
                      "key": "_Enigma_BossFight_Enhanced",
                      "ratio": 1.0
                    },
                    {
                      "$type": "ByTargetGlobalValue",
                      "key": "_Enigma_BossFight",
                      "ratio": 0.0,
                      "compareType": "NoneOrEqual"
                    }
                  ]
                }
              ]
            },
            {
              "$type": "RemoveModifier",
              "modifierName": "UnderGround_Invincible"
            },
            {
              "$type": "RemoveModifier",
              "modifierName": "UnderGround_DenyLockOn"
            }
          ]
        },
        "UnderGround_Invincible": {
          "modifierName": "",
          "bonusCriticalHurt": 100.0,
          "state": "Invincible"
        },
        "UnderGround_DenyLockOn": {
          "modifierName": "",
          "bonusCriticalHurt": 100.0,
          "state": "DenyLockOn"
        },
        "Monster_Apparatus_Enigma_BionicFlora_FindPosition_Near": {
          "modifierName": "",
          "duration": 0.699999988079071,
          "bonusCriticalHurt": 100.0,
          "onRemoved": [
            {
              "$type": "TryFindBlinkPoint",
              "target": "SelfAttackTarget",
              "forwardAngle": 360.0,
              "minRange": 1.0,
              "maxRange": 2.0,
              "ignoreWater": true
            },
            {
              "$type": "DoBlink"
            },
            {
              "$type": "SetAnimatorTrigger",
              "triggerID": "DigOutTrigger"
            }
          ]
        },
        "Monster_Apparatus_Enigma_BionicFlora_FindPosition_Far": {
          "modifierName": "",
          "duration": 0.800000011920929,
          "bonusCriticalHurt": 100.0,
          "onRemoved": [
            {
              "$type": "TryFindBlinkPoint",
              "target": "SelfAttackTarget",
              "forwardAngle": 360.0,
              "minRange": 10.0,
              "maxRange": 12.0,
              "ignoreWater": true
            },
            {
              "$type": "DoBlink"
            },
            {
              "$type": "SetAnimatorTrigger",
              "triggerID": "DigOutTrigger"
            }
          ]
        },
        "Monster_Apparatus_Enigma_BionicFlora_DigOut": {
          "modifierName": "",
          "bonusCriticalHurt": 100.0,
          "onAdded": [
            {
              "$type": "SetSelfAttackTarget",
              "target": "SelfAttackTarget",
              "turnToTargetImmediately": true
            }
          ]
        }
      }
    }
  },
  {
    "Default": {
      "$type": "ConfigAbility",
      "abilityName": "Monster_Apparatus_Enigma_BionicFlora_Prey",
      "abilityMixins": [
        {
          "$type": "AttachToAnimatorStateIDMixin",
          "stateIDs": ["PreyBS", "PreyLoop"],
          "modifierName": "Monster_Apparatus_Enigma_BionicFlora_PreyLoop_Effect"
        },
        {
          "$type": "AttachToAnimatorStateIDMixin",
          "stateIDs": [
            "PreyBS",
            "PreyDigIn",
            "PreyUnderGround",
            "PreyDigOut",
            "PreyAS"
          ],
          "modifierName": "Monster_Apparatus_Enigma_BionicFlora_DigState"
        },
        {
          "$type": "AttachToAnimatorStateIDMixin",
          "stateIDs": ["PreyUnderGround"],
          "modifierName": "Monster_Apparatus_Enigma_BionicFlora_PreyBlink"
        },
        {
          "$type": "AttachToAnimatorStateIDMixin",
          "stateIDs": ["PreyLoop"],
          "modifierName": "Monster_Apparatus_Enigma_BionicFlora_PreyLoop_WindZone"
        }
      ],
      "modifiers": {
        "Monster_Apparatus_Enigma_BionicFlora_DigState": {
          "modifierName": "",
          "bonusCriticalHurt": 100.0,
          "onAdded": [
            {
              "$type": "EnablePushColliderName",
              "pushColliderNames": ["PushCollider"]
            },
            {
              "$type": "HideUIBillBoard",
              "hide": true
            },
            {
              "$type": "ApplyModifier",
              "modifierName": "UnderGround_Invincible"
            },
            {
              "$type": "ApplyModifier",
              "modifierName": "UnderGround_DenyLockOn"
            }
          ],
          "onRemoved": [
            {
              "$type": "EnablePushColliderName",
              "pushColliderNames": ["PushCollider"],
              "setEnable": true
            },
            {
              "$type": "HideUIBillBoard",
              "predicates": [
                {
                  "$type": "ByAny",
                  "predicates": [
                    {
                      "$type": "ByTargetGlobalValue",
                      "key": "_Enigma_BossFight_Enhanced",
                      "ratio": 1.0
                    },
                    {
                      "$type": "ByTargetGlobalValue",
                      "key": "_Enigma_BossFight",
                      "ratio": 0.0,
                      "compareType": "NoneOrEqual"
                    }
                  ]
                }
              ]
            },
            {
              "$type": "RemoveModifier",
              "modifierName": "UnderGround_Invincible"
            },
            {
              "$type": "RemoveModifier",
              "modifierName": "UnderGround_DenyLockOn"
            }
          ]
        },
        "UnderGround_Invincible": {
          "modifierName": "",
          "bonusCriticalHurt": 100.0,
          "state": "Invincible"
        },
        "UnderGround_DenyLockOn": {
          "modifierName": "",
          "bonusCriticalHurt": 100.0,
          "state": "DenyLockOn"
        },
        "Monster_Apparatus_Enigma_BionicFlora_PreyBlink": {
          "modifierName": "",
          "bonusCriticalHurt": 100.0,
          "onAdded": [
            {
              "$type": "TryFindBlinkPoint",
              "target": "SelfAttackTarget",
              "forwardAngle": 360.0,
              "minRange": 1.0,
              "maxRange": 2.0,
              "ignoreWater": true
            },
            {
              "$type": "DoBlink"
            }
          ]
        },
        "Monster_Apparatus_Enigma_BionicFlora_PreyLoop_Effect": {
          "modifierName": "",
          "bonusCriticalHurt": 100.0,
          "onAdded": [
            {
              "$type": "AttachEffect",
              "healLimitedByCasterMaxHPRatio": "Eff_Monster_Apparatus_Enigma_BionicFlora_Prey",
              "effectTempleteID": -1.0
            }
          ]
        },
        "Monster_Apparatus_Enigma_BionicFlora_Prey_AdditionalWindZone": {
          "modifierName": "",
          "duration": 0.5,
          "bonusCriticalHurt": 100.0,
          "modifierMixins": [
            {
              "$type": "WindZoneMixin",
              "shapeName": "CircleR10H10",
              "born": {
                "$type": "ConfigBornBySelf"
              },
              "PLJPAAFMNAD": 6.0,
              "LNPFPGALPJH": 1.5,
              "innerRadius": 3.5,
              "targetType": "Enemy",
              "predicates": [
                {
                  "$type": "LGFONFHBFLP",
                  "logic": "LesserOrEqual",
                  "LPPBALFPCII": 100.0
                },
                {
                  "$type": "ByEntityTypes",
                  "entityTypes": ["Avatar"]
                }
              ],
              "modifierName": ""
            }
          ]
        },
        "Monster_Apparatus_Enigma_BionicFlora_PreyLoop_WindZone": {
          "modifierName": "",
          "bonusCriticalHurt": 100.0,
          "thinkInterval": 0.4000000059604645,
          "modifierMixins": [
            {
              "$type": "WindZoneMixin",
              "shapeName": "CircleR8H10",
              "born": {
                "$type": "ConfigBornBySelf"
              },
              "PLJPAAFMNAD": 5.0,
              "LNPFPGALPJH": 1.2000000476837158,
              "innerRadius": 2.0,
              "targetType": "Enemy",
              "predicates": [
                {
                  "$type": "LGFONFHBFLP",
                  "logic": "LesserOrEqual",
                  "LPPBALFPCII": 100.0
                },
                {
                  "$type": "ByEntityTypes",
                  "entityTypes": ["Avatar"]
                }
              ],
              "modifierName": ""
            },
            {
              "$type": "IgnoreBulletAimPointMixin",
              "PAJBEGJMNEA": "AimPoint_Prey",
              "NFJJNEDNILK": true
            }
          ],
          "onAdded": [
            {
              "$type": "ApplyModifier",
              "modifierName": "Monster_Apparatus_Enigma_BionicFlora_Prey_AdditionalWindZone"
            },
            {
              "$type": "AttachBulletAimPoint",
              "BLCCIEIBHPH": "AimPoint_Prey"
            }
          ],
          "onRemoved": [
            {
              "$type": "AttachBulletAimPoint",
              "BLCCIEIBHPH": "BulletAimPoint"
            }
          ],
          "onThinkInterval": [
            {
              "$type": "TriggerAttackEvent",
              "attackEvent": {
                "attackPattern": {
                  "$type": "ConfigAttackCircle",
                  "triggerType": "TriggerNoRepeat",
                  "born": {
                    "$type": "ConfigBornBySelf",
                    "offset": {
                      "x": 0.0,
                      "y": 0.0,
                      "z": 0.0
                    }
                  },
                  "height": 3.0,
                  "radius": 8.0
                },
                "attackInfo": {
                  "attackTag": "Apparatus_Enigma_PowerAtk",
                  "attenuationTag": "",
                  "attenuationGroup": "default",
                  "attackProperty": {
                    "damagePercentage": 0.5,
                    "damagePercentageRatio": 0.0,
                    "bonusCriticalHurt": 25.0,
                    "strikeType": "Default"
                  },
                  "hitPattern": {
                    "onHitEffectName": "default",
                    "hitImpulseType": "LV2"
                  },
                  "canBeModifiedBy": "OriginOwner"
                }
              },
              "targetType": "Enemy"
            }
          ]
        }
      },
      "onAbilityStart": [
        {
          "$type": "ApplyModifier",
          "modifierName": "Monster_Apparatus_Enigma_BionicFlora_Prey_AdditionalWindZone"
        }
      ]
    }
  },
  {
    "Default": {
      "$type": "ConfigAbility",
      "abilityName": "Monster_Apparatus_Enigma_BionicFlora_ScorchingSands",
      "abilityMixins": [
        {
          "$type": "AttachToAnimatorStateIDMixin",
          "stateIDs": ["ScorchingSandsBS", "ScorchingSandsLoop"],
          "modifierName": "Monster_Apparatus_Enigma_BionicFlora_ScorchingSands_Effect"
        },
        {
          "$type": "AttachToAnimatorStateIDMixin",
          "stateIDs": ["ScorchingSandsLoop"],
          "modifierName": "Monster_Apparatus_Enigma_BionicFlora_ScorchingSands_Active"
        }
      ],
      "modifiers": {
        "Monster_Apparatus_Enigma_BionicFlora_ScorchingSands_Effect": {
          "modifierName": "",
          "bonusCriticalHurt": 100.0,
          "onAdded": [
            {
              "$type": "AttachEffect",
              "healLimitedByCasterMaxHPRatio": "Eff_Monster_Apparatus_Enigma_BionicFlora_ScorchingSands_Cannon",
              "effectTempleteID": -1.0
            },
            {
              "$type": "AttachEffect",
              "healLimitedByCasterMaxHPRatio": "Eff_Monster_Apparatus_Enigma_BionicFlora_ScorchingSands_Core",
              "effectTempleteID": -1.0
            }
          ]
        },
        "Monster_Apparatus_Enigma_BionicFlora_ScorchingSands_Active": {
          "modifierName": "",
          "bonusCriticalHurt": 100.0,
          "modifierMixins": [
            {
              "$type": "AttachToAbilityStateMixin",
              "abilityStates": ["ElementFrozen", "ElementPetrifaction"],
              "reject": true,
              "modifierName": "Monster_Apparatus_Enigma_BionicFlora_ScorchingSands_Trigger"
            }
          ],
          "onAdded": [
            {
              "$type": "CreateGadget",
              "target": "SelfAttackTarget",
              "predicates": [
                {
                  "$type": "ByTargetGlobalValue",
                  "target": "Self",
                  "key": "_ENIGMA_Supporter_Tag_",
                  "ratio": 0.0,
                  "compareType": "NoneOrEqual"
                }
              ],
              "lifeByOwnerIsAlive": true,
              "born": {
                "$type": "PPIKALLAEKG",
                "DAPKLNIFPID": true,
                "KGKDFLMGEOL": 0.5
              },
              "gadgetID": 42401007,
              "campID": 4001,
              "campTargetType": "Alliance"
            },
            {
              "$type": "CreateGadget",
              "otherTargets": {
                "$type": "SelectTargetsByShape",
                "topLimit": 1,
                "sortType": "Nearest",
                "shapeName": "CircleR30",
                "campTargetType": "SelfCamp",
                "OBHNBNDMPFN": 1.0
              },
              "predicates": [
                {
                  "$type": "ByTargetGlobalValue",
                  "target": "Self",
                  "key": "_ENIGMA_Supporter_Tag_",
                  "ratio": 1.0
                },
                {
                  "$type": "ByTargetGlobalValue",
                  "key": "_MONSTER_Apparatus_Enigma_SupportPosition",
                  "ratio": 1.0
                }
              ],
              "lifeByOwnerIsAlive": true,
              "born": {
                "$type": "ConfigBornByTarget",
                "offset": {
                  "x": 0.0,
                  "y": 0.0,
                  "z": 0.0
                },
                "direction": {
                  "$type": "AKNHOGLMAAH",
                  "eularAngles": {
                    "x": 90.0
                  }
                }
              },
              "gadgetID": 42401005,
              "campID": 4001,
              "campTargetType": "Alliance"
            }
          ],
          "onRemoved": [
            {
              "$type": "ApplyModifier",
              "otherTargets": {
                "$type": "SelectTargetsByChildren",
                "sortType": "Reversed",
                "configID": 42401007
              },
              "modifierName": "KillSelf_Latency"
            }
          ]
        },
        "Monster_Apparatus_Enigma_BionicFlora_ScorchingSands_Trigger": {
          "modifierName": "",
          "bonusCriticalHurt": 100.0,
          "onAdded": [
            {
              "$type": "AddGlobalValue",
              "otherTargets": {
                "$type": "SelectTargetsByChildren",
                "configID": 42401007
              },
              "ratio": -1.0,
              "key": "_IS_Controlled",
              "useLimitRange": true,
              "maxValue": 1.0,
              "minValue": 0.0
            }
          ],
          "onRemoved": [
            {
              "$type": "AddGlobalValue",
              "otherTargets": {
                "$type": "SelectTargetsByChildren",
                "configID": 42401007
              },
              "ratio": 1.0,
              "key": "_IS_Controlled",
              "useLimitRange": true,
              "maxValue": 1.0,
              "minValue": 0.0
            }
          ]
        },
        "KillSelf_Latency": {
          "modifierName": "",
          "duration": 0.5,
          "bonusCriticalHurt": 100.0,
          "onAdded": [
            {
              "$type": "KillSelf"
            }
          ]
        }
      }
    }
  },
  {
    "Default": {
      "$type": "ConfigAbility",
      "abilityName": "Monster_Apparatus_Enigma_BionicFlora_ScorchingSands_Position",
      "abilityMixins": [
        {
          "$type": "AttachModifierToSelfGlobalValueMixin",
          "globalValueKey": "_IS_Controlled",
          "defaultGlobalValueOnCreate": 0.0,
          "valueSteps": [-0.5, 0.5],
          "modifierNameSteps": [
            "Monster_Apparatus_Enigma_BionicFlora_ScorchingSands_Position"
          ]
        }
      ],
      "modifiers": {
        "Monster_Apparatus_Enigma_BionicFlora_ScorchingSands_Position": {
          "modifierName": "",
          "bonusCriticalHurt": 100.0,
          "thinkInterval": 0.4000000059604645,
          "onAdded": [
            {
              "$type": "AttachEffect",
              "healLimitedByCasterMaxHPRatio": "Eff_Monster_Apparatus_Enigma_BionicFlora_ScorchingSands_DamageArea",
              "effectTempleteID": -1.0
            }
          ],
          "onThinkInterval": [
            {
              "$type": "TriggerAttackEvent",
              "attackEvent": {
                "attackPattern": {
                  "$type": "ConfigAttackCircle",
                  "triggerType": "TriggerNoRepeat",
                  "born": {
                    "$type": "ConfigBornBySelf",
                    "offset": {
                      "x": 0.0,
                      "y": 0.0,
                      "z": 0.0
                    }
                  },
                  "height": 3.0,
                  "radius": 5.800000190734863
                },
                "attackInfo": {
                  "attackTag": "Apparatus_Enigma_PowerAtk",
                  "attenuationTag": "Monster_Konungmathr_Attenuation_1",
                  "attenuationGroup": "Monster_Konungmathr_Attenuation_1",
                  "attackProperty": {
                    "damagePercentage": 0.4000000059604645,
                    "damagePercentageRatio": 0.0,
                    "bonusCriticalHurt": 100.0,
                    "strikeType": "Default",
                    "attackType": "Range"
                  },
                  "hitPattern": {
                    "onHitEffectName": "default",
                    "hitImpulseType": "LV0",
                    "retreatType": "ByHitDirection"
                  },
                  "canBeModifiedBy": "OriginOwner"
                }
              },
              "targetType": "Enemy"
            },
            {
              "$type": "KillSelf",
              "predicates": [
                {
                  "$type": "DDBJEPBNOGF",
                  "predicates": [
                    {
                      "$type": "LMICKJKPLNP",
                      "target": "Owner"
                    }
                  ]
                }
              ]
            }
          ]
        }
      },
      "onKill": [
        {
          "$type": "FireEffect",
          "healLimitedByCasterMaxHPRatio": "Eff_Monster_Apparatus_Enigma_BionicFlora_ScorchingSands_DamageArea_AS",
          "effectTempleteID": -1.0
        }
      ]
    }
  },
  {
    "Default": {
      "$type": "ConfigAbility",
      "abilityName": "Monster_Apparatus_Enigma_BionicFlora_Steer",
      "abilityMixins": [
        {
          "$type": "SteerAttackMixin",
          "steerStateIDs": ["NormalIdle"],
          "endNormalizedTime": 5.0,
          "angularSpeed": 45.0,
          "attackTrigger": ""
        },
        {
          "$type": "SteerAttackMixin",
          "steerStateIDs": ["Turn"],
          "endNormalizedTime": 5.0,
          "angularSpeed": 180.0,
          "attackTrigger": ""
        },
        {
          "$type": "SteerAttackMixin",
          "steerStateIDs": ["RangeAtkBS"],
          "angularSpeed": 180.0,
          "attackTrigger": ""
        },
        {
          "$type": "SteerAttackMixin",
          "steerStateIDs": ["RangeAtkLoop"],
          "endNormalizedTime": 5.0,
          "angularSpeed": 90.0,
          "attackTrigger": "RangeAtkEnd",
          "attackDistance": 2.0
        },
        {
          "$type": "SteerAttackMixin",
          "steerStateIDs": ["Swipe"],
          "endNormalizedTime": 0.30000001192092896,
          "angularSpeed": 360.0,
          "attackTrigger": ""
        }
      ]
    }
  }
]
