[
  {
    "Default": {
      "$type": "ConfigAbility",
      "abilityName": "Slime_Fire_03_Immune1_FireBorn",
      "abilityMixins": [
        {
          "$type": "AttachToElementTypeMixin",
          "elementTypes": ["Water"],
          "modifierName": "WaterDetect"
        }
      ],
      "modifiers": {
        "OnFire_Trigger": {
          "stacking": "Unique",
          "modifierName": "",
          "DCEFILPANJI": 0.800000011920929,
          "bonusCriticalHurt": 100.0,
          "onAdded": [
            {
              "$type": "SetAnimatorBool",
              "boolID": "FireShader",
              "ratio": true
            },
            {
              "$type": "AttachEffect",
              "healLimitedByCasterMaxHPRatio": "Eff_Monster_Slime_Fire_Absorption_Large",
              "MEMHGJDEPJA": -1.0
            }
          ],
          "onRemoved": [
            {
              "$type": "ApplyModifier",
              "modifierName": "UNIQUE_FireBorn"
            }
          ]
        },
        "UNIQUE_FireBorn": {
          "stacking": "Unique",
          "modifierName": "",
          "isUnique": true,
          "DCEFILPANJI": 30.0,
          "bonusCriticalHurt": 100.0,
          "modifierMixins": [
            {
              "$type": "ReplaceEventPatternMixin",
              "oldPatterns": [
                "Monster_Slime_Fire_03_NormalAttack",
                "Monster_Slime_Fire_JumpAttack"
              ],
              "newPatterns": [
                "Monster_Slime_Fire_03_NormalAttack_Fire",
                "Monster_Slime_Fire_JumpAttack_Fire"
              ]
            }
          ],
          "properties": {
            "Actor_FireSubHurtDelta": 1.0
          },
          "onAdded": [
            {
              "$type": "RemoveModifier",
              "modifierName": "FireReborn"
            },
            {
              "$type": "AttachEffect",
              "healLimitedByCasterMaxHPRatio": "Eff_Monster_Slime_Fire_Burst_Large",
              "MEMHGJDEPJA": -1.0
            },
            {
              "$type": "SetPoseBool",
              "boolID": "FireState",
              "ratio": true
            },
            {
              "$type": "SetAnimatorBool",
              "boolID": "FireShader",
              "ratio": true
            }
          ],
          "onRemoved": [
            {
              "$type": "FireEffect",
              "healLimitedByCasterMaxHPRatio": "Eff_Monster_Slime_Fire_Extinguish_Large",
              "MEMHGJDEPJA": -1.0
            },
            {
              "$type": "SetPoseBool",
              "boolID": "FireState"
            },
            {
              "$type": "SetAnimatorBool",
              "boolID": "FireShader"
            },
            {
              "$type": "ApplyModifier",
              "modifierName": "FireReborn"
            }
          ],
          "onBeingHit": [
            {
              "$type": "FireEffect",
              "healLimitedByCasterMaxHPRatio": "Eff_Monster_Slime_Fire_BeHit",
              "born": {
                "$type": "ConfigBornByHitPoint",
                "direction": {
                  "$type": "ConfigDirectionByBackToHitBoxCenter"
                },
                "alongGround": true
              },
              "MEMHGJDEPJA": -1.0
            }
          ]
        },
        "FireReborn": {
          "modifierName": "",
          "DCEFILPANJI": 20.0,
          "bonusCriticalHurt": 100.0,
          "onAdded": [
            {
              "$type": "SetPoseBool",
              "boolID": "RebornGCD",
              "ratio": true
            }
          ],
          "onRemoved": [
            {
              "$type": "SetPoseBool",
              "boolID": "RebornGCD"
            }
          ]
        },
        "WaterDetect": {
          "modifierName": "",
          "bonusCriticalHurt": 100.0,
          "onAdded": [
            {
              "$type": "SetPoseBool",
              "boolID": "IsWet",
              "ratio": true
            }
          ],
          "onRemoved": [
            {
              "$type": "SetPoseBool",
              "boolID": "IsWet"
            }
          ]
        }
      },
      "onAbilityStart": [
        {
          "$type": "ApplyModifier",
          "modifierName": "OnFire_Trigger"
        }
      ]
    }
  },
  {
    "Default": {
      "$type": "ConfigAbility",
      "abilityName": "Slime_Fire_03_Immune2_FireBorn",
      "abilityMixins": [
        {
          "$type": "AttachToElementTypeMixin",
          "elementTypes": ["Water"],
          "modifierName": "WaterDetect"
        }
      ],
      "modifiers": {
        "OnFire_Trigger": {
          "stacking": "Unique",
          "modifierName": "",
          "DCEFILPANJI": 0.800000011920929,
          "bonusCriticalHurt": 100.0,
          "onAdded": [
            {
              "$type": "SetAnimatorBool",
              "boolID": "FireShader",
              "ratio": true
            },
            {
              "$type": "AttachEffect",
              "healLimitedByCasterMaxHPRatio": "Eff_Monster_Slime_Fire_Absorption_Large",
              "MEMHGJDEPJA": -1.0
            }
          ],
          "onRemoved": [
            {
              "$type": "ApplyModifier",
              "modifierName": "UNIQUE_FireBorn"
            }
          ]
        },
        "UNIQUE_FireBorn": {
          "stacking": "Unique",
          "modifierName": "",
          "isUnique": true,
          "elementType": "Fire",
          "bonusCriticalHurt": 300.0,
          "modifierMixins": [
            {
              "$type": "ReplaceEventPatternMixin",
              "oldPatterns": [
                "Monster_Slime_Fire_03_NormalAttack",
                "Monster_Slime_Fire_JumpAttack"
              ],
              "newPatterns": [
                "Monster_Slime_Fire_03_NormalAttack_Fire",
                "Monster_Slime_Fire_JumpAttack_Fire"
              ]
            }
          ],
          "properties": {
            "Actor_FireSubHurtDelta": 1.0
          },
          "onAdded": [
            {
              "$type": "RemoveModifier",
              "modifierName": "FireReborn"
            },
            {
              "$type": "AttachEffect",
              "healLimitedByCasterMaxHPRatio": "Eff_Monster_Slime_Fire_Burst_Large",
              "MEMHGJDEPJA": -1.0
            },
            {
              "$type": "SetPoseBool",
              "boolID": "FireState",
              "ratio": true
            },
            {
              "$type": "SetAnimatorBool",
              "boolID": "FireShader",
              "ratio": true
            }
          ],
          "onRemoved": [
            {
              "$type": "FireEffect",
              "healLimitedByCasterMaxHPRatio": "Eff_Monster_Slime_Fire_Extinguish_Large",
              "MEMHGJDEPJA": -1.0
            },
            {
              "$type": "SetPoseBool",
              "boolID": "FireState"
            },
            {
              "$type": "SetAnimatorBool",
              "boolID": "FireShader"
            },
            {
              "$type": "ApplyModifier",
              "modifierName": "FireReborn"
            }
          ],
          "onBeingHit": [
            {
              "$type": "FireEffect",
              "healLimitedByCasterMaxHPRatio": "Eff_Monster_Slime_Fire_BeHit",
              "born": {
                "$type": "ConfigBornByHitPoint",
                "direction": {
                  "$type": "ConfigDirectionByBackToHitBoxCenter"
                },
                "alongGround": true
              },
              "MEMHGJDEPJA": -1.0
            }
          ]
        },
        "FireReborn": {
          "modifierName": "",
          "DCEFILPANJI": 20.0,
          "bonusCriticalHurt": 100.0,
          "onAdded": [
            {
              "$type": "SetPoseBool",
              "boolID": "RebornGCD",
              "ratio": true
            }
          ],
          "onRemoved": [
            {
              "$type": "SetPoseBool",
              "boolID": "RebornGCD"
            }
          ]
        },
        "WaterDetect": {
          "modifierName": "",
          "bonusCriticalHurt": 100.0,
          "onAdded": [
            {
              "$type": "SetPoseBool",
              "boolID": "IsWet",
              "ratio": true
            }
          ],
          "onRemoved": [
            {
              "$type": "SetPoseBool",
              "boolID": "IsWet"
            }
          ]
        }
      },
      "onAbilityStart": [
        {
          "$type": "ApplyModifier",
          "modifierName": "OnFire_Trigger"
        }
      ]
    }
  },
  {
    "Default": {
      "$type": "ConfigAbility",
      "abilityName": "Slime_Fire_Immune_FireBall",
      "onAbilityStart": [
        {
          "$type": "TriggerBullet",
          "predicates": [
            {
              "$type": "ByAnimatorFloat",
              "ratio": 100.0,
              "parameter": "PoseID"
            }
          ],
          "bulletID": 42101007,
          "born": {
            "$type": "ConfigBornByAttachPoint",
            "offset": {
              "AMODPKJAIGF": 0.0,
              "DBJCBJPOOAP": 0.0,
              "JDFJGADACKC": 0.800000011920929
            },
            "direction": {
              "$type": "ConfigDirectionByAttackTarget"
            },
            "attachPointName": "RootNode"
          }
        },
        {
          "$type": "FireEffect",
          "predicates": [
            {
              "$type": "ByAnimatorFloat",
              "logic": "Lesser",
              "ratio": 100.0,
              "parameter": "PoseID"
            }
          ],
          "healLimitedByCasterMaxHPRatio": "Eff_Monster_F_Slime_FireSmoke",
          "MEMHGJDEPJA": -1.0
        }
      ]
    }
  },
  {
    "Default": {
      "$type": "ConfigAbility",
      "abilityName": "Slime_Electric_03_Immune1_ElementState",
      "abilitySpecials": {
        "DischargeTime": 7.0
      },
      "modifiers": {
        "UNIQUE_SLime_Electric_ElementState": {
          "modifierName": "",
          "isUnique": true,
          "DCEFILPANJI": 30.0,
          "bonusCriticalHurt": 100.0,
          "thinkInterval": 1.0,
          "modifierMixins": [
            {
              "$type": "ReplaceEventPatternMixin",
              "oldPatterns": [
                "Monster_Slime_Electric_03_NormalAttack",
                "Monster_Slime_Electric_JumpAttack"
              ],
              "newPatterns": [
                "Monster_Slime_Electric_03_NormalAttack_Electric",
                "Monster_Slime_Electric_Immune_JumpAttack_Electric"
              ]
            },
            {
              "$type": "AttachModifierToSelfGlobalValueMixin",
              "globalValueKey": "_ABILITY_SLIME_ELECTRIC_POSITIVE_COUNT",
              "defaultGlobalValueOnCreate": 0.0,
              "valueSteps": [-1.0, 0.5, 1.5],
              "modifierNameSteps": ["Discharge_Timer", "Discharge_Timer_Off"]
            }
          ],
          "properties": {
            "Actor_ElecSubHurtDelta": 1.0
          },
          "onAdded": [
            {
              "$type": "AddGlobalValue",
              "ratio": 0.0,
              "key": "_ABILITY_SLIME_ELECTRIC_PROPERITY",
              "useLimitRange": true,
              "maxValue": 1.0,
              "minValue": 0.0
            },
            {
              "$type": "ApplyModifier",
              "modifierName": "Discharge_Timer"
            },
            {
              "$type": "SetPoseBool",
              "boolID": "ElementState",
              "ratio": true
            },
            {
              "$type": "SetAnimatorBool",
              "boolID": "SkinShader",
              "ratio": true
            },
            {
              "$type": "AttachEffect",
              "healLimitedByCasterMaxHPRatio": "Eff_Monster_Slime_Electric_Idle",
              "MEMHGJDEPJA": -1.0
            }
          ],
          "onRemoved": [
            {
              "$type": "ClearGlobalValue",
              "key": "_ABILITY_SLIME_ELECTRIC_PROPERITY"
            },
            {
              "$type": "RemoveModifier",
              "modifierName": "Discharge_Timer"
            },
            {
              "$type": "RemoveModifier",
              "modifierName": "Discharge_Transition"
            },
            {
              "$type": "SetPoseBool",
              "boolID": "ElementState"
            },
            {
              "$type": "SetAnimatorBool",
              "boolID": "SkinShader"
            },
            {
              "$type": "ApplyModifier",
              "modifierName": "RebornTimer"
            }
          ],
          "onBeingHit": [
            {
              "$type": "AddElementDurability",
              "predicates": [
                {
                  "$type": "ByHitElement",
                  "element": "Electric"
                }
              ],
              "ratio": 25.0,
              "modifierName": "UNIQUE_SLime_Electric_ElementState",
              "useLimitRange": true,
              "maxValue": 200.0,
              "minValue": 0.0
            }
          ],
          "onThinkInterval": [
            {
              "$type": "AddGlobalValue",
              "ratio": -10.0,
              "key": "_ABILITY_SLIME_ELECTRIC_POSITIVE_COUNT",
              "useLimitRange": true,
              "maxValue": 1.0,
              "minValue": 0.0
            },
            {
              "$type": "Predicated",
              "otherTargets": {
                "$type": "SelectTargetsByShape",
                "shapeName": "CircleR15",
                "campTargetType": "SelfCamp",
                "sizeRatio": 1.0
              },
              "targetPredicates": [
                {
                  "$type": "ByEntityTypes",
                  "entityTypes": ["Monster"]
                },
                {
                  "$type": "ByTargetGlobalValue",
                  "key": "_ABILITY_SLIME_ELECTRIC_PROPERITY",
                  "ratio": 1.0
                },
                {
                  "$type": "ByAnimatorFloat",
                  "ratio": 100.0,
                  "parameter": "PoseID"
                }
              ],
              "successActions": [
                {
                  "$type": "AddGlobalValue",
                  "ratio": 1.0,
                  "key": "_ABILITY_SLIME_ELECTRIC_POSITIVE_COUNT",
                  "useLimitRange": true,
                  "maxValue": 1.0,
                  "minValue": 0.0
                },
                {
                  "$type": "SetPartControlTarget",
                  "target": "Target",
                  "partRootNames": ["AntennaControl"]
                }
              ]
            },
            {
              "$type": "Predicated",
              "targetPredicates": [
                {
                  "$type": "ByTargetGlobalValue",
                  "key": "_ABILITY_SLIME_ELECTRIC_POSITIVE_COUNT",
                  "ratio": 0.0,
                  "compareType": "MoreThan"
                }
              ],
              "successActions": [
                {
                  "$type": "SetPoseBool",
                  "boolID": "IsAttract",
                  "ratio": true
                },
                {
                  "$type": "SetAnimatorBool",
                  "boolID": "IsAttract",
                  "ratio": true
                },
                {
                  "$type": "EnablePartControl",
                  "partRootNames": ["AntennaControl"],
                  "enable": true
                }
              ],
              "failActions": [
                {
                  "$type": "SetPoseBool",
                  "boolID": "IsAttract"
                },
                {
                  "$type": "SetAnimatorBool",
                  "boolID": "IsAttract"
                },
                {
                  "$type": "EnablePartControl",
                  "partRootNames": ["AntennaControl"]
                }
              ]
            }
          ]
        },
        "RebornTimer": {
          "modifierName": "",
          "DCEFILPANJI": 15.0,
          "bonusCriticalHurt": 100.0,
          "onAdded": [
            {
              "$type": "SetPoseBool",
              "boolID": "RebornGCD",
              "ratio": true
            }
          ],
          "onRemoved": [
            {
              "$type": "SetPoseBool",
              "boolID": "RebornGCD"
            }
          ]
        },
        "Discharge": {
          "modifierName": "",
          "DCEFILPANJI": 0.05000000074505806,
          "bonusCriticalHurt": 100.0,
          "onRemoved": [
            {
              "$type": "FireEffect",
              "healLimitedByCasterMaxHPRatio": "Eff_Monster_Slime_Electric_Discharge_Ready",
              "MEMHGJDEPJA": -1.0
            },
            {
              "$type": "FireEffect",
              "healLimitedByCasterMaxHPRatio": "Eff_Monster_Slime_Electric_Discharge",
              "born": {
                "$type": "ConfigBornByAttachPoint",
                "offset": {
                  "AMODPKJAIGF": 0.0,
                  "DBJCBJPOOAP": -0.30000001192092896,
                  "JDFJGADACKC": 0.0
                },
                "direction": {
                  "$type": "ConfigDirectionByEntity"
                },
                "attachPointName": "ElectrifiedBody"
              },
              "MEMHGJDEPJA": -1.0
            },
            {
              "$type": "TriggerAttackEvent",
              "attackEvent": {
                "attackPattern": {
                  "$type": "ConfigAttackCircle",
                  "triggerType": "TriggerNoRepeat",
                  "born": {
                    "$type": "ConfigBornBySelf",
                    "offset": {
                      "AMODPKJAIGF": 0.0,
                      "DBJCBJPOOAP": 0.75,
                      "JDFJGADACKC": -0.6000000238418579
                    }
                  },
                  "height": 0.75,
                  "ILKJCNJJPEL": 2.9000000953674316
                },
                "attackInfo": {
                  "attackTag": "",
                  "attenuationTag": "",
                  "attenuationGroup": "default",
                  "attackProperty": {
                    "EHFOGJFHDPE": 1.0,
                    "GDADKLDBGIM": 0.0,
                    "elementType": "Electric",
                    "bonusCriticalHurt": 50.0,
                    "strikeType": "Default",
                    "enBreak": 80.0
                  },
                  "hitPattern": {
                    "onHitEffectName": "default",
                    "hitLevel": "Light",
                    "JHGPNBPAIHP": 200.0,
                    "hitImpulseY": 0.0,
                    "hitImpulseType": "",
                    "hitHaltTimeScale": 0.009999999776482582
                  }
                }
              },
              "targetType": "Enemy"
            },
            {
              "$type": "TriggerAttackEvent",
              "attackEvent": {
                "attackPattern": {
                  "$type": "ConfigAttackCircle",
                  "triggerType": "TriggerNoRepeat",
                  "born": {
                    "$type": "ConfigBornBySelf",
                    "offset": {
                      "AMODPKJAIGF": 0.0,
                      "DBJCBJPOOAP": 0.75,
                      "JDFJGADACKC": -0.6000000238418579
                    }
                  },
                  "height": 0.75,
                  "ILKJCNJJPEL": 2.9000000953674316
                },
                "attackInfo": {
                  "attackTag": "",
                  "attenuationTag": "",
                  "attenuationGroup": "default",
                  "attackProperty": {
                    "EHFOGJFHDPE": 0.0,
                    "GDADKLDBGIM": 0.0,
                    "elementType": "Electric",
                    "bonusCriticalHurt": 50.0,
                    "enBreak": 80.0
                  }
                }
              },
              "targetType": "Alliance"
            },
            {
              "$type": "AddGlobalValue",
              "ratio": 0.0,
              "key": "_ABILITY_SLIME_ELECTRIC_DISCHARGE",
              "useLimitRange": true,
              "randomInRange": true,
              "maxValue": 9.0,
              "minValue": 5.0
            },
            {
              "$type": "SetGlobalValueToOverrideMap",
              "globalValueKey": "_ABILITY_SLIME_ELECTRIC_DISCHARGE",
              "overrideMapKey": "DischargeTime"
            },
            {
              "$type": "ApplyModifier",
              "modifierName": "Discharge_Timer"
            },
            {
              "$type": "AddElementDurability",
              "ratio": -25.0,
              "modifierName": "UNIQUE_SLime_Electric_ElementState",
              "useLimitRange": true,
              "maxValue": 200.0,
              "minValue": 0.0
            }
          ]
        },
        "Discharge_Timer": {
          "modifierName": "",
          "DCEFILPANJI": "DischargeTime",
          "bonusCriticalHurt": 100.0,
          "onAdded": [
            {
              "$type": "AttachEffect",
              "healLimitedByCasterMaxHPRatio": "Eff_Monster_Slime_Electric_Discharge_Gap",
              "born": {
                "$type": "ConfigBornByAttachPoint",
                "attachPointName": "ElectrifiedBody"
              },
              "MEMHGJDEPJA": -1.0
            }
          ],
          "onRemoved": [
            {
              "$type": "ApplyModifier",
              "predicates": [
                {
                  "$type": "ByAnimatorFloat",
                  "ratio": 100.0,
                  "parameter": "PoseID"
                },
                {
                  "$type": "ByTargetGlobalValue",
                  "key": "_ABILITY_SLIME_ELECTRIC_POSITIVE_COUNT",
                  "ratio": 0.0,
                  "setTarget": true
                }
              ],
              "modifierName": "Discharge_Transition"
            },
            {
              "$type": "SetAnimatorTrigger",
              "predicates": [
                {
                  "$type": "ByAnimatorFloat",
                  "ratio": 100.0,
                  "parameter": "PoseID"
                },
                {
                  "$type": "ByTargetGlobalValue",
                  "key": "_ABILITY_SLIME_ELECTRIC_POSITIVE_COUNT",
                  "ratio": 0.0,
                  "setTarget": true
                }
              ],
              "triggerID": "Discharge"
            }
          ]
        },
        "Discharge_Timer_Off": {
          "modifierName": "",
          "bonusCriticalHurt": 100.0,
          "onAdded": [
            {
              "$type": "AttachEffect",
              "healLimitedByCasterMaxHPRatio": "Eff_Monster_Slime_Electric_Discharge_Gap",
              "born": {
                "$type": "ConfigBornByAttachPoint",
                "attachPointName": "ElectrifiedBody"
              },
              "MEMHGJDEPJA": -1.0
            }
          ]
        },
        "Discharge_Transition": {
          "modifierName": "",
          "DCEFILPANJI": 0.5,
          "bonusCriticalHurt": 100.0,
          "onAdded": [
            {
              "$type": "AttachEffect",
              "healLimitedByCasterMaxHPRatio": "Eff_Monster_Slime_Electric_Discharge_BS",
              "MEMHGJDEPJA": -1.0
            },
            {
              "$type": "TriggerFaceAnimation",
              "faceAnimation": "Attack"
            }
          ],
          "onRemoved": [
            {
              "$type": "ApplyModifier",
              "predicates": [
                {
                  "$type": "ByAnimatorFloat",
                  "ratio": 100.0,
                  "parameter": "PoseID"
                }
              ],
              "modifierName": "Discharge"
            }
          ]
        }
      },
      "onAdded": [
        {
          "$type": "ApplyModifier",
          "modifierName": "UNIQUE_SLime_Electric_ElementState"
        }
      ],
      "onAbilityStart": [
        {
          "$type": "ApplyModifier",
          "modifierName": "UNIQUE_SLime_Electric_ElementState"
        }
      ]
    }
  },
  {
    "Default": {
      "$type": "ConfigAbility",
      "abilityName": "Slime_Electric_03_Immune2_ElementState",
      "abilitySpecials": {
        "DischargeTime": 7.0
      },
      "modifiers": {
        "UNIQUE_SLime_Electric_ElementState": {
          "modifierName": "",
          "isUnique": true,
          "elementType": "Electric",
          "bonusCriticalHurt": 200.0,
          "thinkInterval": 1.0,
          "modifierMixins": [
            {
              "$type": "ReplaceEventPatternMixin",
              "oldPatterns": [
                "Monster_Slime_Electric_03_NormalAttack",
                "Monster_Slime_Electric_JumpAttack"
              ],
              "newPatterns": [
                "Monster_Slime_Electric_03_NormalAttack_Electric",
                "Monster_Slime_Electric_JumpAttack_Electric"
              ]
            },
            {
              "$type": "AttachModifierToSelfGlobalValueMixin",
              "globalValueKey": "_ABILITY_SLIME_ELECTRIC_POSITIVE_COUNT",
              "defaultGlobalValueOnCreate": 0.0,
              "valueSteps": [-1.0, 0.5, 1.5],
              "modifierNameSteps": ["Discharge_Timer", "Discharge_Timer_Off"]
            }
          ],
          "properties": {
            "Actor_ElecSubHurtDelta": 1.0
          },
          "onAdded": [
            {
              "$type": "AddGlobalValue",
              "ratio": 0.0,
              "key": "_ABILITY_SLIME_ELECTRIC_PROPERITY",
              "useLimitRange": true,
              "maxValue": 1.0,
              "minValue": 0.0
            },
            {
              "$type": "ApplyModifier",
              "modifierName": "Discharge_Timer"
            },
            {
              "$type": "SetPoseBool",
              "boolID": "ElementState",
              "ratio": true
            },
            {
              "$type": "SetAnimatorBool",
              "boolID": "SkinShader",
              "ratio": true
            },
            {
              "$type": "AttachEffect",
              "healLimitedByCasterMaxHPRatio": "Eff_Monster_Slime_Electric_Idle",
              "MEMHGJDEPJA": -1.0
            }
          ],
          "onRemoved": [
            {
              "$type": "ClearGlobalValue",
              "key": "_ABILITY_SLIME_ELECTRIC_PROPERITY"
            },
            {
              "$type": "RemoveModifier",
              "modifierName": "Discharge_Timer"
            },
            {
              "$type": "RemoveModifier",
              "modifierName": "Discharge_Transition"
            },
            {
              "$type": "SetPoseBool",
              "boolID": "ElementState"
            },
            {
              "$type": "SetAnimatorBool",
              "boolID": "SkinShader"
            },
            {
              "$type": "ApplyModifier",
              "modifierName": "RebornTimer"
            }
          ],
          "onBeingHit": [
            {
              "$type": "AddElementDurability",
              "predicates": [
                {
                  "$type": "ByHitElement",
                  "element": "Electric"
                }
              ],
              "ratio": 25.0,
              "modifierName": "UNIQUE_SLime_Electric_ElementState",
              "useLimitRange": true,
              "maxValue": 200.0,
              "minValue": 0.0
            }
          ],
          "onThinkInterval": [
            {
              "$type": "AddGlobalValue",
              "ratio": -10.0,
              "key": "_ABILITY_SLIME_ELECTRIC_POSITIVE_COUNT",
              "useLimitRange": true,
              "maxValue": 1.0,
              "minValue": 0.0
            },
            {
              "$type": "Predicated",
              "otherTargets": {
                "$type": "SelectTargetsByShape",
                "shapeName": "CircleR15",
                "campTargetType": "SelfCamp",
                "sizeRatio": 1.0
              },
              "targetPredicates": [
                {
                  "$type": "ByEntityTypes",
                  "entityTypes": ["Monster"]
                },
                {
                  "$type": "ByTargetGlobalValue",
                  "key": "_ABILITY_SLIME_ELECTRIC_PROPERITY",
                  "ratio": 1.0
                },
                {
                  "$type": "ByHasElement",
                  "element": "Electric"
                }
              ],
              "successActions": [
                {
                  "$type": "AddGlobalValue",
                  "ratio": 1.0,
                  "key": "_ABILITY_SLIME_ELECTRIC_POSITIVE_COUNT",
                  "useLimitRange": true,
                  "maxValue": 1.0,
                  "minValue": 0.0
                },
                {
                  "$type": "SetPartControlTarget",
                  "target": "Target",
                  "partRootNames": ["AntennaControl"]
                }
              ]
            },
            {
              "$type": "Predicated",
              "targetPredicates": [
                {
                  "$type": "ByTargetGlobalValue",
                  "key": "_ABILITY_SLIME_ELECTRIC_POSITIVE_COUNT",
                  "ratio": 0.0,
                  "compareType": "MoreThan"
                }
              ],
              "successActions": [
                {
                  "$type": "SetPoseBool",
                  "boolID": "IsAttract",
                  "ratio": true
                },
                {
                  "$type": "SetAnimatorBool",
                  "boolID": "IsAttract",
                  "ratio": true
                },
                {
                  "$type": "EnablePartControl",
                  "partRootNames": ["AntennaControl"],
                  "enable": true
                }
              ],
              "failActions": [
                {
                  "$type": "SetPoseBool",
                  "boolID": "IsAttract"
                },
                {
                  "$type": "SetAnimatorBool",
                  "boolID": "IsAttract"
                },
                {
                  "$type": "EnablePartControl",
                  "partRootNames": ["AntennaControl"]
                }
              ]
            }
          ]
        },
        "RebornTimer": {
          "modifierName": "",
          "DCEFILPANJI": 15.0,
          "bonusCriticalHurt": 100.0,
          "onAdded": [
            {
              "$type": "SetPoseBool",
              "boolID": "RebornGCD",
              "ratio": true
            }
          ],
          "onRemoved": [
            {
              "$type": "SetPoseBool",
              "boolID": "RebornGCD"
            }
          ]
        },
        "Discharge": {
          "modifierName": "",
          "DCEFILPANJI": 0.05000000074505806,
          "bonusCriticalHurt": 100.0,
          "onRemoved": [
            {
              "$type": "FireEffect",
              "healLimitedByCasterMaxHPRatio": "Eff_Monster_Slime_Electric_Discharge_Ready",
              "MEMHGJDEPJA": -1.0
            },
            {
              "$type": "FireEffect",
              "healLimitedByCasterMaxHPRatio": "Eff_Monster_Slime_Electric_Discharge",
              "born": {
                "$type": "ConfigBornByAttachPoint",
                "offset": {
                  "AMODPKJAIGF": 0.0,
                  "DBJCBJPOOAP": -0.30000001192092896,
                  "JDFJGADACKC": 0.0
                },
                "direction": {
                  "$type": "ConfigDirectionByEntity"
                },
                "attachPointName": "ElectrifiedBody"
              },
              "MEMHGJDEPJA": -1.0
            },
            {
              "$type": "TriggerAttackEvent",
              "attackEvent": {
                "attackPattern": {
                  "$type": "ConfigAttackCircle",
                  "triggerType": "TriggerNoRepeat",
                  "born": {
                    "$type": "ConfigBornBySelf",
                    "offset": {
                      "AMODPKJAIGF": 0.0,
                      "DBJCBJPOOAP": 0.75,
                      "JDFJGADACKC": -0.6000000238418579
                    }
                  },
                  "height": 0.75,
                  "ILKJCNJJPEL": 2.9000000953674316
                },
                "attackInfo": {
                  "attackTag": "",
                  "attenuationTag": "",
                  "attenuationGroup": "default",
                  "attackProperty": {
                    "EHFOGJFHDPE": 1.0,
                    "GDADKLDBGIM": 0.0,
                    "elementType": "Electric",
                    "bonusCriticalHurt": 50.0,
                    "strikeType": "Default",
                    "enBreak": 80.0
                  },
                  "hitPattern": {
                    "onHitEffectName": "default",
                    "hitLevel": "Light",
                    "JHGPNBPAIHP": 200.0,
                    "hitImpulseY": 0.0,
                    "hitImpulseType": "",
                    "hitHaltTimeScale": 0.009999999776482582
                  }
                }
              },
              "targetType": "Enemy"
            },
            {
              "$type": "TriggerAttackEvent",
              "attackEvent": {
                "attackPattern": {
                  "$type": "ConfigAttackCircle",
                  "triggerType": "TriggerNoRepeat",
                  "born": {
                    "$type": "ConfigBornBySelf",
                    "offset": {
                      "AMODPKJAIGF": 0.0,
                      "DBJCBJPOOAP": 0.75,
                      "JDFJGADACKC": -0.6000000238418579
                    }
                  },
                  "height": 0.75,
                  "ILKJCNJJPEL": 2.9000000953674316
                },
                "attackInfo": {
                  "attackTag": "",
                  "attenuationTag": "",
                  "attenuationGroup": "default",
                  "attackProperty": {
                    "EHFOGJFHDPE": 0.0,
                    "GDADKLDBGIM": 0.0,
                    "elementType": "Electric",
                    "bonusCriticalHurt": 50.0,
                    "enBreak": 80.0
                  }
                }
              },
              "targetType": "Alliance"
            },
            {
              "$type": "AddGlobalValue",
              "ratio": 0.0,
              "key": "_ABILITY_SLIME_ELECTRIC_DISCHARGE",
              "useLimitRange": true,
              "randomInRange": true,
              "maxValue": 9.0,
              "minValue": 5.0
            },
            {
              "$type": "SetGlobalValueToOverrideMap",
              "globalValueKey": "_ABILITY_SLIME_ELECTRIC_DISCHARGE",
              "overrideMapKey": "DischargeTime"
            },
            {
              "$type": "ApplyModifier",
              "modifierName": "Discharge_Timer"
            },
            {
              "$type": "AddElementDurability",
              "ratio": -25.0,
              "modifierName": "UNIQUE_SLime_Electric_ElementState",
              "useLimitRange": true,
              "maxValue": 200.0,
              "minValue": 0.0
            }
          ]
        },
        "Discharge_Timer": {
          "modifierName": "",
          "DCEFILPANJI": "DischargeTime",
          "bonusCriticalHurt": 100.0,
          "onAdded": [
            {
              "$type": "AttachEffect",
              "healLimitedByCasterMaxHPRatio": "Eff_Monster_Slime_Electric_Discharge_Gap",
              "born": {
                "$type": "ConfigBornByAttachPoint",
                "attachPointName": "ElectrifiedBody"
              },
              "MEMHGJDEPJA": -1.0
            }
          ],
          "onRemoved": [
            {
              "$type": "ApplyModifier",
              "predicates": [
                {
                  "$type": "ByHasElement",
                  "element": "Electric"
                },
                {
                  "$type": "ByTargetGlobalValue",
                  "key": "_ABILITY_SLIME_ELECTRIC_POSITIVE_COUNT",
                  "ratio": 0.0,
                  "setTarget": true
                }
              ],
              "modifierName": "Discharge_Transition"
            },
            {
              "$type": "SetAnimatorTrigger",
              "predicates": [
                {
                  "$type": "ByHasElement",
                  "element": "Electric"
                },
                {
                  "$type": "ByTargetGlobalValue",
                  "key": "_ABILITY_SLIME_ELECTRIC_POSITIVE_COUNT",
                  "ratio": 0.0,
                  "setTarget": true
                }
              ],
              "triggerID": "Discharge"
            }
          ]
        },
        "Discharge_Timer_Off": {
          "modifierName": "",
          "bonusCriticalHurt": 100.0,
          "onAdded": [
            {
              "$type": "AttachEffect",
              "healLimitedByCasterMaxHPRatio": "Eff_Monster_Slime_Electric_Discharge_Gap",
              "born": {
                "$type": "ConfigBornByAttachPoint",
                "attachPointName": "ElectrifiedBody"
              },
              "MEMHGJDEPJA": -1.0
            }
          ]
        },
        "Discharge_Transition": {
          "modifierName": "",
          "DCEFILPANJI": 0.5,
          "bonusCriticalHurt": 100.0,
          "onAdded": [
            {
              "$type": "AttachEffect",
              "healLimitedByCasterMaxHPRatio": "Eff_Monster_Slime_Electric_Discharge_BS",
              "MEMHGJDEPJA": -1.0
            },
            {
              "$type": "TriggerFaceAnimation",
              "faceAnimation": "Attack"
            }
          ],
          "onRemoved": [
            {
              "$type": "ApplyModifier",
              "predicates": [
                {
                  "$type": "ByHasElement",
                  "element": "Electric"
                }
              ],
              "modifierName": "Discharge"
            }
          ]
        }
      },
      "onAdded": [
        {
          "$type": "ApplyModifier",
          "modifierName": "UNIQUE_SLime_Electric_ElementState"
        }
      ],
      "onAbilityStart": [
        {
          "$type": "ApplyModifier",
          "modifierName": "UNIQUE_SLime_Electric_ElementState"
        }
      ]
    }
  },
  {
    "Default": {
      "$type": "ConfigAbility",
      "abilityName": "Slime_Electric_Immune_JumpGround_castShadow",
      "onAbilityStart": [
        {
          "$type": "TriggerSetCastShadow",
          "predicates": [
            {
              "$type": "ByAnimatorFloat",
              "ratio": 100.0,
              "parameter": "PoseID"
            }
          ]
        },
        {
          "$type": "EnablePushColliderName",
          "pushColliderNames": ["PushCollider"]
        },
        {
          "$type": "FireEffect",
          "predicates": [
            {
              "$type": "ByTargetGlobalValue",
              "key": "_ABILITY_SLIME_ELECTRIC_PROPERITY",
              "ratio": 0.0
            },
            {
              "$type": "ByAnimatorFloat",
              "ratio": 100.0,
              "parameter": "PoseID"
            }
          ],
          "healLimitedByCasterMaxHPRatio": "Eff_Monster_Slime_Electric_JumpPrepared",
          "MEMHGJDEPJA": -1.0
        },
        {
          "$type": "FireEffect",
          "predicates": [
            {
              "$type": "ByTargetGlobalValue",
              "key": "_ABILITY_SLIME_ELECTRIC_PROPERITY",
              "ratio": 1.0
            },
            {
              "$type": "ByAnimatorFloat",
              "ratio": 100.0,
              "parameter": "PoseID"
            }
          ],
          "healLimitedByCasterMaxHPRatio": "Eff_Monster_Slime_Electric_Positive_JumpPrepared",
          "MEMHGJDEPJA": -1.0
        },
        {
          "$type": "ActCameraShake",
          "cameraShake": {
            "shakeType": "CustomVector",
            "shakeRange": 0.05999999865889549,
            "shakeTime": 0.15000000596046448,
            "shakeDir": {
              "y": 1.0
            }
          }
        }
      ]
    }
  },
  {
    "Default": {
      "$type": "ConfigAbility",
      "abilityName": "Slime_Electric_Immune_JumpGround_Alert",
      "modifiers": {
        "JumpGround_Alert": {
          "modifierName": "",
          "DCEFILPANJI": 1.0,
          "bonusCriticalHurt": 100.0,
          "onAdded": [
            {
              "$type": "FireEffect",
              "predicates": [
                {
                  "$type": "ByAnimatorFloat",
                  "ratio": 100.0,
                  "parameter": "PoseID"
                }
              ],
              "healLimitedByCasterMaxHPRatio": "Eff_Monster_Slime_Fire_JumpGround_Alert",
              "born": {
                "$type": "ConfigBornByRushToPoint"
              },
              "MEMHGJDEPJA": -1.0
            }
          ],
          "onRemoved": [
            {
              "$type": "TriggerSetCastShadow",
              "predicates": [
                {
                  "$type": "ByAnimatorFloat",
                  "ratio": 100.0,
                  "parameter": "PoseID"
                }
              ],
              "castShadow": true
            },
            {
              "$type": "EnablePushColliderName",
              "pushColliderNames": ["PushCollider"],
              "setEnable": true
            }
          ]
        }
      },
      "onAbilityStart": [
        {
          "$type": "ApplyModifier",
          "modifierName": "JumpGround_Alert"
        }
      ]
    }
  },
  {
    "Default": {
      "$type": "ConfigAbility",
      "abilityName": "Slime_Electric_Immune_JumpGround_Attack",
      "onAbilityStart": [
        {
          "$type": "FireEffect",
          "predicates": [
            {
              "$type": "ByTargetGlobalValue",
              "key": "_ABILITY_SLIME_ELECTRIC_PROPERITY",
              "ratio": 0.0
            },
            {
              "$type": "ByAnimatorFloat",
              "ratio": 100.0,
              "parameter": "PoseID"
            }
          ],
          "healLimitedByCasterMaxHPRatio": "Eff_Monster_Slime_Electric_JumpGround",
          "MEMHGJDEPJA": -1.0
        },
        {
          "$type": "FireEffect",
          "predicates": [
            {
              "$type": "ByTargetGlobalValue",
              "key": "_ABILITY_SLIME_ELECTRIC_PROPERITY",
              "ratio": 1.0
            },
            {
              "$type": "ByAnimatorFloat",
              "ratio": 100.0,
              "parameter": "PoseID"
            }
          ],
          "healLimitedByCasterMaxHPRatio": "Eff_Monster_Slime_Electric_Positive_JumpGround",
          "MEMHGJDEPJA": -1.0
        },
        {
          "$type": "TriggerAttackEvent",
          "predicates": [
            {
              "$type": "ByAnimatorFloat",
              "ratio": 100.0,
              "parameter": "PoseID"
            }
          ],
          "attackEvent": {
            "attackPattern": {
              "$type": "ConfigAttackCircle",
              "triggerType": "TriggerNoRepeat",
              "born": {
                "$type": "ConfigBornBySelf",
                "offset": {
                  "AMODPKJAIGF": 0.0,
                  "DBJCBJPOOAP": 0.0,
                  "JDFJGADACKC": 0.0
                }
              },
              "height": 1.5,
              "ILKJCNJJPEL": 2.0
            },
            "attackInfo": {
              "attackTag": "",
              "attenuationTag": "",
              "attenuationGroup": "default",
              "attackProperty": {
                "EHFOGJFHDPE": 3.0,
                "GDADKLDBGIM": 0.0,
                "elementType": "Electric",
                "bonusCriticalHurt": 50.0,
                "strikeType": "Blunt",
                "enBreak": 200.0
              },
              "hitPattern": {
                "onHitEffectName": "default",
                "hitLevel": "Air",
                "JHGPNBPAIHP": 655.0,
                "hitImpulseY": 800.0,
                "hitImpulseType": "",
                "hitHaltTimeScale": 0.009999999776482582
              },
              "forceCameraShake": true,
              "cameraShake": {
                "shakeType": "CustomVector",
                "shakeRange": 0.11999999731779099,
                "shakeTime": 0.15000000596046448,
                "shakeDistance": 25.0,
                "shakeDir": {
                  "y": -1.0
                }
              }
            }
          },
          "targetType": "Enemy"
        },
        {
          "$type": "TriggerAttackEvent",
          "predicates": [
            {
              "$type": "ByNot",
              "predicates": [
                {
                  "$type": "ByAnimatorFloat",
                  "ratio": 100.0,
                  "parameter": "PoseID"
                }
              ]
            }
          ],
          "attackEvent": {
            "attackPattern": {
              "$type": "ConfigAttackCircle",
              "triggerType": "TriggerNoRepeat",
              "born": {
                "$type": "ConfigBornBySelf",
                "offset": {
                  "AMODPKJAIGF": 0.0,
                  "DBJCBJPOOAP": 0.0,
                  "JDFJGADACKC": 0.0
                }
              },
              "height": 1.5,
              "ILKJCNJJPEL": 1.25
            },
            "attackInfo": {
              "attackTag": "",
              "attenuationTag": "",
              "attenuationGroup": "default",
              "attackProperty": {
                "EHFOGJFHDPE": 2.0,
                "GDADKLDBGIM": 0.0,
                "bonusCriticalHurt": 100.0,
                "strikeType": "Blunt",
                "enBreak": 50.0
              },
              "hitPattern": {
                "onHitEffectName": "default",
                "hitLevel": "Air",
                "JHGPNBPAIHP": 655.0,
                "hitImpulseY": 800.0,
                "hitImpulseType": "",
                "hitHaltTimeScale": 0.009999999776482582
              },
              "forceCameraShake": true,
              "cameraShake": {
                "shakeType": "CustomVector",
                "shakeRange": 0.11999999731779099,
                "shakeTime": 0.15000000596046448,
                "shakeDistance": 25.0,
                "shakeDir": {
                  "y": -1.0
                }
              }
            }
          },
          "targetType": "Enemy"
        }
      ]
    }
  },
  {
    "Default": {
      "$type": "ConfigAbility",
      "abilityName": "Slime_Fire_Immune_FindHome_FireBall",
      "onAdded": [
        {
          "$type": "AddGlobalValue",
          "ratio": 1.0,
          "key": "_SLIME_FIRE_IMMUNE2_TAG",
          "maxValue": 1.0,
          "minValue": 0.0
        }
      ],
      "onAbilityStart": [
        {
          "$type": "TriggerBullet",
          "predicates": [
            {
              "$type": "ByHasElement",
              "element": "Fire"
            }
          ],
          "bulletID": 42001023,
          "born": {
            "$type": "ConfigBornByAttachPoint",
            "offset": {
              "AMODPKJAIGF": 5.0,
              "DBJCBJPOOAP": 0.0,
              "JDFJGADACKC": 0.0
            },
            "direction": {
              "$type": "ConfigDirectionByAttackTarget"
            },
            "attachPointName": "RootNode"
          },
          "lifeByOwnerIsAlive": true,
          "trackTarget": "Self"
        },
        {
          "$type": "TriggerBullet",
          "predicates": [
            {
              "$type": "ByHasElement",
              "element": "Fire"
            }
          ],
          "bulletID": 42001023,
          "born": {
            "$type": "ConfigBornByAttachPoint",
            "offset": {
              "AMODPKJAIGF": -5.0,
              "DBJCBJPOOAP": 0.0,
              "JDFJGADACKC": 0.0
            },
            "direction": {
              "$type": "ConfigDirectionByAttackTarget"
            },
            "attachPointName": "RootNode"
          },
          "lifeByOwnerIsAlive": true,
          "trackTarget": "Self"
        },
        {
          "$type": "TriggerBullet",
          "predicates": [
            {
              "$type": "ByHasElement",
              "element": "Fire"
            }
          ],
          "bulletID": 42001023,
          "born": {
            "$type": "ConfigBornByAttachPoint",
            "offset": {
              "AMODPKJAIGF": 0.0,
              "DBJCBJPOOAP": 0.0,
              "JDFJGADACKC": -5.0
            },
            "direction": {
              "$type": "ConfigDirectionByAttackTarget"
            },
            "attachPointName": "RootNode"
          },
          "lifeByOwnerIsAlive": true,
          "trackTarget": "Self"
        },
        {
          "$type": "FireEffect",
          "predicates": [
            {
              "$type": "ByNot",
              "predicates": [
                {
                  "$type": "ByHasElement",
                  "element": "Fire"
                }
              ]
            }
          ],
          "healLimitedByCasterMaxHPRatio": "Eff_Monster_F_Slime_FireSmoke",
          "MEMHGJDEPJA": -1.0
        }
      ]
    }
  },
  {
    "Default": {
      "$type": "ConfigAbility",
      "abilityName": "Slime_Fire_Immune_FireBall_Explode",
      "modifiers": {
        "RebornAsRigidBody_Trigger": {
          "modifierName": "",
          "bonusCriticalHurt": 100.0,
          "onBeingHit": [
            {
              "$type": "TriggerAbility",
              "target": "Owner",
              "predicates": [
                {
                  "$type": "ByAttackTags",
                  "attackTags": ["ExplodeDamage"]
                }
              ],
              "abilityName": "Slime_Fire_Immune_FireBall_RebornAsRigidBody"
            },
            {
              "$type": "AddGlobalValue",
              "ratio": 1.0,
              "key": "_SLIME_FIRE_IMMUNE_FIREBALL_HITFLAG",
              "useLimitRange": true,
              "maxValue": 1.0,
              "minValue": 0.0
            }
          ]
        }
      },
      "onAdded": [
        {
          "$type": "ApplyModifier",
          "modifierName": "RebornAsRigidBody_Trigger"
        }
      ],
      "onAbilityStart": [
        {
          "$type": "RemoveUniqueModifier",
          "modifierName": "UNIQUE_FireBall_Loop"
        },
        {
          "$type": "KillSelf",
          "target": "Owner",
          "predicates": [
            {
              "$type": "ByTargetPositionToSelfPosition",
              "logic": "Lesser",
              "ratio": 1.0
            }
          ],
          "duration": 0.20000000298023224
        }
      ]
    }
  },
  {
    "Default": {
      "$type": "ConfigAbility",
      "abilityName": "Slime_Fire_Immune_FireBall_RebornAsRigidBody",
      "onAbilityStart": [
        {
          "$type": "CreateGadget",
          "otherTargets": {
            "$type": "SelectTargetsByShape",
            "topLimit": 5,
            "shapeName": "CircleR10",
            "campTargetType": "SelfCamp",
            "sizeRatio": 1.0
          },
          "predicates": [
            {
              "$type": "ByTargetGlobalValue",
              "key": "_SLIME_FIRE_IMMUNE_FIREBALL_HITFLAG",
              "ratio": 1.0
            }
          ],
          "born": {
            "$type": "ConfigBornByTarget"
          },
          "gadgetID": 42001025,
          "campID": 4001,
          "campTargetType": "Enemy"
        },
        {
          "$type": "KillSelf",
          "otherTargets": {
            "$type": "SelectTargetsByShape",
            "topLimit": 5,
            "shapeName": "CircleR10",
            "campTargetType": "SelfCamp",
            "sizeRatio": 1.0
          },
          "predicates": [
            {
              "$type": "ByTargetGlobalValue",
              "key": "_SLIME_FIRE_IMMUNE_FIREBALL_HITFLAG",
              "ratio": 1.0
            }
          ]
        }
      ]
    }
  },
  {
    "Default": {
      "$type": "ConfigAbility",
      "abilityName": "Slime_Fire_Immune_FireBall_RigidBody",
      "onAdded": [
        {
          "$type": "TriggerAttackEvent",
          "attackEvent": {
            "attackPattern": {
              "$type": "ConfigAttackSphere",
              "triggerType": "TriggerNoRepeat",
              "born": {
                "$type": "ConfigBornByTarget",
                "offset": {
                  "AMODPKJAIGF": 0.0,
                  "DBJCBJPOOAP": 0.0,
                  "JDFJGADACKC": 0.0
                }
              },
              "ILKJCNJJPEL": 5.0
            },
            "attackInfo": {
              "attackTag": "ExplodeDamage",
              "attenuationTag": "",
              "attenuationGroup": "default",
              "attackProperty": {
                "EHFOGJFHDPE": 0.0,
                "GDADKLDBGIM": 0.0,
                "elementType": "Fire",
                "bonusCriticalHurt": 0.0,
                "ignoreAttackerProperty": true,
                "strikeType": "Blunt",
                "enBreak": 130.0,
                "damageExtra": 0.0
              },
              "hitPattern": {
                "onHitEffectName": "",
                "hitLevel": "Air",
                "JHGPNBPAIHP": 480.0,
                "hitImpulseY": 600.0,
                "hitImpulseType": "",
                "hitHaltTimeScale": 0.05000000074505806
              }
            }
          },
          "targetType": "Self"
        },
        {
          "$type": "FireEffect",
          "healLimitedByCasterMaxHPRatio": "Eff_Monster_Slime_Fire_FireBall_HitGround",
          "MEMHGJDEPJA": -1.0
        }
      ],
      "onAbilityStart": [
        {
          "$type": "KillSelf"
        }
      ]
    }
  },
  {
    "Default": {
      "$type": "ConfigAbility",
      "abilityName": "Slime_Fire_Immune_JumpGround_Attack",
      "onAbilityStart": [
        {
          "$type": "TriggerAttackEvent",
          "predicates": [
            {
              "$type": "ByHasElement",
              "element": "Fire"
            }
          ],
          "attackEvent": {
            "attackPattern": {
              "$type": "ConfigAttackCircle",
              "triggerType": "TriggerNoRepeat",
              "born": {
                "$type": "ConfigBornBySelf",
                "offset": {
                  "AMODPKJAIGF": 0.0,
                  "DBJCBJPOOAP": 0.0,
                  "JDFJGADACKC": 0.0
                }
              },
              "height": 1.5,
              "ILKJCNJJPEL": 2.0
            },
            "attackInfo": {
              "attackTag": "",
              "attenuationTag": "",
              "attenuationGroup": "default",
              "attackProperty": {
                "EHFOGJFHDPE": 3.0,
                "GDADKLDBGIM": 0.0,
                "elementType": "Fire",
                "bonusCriticalHurt": 50.0,
                "strikeType": "Blunt",
                "enBreak": 200.0
              },
              "hitPattern": {
                "onHitEffectName": "default",
                "hitLevel": "Air",
                "JHGPNBPAIHP": 480.0,
                "hitImpulseY": 600.0,
                "hitImpulseType": "",
                "hitHaltTimeScale": 0.009999999776482582
              },
              "forceCameraShake": true,
              "cameraShake": {
                "shakeType": "CustomVector",
                "shakeRange": 0.11999999731779099,
                "shakeTime": 0.15000000596046448,
                "shakeDistance": 25.0,
                "shakeDir": {
                  "y": -1.0
                }
              }
            }
          },
          "targetType": "Enemy"
        },
        {
          "$type": "TriggerAttackEvent",
          "predicates": [
            {
              "$type": "ByNot",
              "predicates": [
                {
                  "$type": "ByHasElement",
                  "element": "Fire"
                }
              ]
            }
          ],
          "attackEvent": {
            "attackPattern": {
              "$type": "ConfigAttackCircle",
              "triggerType": "TriggerNoRepeat",
              "born": {
                "$type": "ConfigBornBySelf",
                "offset": {
                  "AMODPKJAIGF": 0.0,
                  "DBJCBJPOOAP": 0.0,
                  "JDFJGADACKC": 0.0
                }
              },
              "height": 1.5,
              "ILKJCNJJPEL": 1.25
            },
            "attackInfo": {
              "attackTag": "",
              "attenuationTag": "",
              "attenuationGroup": "default",
              "attackProperty": {
                "EHFOGJFHDPE": 2.0,
                "GDADKLDBGIM": 0.0,
                "bonusCriticalHurt": 100.0,
                "overrideByWeapon": true,
                "strikeType": "Blunt",
                "enBreak": 50.0
              },
              "hitPattern": {
                "onHitEffectName": "default",
                "hitLevel": "Air",
                "JHGPNBPAIHP": 480.0,
                "hitImpulseY": 600.0,
                "hitImpulseType": "",
                "hitHaltTimeScale": 0.009999999776482582
              },
              "forceCameraShake": true,
              "cameraShake": {
                "shakeType": "CustomVector",
                "shakeRange": 0.11999999731779099,
                "shakeTime": 0.15000000596046448,
                "shakeDistance": 25.0,
                "shakeDir": {
                  "y": -1.0
                }
              }
            }
          },
          "targetType": "Enemy"
        }
      ]
    }
  }
]
