[
  {
    "Default": {
      "$type": "ConfigAbility",
      "abilityName": "Monster_FungusFighterV2_Tower_SkillBanAttack",
      "modifiers": {
        "Monster_FungusFighterV2_Tower_SkillBanAttack": {
          "modifierName": "",
          "duration": 3.0,
          "bonusCriticalHurt": 100.0,
          "onAdded": [
            {
              "$type": "UseSkillEliteSet",
              "skillEliteSetID": 2
            }
          ],
          "onRemoved": [
            {
              "$type": "UseSkillEliteSet",
              "skillEliteSetID": 1
            }
          ]
        }
      },
      "onAdded": [
        {
          "$type": "UseSkillEliteSet",
          "skillEliteSetID": 1
        }
      ],
      "onAbilityStart": [
        {
          "$type": "ApplyModifier",
          "modifierName": "Monster_FungusFighterV2_Tower_SkillBanAttack"
        }
      ]
    }
  },
  {
    "Default": {
      "$type": "ConfigAbility",
      "abilityName": "Monster_FungusFighterV2_Tower_BornEffectPhysics",
      "modifiers": {
        "Monster_FungusFighterV2_Tower_BornEffectPhysics": {
          "modifierName": "",
          "bonusCriticalHurt": 100.0,
          "onAdded": [
            {
              "$type": "AttachEffect",
              "healLimitedByCasterMaxHPRatio": "Eff_SceneObject_FungusFighterV2_Warning_01_01",
              "effectTempleteID": -1.0
            }
          ]
        }
      },
      "onAdded": [
        {
          "$type": "ApplyModifier",
          "modifierName": "Monster_FungusFighterV2_Tower_BornEffectPhysics"
        }
      ],
      "onKill": [
        {
          "$type": "RemoveModifier",
          "modifierName": "Monster_FungusFighterV2_Tower_BornEffectPhysics"
        }
      ]
    }
  },
  {
    "Default": {
      "$type": "ConfigAbility",
      "abilityName": "Monster_FungusFighterV2_Tower_BornEffectGeneral",
      "modifiers": {
        "Monster_FungusFighterV2_Tower_BornEffectGeneral": {
          "modifierName": "",
          "bonusCriticalHurt": 100.0,
          "onAdded": [
            {
              "$type": "AttachEffect",
              "healLimitedByCasterMaxHPRatio": "Eff_SceneObject_FungusFighterV2_Warning_01_02",
              "effectTempleteID": -1.0
            }
          ]
        }
      },
      "onAdded": [
        {
          "$type": "ApplyModifier",
          "modifierName": "Monster_FungusFighterV2_Tower_BornEffectGeneral"
        }
      ],
      "onKill": [
        {
          "$type": "RemoveModifier",
          "modifierName": "Monster_FungusFighterV2_Tower_BornEffectGeneral"
        }
      ]
    }
  },
  {
    "Default": {
      "$type": "ConfigAbility",
      "abilityName": "Monster_FungusFighterV2_Tower_Born",
      "abilityMixins": [
        {
          "$type": "ActivityFungusMixin",
          "mixinType": "Tower",
          "NBCGPLFHGAO": "Eff_Monster_FungusFighterV2_SelectTower",
          "ANCJNDOKHIE": "",
          "HCMOELHGHGG": "",
          "EGLJGONNJAH": "Eff_Monster_FungusFighterV2_LineToTarget",
          "LLHHDJDHILE": "",
          "PGAHOMDPLKG": "",
          "PKFAABDDGLN": "",
          "LMCJIEJOADB": "Eff_Monster_FungusFighterV2_TowerBeLock",
          "CJNEHEIIDPP": "",
          "BELNDJPNAFN": "Eff_Monster_FungusFighterV2_TowerBeAttacked",
          "abilityName": ""
        },
        {
          "$type": "DoActionBySelfElementReactionMixin",
          "reactionTypes": [
            "Burning",
            "CrystallizeElectric",
            "CrystallizeFire",
            "CrystallizeIce",
            "CrystallizeWater",
            "Explode",
            "Freeze",
            "FrozenBroken",
            "Overdose",
            "Melt",
            "Overdose",
            "OverdoseElectric",
            "OverdoseGrass",
            "Overgrow",
            "Shock",
            "Superconductor",
            "SwirlElectric",
            "SwirlFire",
            "SwirlIce",
            "SwirlWater",
            "Stream"
          ],
          "actionQueue": [
            {
              "$type": "Predicated",
              "target": "Team",
              "targetPredicates": [
                {
                  "$type": "ByTargetGlobalValue",
                  "key": "SGV_Leyline_Type",
                  "ratio": 3.0
                }
              ],
              "successActions": [
                {
                  "$type": "ServerLuaCall",
                  "luaCallType": "CurGalleryControlGroup",
                  "funcName": "SLC_Element_Reaction",
                  "MPPMFEDKGHC": 0.0,
                  "BOKNHLDBKKK": 0.0,
                  "CHOIIMHDNHK": 0.0
                }
              ]
            }
          ]
        }
      ],
      "modifiers": {
        "Monster_FungusFighterV2_Tower_ResistState": {
          "modifierName": "",
          "bonusCriticalHurt": 100.0,
          "onAdded": [
            {
              "$type": "AttachAbilityStateResistance",
              "resistanceBuffDebuffs": [
                "ElementFrozen",
                "ElementPetrifaction",
                "ElementFreeze"
              ]
            }
          ]
        },
        "Monster_FungusFighterV2_Tower_BornWindZone": {
          "modifierName": "",
          "duration": 0.5,
          "bonusCriticalHurt": 100.0,
          "modifierMixins": [
            {
              "$type": "WindZoneMixin",
              "shapeName": "CircleR1.5",
              "born": {
                "$type": "ConfigBornBySelf",
                "offset": {
                  "x": 0.0,
                  "y": 0.0,
                  "z": 0.0
                },
                "IABNJPGBAOH": true
              },
              "PLJPAAFMNAD": -20.0,
              "LNPFPGALPJH": 2.0,
              "innerRadius": 0.0,
              "targetType": "Enemy",
              "predicates": [
                {
                  "$type": "ByEntityTypes",
                  "entityTypes": ["Avatar", "Partner"]
                }
              ],
              "modifierName": ""
            }
          ]
        },
        "Monster_FungusFighterV2_Tower_Born_handler": {
          "modifierName": "",
          "duration": 0.10000000149011612,
          "bonusCriticalHurt": 100.0,
          "modifierMixins": [
            {
              "$type": "AttachActionToModifierMixin",
              "onAdded": [
                {
                  "$type": "HideUIBillBoard",
                  "hide": true
                },
                {
                  "$type": "EnableHitBoxByName",
                  "hitBoxNames": ["HitBox"]
                }
              ],
              "onRemoved": [
                {
                  "$type": "HideUIBillBoard"
                },
                {
                  "$type": "EnableHitBoxByName",
                  "hitBoxNames": ["HitBox"],
                  "setEnable": true
                }
              ]
            }
          ],
          "onAdded": [
            {
              "$type": "FireEffect",
              "healLimitedByCasterMaxHPRatio": "Eff_Monster_FungusFighterV2_Tower_Born",
              "effectTempleteID": -1.0
            },
            {
              "$type": "ApplyModifier",
              "modifierName": "Monster_FungusFighterV2_Tower_BornWindZone"
            }
          ]
        }
      },
      "onAdded": [
        {
          "$type": "ApplyModifier",
          "modifierName": "Monster_FungusFighterV2_Tower_Born_handler"
        },
        {
          "$type": "SetGlobalValue",
          "ratio": 1.0,
          "key": "_IS_FFV2_TOWER",
          "maxValue": 0.0,
          "minValue": 0.0
        },
        {
          "$type": "ApplyModifier",
          "modifierName": "Monster_FungusFighterV2_Tower_ResistState"
        }
      ],
      "onKill": [
        {
          "$type": "FireEffect",
          "healLimitedByCasterMaxHPRatio": "Eff_Monster_FungusFighterV2_Tower_Die",
          "effectTempleteID": -1.0
        }
      ]
    }
  },
  {
    "Default": {
      "$type": "ConfigAbility",
      "abilityName": "Monster_FungusFighterV2_TowerFire_FireBullet",
      "modifiers": {
        "Monster_FungusFighterV2_TowerFire_FireBullet": {
          "modifierName": "",
          "bonusCriticalHurt": 100.0,
          "onAdded": [
            {
              "$type": "AttachEffect",
              "healLimitedByCasterMaxHPRatio": "Eff_Monster_FungusFighterV2_Tower_FireBullet",
              "effectTempleteID": -1.0
            },
            {
              "$type": "AttachEffect",
              "healLimitedByCasterMaxHPRatio": "Eff_Monster_FungusFighterV2_Tower_FireBullet_Trail",
              "effectTempleteID": -1.0
            }
          ]
        }
      },
      "onAdded": [
        {
          "$type": "ApplyModifier",
          "modifierName": "Monster_FungusFighterV2_TowerFire_FireBullet"
        }
      ],
      "onAbilityStart": [
        {
          "$type": "FireEffect",
          "healLimitedByCasterMaxHPRatio": "Eff_SceneObj_TowerFire_01_Hit",
          "effectTempleteID": -1.0
        },
        {
          "$type": "TriggerAttackEvent",
          "attackEvent": {
            "attackPattern": {
              "$type": "ConfigAttackSphere",
              "triggerType": "TriggerNoRepeat",
              "born": {
                "$type": "ConfigBornByCollisionPoint"
              },
              "radius": 0.5
            },
            "attackInfo": {
              "attackTag": "",
              "attenuationTag": "",
              "attenuationGroup": "default",
              "attackProperty": {
                "damagePercentage": 2.0,
                "damagePercentageRatio": 0.0,
                "elementType": "Fire",
                "elementRank": 600.0,
                "bonusCriticalHurt": 25.0,
                "strikeType": "Default",
                "enBreak": 0.0
              },
              "hitPattern": {
                "onHitEffectName": "default",
                "hitImpulseType": "LV1",
                "hitHaltTimeScale": 0.05000000074505806
              },
              "canBeModifiedBy": "OriginOwner"
            }
          },
          "targetType": "Enemy"
        }
      ]
    }
  },
  {
    "Default": {
      "$type": "ConfigAbility",
      "abilityName": "Monster_FungusFighterV2_TowerFire01_ReleaseFireBall",
      "modifiers": {
        "Monster_FungusFighterV2_TowerFire01_ReleaseFireBall_Delay": {
          "modifierName": "",
          "duration": 2.0,
          "bonusCriticalHurt": 100.0,
          "onAdded": [
            {
              "$type": "FireEffect",
              "healLimitedByCasterMaxHPRatio": "Eff_Monster_FungusFighterV2_Tower_ReleaseFireBullet",
              "effectTempleteID": -1.0
            }
          ],
          "onRemoved": [
            {
              "$type": "TriggerBullet",
              "bulletID": 42481001,
              "born": {
                "$type": "ConfigBornByAttachPoint",
                "offset": {
                  "x": 0.0,
                  "y": 0.0,
                  "z": 0.0
                },
                "direction": {
                  "$type": "HFKFLHCBMLB"
                },
                "IABNJPGBAOH": true,
                "attachPointName": "ShootPoint"
              }
            }
          ]
        }
      },
      "onAbilityStart": [
        {
          "$type": "ApplyModifier",
          "modifierName": "Monster_FungusFighterV2_TowerFire01_ReleaseFireBall_Delay"
        }
      ]
    }
  },
  {
    "Default": {
      "$type": "ConfigAbility",
      "abilityName": "FungusFighterV2_TowerFire_SkillAOE",
      "abilityMixins": [
        {
          "$type": "AttachModifierToSelfGlobalValueMixin",
          "globalValueKey": "_OWNER_IS_DEAD",
          "defaultGlobalValueOnCreate": 0.0,
          "valueSteps": [-0.5, 0.5, 1.5],
          "modifierNameSteps": ["Empty", "RemoveEff"]
        }
      ],
      "modifiers": {
        "Empty": {
          "modifierName": "",
          "bonusCriticalHurt": 100.0
        },
        "RemoveEff": {
          "modifierName": "",
          "bonusCriticalHurt": 100.0,
          "onAdded": [
            {
              "$type": "RemoveModifier",
              "modifierName": "FungusFighterV2_TowerFire_SkillAOE_Eff"
            }
          ]
        },
        "FungusFighterV2_TowerFire_SkillAOE_Eff": {
          "modifierName": "",
          "duration": 7.0,
          "bonusCriticalHurt": 100.0,
          "onAdded": [
            {
              "$type": "AttachEffect",
              "healLimitedByCasterMaxHPRatio": "Eff_Monster_FungusFighterV2_TowerFire_SkillAttack",
              "effectTempleteID": -1.0
            }
          ],
          "onAttackLanded": [
            {
              "$type": "Predicated",
              "target": "Other",
              "targetPredicates": [
                {
                  "$type": "ByEntityTypes",
                  "entityTypes": ["Partner"]
                }
              ],
              "successActions": [
                {
                  "$type": "ApplyModifier",
                  "target": "Target",
                  "modifierName": "UNIQUE_Monster_FungusFighterV2_TowerFire_Dot"
                }
              ]
            }
          ]
        },
        "FungusFighterV2_TowerFire_SkillAOE": {
          "modifierName": "",
          "duration": 5.0,
          "bonusCriticalHurt": 100.0,
          "onAdded": [
            {
              "$type": "ApplyModifier",
              "modifierName": "FungusFighterV2_TowerFire_SkillAOE_Eff"
            }
          ],
          "onRemoved": [
            {
              "$type": "TriggerAttackEvent",
              "doAfterDie": false,
              "predicates": [
                {
                  "$type": "ByTargetGlobalValue",
                  "key": "_OWNER_IS_DEAD",
                  "ratio": 0.0,
                  "compareType": "NoneOrEqual"
                }
              ],
              "attackEvent": {
                "attackPattern": {
                  "$type": "ConfigAttackCircle",
                  "triggerType": "TriggerNoRepeat",
                  "born": {
                    "$type": "ConfigBornBySelf",
                    "IABNJPGBAOH": true
                  },
                  "height": 7.0,
                  "radius": 4.0
                },
                "attackInfo": {
                  "attackTag": "FireTowerHit",
                  "attenuationTag": "",
                  "attenuationGroup": "default",
                  "attackProperty": {
                    "damagePercentage": 2.0,
                    "damagePercentageRatio": 0.0,
                    "elementType": "Fire",
                    "elementRank": 600.0,
                    "bonusCriticalHurt": 50.0,
                    "strikeType": "Default",
                    "enBreak": 0.0
                  },
                  "hitPattern": {
                    "onHitEffectName": "Eff_SceneObj_TowerFire_01_Hit",
                    "hitImpulseType": "LV1",
                    "hitHaltTimeScale": 0.05000000074505806
                  },
                  "canBeModifiedBy": "OriginOwner"
                }
              },
              "targetType": "Enemy"
            }
          ]
        },
        "UNIQUE_Monster_FungusFighterV2_TowerFire_Dot": {
          "stacking": "RefreshUniqueDurability",
          "modifierName": "",
          "isUnique": true,
          "duration": 10.0,
          "elementType": "Fire",
          "bonusCriticalHurt": 50.0,
          "thinkInterval": 2.0,
          "onAdded": [
            {
              "$type": "AttachEffect",
              "healLimitedByCasterMaxHPRatio": "Eff_Monster_FungusFighterV2_TowerFire_Dot",
              "effectTempleteID": -1.0
            }
          ],
          "onThinkInterval": [
            {
              "$type": "DamageByAttackValue",
              "attackInfo": {
                "attackTag": "",
                "attenuationTag": "",
                "attenuationGroup": "default",
                "attackProperty": {
                  "damagePercentage": 1.2000000476837158,
                  "damagePercentageRatio": 0.0,
                  "elementType": "Fire",
                  "elementRank": 1.5,
                  "bonusCriticalHurt": 0.0,
                  "strikeType": "Default",
                  "enBreak": 10.0
                },
                "hitPattern": {
                  "onHitEffectName": "default",
                  "hitImpulseType": "LV0"
                }
              }
            }
          ]
        }
      },
      "onAdded": [
        {
          "$type": "ApplyModifier",
          "modifierName": "FungusFighterV2_TowerFire_SkillAOE"
        }
      ],
      "onKill": [
        {
          "$type": "RemoveModifier",
          "modifierName": "FungusFighterV2_TowerFire_SkillAOE_Eff"
        }
      ]
    }
  },
  {
    "Default": {
      "$type": "ConfigAbility",
      "abilityName": "Monster_FungusFighterV2_TowerFire_ReleaseSkill",
      "modifiers": {
        "Monster_FungusFighterV2_TowerFire_SkillEffectEnd": {
          "modifierName": "",
          "duration": 0.30000001192092896,
          "bonusCriticalHurt": 100.0,
          "onAdded": [
            {
              "$type": "SetGlobalValue",
              "ratio": 1.0,
              "key": "_OWNER_IS_DEAD",
              "maxValue": 0.0,
              "minValue": 0.0
            }
          ]
        },
        "Monster_FungusFighterV2_TowerFire_ReleaseSkillBSEffect": {
          "modifierName": "",
          "duration": 4.5,
          "bonusCriticalHurt": 100.0,
          "onAdded": [
            {
              "$type": "AttachEffect",
              "healLimitedByCasterMaxHPRatio": "Eff_Monster_FungusFighterV2_TowerFire_SkillRelease",
              "effectTempleteID": -1.0
            }
          ]
        },
        "Monster_FungusFighterV2_TowerFire_CheckSkillHit": {
          "modifierName": "",
          "bonusCriticalHurt": 100.0,
          "onHittingOther": [
            {
              "$type": "Predicated",
              "target": "Other",
              "targetPredicates": [
                {
                  "$type": "LCCMCDGDKGI",
                  "attackTags": ["FireTowerHit"]
                },
                {
                  "$type": "ByEntityTypes",
                  "entityTypes": ["Avatar", "Partner"]
                }
              ],
              "successActions": [
                {
                  "$type": "ApplyModifier",
                  "target": "Target",
                  "modifierName": "Monster_FungusFighterV2_TowerFire_Dot"
                }
              ]
            }
          ]
        },
        "Monster_FungusFighterV2_TowerFire_Dot": {
          "modifierName": "",
          "duration": 10.0,
          "elementType": "Fire",
          "bonusCriticalHurt": 50.0,
          "thinkInterval": 2.0,
          "onAdded": [
            {
              "$type": "AttachEffect",
              "healLimitedByCasterMaxHPRatio": "Eff_Monster_FungusFighterV2_TowerFire_Dot",
              "effectTempleteID": -1.0
            }
          ],
          "onThinkInterval": [
            {
              "$type": "DamageByAttackValue",
              "attackInfo": {
                "attackTag": "",
                "attenuationTag": "",
                "attenuationGroup": "default",
                "attackProperty": {
                  "damagePercentage": 1.2000000476837158,
                  "damagePercentageRatio": 0.0,
                  "elementType": "Fire",
                  "elementRank": 1.5,
                  "bonusCriticalHurt": 0.0,
                  "strikeType": "Default",
                  "enBreak": 10.0
                },
                "hitPattern": {
                  "onHitEffectName": "default",
                  "hitImpulseType": "LV0"
                }
              }
            }
          ]
        },
        "Monster_FungusFighterV2_TowerFire_ReleaseSkill_Delay": {
          "modifierName": "",
          "duration": 3.0,
          "bonusCriticalHurt": 100.0,
          "onRemoved": [
            {
              "$type": "Predicated",
              "otherTargets": {
                "$type": "SelectTargetsByShape",
                "topLimit": 1,
                "sortType": "Nearest",
                "shapeName": "CircleR50",
                "campTargetType": "Enemy",
                "OBHNBNDMPFN": 1.0
              },
              "predicates": [
                {
                  "$type": "ByEntityTypes",
                  "entityTypes": ["Partner"]
                }
              ],
              "successActions": [
                {
                  "$type": "SetGlobalPos",
                  "target": "Target",
                  "key": "_MONSTER_TOWERV2_FIRE_SKILL_POS",
                  "born": {
                    "$type": "ConfigBornByTarget",
                    "DAPKLNIFPID": true
                  },
                  "setTarget": false
                },
                {
                  "$type": "CreateGadget",
                  "born": {
                    "$type": "ConfigBornByGlobalValue",
                    "positionKey": "_MONSTER_TOWERV2_FIRE_SKILL_POS",
                    "directionKey": ""
                  },
                  "gadgetID": 42481006
                }
              ]
            }
          ]
        }
      },
      "onAbilityStart": [
        {
          "$type": "TriggerAbility",
          "abilityName": "Monster_FungusFighterV2_Tower_SkillBanAttack"
        },
        {
          "$type": "ApplyModifier",
          "modifierName": "Monster_FungusFighterV2_TowerFire_ReleaseSkill_Delay"
        },
        {
          "$type": "ApplyModifier",
          "modifierName": "Monster_FungusFighterV2_TowerFire_ReleaseSkillBSEffect"
        }
      ],
      "onKill": [
        {
          "$type": "RemoveModifier",
          "modifierName": "Monster_FungusFighterV2_TowerFire_ReleaseSkillBSEffect"
        },
        {
          "$type": "ApplyModifier",
          "otherTargets": {
            "$type": "SelectTargetsByChildren",
            "configID": 42481006
          },
          "modifierName": "Monster_FungusFighterV2_TowerFire_SkillEffectEnd"
        }
      ]
    }
  },
  {
    "Default": {
      "$type": "ConfigAbility",
      "abilityName": "Monster_FungusFighterV2_TowerElectric_NormalAttack",
      "modifiers": {
        "Monster_FungusFighterV2_TowerElectric_NormalAttack_Delay": {
          "modifierName": "",
          "duration": 1.0,
          "bonusCriticalHurt": 100.0,
          "onAdded": [
            {
              "$type": "FireEffect",
              "healLimitedByCasterMaxHPRatio": "Eff_Monster_FungusFighterV2_Tower_ReleaseElectricBullet",
              "effectTempleteID": -1.0
            }
          ],
          "onRemoved": [
            {
              "$type": "ApplyModifier",
              "otherTargets": {
                "$type": "SelectTargetsByShape",
                "topLimit": 1,
                "sortType": "Nearest",
                "shapeName": "CircleR10",
                "campTargetType": "Enemy",
                "OBHNBNDMPFN": 1.0
              },
              "predicates": [
                {
                  "$type": "ByEntityTypes",
                  "entityTypes": ["Partner"]
                }
              ],
              "modifierName": "Monster_FungusFighterV2_TowerElectricChain"
            }
          ]
        },
        "Monster_FungusFighterV2_TowerElectricChain": {
          "modifierName": "",
          "duration": 0.20000000298023224,
          "bonusCriticalHurt": 100.0,
          "onAdded": [
            {
              "$type": "AttachEffect",
              "healLimitedByCasterMaxHPRatio": "Eff_Monster_FungusFighterV2_Tower_ElectriacChain",
              "born": {
                "$type": "ConfigBornByAttachPoint",
                "offset": {
                  "x": 0.0,
                  "y": 0.0,
                  "z": 0.0
                },
                "IABNJPGBAOH": true,
                "attachPointName": "RootNode",
                "ABIMPICHJNC": "Applier"
              },
              "effectTempleteID": -1.0
            },
            {
              "$type": "DamageByAttackValue",
              "attackInfo": {
                "attackTag": "",
                "attenuationTag": "",
                "attenuationGroup": "default",
                "attackProperty": {
                  "damagePercentage": 1.0,
                  "damagePercentageRatio": 0.0,
                  "elementType": "Electric",
                  "elementRank": 1.5,
                  "bonusCriticalHurt": 25.0,
                  "strikeType": "Default",
                  "enBreak": 10.0
                },
                "hitPattern": {
                  "onHitEffectName": "default",
                  "hitImpulseType": "LV1",
                  "hitHaltTimeScale": 0.05000000074505806
                }
              }
            }
          ]
        }
      },
      "onAbilityStart": [
        {
          "$type": "ApplyModifier",
          "modifierName": "Monster_FungusFighterV2_TowerElectric_NormalAttack_Delay"
        }
      ]
    }
  },
  {
    "Default": {
      "$type": "ConfigAbility",
      "abilityName": "FungusFighterV2_TowerElectric_SkillBullet",
      "modifiers": {
        "TowerElectric_Hit_Mark": {
          "modifierName": "",
          "duration": 0.15000000596046448,
          "bonusCriticalHurt": 100.0,
          "onAdded": [
            {
              "$type": "SetGlobalValue",
              "ratio": 1.0,
              "key": "_BE_HIT_BY_ELECTRICKSKILL",
              "maxValue": 0.0,
              "minValue": 0.0
            }
          ],
          "onRemoved": [
            {
              "$type": "SetGlobalValue",
              "ratio": 0.0,
              "key": "_BE_HIT_BY_ELECTRICKSKILL",
              "maxValue": 0.0,
              "minValue": 0.0
            }
          ]
        },
        "TowerElectric_SkillBall_Next": {
          "stacking": "MultipleRefresh",
          "stackingOption": {
            "abilitySpecialName": "",
            "maxModifierNumForMultipleType": 1.0
          },
          "modifierName": "",
          "duration": 0.10000000149011612,
          "bonusCriticalHurt": 100.0
        },
        "FungusFighterV2_TowerElectric_SkillBullet": {
          "modifierName": "",
          "bonusCriticalHurt": 100.0,
          "onAdded": [
            {
              "$type": "AttachEffect",
              "healLimitedByCasterMaxHPRatio": "Eff_Monster_FungusFighterV2_TowerElectric_SkillBullet",
              "effectTempleteID": -1.0
            }
          ]
        },
        "TowerElectric_Skill_Hit_AddNum": {
          "stacking": "MultipleRefresh",
          "stackingOption": {
            "abilitySpecialName": "",
            "maxModifierNumForMultipleType": 1.0
          },
          "modifierName": "",
          "duration": 0.30000001192092896,
          "bonusCriticalHurt": 100.0,
          "onAdded": [
            {
              "$type": "AddGlobalValue",
              "ratio": 1.0,
              "key": "_ELECTRIC_TOWER_BALL_HITTIMES",
              "maxValue": 0.0,
              "minValue": 0.0
            }
          ]
        }
      },
      "onAdded": [
        {
          "$type": "ApplyModifier",
          "modifierName": "FungusFighterV2_TowerElectric_SkillBullet"
        }
      ],
      "onAbilityStart": [
        {
          "$type": "Predicated",
          "target": "Target",
          "targetPredicates": [
            {
              "$type": "ByTargetGlobalValue",
              "key": "_BE_HIT_BY_ELECTRICKSKILL",
              "ratio": 0.0,
              "compareType": "NoneOrEqual"
            }
          ],
          "successActions": [
            {
              "$type": "RemoveModifier",
              "modifierName": "FungusFighterV2_TowerElectric_SkillBullet"
            },
            {
              "$type": "TriggerAttackEvent",
              "attackEvent": {
                "attackPattern": {
                  "$type": "ConfigAttackSphere",
                  "triggerType": "TriggerNoRepeat",
                  "born": {
                    "$type": "ConfigBornBySelf",
                    "IABNJPGBAOH": true
                  },
                  "radius": 4.0
                },
                "attackInfo": {
                  "attackTag": "",
                  "attenuationTag": "",
                  "attenuationGroup": "default",
                  "attackProperty": {
                    "damagePercentage": 4.5,
                    "damagePercentageRatio": 0.0,
                    "elementType": "Electric",
                    "bonusCriticalHurt": 25.0,
                    "strikeType": "Default",
                    "enBreak": 10.0
                  },
                  "hitPattern": {
                    "onHitEffectName": "default",
                    "hitImpulseType": "LV5",
                    "hitHaltTimeScale": 0.05000000074505806
                  },
                  "canBeModifiedBy": "OriginOwner"
                }
              },
              "targetType": "Enemy"
            },
            {
              "$type": "FireEffect",
              "healLimitedByCasterMaxHPRatio": "Eff_Monster_FungusFighterV2_TowerElectric_SkillBulletExplode",
              "born": {
                "$type": "ConfigBornBySelf",
                "direction": {
                  "$type": "AKNHOGLMAAH",
                  "eularAngles": {
                    "x": 1.0,
                    "y": 1.0,
                    "z": 1.0
                  }
                },
                "IABNJPGBAOH": true
              },
              "effectTempleteID": -1.0
            }
          ]
        }
      ]
    }
  },
  {
    "Default": {
      "$type": "ConfigAbility",
      "abilityName": "Monster_FungusFighterV2_TowerElectric_ReleaseSkill",
      "modifiers": {
        "Remove_LockTarget": {
          "modifierName": "",
          "duration": 0.10000000149011612,
          "bonusCriticalHurt": 100.0,
          "onAdded": [
            {
              "$type": "RemoveUniqueModifier",
              "modifierName": "UNIQUE_Monster_FungusFighterV2_TowerElectric_ReleaseSkill_LockTarget"
            }
          ]
        },
        "Monster_FungusFighterV2_TowerElectric_ReleaseSkillEffectBS": {
          "modifierName": "",
          "duration": 4.0,
          "bonusCriticalHurt": 100.0,
          "onAdded": [
            {
              "$type": "AttachEffect",
              "healLimitedByCasterMaxHPRatio": "Eff_Monster_FungusFighterV2_TowerElectric_SkillRelease",
              "effectTempleteID": -1.0
            }
          ]
        },
        "UNIQUE_Monster_FungusFighterV2_TowerElectric_ReleaseSkill_LockTarget": {
          "stacking": "RefreshUniqueDurability",
          "modifierName": "",
          "isUnique": true,
          "duration": 3.0999999046325684,
          "bonusCriticalHurt": 100.0,
          "onAdded": [
            {
              "$type": "AttachEffect",
              "healLimitedByCasterMaxHPRatio": "Eff_Monster_FungusFighterV2_TowerElectric_LockTarget",
              "effectTempleteID": -1.0
            },
            {
              "$type": "SetGlobalValue",
              "ratio": 1.0,
              "key": "_IS_LOCKED_BY_ELECTRIC_TOWER",
              "maxValue": 0.0,
              "minValue": 0.0
            }
          ],
          "onRemoved": [
            {
              "$type": "SetGlobalValue",
              "ratio": 0.0,
              "key": "_IS_LOCKED_BY_ELECTRIC_TOWER",
              "maxValue": 0.0,
              "minValue": 0.0
            }
          ]
        },
        "Monster_FungusFighterV2_TowerElectric_ReleaseSkill_ResetTeamBallValue": {
          "modifierName": "",
          "duration": 0.10000000149011612,
          "bonusCriticalHurt": 100.0,
          "onAdded": [
            {
              "$type": "SetGlobalValue",
              "ratio": 0.0,
              "key": "_ELECTRIC_TOWER_BALL_HITTIMES",
              "maxValue": 0.0,
              "minValue": 0.0
            }
          ]
        },
        "Monster_FungusFighterV2_TowerElectric_ReleaseSkill_Delay": {
          "modifierName": "",
          "duration": 3.0,
          "bonusCriticalHurt": 100.0,
          "onAdded": [
            {
              "$type": "ApplyModifier",
              "target": "SelfAttackTarget",
              "modifierName": "UNIQUE_Monster_FungusFighterV2_TowerElectric_ReleaseSkill_LockTarget"
            }
          ],
          "onRemoved": [
            {
              "$type": "TriggerBullet",
              "bulletID": 42481007,
              "born": {
                "$type": "ConfigBornByAttachPoint",
                "offset": {
                  "x": 0.0,
                  "y": 0.0,
                  "z": 0.0
                },
                "direction": {
                  "$type": "HFKFLHCBMLB"
                },
                "IABNJPGBAOH": true,
                "attachPointName": "ShootPoint"
              }
            }
          ]
        }
      },
      "onAbilityStart": [
        {
          "$type": "TriggerAbility",
          "abilityName": "Monster_FungusFighterV2_Tower_SkillBanAttack"
        },
        {
          "$type": "ApplyModifier",
          "target": "Team",
          "modifierName": "Monster_FungusFighterV2_TowerElectric_ReleaseSkill_ResetTeamBallValue"
        },
        {
          "$type": "ApplyModifier",
          "modifierName": "Monster_FungusFighterV2_TowerElectric_ReleaseSkill_Delay"
        },
        {
          "$type": "ApplyModifier",
          "modifierName": "Monster_FungusFighterV2_TowerElectric_ReleaseSkillEffectBS"
        }
      ],
      "onKill": [
        {
          "$type": "RemoveModifier",
          "modifierName": "Monster_FungusFighterV2_TowerElectric_ReleaseSkillEffectBS"
        },
        {
          "$type": "ApplyModifier",
          "target": "SelfAttackTarget",
          "modifierName": "Remove_LockTarget"
        }
      ]
    }
  },
  {
    "Default": {
      "$type": "ConfigAbility",
      "abilityName": "FungusFighterV2_TowerElectric_LockTarget"
    }
  },
  {
    "Default": {
      "$type": "ConfigAbility",
      "abilityName": "Monster_FungusFighterV2_TowerWater_ReleaseBullet",
      "modifiers": {
        "Monster_FungusFighterV2_TowerWater_ReleaseBullet_Delay": {
          "modifierName": "",
          "duration": 1.0,
          "bonusCriticalHurt": 100.0,
          "onAdded": [
            {
              "$type": "FireEffect",
              "healLimitedByCasterMaxHPRatio": "Eff_Monster_FungusFighterV2_Tower_ReleaseWaterBullet",
              "effectTempleteID": -1.0
            }
          ],
          "onRemoved": [
            {
              "$type": "TriggerBullet",
              "bulletID": 42481002,
              "born": {
                "$type": "ConfigBornByAttachPoint",
                "offset": {
                  "x": 0.0,
                  "y": 0.0,
                  "z": 0.0
                },
                "direction": {
                  "$type": "HFKFLHCBMLB"
                },
                "IABNJPGBAOH": true,
                "attachPointName": "ShootPoint"
              }
            }
          ]
        }
      },
      "onAbilityStart": [
        {
          "$type": "ApplyModifier",
          "modifierName": "Monster_FungusFighterV2_TowerWater_ReleaseBullet_Delay"
        }
      ]
    }
  },
  {
    "Default": {
      "$type": "ConfigAbility",
      "abilityName": "FungusFighterV2_TowerWaterBullet",
      "modifiers": {
        "FungusFighterV2_TowerWaterBullet": {
          "modifierName": "",
          "bonusCriticalHurt": 100.0,
          "onAdded": [
            {
              "$type": "AttachEffect",
              "healLimitedByCasterMaxHPRatio": "Eff_Monster_FungusFighterV2_Tower_WaterBullet",
              "effectTempleteID": -1.0
            }
          ]
        }
      },
      "onAdded": [
        {
          "$type": "ApplyModifier",
          "modifierName": "FungusFighterV2_TowerWaterBullet"
        }
      ],
      "onAbilityStart": [
        {
          "$type": "RemoveModifier",
          "modifierName": "FungusFighterV2_TowerWaterBullet"
        },
        {
          "$type": "FireEffect",
          "healLimitedByCasterMaxHPRatio": "Eff_Monster_FungusFighterV2_Tower_WaterBulletExplode",
          "effectTempleteID": -1.0
        },
        {
          "$type": "TriggerAttackEvent",
          "attackEvent": {
            "attackPattern": {
              "$type": "ConfigAttackSphere",
              "triggerType": "TriggerNoRepeat",
              "born": {
                "$type": "ConfigBornByCollisionPoint",
                "offset": {
                  "x": 0.0,
                  "y": 0.0,
                  "z": 0.0
                }
              },
              "radius": 0.5
            },
            "attackInfo": {
              "attackTag": "",
              "attenuationTag": "",
              "attenuationGroup": "default",
              "attackProperty": {
                "damagePercentage": 1.0,
                "damagePercentageRatio": 0.0,
                "elementType": "Water",
                "bonusCriticalHurt": 25.0,
                "strikeType": "Blunt",
                "enBreak": 10.0
              },
              "hitPattern": {
                "onHitEffectName": "default",
                "hitImpulseType": "LV1"
              },
              "canBeModifiedBy": "OriginOwner"
            }
          },
          "targetType": "Enemy"
        }
      ]
    }
  },
  {
    "Default": {
      "$type": "ConfigAbility",
      "abilityName": "Monster_FungusFighterV2_TowerWater_ReleaseSkill",
      "modifiers": {
        "Monster_FungusFighterV2_TowerWater_ReleaseSkillEffectBS": {
          "modifierName": "",
          "duration": 5.0,
          "bonusCriticalHurt": 100.0,
          "onAdded": [
            {
              "$type": "AttachEffect",
              "healLimitedByCasterMaxHPRatio": "Eff_Monster_FungusFighterV2_TowerWater_SkillRelease",
              "effectTempleteID": -1.0
            }
          ]
        },
        "Monster_FungusFighterV2_TowerWater_ReleaseSkill_Delay": {
          "modifierName": "",
          "duration": 3.0,
          "bonusCriticalHurt": 100.0,
          "onRemoved": [
            {
              "$type": "ApplyModifier",
              "otherTargets": {
                "$type": "SelectTargetsByShape",
                "shapeName": "CircleR7",
                "campTargetType": "All",
                "OBHNBNDMPFN": 1.0
              },
              "predicates": [
                {
                  "$type": "ByTargetGlobalValue",
                  "key": "_IS_FFV2_TOWER",
                  "ratio": 1.0
                }
              ],
              "modifierName": "Monster_FungusFighterV2_TowerWater_ShieldHandler"
            }
          ]
        },
        "Monster_FungusFighterV2_TowerWater_ShieldHandler": {
          "modifierName": "",
          "duration": 15.0,
          "bonusCriticalHurt": 100.0,
          "onAdded": [
            {
              "$type": "ApplyModifier",
              "modifierName": "Monster_FungusFighterV2_TowerWater_Shield"
            }
          ],
          "onRemoved": [
            {
              "$type": "RemoveModifier",
              "modifierName": "Monster_FungusFighterV2_TowerWater_Shield"
            }
          ]
        },
        "Monster_FungusFighterV2_TowerWater_Shield": {
          "modifierName": "",
          "elementType": "Water",
          "bonusCriticalHurt": 100.0,
          "modifierMixins": [
            {
              "$type": "ElementShieldMixin",
              "elementType": "Water",
              "showDamageText": "",
              "PNHPNGLLDJN": 360.0,
              "NKEDHHJKHEO": 1.0,
              "damageRatio": 0.0
            }
          ],
          "onAdded": [
            {
              "$type": "AttachEffect",
              "predicates": [
                {
                  "$type": "ByTargetGlobalValue",
                  "key": "_IS_PHYSICS_TOWER",
                  "ratio": 0.0,
                  "compareType": "NoneOrEqual"
                }
              ],
              "healLimitedByCasterMaxHPRatio": "Eff_Monster_FungusFighterV2_TowerWater_Shield",
              "effectTempleteID": -1.0
            },
            {
              "$type": "AttachEffect",
              "predicates": [
                {
                  "$type": "ByTargetGlobalValue",
                  "key": "_IS_PHYSICS_TOWER",
                  "ratio": 1.0
                }
              ],
              "healLimitedByCasterMaxHPRatio": "Eff_Monster_FungusFighterV2_TowerWater_ShieldPhysics",
              "effectTempleteID": -1.0
            }
          ]
        }
      },
      "onAbilityStart": [
        {
          "$type": "TriggerAbility",
          "abilityName": "Monster_FungusFighterV2_Tower_SkillBanAttack"
        },
        {
          "$type": "ApplyModifier",
          "modifierName": "Monster_FungusFighterV2_TowerWater_ReleaseSkill_Delay"
        },
        {
          "$type": "ApplyModifier",
          "modifierName": "Monster_FungusFighterV2_TowerWater_ReleaseSkillEffectBS"
        }
      ],
      "onKill": [
        {
          "$type": "RemoveModifier",
          "modifierName": "Monster_FungusFighterV2_TowerWater_ReleaseSkillEffectBS"
        }
      ]
    }
  },
  {
    "Default": {
      "$type": "ConfigAbility",
      "abilityName": "Monster_FungusFighterV2_TowerIce_ReleaseBullet",
      "modifiers": {
        "Monster_FungusFighterV2_TowerIce_ReleaseBullet_Delay": {
          "modifierName": "",
          "duration": 0.5,
          "bonusCriticalHurt": 100.0,
          "onAdded": [
            {
              "$type": "FireEffect",
              "healLimitedByCasterMaxHPRatio": "Eff_Monster_FungusFighterV2_Tower_ReleaseIceBullet",
              "effectTempleteID": -1.0
            }
          ],
          "onRemoved": [
            {
              "$type": "TriggerBullet",
              "bulletID": 42481003,
              "born": {
                "$type": "ConfigBornByAttachPoint",
                "offset": {
                  "x": 0.0,
                  "y": 0.0,
                  "z": 0.0
                },
                "direction": {
                  "$type": "HFKFLHCBMLB"
                },
                "IABNJPGBAOH": true,
                "attachPointName": "ShootPoint"
              }
            }
          ]
        }
      },
      "onAbilityStart": [
        {
          "$type": "ApplyModifier",
          "modifierName": "Monster_FungusFighterV2_TowerIce_ReleaseBullet_Delay"
        }
      ]
    }
  },
  {
    "Default": {
      "$type": "ConfigAbility",
      "abilityName": "FungusFighterV2_TowerIceBullet",
      "modifiers": {
        "FungusFighterV2_TowerIceBullet": {
          "modifierName": "",
          "bonusCriticalHurt": 100.0,
          "onAdded": [
            {
              "$type": "AttachEffect",
              "healLimitedByCasterMaxHPRatio": "Eff_Monster_FungusFighterV2_Tower_IceBullet",
              "effectTempleteID": -1.0
            }
          ]
        }
      },
      "onAdded": [
        {
          "$type": "ApplyModifier",
          "modifierName": "FungusFighterV2_TowerIceBullet"
        }
      ],
      "onAbilityStart": [
        {
          "$type": "FireEffect",
          "healLimitedByCasterMaxHPRatio": "Eff_SceneObj_TowerIce_01_Hit",
          "born": {
            "$type": "ConfigBornByCollisionPoint"
          },
          "effectTempleteID": -1.0
        },
        {
          "$type": "DamageByAttackValue",
          "target": "Target",
          "attackInfo": {
            "attackTag": "",
            "attenuationTag": "",
            "attenuationGroup": "default",
            "attackProperty": {
              "damagePercentage": 0.5,
              "damagePercentageRatio": 0.0,
              "elementType": "Ice",
              "bonusCriticalHurt": 25.0,
              "strikeType": "Default",
              "enBreak": 10.0
            },
            "hitPattern": {
              "onHitEffectName": "none",
              "hitImpulseType": "LV1",
              "hitHaltTimeScale": 0.05000000074505806
            },
            "canBeModifiedBy": "OriginOwner"
          }
        }
      ]
    }
  },
  {
    "Default": {
      "$type": "ConfigAbility",
      "abilityName": "Monster_FungusFighterV2_TowerIce_ReleaseSkill",
      "modifiers": {
        "Monster_FungusFighterV2_TowerIceWall_WindZone": {
          "modifierName": "",
          "duration": 0.5,
          "bonusCriticalHurt": 100.0,
          "modifierMixins": [
            {
              "$type": "WindZoneMixin",
              "shapeName": "CircleR3",
              "born": {
                "$type": "ConfigBornBySelf",
                "offset": {
                  "x": 0.0,
                  "y": 0.0,
                  "z": 0.0
                },
                "IABNJPGBAOH": true
              },
              "PLJPAAFMNAD": -30.0,
              "LNPFPGALPJH": 2.0,
              "innerRadius": 0.0,
              "targetType": "Enemy",
              "predicates": [
                {
                  "$type": "ByEntityTypes",
                  "entityTypes": ["Avatar", "Partner"]
                }
              ],
              "modifierName": ""
            }
          ]
        }
      },
      "onAbilityStart": [
        {
          "$type": "ApplyModifier",
          "modifierName": "Monster_FungusFighterV2_TowerIceWall_WindZone"
        },
        {
          "$type": "CreateGadget",
          "born": {
            "$type": "ConfigBornBySelf",
            "offset": {
              "x": 0.0,
              "y": 0.0,
              "z": 1.5
            },
            "IABNJPGBAOH": true
          },
          "GKJDJDACPMC": true,
          "gadgetID": 42481008
        },
        {
          "$type": "CreateGadget",
          "born": {
            "$type": "ConfigBornBySelf",
            "offset": {
              "x": -1.5,
              "y": 0.0,
              "z": 0.0
            },
            "direction": {
              "$type": "JADOBJDPOLJ",
              "PPKEGDJIPMI": {
                "x": 0.0,
                "y": 90.0,
                "z": 0.0
              }
            },
            "IABNJPGBAOH": true
          },
          "GKJDJDACPMC": true,
          "gadgetID": 42481008
        },
        {
          "$type": "CreateGadget",
          "born": {
            "$type": "ConfigBornBySelf",
            "offset": {
              "x": 1.5,
              "y": 0.0,
              "z": 0.0
            },
            "direction": {
              "$type": "JADOBJDPOLJ",
              "PPKEGDJIPMI": {
                "x": 0.0,
                "y": 90.0,
                "z": 0.0
              }
            },
            "IABNJPGBAOH": true
          },
          "GKJDJDACPMC": true,
          "gadgetID": 42481008
        },
        {
          "$type": "CreateGadget",
          "born": {
            "$type": "ConfigBornBySelf",
            "offset": {
              "x": 0.0,
              "y": 0.0,
              "z": -1.5
            },
            "IABNJPGBAOH": true
          },
          "GKJDJDACPMC": true,
          "gadgetID": 42481008
        }
      ]
    }
  },
  {
    "Default": {
      "$type": "ConfigAbility",
      "abilityName": "Monster_FungusFighterV2_TowerIceWall",
      "modifiers": {
        "Monster_FungusFighterV2_TowerIceWallEff": {
          "modifierName": "",
          "duration": 18.0,
          "bonusCriticalHurt": 100.0,
          "onAdded": [
            {
              "$type": "AttachEffect",
              "healLimitedByCasterMaxHPRatio": "Eff_Monster_FungusFighterV2_TowerIce_IceWall",
              "effectTempleteID": -1.0
            }
          ]
        },
        "Monster_FungusFighterV2_TowerIceWall_OpenPushDelay": {
          "modifierName": "",
          "duration": 0.5,
          "bonusCriticalHurt": 100.0,
          "onAdded": [
            {
              "$type": "EnablePushColliderName",
              "pushColliderNames": ["PushCollider"]
            }
          ],
          "onRemoved": [
            {
              "$type": "EnablePushColliderName",
              "pushColliderNames": ["PushCollider"],
              "setEnable": true
            }
          ]
        },
        "Monster_FungusFighterV2_TowerIceWall": {
          "modifierName": "",
          "duration": 15.0,
          "bonusCriticalHurt": 100.0,
          "modifierMixins": [
            {
              "$type": "AttachActionToModifierMixin",
              "onAdded": [
                {
                  "$type": "EnablePushColliderName",
                  "pushColliderNames": ["PushCollider"],
                  "setEnable": true
                },
                {
                  "$type": "EnableHitBoxByName",
                  "hitBoxNames": ["HitBox"],
                  "setEnable": true
                }
              ],
              "onRemoved": [
                {
                  "$type": "EnablePushColliderName",
                  "pushColliderNames": ["PushCollider"]
                },
                {
                  "$type": "EnableHitBoxByName",
                  "hitBoxNames": ["HitBox"]
                }
              ]
            }
          ],
          "onAdded": [
            {
              "$type": "AttachAbilityStateResistance",
              "resistanceBuffDebuffs": [
                "ElementFrozen",
                "ElementPetrifaction",
                "ElementFreeze"
              ]
            },
            {
              "$type": "ApplyModifier",
              "modifierName": "Monster_FungusFighterV2_TowerIceWallElement"
            },
            {
              "$type": "TriggerAttackEvent",
              "attackEvent": {
                "attackPattern": {
                  "$type": "ConfigAttackBox",
                  "triggerType": "TriggerNoRepeat",
                  "born": {
                    "$type": "ConfigBornBySelf",
                    "offset": {
                      "x": 0.0,
                      "y": 0.0,
                      "z": 0.0
                    },
                    "IABNJPGBAOH": true
                  },
                  "size": {
                    "x": 1.5,
                    "y": 3.0,
                    "z": 0.5
                  }
                },
                "attackInfo": {
                  "attackTag": "",
                  "attenuationTag": "",
                  "attenuationGroup": "default",
                  "attackProperty": {
                    "damagePercentage": 2.0,
                    "damagePercentageRatio": 0.0,
                    "elementType": "Ice",
                    "bonusCriticalHurt": 25.0,
                    "strikeType": "Blunt",
                    "enBreak": 10.0
                  },
                  "hitPattern": {
                    "onHitEffectName": "default",
                    "hitImpulseType": "LV1"
                  },
                  "canBeModifiedBy": "OriginOwner"
                }
              },
              "targetType": "Enemy"
            }
          ],
          "onRemoved": [
            {
              "$type": "RemoveModifier",
              "modifierName": "Monster_FungusFighterV2_TowerIceWallElement"
            }
          ]
        },
        "Monster_FungusFighterV2_TowerIceWallElement": {
          "modifierName": "",
          "elementType": "Frozen",
          "bonusCriticalHurt": 100.0,
          "modifierMixins": [
            {
              "$type": "ElementShieldMixin",
              "elementType": "Frozen",
              "showDamageText": "",
              "PNHPNGLLDJN": 360.0,
              "OIMMEDBLDPJ": 1.0,
              "damageRatio": 0.0
            }
          ],
          "onRemoved": [
            {
              "$type": "SendEffectTrigger",
              "parameter": "Broken",
              "EBBHBMFMOGD": "",
              "healLimitedByCasterMaxHPRatio": "Eff_Monster_FungusFighterV2_TowerIce_IceWall"
            },
            {
              "$type": "FireEffect",
              "healLimitedByCasterMaxHPRatio": "Eff_Monster_FungusFighterV2_TowerIce_IceWallBroken",
              "effectTempleteID": -1.0
            },
            {
              "$type": "KillSelf",
              "duration": 1.0
            }
          ]
        }
      },
      "onAdded": [
        {
          "$type": "ApplyModifier",
          "modifierName": "Monster_FungusFighterV2_TowerIceWall"
        },
        {
          "$type": "ApplyModifier",
          "modifierName": "Monster_FungusFighterV2_TowerIceWall_OpenPushDelay"
        },
        {
          "$type": "ApplyModifier",
          "modifierName": "Monster_FungusFighterV2_TowerIceWallEff"
        }
      ],
      "onKill": [
        {
          "$type": "RemoveModifier",
          "modifierName": "Monster_FungusFighterV2_TowerIceWallElement"
        }
      ]
    }
  },
  {
    "Default": {
      "$type": "ConfigAbility",
      "abilityName": "FungusFighterV2_TowerWind_LockTarget"
    }
  },
  {
    "Default": {
      "$type": "ConfigAbility",
      "abilityName": "Monster_FungusFighterV2_TowerWind_ReleaseSkill",
      "modifiers": {
        "Monster_FungusFighterV2_Tower_SkillBanAttack": {
          "modifierName": "",
          "duration": 5.0,
          "bonusCriticalHurt": 100.0,
          "onAdded": [
            {
              "$type": "UseSkillEliteSet",
              "skillEliteSetID": 2
            }
          ],
          "onRemoved": [
            {
              "$type": "UseSkillEliteSet",
              "skillEliteSetID": 1
            }
          ]
        },
        "Monster_FungusFighterV2_TowerWind_OpenPartcontrol": {
          "modifierName": "",
          "bonusCriticalHurt": 100.0,
          "onAdded": [
            {
              "$type": "EnablePartControl",
              "canBeHandledOnRecover": true,
              "partRootNames": ["ShootPoint"],
              "enable": true
            },
            {
              "$type": "SetPartControlTarget",
              "target": "SelfAttackTarget",
              "canBeHandledOnRecover": true,
              "partRootNames": ["ShootPoint"]
            }
          ],
          "onRemoved": [
            {
              "$type": "EnablePartControl",
              "canBeHandledOnRecover": true,
              "partRootNames": ["ShootPoint"]
            }
          ]
        },
        "Monster_FungusFighterV2_TowerWind_OpenSkillPartcontrol": {
          "modifierName": "",
          "bonusCriticalHurt": 100.0,
          "onAdded": [
            {
              "$type": "EnablePartControl",
              "canBeHandledOnRecover": true,
              "partRootNames": ["SkillPoint"],
              "enable": true
            },
            {
              "$type": "SetPartControlTarget",
              "target": "SelfAttackTarget",
              "canBeHandledOnRecover": true,
              "partRootNames": ["SkillPoint"]
            }
          ],
          "onRemoved": [
            {
              "$type": "EnablePartControl",
              "canBeHandledOnRecover": true,
              "partRootNames": ["SkillPoint"]
            }
          ]
        },
        "Monster_FungusFighterV2_TowerWind_LockTarget": {
          "modifierName": "",
          "duration": 1.5,
          "bonusCriticalHurt": 100.0,
          "onAdded": [
            {
              "$type": "ApplyModifier",
              "modifierName": "Monster_FungusFighterV2_TowerWind_OpenSkillPartcontrol"
            },
            {
              "$type": "ApplyModifier",
              "target": "SelfAttackTarget",
              "modifierName": "UNIQUE_Monster_FungusFighterV2_TowerWind_LockTargetEff"
            }
          ],
          "onRemoved": [
            {
              "$type": "RemoveModifier",
              "modifierName": "Monster_FungusFighterV2_TowerWind_OpenSkillPartcontrol"
            }
          ]
        },
        "Monster_FungusFighterV2_TowerWind_AttackDelay": {
          "modifierName": "",
          "duration": 5.0,
          "bonusCriticalHurt": 100.0,
          "onRemoved": [
            {
              "$type": "FireEffect",
              "healLimitedByCasterMaxHPRatio": "Eff_Monster_FungusFighterV2_TowerWind_Attack",
              "born": {
                "$type": "ConfigBornByAttachPoint",
                "DAPKLNIFPID": true,
                "IABNJPGBAOH": true,
                "attachPointName": "SkillPoint"
              },
              "effectTempleteID": -1.0
            },
            {
              "$type": "TriggerAttackEvent",
              "attackEvent": {
                "attackPattern": {
                  "$type": "ConfigAttackBox",
                  "triggerType": "TriggerNoRepeat",
                  "born": {
                    "$type": "ConfigBornByAttachPoint",
                    "DAPKLNIFPID": true,
                    "IABNJPGBAOH": true,
                    "attachPointName": "SkillPoint"
                  },
                  "size": {
                    "x": 2.0,
                    "y": 5.0,
                    "z": 30.0
                  }
                },
                "attackInfo": {
                  "attackTag": "",
                  "attenuationTag": "",
                  "attenuationGroup": "default",
                  "attackProperty": {
                    "damagePercentage": 3.0,
                    "damagePercentageRatio": 0.0,
                    "elementType": "Wind",
                    "bonusCriticalHurt": 50.0,
                    "strikeType": "Blunt",
                    "enBreak": 101.0
                  },
                  "hitPattern": {
                    "onHitEffectName": "default",
                    "hitImpulseType": "LV4"
                  },
                  "canBeModifiedBy": "OriginOwner"
                }
              },
              "targetType": "Enemy"
            }
          ]
        },
        "UNIQUE_Monster_FungusFighterV2_TowerWind_LockTargetEff": {
          "stacking": "RefreshUniqueDurability",
          "modifierName": "",
          "isUnique": true,
          "duration": 1.0,
          "bonusCriticalHurt": 100.0,
          "onAdded": [
            {
              "$type": "AttachEffect",
              "healLimitedByCasterMaxHPRatio": "Eff_Monster_FungusFighterV2_TowerWind_LockTarget",
              "effectTempleteID": -1.0
            },
            {
              "$type": "SetGlobalValue",
              "ratio": 1.0,
              "key": "_IS_LOCKED_BY_WIND_TOWER",
              "maxValue": 0.0,
              "minValue": 0.0
            }
          ],
          "onRemoved": [
            {
              "$type": "SetGlobalValue",
              "ratio": 0.0,
              "key": "_IS_LOCKED_BY_WIND_TOWER",
              "maxValue": 0.0,
              "minValue": 0.0
            }
          ]
        },
        "Monster_FungusFighterV2_TowerWind_ReleaseSkillEffectDelay": {
          "modifierName": "",
          "duration": 5.5,
          "bonusCriticalHurt": 100.0,
          "onAdded": [
            {
              "$type": "AttachEffect",
              "healLimitedByCasterMaxHPRatio": "Eff_Monster_FungusFighterV2_TowerWind_SkillRelease",
              "effectTempleteID": -1.0
            },
            {
              "$type": "AttachEffect",
              "healLimitedByCasterMaxHPRatio": "Eff_Monster_FungusFighterV2_TowerWind_SkillWarning",
              "effectTempleteID": -1.0
            }
          ]
        }
      },
      "onAdded": [
        {
          "$type": "ApplyModifier",
          "modifierName": "Monster_FungusFighterV2_TowerWind_OpenPartcontrol"
        },
        {
          "$type": "UseSkillEliteSet",
          "skillEliteSetID": 1
        }
      ],
      "onAbilityStart": [
        {
          "$type": "ApplyModifier",
          "modifierName": "Monster_FungusFighterV2_Tower_SkillBanAttack"
        },
        {
          "$type": "ApplyModifier",
          "modifierName": "Monster_FungusFighterV2_TowerWind_LockTarget"
        },
        {
          "$type": "ApplyModifier",
          "modifierName": "Monster_FungusFighterV2_TowerWind_AttackDelay"
        },
        {
          "$type": "ApplyModifier",
          "modifierName": "Monster_FungusFighterV2_TowerWind_ReleaseSkillEffectDelay"
        }
      ],
      "onKill": [
        {
          "$type": "RemoveModifier",
          "modifierName": "Monster_FungusFighterV2_TowerWind_LockTarget"
        },
        {
          "$type": "RemoveModifier",
          "modifierName": "Monster_FungusFighterV2_TowerWind_ReleaseSkillEffectDelay"
        }
      ]
    }
  },
  {
    "Default": {
      "$type": "ConfigAbility",
      "abilityName": "Monster_FungusFighterV2_TowerWind_ReleaseBullet",
      "modifiers": {
        "Monster_FungusFighterV2_TowerWind_ReleaseBullet_Delay": {
          "modifierName": "",
          "duration": 1.0,
          "bonusCriticalHurt": 100.0,
          "onAdded": [
            {
              "$type": "FireEffect",
              "healLimitedByCasterMaxHPRatio": "Eff_Monster_FungusFighterV2_Tower_ReleaseWindBullet",
              "effectTempleteID": -1.0
            }
          ],
          "onRemoved": [
            {
              "$type": "TriggerBullet",
              "bulletID": 42481004,
              "born": {
                "$type": "ConfigBornByAttachPoint",
                "offset": {
                  "x": 0.0,
                  "y": 0.0,
                  "z": 0.0
                },
                "direction": {
                  "$type": "HFKFLHCBMLB"
                },
                "IABNJPGBAOH": true,
                "attachPointName": "ShootPoint"
              }
            }
          ]
        }
      },
      "onAbilityStart": [
        {
          "$type": "ApplyModifier",
          "modifierName": "Monster_FungusFighterV2_TowerWind_ReleaseBullet_Delay"
        }
      ]
    }
  },
  {
    "Default": {
      "$type": "ConfigAbility",
      "abilityName": "FungusFighterV2_TowerWindBullet",
      "modifiers": {
        "FungusFighterV2_TowerWindBullet": {
          "modifierName": "",
          "bonusCriticalHurt": 100.0,
          "onAdded": [
            {
              "$type": "AttachEffect",
              "healLimitedByCasterMaxHPRatio": "Eff_Monster_FungusFighterV2_Tower_WindBullet",
              "effectTempleteID": -1.0
            }
          ]
        }
      },
      "onAdded": [
        {
          "$type": "ApplyModifier",
          "modifierName": "FungusFighterV2_TowerWindBullet"
        }
      ],
      "onAbilityStart": [
        {
          "$type": "DamageByAttackValue",
          "target": "Target",
          "born": {
            "$type": "FLIPADNBJJF",
            "offset": {
              "x": 0.0,
              "y": 1.600000023841858,
              "z": 0.0
            }
          },
          "attackInfo": {
            "attackTag": "",
            "attenuationTag": "",
            "attenuationGroup": "default",
            "attackProperty": {
              "damagePercentage": 1.0,
              "damagePercentageRatio": 0.0,
              "elementType": "Wind",
              "bonusCriticalHurt": 25.0,
              "strikeType": "Default",
              "enBreak": 75.0
            },
            "hitPattern": {
              "onHitEffectName": "default",
              "hitImpulseType": "LV4",
              "overrideHitImpulse": {
                "hitLevel": "Heavy",
                "hitImpulseX": 600.0,
                "hitImpulseY": 0.0
              },
              "hitHaltTimeScale": 0.05000000074505806
            },
            "canBeModifiedBy": "OriginOwner"
          }
        }
      ]
    }
  },
  {
    "Default": {
      "$type": "ConfigAbility",
      "abilityName": "Monster_FungusFighterV2_TowerPhysics_ReleaseSkill",
      "modifiers": {
        "Remove_LockTarget": {
          "modifierName": "",
          "duration": 0.30000001192092896,
          "bonusCriticalHurt": 100.0,
          "onAdded": [
            {
              "$type": "RemoveUniqueModifier",
              "modifierName": "UNIQUE_Monster_FungusFighterV2_TowerPhysics_LockTarget"
            }
          ]
        },
        "Monster_FungusFighterV2_TowerPhysics_ReleaseSkillEffectBS": {
          "modifierName": "",
          "duration": 3.5,
          "bonusCriticalHurt": 100.0,
          "onAdded": [
            {
              "$type": "AttachEffect",
              "healLimitedByCasterMaxHPRatio": "Eff_Monster_FungusFighterV2_TowerPhysics_SkillRelease",
              "effectTempleteID": -1.0
            }
          ]
        },
        "Monster_FungusFighterV2_TowerPhysics_OpenPartcontrol": {
          "modifierName": "",
          "bonusCriticalHurt": 100.0,
          "onAdded": [
            {
              "$type": "EnablePartControl",
              "canBeHandledOnRecover": true,
              "partRootNames": ["ShootPoint"],
              "enable": true
            },
            {
              "$type": "SetPartControlTarget",
              "target": "SelfAttackTarget",
              "canBeHandledOnRecover": true,
              "partRootNames": ["ShootPoint"]
            }
          ]
        },
        "Monster_FungusFighterV2_TowerPhysics_ReleaseSkillDelay": {
          "modifierName": "",
          "duration": 3.0,
          "bonusCriticalHurt": 100.0,
          "onAdded": [
            {
              "$type": "FireEffect",
              "healLimitedByCasterMaxHPRatio": "Eff_Monster_FungusFighterV2_TowerPhysics_SkillRelease",
              "effectTempleteID": -1.0
            },
            {
              "$type": "ApplyModifier",
              "target": "SelfAttackTarget",
              "modifierName": "UNIQUE_Monster_FungusFighterV2_TowerPhysics_LockTarget"
            }
          ],
          "onRemoved": [
            {
              "$type": "TriggerBullet",
              "bulletID": 42481009,
              "born": {
                "$type": "ConfigBornByAttachPoint",
                "IABNJPGBAOH": true,
                "attachPointName": "ShootPoint"
              }
            }
          ]
        },
        "UNIQUE_Monster_FungusFighterV2_TowerPhysics_LockTarget": {
          "stacking": "RefreshUniqueDurability",
          "modifierName": "",
          "isUnique": true,
          "duration": 3.0999999046325684,
          "bonusCriticalHurt": 100.0,
          "onAdded": [
            {
              "$type": "AttachEffect",
              "healLimitedByCasterMaxHPRatio": "Eff_Monster_FungusFighterV2_TowerPhysics_LockTarget",
              "effectTempleteID": -1.0
            },
            {
              "$type": "SetGlobalValue",
              "ratio": 1.0,
              "key": "_IS_LOCKED_BY_PHYSICS_TOWER",
              "maxValue": 0.0,
              "minValue": 0.0
            }
          ],
          "onRemoved": [
            {
              "$type": "SetGlobalValue",
              "ratio": 0.0,
              "key": "_IS_LOCKED_BY_PHYSICS_TOWER",
              "maxValue": 0.0,
              "minValue": 0.0
            }
          ]
        }
      },
      "onAdded": [
        {
          "$type": "ApplyModifier",
          "modifierName": "Monster_FungusFighterV2_TowerPhysics_OpenPartcontrol"
        },
        {
          "$type": "SetGlobalValue",
          "ratio": 1.0,
          "key": "_IS_PHYSICS_TOWER",
          "maxValue": 0.0,
          "minValue": 0.0
        }
      ],
      "onAbilityStart": [
        {
          "$type": "TriggerAbility",
          "abilityName": "Monster_FungusFighterV2_Tower_SkillBanAttack"
        },
        {
          "$type": "ApplyModifier",
          "modifierName": "Monster_FungusFighterV2_TowerPhysics_ReleaseSkillDelay"
        },
        {
          "$type": "ApplyModifier",
          "modifierName": "Monster_FungusFighterV2_TowerPhysics_ReleaseSkillEffectBS"
        }
      ],
      "onKill": [
        {
          "$type": "RemoveModifier",
          "modifierName": "Monster_FungusFighterV2_TowerPhysics_ReleaseSkillEffectBS"
        },
        {
          "$type": "ApplyModifier",
          "target": "SelfAttackTarget",
          "modifierName": "Remove_LockTarget"
        }
      ]
    }
  },
  {
    "Default": {
      "$type": "ConfigAbility",
      "abilityName": "FungusFighterV2_TowerPhysics_SkillBullet",
      "abilitySpecials": {
        "FlyTime": 0.0
      },
      "modifiers": {
        "FungusFighterV2_TowerPhysics_SkillBullet": {
          "modifierName": "",
          "bonusCriticalHurt": 100.0,
          "thinkInterval": 0.10000000149011612,
          "onAdded": [
            {
              "$type": "AttachEffect",
              "healLimitedByCasterMaxHPRatio": "Eff_Monster_FungusFighterV2_TowerPhysics_SkillBullet",
              "effectTempleteID": -1.0
            }
          ],
          "onThinkInterval": [
            {
              "$type": "AddGlobalValue",
              "ratio": 0.10000000149011612,
              "key": "_FLY_TIME",
              "useLimitRange": true,
              "maxValue": 5.0,
              "minValue": 0.0
            }
          ],
          "OOBNPLAILMC": true
        },
        "Physics_SkillBullet_DamageUpByTime": {
          "stacking": "MultipleAllRefresh",
          "stackingOption": {
            "abilitySpecialName": "",
            "maxModifierNumForMultipleType": 10.0
          },
          "modifierName": "",
          "bonusCriticalHurt": 100.0,
          "properties": {
            "Actor_AttackRatio": 0.4000000059604645
          }
        }
      },
      "onAdded": [
        {
          "$type": "ApplyModifier",
          "modifierName": "FungusFighterV2_TowerPhysics_SkillBullet"
        },
        {
          "$type": "SetGlobalValue",
          "ratio": 0.0,
          "key": "_FLY_TIME",
          "maxValue": 0.0,
          "minValue": 0.0
        }
      ],
      "onAbilityStart": [
        {
          "$type": "SetGlobalValueToOverrideMap",
          "globalValueKey": "_FLY_TIME",
          "overrideMapKey": "FlyTime"
        },
        {
          "$type": "Predicated",
          "target": "Target",
          "targetPredicates": [
            {
              "$type": "ByTargetGlobalValue",
              "target": "Self",
              "key": "_FLY_TIME",
              "ratio": 4.0,
              "compareType": "LessAndEqual"
            }
          ],
          "successActions": [
            {
              "$type": "FireEffect",
              "healLimitedByCasterMaxHPRatio": "Eff_Monster_FungusFighterV2_TowerPhysics_SkillBullet_Explode",
              "effectTempleteID": -1.0
            },
            {
              "$type": "DamageByAttackValue",
              "target": "Target",
              "attackInfo": {
                "attackTag": "",
                "attenuationTag": "",
                "attenuationGroup": "default",
                "attackProperty": {
                  "damagePercentage": [
                    "FlyTime",
                    0.800000011920929,
                    "MUL",
                    2.0,
                    "ADD"
                  ],
                  "damagePercentageRatio": 0.0,
                  "bonusCriticalHurt": 100.0,
                  "strikeType": "Blunt",
                  "enBreak": 120.0
                },
                "hitPattern": {
                  "onHitEffectName": "default",
                  "hitImpulseType": "LV1",
                  "hitHaltTimeScale": 0.05000000074505806
                },
                "canBeModifiedBy": "OriginOwner"
              }
            }
          ],
          "failActions": [
            {
              "$type": "FireEffect",
              "healLimitedByCasterMaxHPRatio": "Eff_Monster_FungusFighterV2_TowerPhysics_SkillBullet_Explode",
              "effectTempleteID": -1.0
            },
            {
              "$type": "DamageByAttackValue",
              "target": "Target",
              "attackInfo": {
                "attackTag": "",
                "attenuationTag": "",
                "attenuationGroup": "default",
                "attackProperty": {
                  "damagePercentage": 6.0,
                  "damagePercentageRatio": 0.0,
                  "bonusCriticalHurt": 100.0,
                  "strikeType": "Blunt",
                  "enBreak": 120.0
                },
                "hitPattern": {
                  "onHitEffectName": "default",
                  "hitImpulseType": "LV1",
                  "hitHaltTimeScale": 0.05000000074505806
                },
                "canBeModifiedBy": "OriginOwner"
              }
            }
          ]
        }
      ]
    }
  },
  {
    "Default": {
      "$type": "ConfigAbility",
      "abilityName": "Monster_FungusFighterV2_TowerPhysics_ReleaseBullet",
      "modifiers": {
        "Monster_FungusFighterV2_TowerPhysics_ReleaseBullet_Delay": {
          "modifierName": "",
          "duration": 1.0,
          "bonusCriticalHurt": 100.0,
          "onAdded": [
            {
              "$type": "FireEffect",
              "healLimitedByCasterMaxHPRatio": "Eff_Monster_FungusFighterV2_Tower_ReleasePhysicsBullet",
              "effectTempleteID": -1.0
            }
          ],
          "onRemoved": [
            {
              "$type": "TriggerBullet",
              "bulletID": 42481005,
              "born": {
                "$type": "ConfigBornByAttachPoint",
                "offset": {
                  "x": 0.0,
                  "y": 0.0,
                  "z": 0.0
                },
                "direction": {
                  "$type": "HFKFLHCBMLB"
                },
                "IABNJPGBAOH": true,
                "attachPointName": "ShootPoint"
              }
            }
          ]
        }
      },
      "onAbilityStart": [
        {
          "$type": "ApplyModifier",
          "modifierName": "Monster_FungusFighterV2_TowerPhysics_ReleaseBullet_Delay"
        }
      ]
    }
  },
  {
    "Default": {
      "$type": "ConfigAbility",
      "abilityName": "FungusFighterV2_TowerPhysicsBullet",
      "modifiers": {
        "FungusFighterV2_TowerPhysicsBullet": {
          "modifierName": "",
          "bonusCriticalHurt": 100.0,
          "onAdded": [
            {
              "$type": "AttachEffect",
              "healLimitedByCasterMaxHPRatio": "Eff_Monster_FungusFighterV2_Tower_PhysicsBullet",
              "effectTempleteID": -1.0
            }
          ]
        }
      },
      "onAdded": [
        {
          "$type": "ApplyModifier",
          "modifierName": "FungusFighterV2_TowerPhysicsBullet"
        }
      ],
      "onAbilityStart": [
        {
          "$type": "FireEffect",
          "healLimitedByCasterMaxHPRatio": "Eff_Monster_FungusFighterV2_Tower_PhysicsBulletHit",
          "born": {
            "$type": "ConfigBornByCollisionPoint"
          },
          "effectTempleteID": -1.0
        },
        {
          "$type": "DamageByAttackValue",
          "target": "Target",
          "attackInfo": {
            "attackTag": "",
            "attenuationTag": "",
            "attenuationGroup": "default",
            "attackProperty": {
              "damagePercentage": 1.5,
              "damagePercentageRatio": 0.0,
              "bonusCriticalHurt": 100.0,
              "strikeType": "Blunt",
              "enBreak": 120.0
            },
            "hitPattern": {
              "onHitEffectName": "none",
              "hitImpulseType": "LV2",
              "overrideHitImpulse": {
                "hitLevel": "Light",
                "hitImpulseX": 0.0,
                "hitImpulseY": 0.0
              },
              "hitHaltTimeScale": 0.05000000074505806
            },
            "canBeModifiedBy": "OriginOwner"
          }
        }
      ]
    }
  }
]
