[
  {
    "Default": {
      "$type": "ConfigAbility",
      "abilityName": "Monster_Thoarder_Male_Fat_Shovel_SteerAttack",
      "abilityMixins": [
        {
          "$type": "SteerAttackMixin",
          "steerStateIDs": ["NormalAtk"],
          "endNormalizedTime": 0.019999999552965164,
          "angularSpeed": 270.0,
          "attackTrigger": "",
          "attackDistance": 3.75
        },
        {
          "$type": "SteerAttackMixin",
          "steerStateIDs": ["NormalAtk"],
          "startNormalizedTime": 0.15000000596046448,
          "endNormalizedTime": 0.23000000417232513,
          "angularSpeed": 120.0,
          "attackTrigger": "",
          "attackDistance": 3.75
        },
        {
          "$type": "SteerAttackMixin",
          "steerStateIDs": ["PowerSlam"],
          "startNormalizedTime": 0.27000001072883606,
          "endNormalizedTime": 0.3199999928474426,
          "angularSpeed": 270.0,
          "attackTrigger": "",
          "attackDistance": 3.75
        },
        {
          "$type": "SteerAttackMixin",
          "steerStateIDs": ["WildSlam_BS"],
          "endNormalizedTime": 0.6000000238418579,
          "angularSpeed": 150.0,
          "attackTrigger": "",
          "attackDistance": 3.75
        },
        {
          "$type": "SteerAttackMixin",
          "steerStateIDs": ["WildSlam_Loop"],
          "endNormalizedTime": 30.0,
          "angularSpeed": 10.0,
          "attackTrigger": "",
          "attackDistance": 3.75,
          "CINKELMBHLE": false
        },
        {
          "$type": "SteerAttackMixin",
          "steerStateIDs": ["WildSlam_Turn"],
          "endNormalizedTime": 99.0,
          "angularSpeed": 240.0,
          "attackTrigger": "",
          "attackDistance": 3.75,
          "CINKELMBHLE": false
        }
      ]
    }
  },
  {
    "Default": {
      "$type": "ConfigAbility",
      "abilityName": "Monster_Thoarder_Male_Fat_Shovel_SteerMove",
      "abilityMixins": [
        {
          "$type": "SteerAttackMixin",
          "steerStateIDs": ["Turn"],
          "angularSpeed": 120.0,
          "attackTrigger": "",
          "attackDistance": 3.75
        }
      ]
    }
  },
  {
    "Default": {
      "$type": "ConfigAbility",
      "abilityName": "Monster_Thoarder_Male_Fat_Shovel_ShovelAttack_Bullet",
      "abilityMixins": [
        {
          "$type": "SteerAttackMixin",
          "steerStateIDs": ["ShovelAttack"],
          "startNormalizedTime": 0.05000000074505806,
          "endNormalizedTime": 0.23000000417232513,
          "angularSpeed": 240.0,
          "attackTrigger": "",
          "attackDistance": 3.75
        }
      ],
      "onAbilityStart": [
        {
          "$type": "TriggerBullet",
          "bulletID": 42503002,
          "born": {
            "$type": "ConfigBornByAttachPoint",
            "offset": {
              "x": 0.0,
              "y": 0.3499999940395355,
              "z": 1.5
            },
            "direction": {
              "$type": "HFKFLHCBMLB",
              "LLOEMEPIBII": "Horizontal",
              "maxAngle": 15.0
            },
            "attachPointName": "WeaponR"
          }
        }
      ]
    }
  },
  {
    "Default": {
      "$type": "ConfigAbility",
      "abilityName": "Monster_Thoarder_Male_Fat_Shovel_ShovelAttack_OtherBullet",
      "onAbilityStart": [
        {
          "$type": "TriggerBullet",
          "bulletID": 42503002,
          "born": {
            "$type": "ConfigBornByAttachPoint",
            "offset": {
              "x": 0.0,
              "y": 0.3499999940395355,
              "z": 1.5
            },
            "direction": {
              "$type": "HFKFLHCBMLB",
              "LLOEMEPIBII": "Horizontal",
              "maxAngle": 15.0
            },
            "attachPointName": "WeaponR"
          }
        }
      ]
    }
  },
  {
    "Default": {
      "$type": "ConfigAbility",
      "abilityName": "Monster_Thoarder_Male_Fat_Shovel_MuddyBullet_OnHit",
      "modifiers": {
        "MuddyBullet_ScreenEffect": {
          "modifierName": "",
          "duration": 5.0,
          "bonusCriticalHurt": 100.0,
          "modifierMixins": [
            {
              "$type": "TriggerPostProcessEffectMixin",
              "postEffectAssetName": "PostEffect_Monster_Thoarder_MuddyBullet_ScreenEffect",
              "duration": 5.0
            }
          ],
          "onAdded": [
            {
              "$type": "DungeonFogEffects",
              "muteRemoteAction": true,
              "enable": true,
              "cameraFogEffectName": "Eff_Monster_Thoarder_MuddyBullet_ScreenEffect",
              "playerFogEffectName": ""
            }
          ],
          "onRemoved": [
            {
              "$type": "DungeonFogEffects",
              "cameraFogEffectName": "",
              "playerFogEffectName": ""
            }
          ],
          "onKill": [
            {
              "$type": "DungeonFogEffects",
              "cameraFogEffectName": "",
              "playerFogEffectName": ""
            }
          ]
        },
        "MuddyBullet_ScreenEffectApplier": {
          "modifierName": "",
          "bonusCriticalHurt": 100.0,
          "onAttackLanded": [
            {
              "$type": "Predicated",
              "target": "Target",
              "targetPredicates": [
                {
                  "$type": "LCCMCDGDKGI",
                  "attackTags": ["MuddyBulletAttack"]
                },
                {
                  "$type": "ByEntityTypes",
                  "entityTypes": ["Avatar"]
                }
              ],
              "successActions": [
                {
                  "$type": "ApplyModifier",
                  "target": "Target",
                  "modifierName": "MuddyBullet_ScreenEffect"
                }
              ]
            }
          ]
        }
      },
      "onAbilityStart": [
        {
          "$type": "FireEffect",
          "healLimitedByCasterMaxHPRatio": "Eff_Monster_Thoarder_Male_Shovel_StoneBullet_Damage",
          "effectTempleteID": -1.0
        },
        {
          "$type": "TriggerAttackEvent",
          "attackEvent": {
            "attackPattern": {
              "$type": "ConfigAttackSphere",
              "triggerType": "TriggerNoRepeat",
              "born": {
                "$type": "ConfigBornBySelf",
                "offset": {
                  "x": 0.0,
                  "y": 0.25,
                  "z": 0.0
                }
              },
              "radius": 1.0
            },
            "attackInfo": {
              "attackTag": "MuddyBulletAttack",
              "attenuationTag": "",
              "attenuationGroup": "default",
              "attackProperty": {
                "damagePercentage": 0.75,
                "damagePercentageRatio": 0.0,
                "bonusCriticalHurt": 100.0,
                "strikeType": "Blunt",
                "enBreak": 200.0
              },
              "hitPattern": {
                "onHitEffectName": "none",
                "hitImpulseType": "LV4",
                "hitHaltTimeScale": 0.05000000074505806
              },
              "cameraShake": {
                "shakeRange": 0.05999999865889549,
                "shakeTime": 0.09000000357627869
              }
            }
          },
          "targetType": "Enemy"
        }
      ]
    }
  },
  {
    "Default": {
      "$type": "ConfigAbility",
      "abilityName": "Thoarder_StoneBullet_Loop",
      "modifiers": {
        "HatchetThrow_Loop": {
          "modifierName": "",
          "bonusCriticalHurt": 100.0,
          "onAdded": [
            {
              "$type": "AttachEffect",
              "healLimitedByCasterMaxHPRatio": "Eff_Monster_Thoarder_Male_Shovel_StoneBullet",
              "effectTempleteID": -1.0
            }
          ],
          "onRemoved": [
            {
              "$type": "KillSelf"
            }
          ]
        }
      },
      "onAdded": [
        {
          "$type": "AttachModifier",
          "modifierName": "HatchetThrow_Loop"
        }
      ]
    }
  },
  {
    "Default": {
      "$type": "ConfigAbility",
      "abilityName": "Monster_Thoarder_Male_Fat_Shovel_StepShake",
      "onAbilityStart": [
        {
          "$type": "ActCameraShake",
          "cameraShake": {
            "shakeType": "CustomVector",
            "shakeRange": 0.05999999865889549,
            "shakeTime": 0.09000000357627869,
            "shakeDir": {
              "y": -1.0
            }
          }
        }
      ]
    }
  },
  {
    "Default": {
      "$type": "ConfigAbility",
      "abilityName": "Monster_Thoarder_Male_Fat_Shovel_WildSlam_Loop",
      "abilityMixins": [
        {
          "$type": "AttachToStateIDMixin",
          "stateIDs": ["WildSlam_Loop", "WildSlam_Turn"],
          "modifierName": "WildSlamRushEffect"
        }
      ],
      "modifiers": {
        "WildSlamRushEffect": {
          "modifierName": "",
          "bonusCriticalHurt": 100.0,
          "onAdded": [
            {
              "$type": "AttachEffect",
              "healLimitedByCasterMaxHPRatio": "Eff_Monster_Thoarder_Male_Shovel_WildSlam_Dust",
              "effectTempleteID": -1.0
            }
          ]
        }
      }
    }
  },
  {
    "Default": {
      "$type": "ConfigAbility",
      "abilityName": "Monster_Thoarder_Male_Fat_Shovel_AuxWeaponTrans",
      "abilityMixins": [
        {
          "$type": "AttachToPoseIDMixin",
          "poseIDs": [1001],
          "modifierName": "AuxWeaponTransManager"
        }
      ],
      "modifiers": {
        "AuxWeaponTransManager": {
          "modifierName": "",
          "bonusCriticalHurt": 100.0,
          "modifierMixins": [
            {
              "$type": "AttachToStateIDMixin",
              "stateIDs": ["NormalIdle", "NormalMove", "Turn", "BeHit"],
              "modifierName": "Shovel_AuxWeaponTrans"
            }
          ],
          "onRemoved": [
            {
              "$type": "RemoveModifier",
              "modifierName": "Shovel_AuxWeaponTrans"
            }
          ]
        },
        "Shovel_AuxWeaponTrans": {
          "modifierName": "",
          "bonusCriticalHurt": 100.0,
          "onAdded": [
            {
              "$type": "TriggerAuxWeaponTrans",
              "setEnable": true,
              "equipPart": "equip01"
            }
          ],
          "onRemoved": [
            {
              "$type": "TriggerAuxWeaponTrans",
              "equipPart": "equip01"
            }
          ]
        }
      }
    }
  },
  {
    "Default": {
      "$type": "ConfigAbility",
      "abilityName": "Thoarder_Male_Fat_Shovel_ActivitySkill",
      "abilityMixins": [
        {
          "$type": "ServerUpdateGlobalValueMixin",
          "key": "_Server_Thoarder_Activity_Value_",
          "useLimitRange": true,
          "maxValue": 1.0,
          "minValue": 0.0
        },
        {
          "$type": "SteerAttackMixin",
          "steerStateIDs": ["ActivitySkill"],
          "endNormalizedTime": 0.30000001192092896,
          "angularSpeed": 480.0,
          "attackTrigger": "",
          "attackDistance": 3.75
        },
        {
          "$type": "SteerAttackMixin",
          "steerStateIDs": ["FirecrackerHit"],
          "endNormalizedTime": 0.6000000238418579,
          "angularSpeed": 480.0,
          "attackTrigger": "",
          "attackDistance": 3.75
        }
      ],
      "modifiers": {
        "Thoarder_Male_Fat_Shovel_ActivitySkill_Manage": {
          "modifierName": "",
          "duration": 30.0,
          "bonusCriticalHurt": 100.0,
          "onRemoved": [
            {
              "$type": "SetAISkillCDAvailableNow",
              "skillIDs": [401]
            },
            {
              "$type": "UseSkillEliteSet",
              "skillEliteSetID": 1
            }
          ]
        },
        "UNIQUE_Thoarder_Male_Fat_Shovel_ActivitySkill_Effect": {
          "stacking": "Unique",
          "modifierName": "",
          "isUnique": true,
          "bonusCriticalHurt": 100.0,
          "modifierMixins": [
            {
              "$type": "BillboardFixedMarkMixin",
              "AAGLKHDLCIL": "Eff_UI_BillBoard_FixedMark_ForAngry"
            }
          ],
          "properties": {
            "Actor_FireSubHurtDelta": 0.6000000238418579,
            "Actor_WaterSubHurtDelta": 0.6000000238418579,
            "Actor_GrassSubHurtDelta": 0.6000000238418579,
            "Actor_ElecSubHurtDelta": 0.6000000238418579,
            "Actor_WindSubHurtDelta": 0.6000000238418579,
            "Actor_IceSubHurtDelta": 0.6000000238418579,
            "Actor_RockSubHurtDelta": 0.6000000238418579,
            "Actor_PhysicalSubHurtDelta": 0.800000011920929
          },
          "onAdded": [
            {
              "$type": "AttachEffect",
              "healLimitedByCasterMaxHPRatio": "Eff_Avatar_Properties_Defense_Up",
              "effectTempleteID": -1.0
            }
          ],
          "onBeingHit": [
            {
              "$type": "Predicated",
              "target": "Target",
              "targetPredicates": [
                {
                  "$type": "LCCMCDGDKGI",
                  "attackTags": ["Firecracker"]
                }
              ],
              "successActions": [
                {
                  "$type": "ApplyModifier",
                  "modifierName": "Thoarder_Male_Fat_Shovel_ActivitySkill_Manage"
                },
                {
                  "$type": "SetAnimatorTrigger",
                  "triggerID": "FirecrackerHit"
                },
                {
                  "$type": "RemoveUniqueModifier",
                  "modifierName": "UNIQUE_Thoarder_Male_Fat_Shovel_ActivitySkill_Effect"
                }
              ]
            }
          ]
        },
        "ActivitySkill_ExitBattle": {
          "modifierName": "",
          "duration": 1.0,
          "bonusCriticalHurt": 100.0,
          "onAdded": [
            {
              "$type": "RemoveUniqueModifier",
              "modifierName": "UNIQUE_Thoarder_Male_Fat_Shovel_ActivitySkill_Effect"
            },
            {
              "$type": "SetAISkillCDAvailableNow",
              "skillIDs": [401]
            }
          ]
        }
      },
      "onAdded": [
        {
          "$type": "ApplyModifier",
          "RotationDampTime": true,
          "predicates": [
            {
              "$type": "ByTargetGlobalValue",
              "target": "Self",
              "key": "_THOARDER_ELITE_TAG_",
              "ratio": 1.0
            }
          ],
          "modifierName": "UNIQUE_Thoarder_Male_Fat_Shovel_ActivitySkill_Effect"
        }
      ],
      "onAbilityStart": [
        {
          "$type": "AttachModifier",
          "modifierName": "UNIQUE_Thoarder_Male_Fat_Shovel_ActivitySkill_Effect"
        },
        {
          "$type": "AttachEffect",
          "healLimitedByCasterMaxHPRatio": "Eff_Monster_Thoarder_Male_Shovel_WildSlam_BS_01",
          "born": {
            "$type": "ConfigBornByAttachPoint",
            "offset": {
              "x": 0.0,
              "y": 0.0,
              "z": 0.0
            },
            "attachPointName": "MoveHead"
          },
          "effectTempleteID": -1.0
        }
      ]
    }
  }
]
