{
  "id": 1000,
  "series": 1101,
  "titleTextMapHash": 492421553,
  "descTextMapHash": 911637991,
  "luaPath": "Actor/Quest/MQ1000",
  "suggestTrackMainQuestList": [
    1002
  ],
  "rewardIdList": [
    101000
  ],
  "chapterId": 1101,
  "subQuests": [
    {
      "subId": 100099,
      "mainId": 1000,
      "order": 1,
      "descTextMapHash": 730009758,
      "showType": "QUEST_HIDDEN",
      "acceptCond": [
        {
          "type": "QUEST_COND_STATE_EQUAL",
          "param": [
            99902,
            3,
            0
          ],
          "param_str": ""
        }
      ],
      "finishCond": [
        {
          "type": "QUEST_CONTENT_GAME_TIME_TICK",
          "param": [
            0,
            0
          ],
          "param_str": "0,24"
        }
      ],
      "failCond": [],
      "guide": {
        "param": []
      },
      "isRewind": true,
      "finishExec": [],
      "failExec": [],
      "beginExec": []
    },
    {
      "subId": 100098,
      "mainId": 1000,
      "order": 2,
      "descTextMapHash": 1711324566,
      "showType": "QUEST_HIDDEN",
      "acceptCond": [
        {
          "type": "QUEST_COND_STATE_EQUAL",
          "param": [
            99902,
            3,
            0
          ],
          "param_str": ""
        }
      ],
      "finishCond": [
        {
          "type": "QUEST_CONTENT_GAME_TIME_TICK",
          "param": [
            0,
            0
          ],
          "param_str": "0,24"
        }
      ],
      "failCond": [],
      "guide": {
        "param": []
      },
      "isRewind": true,
      "finishExec": [],
      "failExec": [],
      "beginExec": []
    },
    {
      "subId": 100000,
      "mainId": 1000,
      "order": 3,
      "descTextMapHash": 66312846,
      "acceptCond": [
        {
          "type": "QUEST_COND_STATE_EQUAL",
          "param": [
            39604,
            3,
            0
          ],
          "param_str": ""
        }
      ],
      "finishCond": [
        {
          "type": "QUEST_CONTENT_FINISH_PLOT",
          "param": [
            100000,
            0
          ],
          "param_str": ""
        }
      ],
      "failCond": [],
      "guide": {
        "type": "QUEST_GUIDE_LOCATION",
        "param": [
          "Q100001Player"
        ],
        "guideScene": 3,
        "guideStyle": "QUEST_GUIDE_STYLE_POINT"
      },
      "isRewind": true,
      "finishExec": [],
      "failExec": [],
      "beginExec": [],
      "exclusiveNpcList": [
        201301,
        200901,
        201101,
        162501,
        202301,
        203601,
        2025
      ],
      "exclusiveNpcPriority": 1000
    },
    {
      "subId": 100001,
      "mainId": 1000,
      "order": 4,
      "isMpBlock": true,
      "descTextMapHash": 73951502,
      "acceptCond": [
        {
          "type": "QUEST_COND_STATE_EQUAL",
          "param": [
            100000,
            3,
            0
          ],
          "param_str": ""
        }
      ],
      "finishCond": [
        {
          "type": "QUEST_CONTENT_COMPLETE_TALK",
          "param": [
            100001,
            0
          ],
          "param_str": ""
        }
      ],
      "failCond": [],
      "guide": {
        "param": []
      },
      "isRewind": true,
      "finishExec": [],
      "failExec": [],
      "beginExec": [],
      "exclusiveNpcList": [
        201301,
        200901,
        201101,
        162501,
        202301,
        203601,
        2025
      ],
      "exclusiveNpcPriority": 1000
    },
    {
      "subId": 100002,
      "mainId": 1000,
      "order": 5,
      "subIdSet": 2,
      "descTextMapHash": 2304184750,
      "acceptCond": [
        {
          "type": "QUEST_COND_STATE_EQUAL",
          "param": [
            100001,
            3,
            0
          ],
          "param_str": ""
        }
      ],
      "finishCondComb": "LOGIC_OR",
      "finishCond": [
        {
          "type": "QUEST_CONTENT_COMPLETE_TALK",
          "param": [
            100002,
            0
          ],
          "param_str": ""
        },
        {
          "type": "QUEST_CONTENT_COMPLETE_TALK",
          "param": [
            10000201
          ],
          "param_str": ""
        }
      ],
      "failCond": [],
      "guide": {
        "type": "QUEST_GUIDE_NPC",
        "param": [
          "203601"
        ],
        "guideScene": 3,
        "guideStyle": "QUEST_GUIDE_STYLE_TARGET",
        "guideLayer": "QUEST_GUIDE_LAYER_SCENE"
      },
      "isRewind": true,
      "finishExec": [
        {
          "type": "QUEST_EXEC_ADD_QUEST_PROGRESS",
          "param": [
            "100005",
            "1"
          ],
          "param_str": ""
        },
        {
          "type": "QUEST_EXEC_ADD_QUEST_PROGRESS",
          "param": [
            "100006",
            "1"
          ],
          "param_str": ""
        }
      ],
      "failExec": [],
      "beginExec": [],
      "exclusiveNpcList": [
        201301,
        200901,
        201101,
        162501,
        202301,
        203601,
        2064,
        1625,
        2023
      ],
      "exclusiveNpcPriority": 1000
    },
    {
      "subId": 100003,
      "mainId": 1000,
      "order": 6,
      "subIdSet": 2,
      "descTextMapHash": 2771555118,
      "acceptCond": [
        {
          "type": "QUEST_COND_STATE_EQUAL",
          "param": [
            100001,
            3,
            0
          ],
          "param_str": ""
        }
      ],
      "finishCondComb": "LOGIC_OR",
      "finishCond": [
        {
          "type": "QUEST_CONTENT_COMPLETE_TALK",
          "param": [
            100003,
            0
          ],
          "param_str": ""
        },
        {
          "type": "QUEST_CONTENT_COMPLETE_TALK",
          "param": [
            10000301
          ],
          "param_str": ""
        }
      ],
      "failCond": [],
      "guide": {
        "type": "QUEST_GUIDE_NPC",
        "param": [
          "202301"
        ],
        "guideScene": 3,
        "guideStyle": "QUEST_GUIDE_STYLE_TARGET",
        "guideLayer": "QUEST_GUIDE_LAYER_SCENE"
      },
      "isRewind": true,
      "finishExec": [
        {
          "type": "QUEST_EXEC_ADD_QUEST_PROGRESS",
          "param": [
            "100005",
            "1"
          ],
          "param_str": ""
        },
        {
          "type": "QUEST_EXEC_ADD_QUEST_PROGRESS",
          "param": [
            "100006",
            "1"
          ],
          "param_str": ""
        }
      ],
      "failExec": [],
      "beginExec": [],
      "exclusiveNpcList": [
        201301,
        200901,
        201101,
        162501,
        202301,
        203601,
        2064,
        1625,
        2023
      ],
      "exclusiveNpcPriority": 1000
    },
    {
      "subId": 100004,
      "mainId": 1000,
      "order": 7,
      "subIdSet": 2,
      "descTextMapHash": 4048193646,
      "acceptCond": [
        {
          "type": "QUEST_COND_STATE_EQUAL",
          "param": [
            100001,
            3,
            0
          ],
          "param_str": ""
        }
      ],
      "finishCondComb": "LOGIC_OR",
      "finishCond": [
        {
          "type": "QUEST_CONTENT_COMPLETE_TALK",
          "param": [
            100004,
            0
          ],
          "param_str": ""
        },
        {
          "type": "QUEST_CONTENT_COMPLETE_TALK",
          "param": [
            10000401
          ],
          "param_str": ""
        }
      ],
      "failCond": [],
      "guide": {
        "type": "QUEST_GUIDE_NPC",
        "param": [
          "201301"
        ],
        "guideScene": 3,
        "guideStyle": "QUEST_GUIDE_STYLE_TARGET",
        "guideLayer": "QUEST_GUIDE_LAYER_SCENE"
      },
      "isRewind": true,
      "finishExec": [
        {
          "type": "QUEST_EXEC_ADD_QUEST_PROGRESS",
          "param": [
            "100005",
            "1"
          ],
          "param_str": ""
        },
        {
          "type": "QUEST_EXEC_ADD_QUEST_PROGRESS",
          "param": [
            "100006",
            "1"
          ],
          "param_str": ""
        }
      ],
      "failExec": [],
      "beginExec": [],
      "exclusiveNpcList": [
        201301,
        200901,
        201101,
        162501,
        202301,
        203601,
        1625,
        2064,
        2023
      ],
      "exclusiveNpcPriority": 1000
    },
    {
      "subId": 100005,
      "mainId": 1000,
      "order": 8,
      "descTextMapHash": 833348838,
      "showType": "QUEST_HIDDEN",
      "acceptCond": [
        {
          "type": "QUEST_COND_STATE_EQUAL",
          "param": [
            100001,
            3,
            0
          ],
          "param_str": ""
        }
      ],
      "finishCond": [
        {
          "type": "QUEST_CONTENT_ADD_QUEST_PROGRESS",
          "param": [
            100005,
            0
          ],
          "param_str": "",
          "count": 2
        }
      ],
      "failCond": [],
      "guide": {
        "param": []
      },
      "isRewind": true,
      "finishExec": [],
      "failExec": [],
      "beginExec": []
    },
    {
      "subId": 100006,
      "mainId": 1000,
      "order": 9,
      "descTextMapHash": 3568210110,
      "showType": "QUEST_HIDDEN",
      "acceptCond": [
        {
          "type": "QUEST_COND_STATE_EQUAL",
          "param": [
            100001,
            3,
            0
          ],
          "param_str": ""
        }
      ],
      "finishCond": [
        {
          "type": "QUEST_CONTENT_ADD_QUEST_PROGRESS",
          "param": [
            100006,
            0
          ],
          "param_str": "",
          "count": 3
        }
      ],
      "failCond": [],
      "guide": {
        "param": []
      },
      "isRewind": true,
      "finishExec": [
        {
          "type": "QUEST_EXEC_ADD_QUEST_PROGRESS",
          "param": [
            "100016",
            "1"
          ],
          "param_str": ""
        }
      ],
      "failExec": [],
      "beginExec": [],
      "exclusiveNpcList": [
        201301,
        200901,
        201101,
        162501,
        202301,
        203601,
        1625,
        2064,
        2023
      ],
      "exclusiveNpcPriority": 1000
    },
    {
      "subId": 100016,
      "mainId": 1000,
      "order": 10,
      "descTextMapHash": 1757998254,
      "showType": "QUEST_HIDDEN",
      "acceptCond": [
        {
          "type": "QUEST_COND_STATE_EQUAL",
          "param": [
            100001,
            3,
            0
          ],
          "param_str": ""
        }
      ],
      "finishCond": [
        {
          "type": "QUEST_CONTENT_ADD_QUEST_PROGRESS",
          "param": [
            100016,
            0
          ],
          "param_str": "",
          "count": 1
        }
      ],
      "failCond": [],
      "guide": {
        "param": []
      },
      "isRewind": true,
      "finishExec": [],
      "failExec": [],
      "beginExec": []
    },
    {
      "subId": 100007,
      "mainId": 1000,
      "order": 11,
      "descTextMapHash": 3066403206,
      "acceptCond": [
        {
          "type": "QUEST_COND_STATE_EQUAL",
          "param": [
            100006,
            3,
            0
          ],
          "param_str": ""
        }
      ],
      "finishCond": [
        {
          "type": "QUEST_CONTENT_FINISH_PLOT",
          "param": [
            100007,
            0
          ],
          "param_str": ""
        }
      ],
      "failCond": [],
      "guide": {
        "type": "QUEST_GUIDE_LOCATION",
        "param": [
          "Q1000Zone2"
        ],
        "guideScene": 3
      },
      "isRewind": true,
      "finishExec": [],
      "failExec": [],
      "beginExec": [],
      "exclusiveNpcList": [
        209001,
        207201,
        10211,
        1625,
        2064,
        2023
      ],
      "exclusiveNpcPriority": 1000
    },
    {
      "subId": 100021,
      "mainId": 1000,
      "order": 12,
      "subIdSet": 3,
      "descTextMapHash": 3779311862,
      "acceptCond": [
        {
          "type": "QUEST_COND_STATE_EQUAL",
          "param": [
            100007,
            3,
            0
          ],
          "param_str": ""
        }
      ],
      "finishCondComb": "LOGIC_OR",
      "finishCond": [
        {
          "type": "QUEST_CONTENT_COMPLETE_TALK",
          "param": [
            100021,
            0
          ],
          "param_str": ""
        },
        {
          "type": "QUEST_CONTENT_COMPLETE_TALK",
          "param": [
            10002101
          ],
          "param_str": ""
        }
      ],
      "failCond": [],
      "guide": {
        "type": "QUEST_GUIDE_LOCATION",
        "param": [
          "Q1000Xianglu2High"
        ],
        "guideScene": 3,
        "guideStyle": "QUEST_GUIDE_STYLE_TARGET",
        "guideLayer": "QUEST_GUIDE_LAYER_UI"
      },
      "isRewind": true,
      "finishExec": [
        {
          "type": "QUEST_EXEC_ADD_QUEST_PROGRESS",
          "param": [
            "100024",
            "1"
          ],
          "param_str": ""
        },
        {
          "type": "QUEST_EXEC_ADD_QUEST_PROGRESS",
          "param": [
            "100023",
            "1"
          ],
          "param_str": ""
        }
      ],
      "failExec": [],
      "beginExec": [],
      "exclusiveNpcList": [
        209001,
        207201,
        10211,
        2069,
        2071,
        2073
      ],
      "exclusiveNpcPriority": 1000
    },
    {
      "subId": 100022,
      "mainId": 1000,
      "order": 13,
      "subIdSet": 3,
      "descTextMapHash": 2108662390,
      "acceptCond": [
        {
          "type": "QUEST_COND_STATE_EQUAL",
          "param": [
            100007,
            3,
            0
          ],
          "param_str": ""
        }
      ],
      "finishCondComb": "LOGIC_OR",
      "finishCond": [
        {
          "type": "QUEST_CONTENT_COMPLETE_TALK",
          "param": [
            100022,
            0
          ],
          "param_str": ""
        },
        {
          "type": "QUEST_CONTENT_COMPLETE_TALK",
          "param": [
            10002201
          ],
          "param_str": ""
        }
      ],
      "failCond": [],
      "guide": {
        "type": "QUEST_GUIDE_LOCATION",
        "param": [
          "Q1000Xianglu1High"
        ],
        "guideScene": 3,
        "guideStyle": "QUEST_GUIDE_STYLE_TARGET",
        "guideLayer": "QUEST_GUIDE_LAYER_UI"
      },
      "isRewind": true,
      "finishExec": [
        {
          "type": "QUEST_EXEC_ADD_QUEST_PROGRESS",
          "param": [
            "100024",
            "1"
          ],
          "param_str": ""
        },
        {
          "type": "QUEST_EXEC_ADD_QUEST_PROGRESS",
          "param": [
            "100023",
            "1"
          ],
          "param_str": ""
        }
      ],
      "failExec": [],
      "beginExec": [],
      "exclusiveNpcList": [
        209001,
        207201,
        10211,
        2069,
        2071,
        2073
      ],
      "exclusiveNpcPriority": 1000
    },
    {
      "subId": 100023,
      "mainId": 1000,
      "order": 14,
      "descTextMapHash": 1249019230,
      "showType": "QUEST_HIDDEN",
      "acceptCond": [
        {
          "type": "QUEST_COND_STATE_EQUAL",
          "param": [
            100007,
            3,
            0
          ],
          "param_str": ""
        }
      ],
      "finishCond": [
        {
          "type": "QUEST_CONTENT_ADD_QUEST_PROGRESS",
          "param": [
            100023,
            0
          ],
          "param_str": "",
          "count": 1
        }
      ],
      "failCond": [],
      "guide": {
        "param": []
      },
      "isRewind": true,
      "finishExec": [],
      "failExec": [],
      "beginExec": []
    },
    {
      "subId": 100024,
      "mainId": 1000,
      "order": 15,
      "descTextMapHash": 1018896998,
      "showType": "QUEST_HIDDEN",
      "acceptCond": [
        {
          "type": "QUEST_COND_STATE_EQUAL",
          "param": [
            100007,
            3,
            0
          ],
          "param_str": ""
        }
      ],
      "finishCond": [
        {
          "type": "QUEST_CONTENT_ADD_QUEST_PROGRESS",
          "param": [
            100024,
            0
          ],
          "param_str": "",
          "count": 2
        }
      ],
      "failCond": [],
      "guide": {
        "param": []
      },
      "isRewind": true,
      "finishExec": [
        {
          "type": "QUEST_EXEC_ADD_QUEST_PROGRESS",
          "param": [
            "100025",
            "1"
          ],
          "param_str": ""
        }
      ],
      "failExec": [],
      "beginExec": [],
      "exclusiveNpcList": [
        209001,
        207201,
        10211,
        2069,
        2071,
        2073
      ],
      "exclusiveNpcPriority": 1000
    },
    {
      "subId": 100025,
      "mainId": 1000,
      "order": 16,
      "descTextMapHash": 435010334,
      "showType": "QUEST_HIDDEN",
      "acceptCond": [
        {
          "type": "QUEST_COND_STATE_EQUAL",
          "param": [
            100007,
            3,
            0
          ],
          "param_str": ""
        }
      ],
      "finishCond": [
        {
          "type": "QUEST_CONTENT_ADD_QUEST_PROGRESS",
          "param": [
            100025,
            0
          ],
          "param_str": "",
          "count": 1
        }
      ],
      "failCond": [],
      "guide": {
        "param": []
      },
      "isRewind": true,
      "finishExec": [
        {
          "type": "QUEST_EXEC_ADD_QUEST_PROGRESS",
          "param": [
            "100101",
            "1"
          ],
          "param_str": ""
        }
      ],
      "failExec": [],
      "beginExec": []
    },
    {
      "subId": 100026,
      "mainId": 1000,
      "order": 17,
      "isMpBlock": true,
      "descTextMapHash": 1592354382,
      "acceptCond": [
        {
          "type": "QUEST_COND_STATE_EQUAL",
          "param": [
            100024,
            3,
            0
          ],
          "param_str": ""
        }
      ],
      "finishCond": [
        {
          "type": "QUEST_CONTENT_FINISH_PLOT",
          "param": [
            100026,
            0
          ],
          "param_str": ""
        }
      ],
      "failCond": [],
      "guide": {
        "type": "QUEST_GUIDE_LOCATION",
        "param": [
          "Q1000Zone2"
        ],
        "guideScene": 3
      },
      "isRewind": true,
      "finishExec": [],
      "failExec": [],
      "beginExec": [],
      "exclusiveNpcList": [
        2073,
        2069,
        2071
      ],
      "exclusiveNpcPriority": 1000
    },
    {
      "subId": 100008,
      "mainId": 1000,
      "order": 18,
      "isMpBlock": true,
      "descTextMapHash": 2948082982,
      "acceptCond": [
        {
          "type": "QUEST_COND_STATE_EQUAL",
          "param": [
            100026,
            3,
            0
          ],
          "param_str": ""
        }
      ],
      "finishCond": [
        {
          "type": "QUEST_CONTENT_FINISH_PLOT",
          "param": [
            100008,
            0
          ],
          "param_str": ""
        }
      ],
      "failCond": [],
      "guide": {
        "param": []
      },
      "isRewind": true,
      "finishExec": [
        {
          "type": "QUEST_EXEC_ADD_QUEST_PROGRESS",
          "param": [
            "100401",
            "1"
          ],
          "param_str": ""
        },
        {
          "type": "QUEST_EXEC_ADD_QUEST_PROGRESS",
          "param": [
            "100402",
            "1"
          ],
          "param_str": ""
        }
      ],
      "failExec": [],
      "beginExec": [
        {
          "type": "QUEST_EXEC_SET_GAME_TIME",
          "param": [
            "11"
          ],
          "param_str": ""
        }
      ],
      "exclusiveNpcList": [
        2073,
        2069,
        2071
      ],
      "exclusiveNpcPriority": 1000
    },
    {
      "subId": 100015,
      "mainId": 1000,
      "order": 19,
      "isMpBlock": true,
      "descTextMapHash": 242270662,
      "acceptCond": [
        {
          "type": "QUEST_COND_STATE_EQUAL",
          "param": [
            100008,
            3,
            0
          ],
          "param_str": ""
        }
      ],
      "finishCond": [
        {
          "type": "QUEST_CONTENT_COMPLETE_TALK",
          "param": [
            100015,
            0
          ],
          "param_str": ""
        }
      ],
      "failCond": [],
      "guide": {
        "param": []
      },
      "isRewind": true,
      "finishExec": [],
      "failExec": [],
      "beginExec": [
        {
          "type": "QUEST_EXEC_LOCK_AVATAR_TEAM",
          "param": [
            "0"
          ],
          "param_str": ""
        }
      ],
      "exclusiveNpcList": [
        2073,
        2069,
        2071
      ],
      "exclusiveNpcPriority": 1000
    },
    {
      "subId": 100009,
      "mainId": 1000,
      "order": 20,
      "isMpBlock": true,
      "descTextMapHash": 2415559102,
      "showType": "QUEST_HIDDEN",
      "acceptCond": [
        {
          "type": "QUEST_COND_STATE_EQUAL",
          "param": [
            100015,
            3,
            0
          ],
          "param_str": ""
        }
      ],
      "finishCond": [
        {
          "type": "QUEST_CONTENT_FINISH_PLOT",
          "param": [
            100009,
            0
          ],
          "param_str": ""
        }
      ],
      "failCond": [],
      "guide": {
        "type": "QUEST_GUIDE_LOCATION",
        "param": [
          "Q1000Zone3"
        ],
        "guideScene": 3
      },
      "isRewind": true,
      "finishExec": [],
      "failExec": [],
      "beginExec": [
        {
          "type": "QUEST_EXEC_LOCK_AVATAR_TEAM",
          "param": [
            "0"
          ],
          "param_str": ""
        }
      ]
    },
    {
      "subId": 100027,
      "mainId": 1000,
      "order": 21,
      "isMpBlock": true,
      "descTextMapHash": 3111176726,
      "showType": "QUEST_HIDDEN",
      "acceptCond": [
        {
          "type": "QUEST_COND_STATE_EQUAL",
          "param": [
            100009,
            3,
            0
          ],
          "param_str": ""
        }
      ],
      "finishCond": [
        {
          "type": "QUEST_CONTENT_ADD_QUEST_PROGRESS",
          "param": [
            100027,
            0
          ],
          "param_str": "",
          "count": 1
        }
      ],
      "failCond": [],
      "guide": {
        "type": "QUEST_GUIDE_LOCATION",
        "param": [],
        "guideScene": 3
      },
      "finishExec": [],
      "failExec": [],
      "beginExec": []
    },
    {
      "subId": 100010,
      "mainId": 1000,
      "order": 22,
      "isMpBlock": true,
      "descTextMapHash": 2485550366,
      "banType": "BAN_GROUP_COMMON",
      "acceptCond": [
        {
          "type": "QUEST_COND_STATE_EQUAL",
          "param": [
            100009,
            3,
            0
          ],
          "param_str": ""
        }
      ],
      "finishCond": [
        {
          "type": "QUEST_CONTENT_FINISH_PLOT",
          "param": [
            100010,
            0
          ],
          "param_str": ""
        }
      ],
      "failCond": [
        {
          "type": "QUEST_CONTENT_NOT_FINISH_PLOT",
          "param": [
            100010,
            0
          ],
          "param_str": ""
        }
      ],
      "guide": {
        "type": "QUEST_GUIDE_LOCATION",
        "param": [
          "Q1000Target"
        ],
        "guideScene": 3,
        "guideStyle": "QUEST_GUIDE_STYLE_POINT",
        "guideLayer": "QUEST_GUIDE_LAYER_UI"
      },
      "isRewind": true,
      "finishExec": [
        {
          "type": "QUEST_EXEC_ADD_QUEST_PROGRESS",
          "param": [
            "100027",
            "1"
          ],
          "param_str": ""
        }
      ],
      "failExec": [],
      "beginExec": [
        {
          "type": "QUEST_EXEC_LOCK_AVATAR_TEAM",
          "param": [
            "0"
          ],
          "param_str": ""
        }
      ]
    },
    {
      "subId": 100011,
      "mainId": 1000,
      "order": 23,
      "isMpBlock": true,
      "descTextMapHash": 4233120406,
      "showType": "QUEST_HIDDEN",
      "acceptCond": [
        {
          "type": "QUEST_COND_STATE_EQUAL",
          "param": [
            100010,
            4,
            0
          ],
          "param_str": ""
        }
      ],
      "finishCond": [
        {
          "type": "QUEST_CONTENT_FINISH_PLOT",
          "param": [
            100011,
            0
          ],
          "param_str": ""
        }
      ],
      "failCond": [],
      "guide": {
        "param": []
      },
      "isRewind": true,
      "finishExec": [
        {
          "type": "QUEST_EXEC_ROLLBACK_QUEST",
          "param": [
            "100010"
          ],
          "param_str": ""
        }
      ],
      "failExec": [],
      "beginExec": [
        {
          "type": "QUEST_EXEC_LOCK_AVATAR_TEAM",
          "param": [
            "0"
          ],
          "param_str": ""
        }
      ]
    },
    {
      "subId": 100012,
      "mainId": 1000,
      "order": 24,
      "isMpBlock": true,
      "descTextMapHash": 400602686,
      "showType": "QUEST_HIDDEN",
      "acceptCond": [
        {
          "type": "QUEST_COND_STATE_EQUAL",
          "param": [
            100010,
            3,
            0
          ],
          "param_str": ""
        }
      ],
      "finishCond": [
        {
          "type": "QUEST_CONTENT_FINISH_PLOT",
          "param": [
            100012,
            0
          ],
          "param_str": ""
        }
      ],
      "failCond": [],
      "guide": {
        "param": []
      },
      "isRewind": true,
      "finishExec": [],
      "failExec": [],
      "beginExec": [
        {
          "type": "QUEST_EXEC_UNLOCK_AVATAR_TEAM",
          "param": [],
          "param_str": ""
        }
      ]
    },
    {
      "subId": 100013,
      "mainId": 1000,
      "order": 25,
      "descTextMapHash": 196615918,
      "acceptCond": [
        {
          "type": "QUEST_COND_STATE_EQUAL",
          "param": [
            100012,
            3,
            0
          ],
          "param_str": ""
        }
      ],
      "finishCond": [
        {
          "type": "QUEST_CONTENT_COMPLETE_TALK",
          "param": [
            100013,
            0
          ],
          "param_str": ""
        }
      ],
      "failCond": [],
      "guide": {
        "type": "QUEST_GUIDE_NPC",
        "param": [
          "10200"
        ],
        "guideScene": 3,
        "guideStyle": "QUEST_GUIDE_STYLE_TARGET",
        "guideLayer": "QUEST_GUIDE_LAYER_SCENE"
      },
      "isRewind": true,
      "finishExec": [],
      "failExec": [],
      "beginExec": [],
      "exclusiveNpcList": [
        10200
      ],
      "exclusiveNpcPriority": 1000
    },
    {
      "subId": 100014,
      "mainId": 1000,
      "order": 26,
      "descTextMapHash": 3398541654,
      "acceptCond": [
        {
          "type": "QUEST_COND_STATE_EQUAL",
          "param": [
            100013,
            3,
            0
          ],
          "param_str": ""
        }
      ],
      "finishCond": [
        {
          "type": "QUEST_CONTENT_COMPLETE_TALK",
          "param": [
            100014,
            0
          ],
          "param_str": ""
        }
      ],
      "failCond": [],
      "guide": {
        "type": "QUEST_GUIDE_LOCATION",
        "param": [
          "Q100014GongziUp"
        ],
        "guideScene": 3,
        "guideStyle": "QUEST_GUIDE_STYLE_TARGET",
        "guideLayer": "QUEST_GUIDE_LAYER_SCENE"
      },
      "finishParent": true,
      "isRewind": true,
      "finishExec": [],
      "failExec": [],
      "beginExec": [],
      "exclusiveNpcList": [
        10200
      ],
      "exclusiveNpcPriority": 1000
    }
  ],
  "talks": [
    {
      "id": 100001,
      "beginWay": "TALK_BEGIN_MANUAL",
      "activeMode": "PLAY_MODE_SINGLE",
      "beginCond": [
        {
          "type": "QUEST_COND_STATE_EQUAL",
          "param": [
            "100001",
            "2"
          ],
          "param_str": ""
        }
      ],
      "priority": 6,
      "initDialog": 10000101,
      "npcId": [
        1005
      ],
      "performCfg": "QuestDialogue/AQ/Liyue1_1000/Q100001",
      "heroTalk": "TALK_HERO_MAIN",
      "questId": 1000,
      "prePerformCfg": ""
    },
    {
      "id": 100002,
      "beginWay": "TALK_BEGIN_MANUAL",
      "activeMode": "PLAY_MODE_SINGLE",
      "beginCondComb": "LOGIC_AND",
      "beginCond": [
        {
          "type": "QUEST_COND_STATE_EQUAL",
          "param": [
            "100002",
            "2"
          ],
          "param_str": ""
        },
        {
          "type": "QUEST_COND_STATE_EQUAL",
          "param": [
            "100005",
            "2"
          ],
          "param_str": ""
        }
      ],
      "priority": 6,
      "initDialog": 10000201,
      "npcId": [
        203601
      ],
      "performCfg": "QuestDialogue/AQ/Liyue1_1000/Q100002",
      "heroTalk": "TALK_HERO_MAIN",
      "questId": 1000,
      "prePerformCfg": ""
    },
    {
      "id": 10000201,
      "beginWay": "TALK_BEGIN_MANUAL",
      "activeMode": "PLAY_MODE_SINGLE",
      "beginCondComb": "LOGIC_AND",
      "beginCond": [
        {
          "type": "QUEST_COND_STATE_EQUAL",
          "param": [
            "100002",
            "2"
          ],
          "param_str": ""
        },
        {
          "type": "QUEST_COND_STATE_EQUAL",
          "param": [
            "100005",
            "3"
          ],
          "param_str": ""
        }
      ],
      "priority": 6,
      "initDialog": 10000221,
      "npcId": [
        203601
      ],
      "performCfg": "QuestDialogue/AQ/Liyue1_1000/Q10000201",
      "heroTalk": "TALK_HERO_MAIN",
      "questId": 1000,
      "prePerformCfg": ""
    },
    {
      "id": 10000202,
      "beginWay": "TALK_BEGIN_MANUAL",
      "activeMode": "PLAY_MODE_SINGLE",
      "beginCondComb": "LOGIC_AND",
      "beginCond": [
        {
          "type": "QUEST_COND_STATE_EQUAL",
          "param": [
            "100002",
            "3"
          ],
          "param_str": ""
        },
        {
          "type": "QUEST_COND_STATE_EQUAL",
          "param": [
            "100006",
            "2"
          ],
          "param_str": ""
        }
      ],
      "priority": 6,
      "initDialog": 10000231,
      "npcId": [
        203601
      ],
      "performCfg": "",
      "questId": 1000,
      "prePerformCfg": ""
    },
    {
      "id": 10000203,
      "beginWay": "TALK_BEGIN_MANUAL",
      "activeMode": "PLAY_MODE_SINGLE",
      "beginCondComb": "LOGIC_AND",
      "beginCond": [
        {
          "type": "QUEST_COND_STATE_EQUAL",
          "param": [
            "100006",
            "3"
          ],
          "param_str": ""
        },
        {
          "type": "QUEST_COND_STATE_EQUAL",
          "param": [
            "100007",
            "2"
          ],
          "param_str": ""
        }
      ],
      "priority": 6,
      "initDialog": 10000231,
      "npcId": [
        203601
      ],
      "performCfg": "",
      "questId": 1000,
      "prePerformCfg": ""
    },
    {
      "id": 100003,
      "beginWay": "TALK_BEGIN_MANUAL",
      "activeMode": "PLAY_MODE_SINGLE",
      "beginCondComb": "LOGIC_AND",
      "beginCond": [
        {
          "type": "QUEST_COND_STATE_EQUAL",
          "param": [
            "100003",
            "2"
          ],
          "param_str": ""
        },
        {
          "type": "QUEST_COND_STATE_EQUAL",
          "param": [
            "100005",
            "2"
          ],
          "param_str": ""
        }
      ],
      "priority": 6,
      "initDialog": 10000301,
      "npcId": [
        202301
      ],
      "performCfg": "QuestDialogue/AQ/Liyue1_1000/Q100003",
      "heroTalk": "TALK_HERO_MAIN",
      "questId": 1000,
      "prePerformCfg": ""
    },
    {
      "id": 10000301,
      "beginWay": "TALK_BEGIN_MANUAL",
      "activeMode": "PLAY_MODE_SINGLE",
      "beginCondComb": "LOGIC_AND",
      "beginCond": [
        {
          "type": "QUEST_COND_STATE_EQUAL",
          "param": [
            "100003",
            "2"
          ],
          "param_str": ""
        },
        {
          "type": "QUEST_COND_STATE_EQUAL",
          "param": [
            "100005",
            "3"
          ],
          "param_str": ""
        }
      ],
      "priority": 6,
      "initDialog": 10000321,
      "npcId": [
        202301
      ],
      "performCfg": "QuestDialogue/AQ/Liyue1_1000/Q10000301",
      "heroTalk": "TALK_HERO_MAIN",
      "questId": 1000,
      "prePerformCfg": ""
    },
    {
      "id": 10000302,
      "beginWay": "TALK_BEGIN_MANUAL",
      "activeMode": "PLAY_MODE_SINGLE",
      "beginCondComb": "LOGIC_AND",
      "beginCond": [
        {
          "type": "QUEST_COND_STATE_EQUAL",
          "param": [
            "100003",
            "3"
          ],
          "param_str": ""
        },
        {
          "type": "QUEST_COND_STATE_EQUAL",
          "param": [
            "100006",
            "2"
          ],
          "param_str": ""
        }
      ],
      "priority": 6,
      "initDialog": 10000331,
      "npcId": [
        202301
      ],
      "performCfg": "",
      "questId": 1000,
      "prePerformCfg": ""
    },
    {
      "id": 10000304,
      "beginWay": "TALK_BEGIN_MANUAL",
      "activeMode": "PLAY_MODE_SINGLE",
      "beginCondComb": "LOGIC_AND",
      "beginCond": [
        {
          "type": "QUEST_COND_STATE_EQUAL",
          "param": [
            "100006",
            "3"
          ],
          "param_str": ""
        },
        {
          "type": "QUEST_COND_STATE_EQUAL",
          "param": [
            "100007",
            "2"
          ],
          "param_str": ""
        }
      ],
      "priority": 6,
      "initDialog": 10000331,
      "npcId": [
        202301
      ],
      "performCfg": "",
      "questId": 1000,
      "prePerformCfg": ""
    },
    {
      "id": 10000303,
      "beginWay": "TALK_BEGIN_MANUAL",
      "activeMode": "PLAY_MODE_SINGLE",
      "beginCondComb": "LOGIC_AND",
      "beginCond": [
        {
          "type": "QUEST_COND_STATE_EQUAL",
          "param": [
            "100003",
            "3"
          ],
          "param_str": ""
        },
        {
          "type": "QUEST_COND_STATE_EQUAL",
          "param": [
            "100006",
            "2"
          ],
          "param_str": ""
        }
      ],
      "priority": 6,
      "initDialog": 10000333,
      "npcId": [
        200901
      ],
      "performCfg": "",
      "questId": 1000,
      "prePerformCfg": ""
    },
    {
      "id": 10000305,
      "beginWay": "TALK_BEGIN_MANUAL",
      "activeMode": "PLAY_MODE_SINGLE",
      "beginCondComb": "LOGIC_AND",
      "beginCond": [
        {
          "type": "QUEST_COND_STATE_EQUAL",
          "param": [
            "100006",
            "3"
          ],
          "param_str": ""
        },
        {
          "type": "QUEST_COND_STATE_EQUAL",
          "param": [
            "100007",
            "2"
          ],
          "param_str": ""
        }
      ],
      "priority": 6,
      "initDialog": 10000333,
      "npcId": [
        200901
      ],
      "performCfg": "",
      "questId": 1000,
      "prePerformCfg": ""
    },
    {
      "id": 100004,
      "beginWay": "TALK_BEGIN_MANUAL",
      "activeMode": "PLAY_MODE_SINGLE",
      "beginCondComb": "LOGIC_AND",
      "beginCond": [
        {
          "type": "QUEST_COND_STATE_EQUAL",
          "param": [
            "100004",
            "2"
          ],
          "param_str": ""
        },
        {
          "type": "QUEST_COND_STATE_EQUAL",
          "param": [
            "100005",
            "2"
          ],
          "param_str": ""
        }
      ],
      "priority": 6,
      "initDialog": 10000401,
      "npcId": [
        201301
      ],
      "performCfg": "QuestDialogue/AQ/Liyue1_1000/Q100004",
      "heroTalk": "TALK_HERO_MAIN",
      "questId": 1000,
      "prePerformCfg": ""
    },
    {
      "id": 10000401,
      "beginWay": "TALK_BEGIN_MANUAL",
      "activeMode": "PLAY_MODE_SINGLE",
      "beginCondComb": "LOGIC_AND",
      "beginCond": [
        {
          "type": "QUEST_COND_STATE_EQUAL",
          "param": [
            "100004",
            "2"
          ],
          "param_str": ""
        },
        {
          "type": "QUEST_COND_STATE_EQUAL",
          "param": [
            "100005",
            "3"
          ],
          "param_str": ""
        }
      ],
      "priority": 6,
      "initDialog": 10000421,
      "npcId": [
        201301
      ],
      "performCfg": "QuestDialogue/AQ/Liyue1_1000/Q10000401",
      "heroTalk": "TALK_HERO_MAIN",
      "questId": 1000,
      "prePerformCfg": ""
    },
    {
      "id": 10000402,
      "beginWay": "TALK_BEGIN_MANUAL",
      "activeMode": "PLAY_MODE_SINGLE",
      "beginCondComb": "LOGIC_AND",
      "beginCond": [
        {
          "type": "QUEST_COND_STATE_EQUAL",
          "param": [
            "100004",
            "3"
          ],
          "param_str": ""
        },
        {
          "type": "QUEST_COND_STATE_EQUAL",
          "param": [
            "100006",
            "2"
          ],
          "param_str": ""
        }
      ],
      "priority": 6,
      "initDialog": 10000411,
      "npcId": [
        201301
      ],
      "performCfg": "",
      "questId": 1000,
      "prePerformCfg": ""
    },
    {
      "id": 10000405,
      "beginWay": "TALK_BEGIN_MANUAL",
      "activeMode": "PLAY_MODE_SINGLE",
      "beginCondComb": "LOGIC_AND",
      "beginCond": [
        {
          "type": "QUEST_COND_STATE_EQUAL",
          "param": [
            "100006",
            "3"
          ],
          "param_str": ""
        },
        {
          "type": "QUEST_COND_STATE_EQUAL",
          "param": [
            "100007",
            "2"
          ],
          "param_str": ""
        }
      ],
      "priority": 6,
      "initDialog": 10000411,
      "npcId": [
        201301
      ],
      "performCfg": "",
      "questId": 1000,
      "prePerformCfg": ""
    },
    {
      "id": 10000403,
      "beginWay": "TALK_BEGIN_MANUAL",
      "activeMode": "PLAY_MODE_SINGLE",
      "beginCondComb": "LOGIC_AND",
      "beginCond": [
        {
          "type": "QUEST_COND_STATE_EQUAL",
          "param": [
            "100004",
            "3"
          ],
          "param_str": ""
        },
        {
          "type": "QUEST_COND_STATE_EQUAL",
          "param": [
            "100006",
            "2"
          ],
          "param_str": ""
        }
      ],
      "priority": 6,
      "initDialog": 10000413,
      "npcId": [
        201101
      ],
      "performCfg": "",
      "questId": 1000,
      "prePerformCfg": ""
    },
    {
      "id": 10000404,
      "beginWay": "TALK_BEGIN_MANUAL",
      "activeMode": "PLAY_MODE_SINGLE",
      "beginCondComb": "LOGIC_AND",
      "beginCond": [
        {
          "type": "QUEST_COND_STATE_EQUAL",
          "param": [
            "100004",
            "3"
          ],
          "param_str": ""
        },
        {
          "type": "QUEST_COND_STATE_EQUAL",
          "param": [
            "100006",
            "2"
          ],
          "param_str": ""
        }
      ],
      "priority": 6,
      "initDialog": 10000414,
      "npcId": [
        162501
      ],
      "performCfg": "",
      "questId": 1000,
      "prePerformCfg": ""
    },
    {
      "id": 10000406,
      "beginWay": "TALK_BEGIN_MANUAL",
      "activeMode": "PLAY_MODE_SINGLE",
      "beginCondComb": "LOGIC_AND",
      "beginCond": [
        {
          "type": "QUEST_COND_STATE_EQUAL",
          "param": [
            "100006",
            "3"
          ],
          "param_str": ""
        },
        {
          "type": "QUEST_COND_STATE_EQUAL",
          "param": [
            "100007",
            "2"
          ],
          "param_str": ""
        }
      ],
      "priority": 6,
      "initDialog": 10000413,
      "npcId": [
        201101
      ],
      "performCfg": "",
      "questId": 1000,
      "prePerformCfg": ""
    },
    {
      "id": 10000407,
      "beginWay": "TALK_BEGIN_MANUAL",
      "activeMode": "PLAY_MODE_SINGLE",
      "beginCondComb": "LOGIC_AND",
      "beginCond": [
        {
          "type": "QUEST_COND_STATE_EQUAL",
          "param": [
            "100006",
            "3"
          ],
          "param_str": ""
        },
        {
          "type": "QUEST_COND_STATE_EQUAL",
          "param": [
            "100007",
            "2"
          ],
          "param_str": ""
        }
      ],
      "priority": 6,
      "initDialog": 10000414,
      "npcId": [
        162501
      ],
      "performCfg": "",
      "questId": 1000,
      "prePerformCfg": ""
    },
    {
      "id": 100021,
      "beginWay": "TALK_BEGIN_MANUAL",
      "activeMode": "PLAY_MODE_SINGLE",
      "beginCondComb": "LOGIC_AND",
      "beginCond": [
        {
          "type": "QUEST_COND_STATE_EQUAL",
          "param": [
            "100021",
            "2"
          ],
          "param_str": ""
        },
        {
          "type": "QUEST_COND_STATE_EQUAL",
          "param": [
            "100023",
            "2"
          ],
          "param_str": ""
        }
      ],
      "priority": 6,
      "initDialog": 10002101,
      "npcId": [
        2003002
      ],
      "performCfg": "QuestDialogue/AQ/Liyue1_1000/Q100021",
      "heroTalk": "TALK_HERO_MAIN",
      "questId": 1000,
      "prePerformCfg": ""
    },
    {
      "id": 10002101,
      "beginWay": "TALK_BEGIN_MANUAL",
      "activeMode": "PLAY_MODE_SINGLE",
      "beginCondComb": "LOGIC_AND",
      "beginCond": [
        {
          "type": "QUEST_COND_STATE_EQUAL",
          "param": [
            "100021",
            "2"
          ],
          "param_str": ""
        },
        {
          "type": "QUEST_COND_STATE_EQUAL",
          "param": [
            "100023",
            "3"
          ],
          "param_str": ""
        }
      ],
      "priority": 6,
      "initDialog": 10002111,
      "npcId": [
        2003002
      ],
      "performCfg": "QuestDialogue/AQ/Liyue1_1000/Q10002101",
      "heroTalk": "TALK_HERO_MAIN",
      "questId": 1000,
      "prePerformCfg": ""
    },
    {
      "id": 10002102,
      "beginWay": "TALK_BEGIN_MANUAL",
      "activeMode": "PLAY_MODE_SINGLE",
      "beginCondComb": "LOGIC_AND",
      "beginCond": [
        {
          "type": "QUEST_COND_STATE_EQUAL",
          "param": [
            "100021",
            "3"
          ],
          "param_str": ""
        },
        {
          "type": "QUEST_COND_STATE_EQUAL",
          "param": [
            "100024",
            "2"
          ],
          "param_str": ""
        }
      ],
      "priority": 6,
      "initDialog": 10002113,
      "npcId": [
        209001
      ],
      "performCfg": "",
      "questId": 1000,
      "prePerformCfg": ""
    },
    {
      "id": 10002103,
      "beginWay": "TALK_BEGIN_MANUAL",
      "activeMode": "PLAY_MODE_SINGLE",
      "beginCondComb": "LOGIC_AND",
      "beginCond": [
        {
          "type": "QUEST_COND_STATE_EQUAL",
          "param": [
            "100024",
            "3"
          ],
          "param_str": ""
        },
        {
          "type": "QUEST_COND_STATE_EQUAL",
          "param": [
            "100026",
            "2"
          ],
          "param_str": ""
        }
      ],
      "priority": 6,
      "initDialog": 10002113,
      "npcId": [
        209001
      ],
      "performCfg": "",
      "questId": 1000,
      "prePerformCfg": ""
    },
    {
      "id": 100022,
      "beginWay": "TALK_BEGIN_MANUAL",
      "activeMode": "PLAY_MODE_SINGLE",
      "beginCondComb": "LOGIC_AND",
      "beginCond": [
        {
          "type": "QUEST_COND_STATE_EQUAL",
          "param": [
            "100022",
            "2"
          ],
          "param_str": ""
        },
        {
          "type": "QUEST_COND_STATE_EQUAL",
          "param": [
            "100023",
            "2"
          ],
          "param_str": ""
        }
      ],
      "priority": 6,
      "initDialog": 10002201,
      "npcId": [
        2003003
      ],
      "performCfg": "QuestDialogue/AQ/Liyue1_1000/Q100022",
      "heroTalk": "TALK_HERO_MAIN",
      "questId": 1000,
      "prePerformCfg": ""
    },
    {
      "id": 10002201,
      "beginWay": "TALK_BEGIN_MANUAL",
      "activeMode": "PLAY_MODE_SINGLE",
      "beginCondComb": "LOGIC_AND",
      "beginCond": [
        {
          "type": "QUEST_COND_STATE_EQUAL",
          "param": [
            "100022",
            "2"
          ],
          "param_str": ""
        },
        {
          "type": "QUEST_COND_STATE_EQUAL",
          "param": [
            "100023",
            "3"
          ],
          "param_str": ""
        }
      ],
      "priority": 6,
      "initDialog": 10002211,
      "npcId": [
        2003003
      ],
      "performCfg": "QuestDialogue/AQ/Liyue1_1000/Q10002201",
      "heroTalk": "TALK_HERO_MAIN",
      "questId": 1000,
      "prePerformCfg": ""
    },
    {
      "id": 10002202,
      "beginWay": "TALK_BEGIN_MANUAL",
      "activeMode": "PLAY_MODE_SINGLE",
      "beginCondComb": "LOGIC_AND",
      "beginCond": [
        {
          "type": "QUEST_COND_STATE_EQUAL",
          "param": [
            "100022",
            "3"
          ],
          "param_str": ""
        },
        {
          "type": "QUEST_COND_STATE_EQUAL",
          "param": [
            "100024",
            "2"
          ],
          "param_str": ""
        }
      ],
      "priority": 6,
      "initDialog": 10002208,
      "npcId": [
        207201
      ],
      "performCfg": "",
      "questId": 1000,
      "prePerformCfg": ""
    },
    {
      "id": 10002203,
      "beginWay": "TALK_BEGIN_MANUAL",
      "activeMode": "PLAY_MODE_SINGLE",
      "beginCondComb": "LOGIC_AND",
      "beginCond": [
        {
          "type": "QUEST_COND_STATE_EQUAL",
          "param": [
            "100024",
            "3"
          ],
          "param_str": ""
        },
        {
          "type": "QUEST_COND_STATE_EQUAL",
          "param": [
            "100026",
            "2"
          ],
          "param_str": ""
        }
      ],
      "priority": 6,
      "initDialog": 10002208,
      "npcId": [
        207201
      ],
      "performCfg": "",
      "questId": 1000,
      "prePerformCfg": ""
    },
    {
      "id": 100015,
      "beginWay": "TALK_BEGIN_AUTO",
      "activeMode": "PLAY_MODE_SINGLE",
      "beginCond": [
        {
          "type": "QUEST_COND_STATE_EQUAL",
          "param": [
            "100015",
            "2"
          ],
          "param_str": ""
        }
      ],
      "priority": 6,
      "initDialog": 10001501,
      "npcId": [
        1005
      ],
      "performCfg": "QuestDialogue/AQ/Liyue1_1000/Q100015",
      "heroTalk": "TALK_HERO_MAIN",
      "questId": 1000,
      "prePerformCfg": ""
    },
    {
      "id": 100013,
      "beginWay": "TALK_BEGIN_AUTO",
      "activeMode": "PLAY_MODE_SINGLE",
      "beginCond": [
        {
          "type": "QUEST_COND_STATE_EQUAL",
          "param": [
            "100013",
            "2"
          ],
          "param_str": ""
        }
      ],
      "priority": 6,
      "initDialog": 10001301,
      "npcId": [
        10200
      ],
      "performCfg": "QuestDialogue/AQ/Liyue1_1000/Q100013",
      "heroTalk": "TALK_HERO_MAIN",
      "questId": 1000,
      "prePerformCfg": ""
    },
    {
      "id": 100014,
      "beginWay": "TALK_BEGIN_MANUAL",
      "activeMode": "PLAY_MODE_SINGLE",
      "beginCond": [
        {
          "type": "QUEST_COND_STATE_EQUAL",
          "param": [
            "100014",
            "2"
          ],
          "param_str": ""
        }
      ],
      "priority": 6,
      "initDialog": 10001401,
      "npcId": [
        10200
      ],
      "performCfg": "QuestDialogue/AQ/Liyue1_1000/Q100014",
      "heroTalk": "TALK_HERO_MAIN",
      "questId": 1000,
      "prePerformCfg": ""
    },
    {
      "id": 100101,
      "beginWay": "TALK_BEGIN_AUTO",
      "activeMode": "PLAY_MODE_SINGLE",
      "beginCond": [
        {
          "type": "QUEST_COND_STATE_EQUAL",
          "param": [
            "100101",
            "2"
          ],
          "param_str": ""
        }
      ],
      "priority": 6,
      "initDialog": 10010101,
      "npcId": [
        2002901
      ],
      "performCfg": "",
      "questId": 1000,
      "prePerformCfg": ""
    },
    {
      "id": 100102,
      "beginWay": "TALK_BEGIN_AUTO",
      "activeMode": "PLAY_MODE_SINGLE",
      "beginCond": [
        {
          "type": "QUEST_COND_STATE_EQUAL",
          "param": [
            "100101",
            "2"
          ],
          "param_str": ""
        }
      ],
      "priority": 6,
      "initDialog": 10010103,
      "npcId": [
        2003001
      ],
      "performCfg": "",
      "questId": 1000,
      "prePerformCfg": ""
    }
  ]
}