{
  "id": 10114,
  "type": "LQ",
  "series": 2013,
  "titleTextMapHash": 2926275761,
  "descTextMapHash": 1533596343,
  "luaPath": "Actor/Quest/LQ10114",
  "showType": "QUEST_HIDDEN",
  "subQuests": [
    {
      "subId": 1011401,
      "mainId": 10114,
      "order": 1,
      "descTextMapHash": 837456494,
      "showType": "QUEST_HIDDEN",
      "acceptCond": [
        {
          "type": "QUEST_COND_STATE_EQUAL",
          "param": [
            1011306,
            3,
            0
          ],
          "param_str": ""
        }
      ],
      "finishCond": [
        {
          "type": "QUEST_CONTENT_FINISH_PLOT",
          "param": [
            1011401,
            0
          ],
          "param_str": ""
        }
      ],
      "failCond": [],
      "guide": {
        "param": []
      },
      "finishParent": true,
      "isRewind": true,
      "finishExec": [],
      "failExec": [],
      "beginExec": []
    }
  ]
}