{
  "id": 10500,
  "type": "LQ",
  "series": 2010,
  "titleTextMapHash": 3356395703,
  "descTextMapHash": 45732414,
  "luaPath": "Actor/Quest/LQ10500",
  "suggestTrackMainQuestList": [
    10501
  ],
  "rewardIdList": [
    110500
  ],
  "chapterId": 2010,
  "subQuests": [
    {
      "subId": 1050001,
      "mainId": 10500,
      "order": 2,
      "isMpBlock": true,
      "descTextMapHash": 839169908,
      "acceptCond": [
        {
          "type": "QUEST_COND_STATE_EQUAL",
          "param": [
            1050007,
            3,
            0,
            0,
            0
          ],
          "param_str": ""
        }
      ],
      "finishCond": [
        {
          "type": "QUEST_CONTENT_FINISH_PLOT",
          "param": [
            1050001,
            0
          ],
          "param_str": ""
        }
      ],
      "failCond": [],
      "guide": {
        "type": "QUEST_GUIDE_NPC",
        "param": [
          "10095"
        ],
        "guideScene": 3,
        "guideStyle": "QUEST_GUIDE_STYLE_TARGET",
        "guideLayer": "QUEST_GUIDE_LAYER_SCENE"
      },
      "isRewind": true,
      "finishExec": [],
      "failExec": [],
      "beginExec": [],
      "exclusiveNpcList": [
        10095
      ],
      "exclusiveNpcPriority": 1100
    },
    {
      "subId": 1050002,
      "mainId": 10500,
      "order": 3,
      "isMpBlock": true,
      "descTextMapHash": 925269612,
      "acceptCond": [
        {
          "type": "QUEST_COND_STATE_EQUAL",
          "param": [
            1050001,
            3,
            0,
            0,
            0
          ],
          "param_str": ""
        }
      ],
      "finishCondComb": "LOGIC_OR",
      "finishCond": [
        {
          "type": "QUEST_CONTENT_COMPLETE_TALK",
          "param": [
            1050001,
            0
          ],
          "param_str": ""
        },
        {
          "type": "QUEST_CONTENT_COMPLETE_TALK",
          "param": [
            1050009,
            0
          ],
          "param_str": ""
        }
      ],
      "failCond": [],
      "guide": {
        "type": "QUEST_GUIDE_NPC",
        "param": [
          "10095"
        ],
        "guideScene": 3,
        "guideStyle": "QUEST_GUIDE_STYLE_TARGET",
        "guideLayer": "QUEST_GUIDE_LAYER_SCENE"
      },
      "isRewind": true,
      "finishExec": [
        {
          "type": "QUEST_EXEC_SET_QUEST_GLOBAL_VAR",
          "param": [
            "20000",
            "1"
          ],
          "param_str": ""
        }
      ],
      "failExec": [],
      "beginExec": [],
      "exclusiveNpcList": [
        10095
      ],
      "exclusiveNpcPriority": 1100
    },
    {
      "subId": 1050003,
      "mainId": 10500,
      "order": 4,
      "descTextMapHash": 4252325084,
      "acceptCond": [
        {
          "type": "QUEST_COND_STATE_EQUAL",
          "param": [
            1050002,
            3,
            0,
            0,
            0
          ],
          "param_str": ""
        }
      ],
      "finishCondComb": "LOGIC_OR",
      "finishCond": [
        {
          "type": "QUEST_CONTENT_COMPLETE_TALK",
          "param": [
            1050002,
            0
          ],
          "param_str": ""
        },
        {
          "type": "QUEST_CONTENT_COMPLETE_TALK",
          "param": [
            1050008,
            0
          ],
          "param_str": ""
        }
      ],
      "failCond": [],
      "guide": {
        "type": "QUEST_GUIDE_NPC",
        "param": [
          "243001"
        ],
        "guideScene": 3,
        "guideStyle": "QUEST_GUIDE_STYLE_TARGET",
        "guideLayer": "QUEST_GUIDE_LAYER_SCENE"
      },
      "isRewind": true,
      "finishExec": [],
      "failExec": [],
      "beginExec": [],
      "exclusiveNpcList": [
        10095,
        2430
      ],
      "exclusiveNpcPriority": 1100
    },
    {
      "subId": 1050004,
      "mainId": 10500,
      "order": 5,
      "descTextMapHash": 782132212,
      "acceptCond": [
        {
          "type": "QUEST_COND_STATE_EQUAL",
          "param": [
            1050003,
            3,
            0,
            0,
            0
          ],
          "param_str": ""
        }
      ],
      "finishCond": [
        {
          "type": "QUEST_CONTENT_INTERACT_GADGET",
          "param": [
            70300052,
            0
          ],
          "param_str": "",
          "count": 1
        }
      ],
      "failCond": [],
      "guide": {
        "type": "QUEST_GUIDE_LOCATION",
        "param": [
          "Q10500SlimeSpawn"
        ],
        "guideScene": 3,
        "guideStyle": "QUEST_GUIDE_STYLE_POINT",
        "guideLayer": "QUEST_GUIDE_LAYER_SCENE"
      },
      "isRewind": true,
      "finishExec": [],
      "failExec": [],
      "beginExec": [
        {
          "type": "QUEST_EXEC_REFRESH_GROUP_SUITE",
          "param": [
            "3",
            "133104578,2"
          ],
          "param_str": ""
        }
      ],
      "exclusiveNpcList": [
        10095,
        2430
      ],
      "exclusiveNpcPriority": 1100
    },
    {
      "subId": 1050005,
      "mainId": 10500,
      "order": 6,
      "descTextMapHash": 162227348,
      "acceptCond": [
        {
          "type": "QUEST_COND_STATE_EQUAL",
          "param": [
            1050004,
            3,
            0,
            0,
            0
          ],
          "param_str": ""
        }
      ],
      "finishCond": [
        {
          "type": "QUEST_CONTENT_LUA_NOTIFY",
          "param": [
            0,
            0
          ],
          "param_str": "133104578",
          "count": 1
        }
      ],
      "failCond": [],
      "guide": {
        "type": "QUEST_GUIDE_LOCATION",
        "param": [
          "Q10500SlimeSpawn",
          "30"
        ],
        "guideScene": 3,
        "guideStyle": "QUEST_GUIDE_STYLE_TARGET",
        "guideLayer": "QUEST_GUIDE_LAYER_SCENE"
      },
      "isRewind": true,
      "finishExec": [
        {
          "type": "QUEST_EXEC_REFRESH_GROUP_SUITE",
          "param": [
            "3",
            "133104578,1"
          ],
          "param_str": ""
        },
        {
          "type": "QUEST_EXEC_REFRESH_GROUP_SUITE",
          "param": [
            "3",
            "133104915,1"
          ],
          "param_str": ""
        }
      ],
      "failExec": [],
      "beginExec": [
        {
          "type": "QUEST_EXEC_REFRESH_GROUP_SUITE",
          "param": [
            "3",
            "133104578,3"
          ],
          "param_str": ""
        },
        {
          "type": "QUEST_EXEC_DEL_ALL_SPECIFIC_PACK_ITEM",
          "param": [
            "100243"
          ],
          "param_str": ""
        },
        {
          "type": "QUEST_EXEC_REFRESH_GROUP_SUITE",
          "param": [
            "3",
            "133104915,2"
          ],
          "param_str": ""
        }
      ],
      "exclusiveNpcList": [
        10095,
        2430
      ],
      "exclusiveNpcPriority": 1100
    },
    {
      "subId": 1050006,
      "mainId": 10500,
      "order": 8,
      "descTextMapHash": 4193060452,
      "acceptCond": [
        {
          "type": "QUEST_COND_STATE_EQUAL",
          "param": [
            1050008,
            3,
            0,
            0,
            0
          ],
          "param_str": ""
        }
      ],
      "finishCond": [
        {
          "type": "QUEST_CONTENT_COMPLETE_TALK",
          "param": [
            1050003,
            0
          ],
          "param_str": ""
        }
      ],
      "failCond": [],
      "guide": {
        "type": "QUEST_GUIDE_NPC",
        "param": [
          "243001"
        ],
        "guideScene": 3,
        "guideStyle": "QUEST_GUIDE_STYLE_TARGET",
        "guideLayer": "QUEST_GUIDE_LAYER_SCENE"
      },
      "finishParent": true,
      "isRewind": true,
      "finishExec": [
        {
          "type": "QUEST_EXEC_DEL_ALL_SPECIFIC_PACK_ITEM",
          "param": [
            "100243"
          ],
          "param_str": ""
        }
      ],
      "failExec": [],
      "beginExec": [],
      "exclusiveNpcList": [
        10095,
        2430
      ],
      "exclusiveNpcPriority": 1100
    },
    {
      "subId": 1050007,
      "mainId": 10500,
      "order": 1,
      "descTextMapHash": 558019156,
      "acceptCondComb": "LOGIC_AND",
      "acceptCond": [
        {
          "type": "QUEST_COND_STATE_EQUAL",
          "param": [
            46618,
            3,
            0,
            0,
            0
          ],
          "param_str": ""
        },
        {
          "type": "QUEST_COND_PERSONAL_LINE_UNLOCK",
          "param": [
            4,
            0,
            0,
            0,
            0
          ],
          "param_str": ""
        },
        {
          "type": "QUEST_COND_STATE_EQUAL",
          "param": [
            1020204,
            3,
            0,
            0,
            0
          ],
          "param_str": ""
        }
      ],
      "finishCond": [
        {
          "type": "QUEST_CONTENT_LUA_NOTIFY",
          "param": [
            0,
            0
          ],
          "param_str": "133107076",
          "count": 1
        }
      ],
      "failCond": [],
      "guide": {
        "type": "QUEST_GUIDE_LOCATION",
        "param": [
          "Q10500MonaSpawn",
          "30"
        ],
        "guideScene": 3,
        "guideStyle": "QUEST_GUIDE_STYLE_POINT",
        "guideLayer": "QUEST_GUIDE_LAYER_SCENE"
      },
      "isRewind": true,
      "finishExec": [
        {
          "type": "QUEST_EXEC_REFRESH_GROUP_SUITE",
          "param": [
            "3",
            "133107076,1"
          ],
          "param_str": ""
        }
      ],
      "failExec": [],
      "beginExec": [
        {
          "type": "QUEST_EXEC_REFRESH_GROUP_SUITE",
          "param": [
            "3",
            "133107076,2"
          ],
          "param_str": ""
        }
      ],
      "exclusiveNpcList": [
        10095
      ],
      "exclusiveNpcPriority": 1100
    },
    {
      "subId": 1050008,
      "mainId": 10500,
      "order": 7,
      "descTextMapHash": 3460754108,
      "acceptCond": [
        {
          "type": "QUEST_COND_STATE_EQUAL",
          "param": [
            1050005,
            3,
            0,
            0,
            0
          ],
          "param_str": ""
        }
      ],
      "finishCond": [
        {
          "type": "QUEST_CONTENT_COMPLETE_TALK",
          "param": [
            1050007,
            0
          ],
          "param_str": ""
        }
      ],
      "failCond": [],
      "guide": {
        "type": "QUEST_GUIDE_NPC",
        "param": [
          "1005"
        ],
        "guideScene": 3,
        "guideStyle": "QUEST_GUIDE_STYLE_TARGET",
        "guideLayer": "QUEST_GUIDE_LAYER_SCENE"
      },
      "isRewind": true,
      "finishExec": [],
      "failExec": [],
      "beginExec": [],
      "exclusiveNpcList": [
        10095,
        2430
      ],
      "exclusiveNpcPriority": 1100
    }
  ],
  "talks": [
    {
      "id": 1050009,
      "beginWay": "TALK_BEGIN_MANUAL",
      "activeMode": "PLAY_MODE_SINGLE",
      "beginCondComb": "LOGIC_AND",
      "beginCond": [
        {
          "type": "QUEST_COND_STATE_EQUAL",
          "param": [
            "1050002",
            "2"
          ],
          "param_str": ""
        },
        {
          "type": "QUEST_COND_QUEST_GLOBAL_VAR_EQUAL",
          "param": [
            "50001",
            "1"
          ],
          "param_str": ""
        }
      ],
      "priority": 6,
      "initDialog": 105000901,
      "npcId": [
        10095
      ],
      "performCfg": "QuestDialogue/LQ/Mona1_10500/Q1050009",
      "heroTalk": "TALK_HERO_MAIN",
      "questId": 10500,
      "prePerformCfg": ""
    },
    {
      "id": 1050001,
      "beginWay": "TALK_BEGIN_MANUAL",
      "activeMode": "PLAY_MODE_SINGLE",
      "beginCond": [
        {
          "type": "QUEST_COND_STATE_EQUAL",
          "param": [
            "1050002",
            "2"
          ],
          "param_str": ""
        }
      ],
      "priority": 5,
      "initDialog": 105000101,
      "npcId": [
        10095
      ],
      "performCfg": "QuestDialogue/LQ/Mona1_10500/Q1050001",
      "heroTalk": "TALK_HERO_MAIN",
      "questId": 10500,
      "prePerformCfg": ""
    },
    {
      "id": 1050002,
      "beginWay": "TALK_BEGIN_MANUAL",
      "activeMode": "PLAY_MODE_SINGLE",
      "beginCondComb": "LOGIC_AND",
      "beginCond": [
        {
          "type": "QUEST_COND_STATE_EQUAL",
          "param": [
            "1050003",
            "2"
          ],
          "param_str": ""
        },
        {
          "type": "QUEST_COND_STATE_EQUAL",
          "param": [
            "46622",
            "3"
          ],
          "param_str": ""
        }
      ],
      "priority": 6,
      "initDialog": 105000201,
      "npcId": [
        243001
      ],
      "performCfg": "QuestDialogue/LQ/Mona1_10500/Q1050002",
      "heroTalk": "TALK_HERO_MAIN",
      "questId": 10500,
      "prePerformCfg": ""
    },
    {
      "id": 1050003,
      "beginWay": "TALK_BEGIN_MANUAL",
      "activeMode": "PLAY_MODE_SINGLE",
      "beginCond": [
        {
          "type": "QUEST_COND_STATE_EQUAL",
          "param": [
            "1050006",
            "2"
          ],
          "param_str": ""
        }
      ],
      "priority": 5,
      "initDialog": 105000301,
      "npcId": [
        243001
      ],
      "performCfg": "QuestDialogue/LQ/Mona1_10500/Q1050003",
      "heroTalk": "TALK_HERO_MAIN",
      "questId": 10500,
      "prePerformCfg": ""
    },
    {
      "id": 1050005,
      "beginWay": "TALK_BEGIN_MANUAL",
      "activeMode": "PLAY_MODE_SINGLE",
      "beginCond": [
        {
          "type": "QUEST_COND_STATE_EQUAL",
          "param": [
            "1050004",
            "2"
          ],
          "param_str": ""
        }
      ],
      "priority": 5,
      "initDialog": 105000501,
      "npcId": [
        243001
      ],
      "performCfg": "",
      "heroTalk": "TALK_HERO_MAIN",
      "questId": 10500,
      "prePerformCfg": ""
    },
    {
      "id": 1050006,
      "beginWay": "TALK_BEGIN_MANUAL",
      "activeMode": "PLAY_MODE_SINGLE",
      "beginCond": [
        {
          "type": "QUEST_COND_STATE_EQUAL",
          "param": [
            "1050004",
            "2"
          ],
          "param_str": ""
        }
      ],
      "priority": 5,
      "initDialog": 105000601,
      "npcId": [
        10095
      ],
      "performCfg": "",
      "heroTalk": "TALK_HERO_MAIN",
      "questId": 10500,
      "prePerformCfg": ""
    },
    {
      "id": 1050007,
      "beginWay": "TALK_BEGIN_MANUAL",
      "activeMode": "PLAY_MODE_SINGLE",
      "beginCond": [
        {
          "type": "QUEST_COND_STATE_EQUAL",
          "param": [
            "1050008",
            "2"
          ],
          "param_str": ""
        }
      ],
      "priority": 5,
      "initDialog": 105000701,
      "npcId": [
        1005
      ],
      "performCfg": "QuestDialogue/LQ/Mona1_10500/Q1050007",
      "heroTalk": "TALK_HERO_MAIN",
      "questId": 10500,
      "prePerformCfg": ""
    },
    {
      "id": 1050008,
      "beginWay": "TALK_BEGIN_MANUAL",
      "activeMode": "PLAY_MODE_SINGLE",
      "beginCond": [
        {
          "type": "QUEST_COND_STATE_EQUAL",
          "param": [
            "1050003",
            "2"
          ],
          "param_str": ""
        }
      ],
      "priority": 5,
      "initDialog": 105000801,
      "npcId": [
        243001
      ],
      "performCfg": "QuestDialogue/LQ/Mona1_10500/Q1050008",
      "heroTalk": "TALK_HERO_MAIN",
      "questId": 10500,
      "prePerformCfg": ""
    }
  ]
}