{
  "id": 10503,
  "type": "LQ",
  "series": 2010,
  "titleTextMapHash": 3520425743,
  "descTextMapHash": 1535870558,
  "luaPath": "",
  "showType": "QUEST_HIDDEN",
  "chapterId": 2010,
  "subQuests": [
    {
      "subId": 1050301,
      "mainId": 10503,
      "order": 1,
      "descTextMapHash": 2057629916,
      "showType": "QUEST_HIDDEN",
      "acceptCond": [
        {
          "type": "QUEST_COND_STATE_EQUAL",
          "param": [
            1050211,
            3,
            0,
            0,
            0
          ],
          "param_str": ""
        }
      ],
      "finishCondComb": "LOGIC_OR",
      "finishCond": [
        {
          "type": "QUEST_CONTENT_COMPLETE_TALK",
          "param": [
            1050301,
            0
          ],
          "param_str": ""
        },
        {
          "type": "QUEST_CONTENT_GAME_TIME_TICK",
          "param": [
            1,
            0
          ],
          "param_str": "0,24"
        }
      ],
      "failCond": [],
      "guide": {
        "type": "QUEST_GUIDE_NPC",
        "param": [
          "10099"
        ],
        "guideScene": 3,
        "guideStyle": "QUEST_GUIDE_STYLE_TARGET",
        "guideLayer": "QUEST_GUIDE_LAYER_SCENE"
      },
      "finishParent": true,
      "isRewind": true,
      "finishExec": [
        {
          "type": "QUEST_EXEC_REFRESH_GROUP_SUITE",
          "param": [
            "3",
            "133004288,4"
          ],
          "param_str": ""
        }
      ],
      "failExec": [],
      "beginExec": [
        {
          "type": "QUEST_EXEC_REFRESH_GROUP_SUITE",
          "param": [
            "3",
            "133004288,3"
          ],
          "param_str": ""
        }
      ]
    }
  ]
}