{
  "id": 11100,
  "type": "LQ",
  "series": 2011,
  "titleTextMapHash": 3029738889,
  "descTextMapHash": 29836023,
  "luaPath": "Actor/Quest/LQ11100",
  "suggestTrackMainQuestList": [
    11101
  ],
  "rewardIdList": [
    111100
  ],
  "chapterId": 2011,
  "subQuests": [
    {
      "subId": 1110009,
      "mainId": 11100,
      "order": 1,
      "descTextMapHash": 1756099902,
      "acceptCondComb": "LOGIC_AND",
      "acceptCond": [
        {
          "type": "QUEST_COND_QUEST_GLOBAL_VAR_EQUAL",
          "param": [
            10004,
            1,
            0
          ],
          "param_str": ""
        },
        {
          "type": "QUEST_COND_PERSONAL_LINE_UNLOCK",
          "param": [
            10,
            0,
            0
          ],
          "param_str": ""
        }
      ],
      "finishCond": [
        {
          "type": "QUEST_CONTENT_FINISH_PLOT",
          "param": [
            1110009,
            0
          ],
          "param_str": ""
        }
      ],
      "failCond": [],
      "guide": {
        "type": "QUEST_GUIDE_LOCATION",
        "param": [
          "Q1110001Trigger"
        ],
        "guideScene": 3,
        "guideStyle": "QUEST_GUIDE_STYLE_POINT",
        "guideLayer": "QUEST_GUIDE_LAYER_SCENE"
      },
      "isRewind": true,
      "finishExec": [],
      "failExec": [],
      "beginExec": [
        {
          "type": "QUEST_EXEC_REFRESH_GROUP_SUITE",
          "param": [
            "3",
            "133104212,2"
          ],
          "param_str": ""
        }
      ]
    },
    {
      "subId": 1110001,
      "mainId": 11100,
      "order": 2,
      "descTextMapHash": 2327428910,
      "showType": "QUEST_HIDDEN",
      "acceptCond": [
        {
          "type": "QUEST_COND_STATE_EQUAL",
          "param": [
            1110009,
            3,
            0
          ],
          "param_str": ""
        }
      ],
      "finishCond": [
        {
          "type": "QUEST_CONTENT_COMPLETE_TALK",
          "param": [
            1110001,
            0
          ],
          "param_str": ""
        }
      ],
      "failCond": [],
      "guide": {
        "type": "QUEST_GUIDE_NPC",
        "param": [],
        "guideScene": 3
      },
      "isRewind": true,
      "finishExec": [],
      "failExec": [],
      "beginExec": []
    },
    {
      "subId": 1110002,
      "mainId": 11100,
      "order": 3,
      "isMpBlock": true,
      "descTextMapHash": 2933446846,
      "acceptCond": [
        {
          "type": "QUEST_COND_STATE_EQUAL",
          "param": [
            1110001,
            3,
            0
          ],
          "param_str": ""
        }
      ],
      "finishCond": [
        {
          "type": "QUEST_CONTENT_CLEAR_GROUP_MONSTER",
          "param": [
            133104911,
            0
          ],
          "param_str": ""
        }
      ],
      "failCondComb": "LOGIC_OR",
      "failCond": [
        {
          "type": "QUEST_CONTENT_NOT_FINISH_PLOT",
          "param": [
            1110002
          ],
          "param_str": ""
        },
        {
          "type": "QUEST_CONTENT_TEAM_DEAD",
          "param": [
            0
          ],
          "param_str": ""
        }
      ],
      "guide": {
        "type": "QUEST_GUIDE_LOCATION",
        "param": [
          "Q1110002guild",
          "20"
        ],
        "guideScene": 3,
        "guideStyle": "QUEST_GUIDE_STYLE_TARGET",
        "guideLayer": "QUEST_GUIDE_LAYER_SCENE"
      },
      "isRewind": true,
      "finishExec": [
        {
          "type": "QUEST_EXEC_REFRESH_GROUP_SUITE",
          "param": [
            "3",
            "133104911,1"
          ],
          "param_str": ""
        }
      ],
      "failExec": [
        {
          "type": "QUEST_EXEC_REFRESH_GROUP_SUITE",
          "param": [
            "3",
            "133104911,1"
          ],
          "param_str": ""
        }
      ],
      "beginExec": [
        {
          "type": "QUEST_EXEC_REFRESH_GROUP_SUITE",
          "param": [
            "3",
            "133104911,2"
          ],
          "param_str": ""
        }
      ]
    },
    {
      "subId": 1110003,
      "mainId": 11100,
      "order": 4,
      "descTextMapHash": 3869982654,
      "showType": "QUEST_HIDDEN",
      "acceptCond": [
        {
          "type": "QUEST_COND_STATE_EQUAL",
          "param": [
            1110002,
            3,
            0
          ],
          "param_str": ""
        }
      ],
      "finishCond": [
        {
          "type": "QUEST_CONTENT_COMPLETE_TALK",
          "param": [
            1110003,
            0
          ],
          "param_str": ""
        }
      ],
      "failCond": [],
      "guide": {
        "param": []
      },
      "finishExec": [],
      "failExec": [],
      "beginExec": []
    },
    {
      "subId": 1110010,
      "mainId": 11100,
      "order": 5,
      "descTextMapHash": 500633262,
      "acceptCond": [
        {
          "type": "QUEST_COND_STATE_EQUAL",
          "param": [
            1110003,
            3,
            0
          ],
          "param_str": ""
        }
      ],
      "finishCond": [
        {
          "type": "QUEST_CONTENT_COMPLETE_TALK",
          "param": [
            1110010,
            0
          ],
          "param_str": ""
        }
      ],
      "failCond": [],
      "guide": {
        "type": "QUEST_GUIDE_NPC",
        "param": [
          "10202"
        ],
        "guideScene": 3,
        "guideStyle": "QUEST_GUIDE_STYLE_TARGET",
        "guideLayer": "QUEST_GUIDE_LAYER_SCENE"
      },
      "isRewind": true,
      "finishExec": [],
      "failExec": [],
      "beginExec": [],
      "exclusiveNpcList": [
        10202
      ]
    },
    {
      "subId": 1110004,
      "mainId": 11100,
      "order": 6,
      "subIdSet": 1,
      "isMpBlock": true,
      "descTextMapHash": 1524926558,
      "acceptCond": [
        {
          "type": "QUEST_COND_STATE_EQUAL",
          "param": [
            1110010,
            3,
            0
          ],
          "param_str": ""
        }
      ],
      "finishCond": [
        {
          "type": "QUEST_CONTENT_COMPLETE_TALK",
          "param": [
            1110004,
            0
          ],
          "param_str": ""
        }
      ],
      "failCond": [],
      "guide": {
        "type": "QUEST_GUIDE_NPC",
        "param": [
          "10217"
        ],
        "guideScene": 3,
        "guideStyle": "QUEST_GUIDE_STYLE_TARGET",
        "guideLayer": "QUEST_GUIDE_LAYER_SCENE"
      },
      "finishExec": [
        {
          "type": "QUEST_EXEC_ADD_QUEST_PROGRESS",
          "param": [
            "1110007",
            "1"
          ],
          "param_str": ""
        }
      ],
      "failExec": [],
      "beginExec": [],
      "exclusiveNpcList": [
        10217
      ]
    },
    {
      "subId": 1110005,
      "mainId": 11100,
      "order": 7,
      "subIdSet": 1,
      "isMpBlock": true,
      "descTextMapHash": 1380360110,
      "acceptCond": [
        {
          "type": "QUEST_COND_STATE_EQUAL",
          "param": [
            1110010,
            3,
            0
          ],
          "param_str": ""
        }
      ],
      "finishCond": [
        {
          "type": "QUEST_CONTENT_COMPLETE_TALK",
          "param": [
            1110005,
            0
          ],
          "param_str": ""
        }
      ],
      "failCond": [],
      "guide": {
        "type": "QUEST_GUIDE_NPC",
        "param": [
          "10219"
        ],
        "guideScene": 3,
        "guideStyle": "QUEST_GUIDE_STYLE_TARGET",
        "guideLayer": "QUEST_GUIDE_LAYER_SCENE"
      },
      "finishExec": [
        {
          "type": "QUEST_EXEC_ADD_QUEST_PROGRESS",
          "param": [
            "1110007",
            "1"
          ],
          "param_str": ""
        }
      ],
      "failExec": [],
      "beginExec": [],
      "exclusiveNpcList": [
        10219
      ]
    },
    {
      "subId": 1110006,
      "mainId": 11100,
      "order": 8,
      "subIdSet": 1,
      "isMpBlock": true,
      "descTextMapHash": 2042571278,
      "acceptCond": [
        {
          "type": "QUEST_COND_STATE_EQUAL",
          "param": [
            1110010,
            3,
            0
          ],
          "param_str": ""
        }
      ],
      "finishCond": [
        {
          "type": "QUEST_CONTENT_COMPLETE_TALK",
          "param": [
            1110006,
            0
          ],
          "param_str": ""
        }
      ],
      "failCond": [],
      "guide": {
        "type": "QUEST_GUIDE_NPC",
        "param": [
          "10218"
        ],
        "guideScene": 3,
        "guideStyle": "QUEST_GUIDE_STYLE_TARGET",
        "guideLayer": "QUEST_GUIDE_LAYER_SCENE"
      },
      "finishExec": [
        {
          "type": "QUEST_EXEC_ADD_QUEST_PROGRESS",
          "param": [
            "1110007",
            "1"
          ],
          "param_str": ""
        }
      ],
      "failExec": [],
      "beginExec": [],
      "exclusiveNpcList": [
        10218
      ]
    },
    {
      "subId": 1110007,
      "mainId": 11100,
      "order": 9,
      "isMpBlock": true,
      "descTextMapHash": 3928231534,
      "showType": "QUEST_HIDDEN",
      "acceptCond": [
        {
          "type": "QUEST_COND_STATE_EQUAL",
          "param": [
            1110010,
            3,
            0
          ],
          "param_str": ""
        }
      ],
      "finishCond": [
        {
          "type": "QUEST_CONTENT_ADD_QUEST_PROGRESS",
          "param": [
            1110007,
            0
          ],
          "param_str": "",
          "count": 3
        }
      ],
      "failCond": [],
      "guide": {
        "type": "QUEST_GUIDE_NPC",
        "param": [
          "10202"
        ],
        "guideScene": 3,
        "guideStyle": "QUEST_GUIDE_STYLE_TARGET",
        "guideLayer": "QUEST_GUIDE_LAYER_SCENE"
      },
      "finishExec": [
        {
          "type": "QUEST_EXEC_ADD_QUEST_PROGRESS",
          "param": [
            "1110009",
            "1"
          ],
          "param_str": ""
        }
      ],
      "failExec": [],
      "beginExec": []
    },
    {
      "subId": 1110011,
      "mainId": 11100,
      "order": 10,
      "isMpBlock": true,
      "descTextMapHash": 3861759710,
      "showType": "QUEST_HIDDEN",
      "acceptCond": [
        {
          "type": "QUEST_COND_STATE_EQUAL",
          "param": [
            1110010,
            3,
            0
          ],
          "param_str": ""
        }
      ],
      "finishCond": [
        {
          "type": "QUEST_CONTENT_ADD_QUEST_PROGRESS",
          "param": [
            1110009,
            0
          ],
          "param_str": "",
          "count": 1
        }
      ],
      "failCond": [],
      "guide": {
        "type": "QUEST_GUIDE_NPC",
        "param": [
          "10202"
        ],
        "guideScene": 3,
        "guideStyle": "QUEST_GUIDE_STYLE_TARGET",
        "guideLayer": "QUEST_GUIDE_LAYER_SCENE"
      },
      "finishExec": [],
      "failExec": [],
      "beginExec": []
    },
    {
      "subId": 1110008,
      "mainId": 11100,
      "order": 11,
      "descTextMapHash": 6284766,
      "acceptCond": [
        {
          "type": "QUEST_COND_STATE_EQUAL",
          "param": [
            1110011,
            3,
            0
          ],
          "param_str": ""
        }
      ],
      "finishCond": [
        {
          "type": "QUEST_CONTENT_COMPLETE_TALK",
          "param": [
            1110008,
            0
          ],
          "param_str": ""
        }
      ],
      "failCond": [],
      "guide": {
        "type": "QUEST_GUIDE_NPC",
        "param": [
          "10202"
        ],
        "guideScene": 3,
        "guideStyle": "QUEST_GUIDE_STYLE_TARGET",
        "guideLayer": "QUEST_GUIDE_LAYER_SCENE"
      },
      "finishParent": true,
      "isRewind": true,
      "finishExec": [],
      "failExec": [],
      "beginExec": [],
      "exclusiveNpcList": [
        10202
      ]
    }
  ],
  "talks": [
    {
      "id": 1110001,
      "beginWay": "TALK_BEGIN_AUTO",
      "activeMode": "PLAY_MODE_SINGLE",
      "beginCond": [
        {
          "type": "QUEST_COND_STATE_EQUAL",
          "param": [
            "1110001",
            "2"
          ],
          "param_str": ""
        }
      ],
      "priority": 5,
      "initDialog": 111000101,
      "npcId": [
        1005
      ],
      "performCfg": "QuestDialogue/LQ/Xiao1_11100/Q1110001",
      "heroTalk": "TALK_HERO_MAIN",
      "questId": 11100,
      "prePerformCfg": ""
    },
    {
      "id": 1110003,
      "beginWay": "TALK_BEGIN_AUTO",
      "activeMode": "PLAY_MODE_SINGLE",
      "beginCond": [
        {
          "type": "QUEST_COND_STATE_EQUAL",
          "param": [
            "1110003",
            "2"
          ],
          "param_str": ""
        }
      ],
      "priority": 5,
      "initDialog": 111000301,
      "npcId": [
        1005
      ],
      "performCfg": "QuestDialogue/LQ/Xiao1_11100/Q1110003",
      "heroTalk": "TALK_HERO_MAIN",
      "questId": 11100,
      "prePerformCfg": ""
    },
    {
      "id": 1110010,
      "beginWay": "TALK_BEGIN_MANUAL",
      "activeMode": "PLAY_MODE_SINGLE",
      "beginCond": [
        {
          "type": "QUEST_COND_STATE_EQUAL",
          "param": [
            "1110010",
            "2"
          ],
          "param_str": ""
        }
      ],
      "priority": 5,
      "initDialog": 111001001,
      "npcId": [
        10202
      ],
      "performCfg": "QuestDialogue/LQ/Xiao1_11100/Q1110010",
      "heroTalk": "TALK_HERO_MAIN",
      "questId": 11100,
      "prePerformCfg": ""
    },
    {
      "id": 1110004,
      "beginWay": "TALK_BEGIN_MANUAL",
      "activeMode": "PLAY_MODE_SINGLE",
      "beginCond": [
        {
          "type": "QUEST_COND_STATE_EQUAL",
          "param": [
            "1110004",
            "2"
          ],
          "param_str": ""
        }
      ],
      "priority": 5,
      "initDialog": 111000401,
      "npcId": [
        10217
      ],
      "performCfg": "QuestDialogue/LQ/Xiao1_11100/Q1110004",
      "heroTalk": "TALK_HERO_MAIN",
      "questId": 11100,
      "prePerformCfg": ""
    },
    {
      "id": 1110005,
      "beginWay": "TALK_BEGIN_MANUAL",
      "activeMode": "PLAY_MODE_SINGLE",
      "beginCond": [
        {
          "type": "QUEST_COND_STATE_EQUAL",
          "param": [
            "1110005",
            "2"
          ],
          "param_str": ""
        }
      ],
      "priority": 5,
      "initDialog": 111000501,
      "npcId": [
        10219
      ],
      "performCfg": "QuestDialogue/LQ/Xiao1_11100/Q1110005",
      "heroTalk": "TALK_HERO_MAIN",
      "questId": 11100,
      "prePerformCfg": ""
    },
    {
      "id": 1110006,
      "beginWay": "TALK_BEGIN_MANUAL",
      "activeMode": "PLAY_MODE_SINGLE",
      "beginCond": [
        {
          "type": "QUEST_COND_STATE_EQUAL",
          "param": [
            "1110006",
            "2"
          ],
          "param_str": ""
        }
      ],
      "priority": 5,
      "initDialog": 111000601,
      "npcId": [
        10218
      ],
      "performCfg": "QuestDialogue/LQ/Xiao1_11100/Q1110006",
      "heroTalk": "TALK_HERO_MAIN",
      "questId": 11100,
      "prePerformCfg": ""
    },
    {
      "id": 1110008,
      "beginWay": "TALK_BEGIN_MANUAL",
      "activeMode": "PLAY_MODE_SINGLE",
      "beginCond": [
        {
          "type": "QUEST_COND_STATE_EQUAL",
          "param": [
            "1110008",
            "2"
          ],
          "param_str": ""
        }
      ],
      "priority": 5,
      "initDialog": 111000801,
      "npcId": [
        10202
      ],
      "performCfg": "QuestDialogue/LQ/Xiao1_11100/Q1110008",
      "heroTalk": "TALK_HERO_MAIN",
      "questId": 11100,
      "prePerformCfg": ""
    },
    {
      "id": 1110023,
      "beginWay": "TALK_BEGIN_MANUAL",
      "activeMode": "PLAY_MODE_SINGLE",
      "beginCond": [
        {
          "type": "QUEST_COND_STATE_EQUAL",
          "param": [
            "1110007",
            "2"
          ],
          "param_str": ""
        }
      ],
      "priority": 5,
      "initDialog": 111002301,
      "npcId": [
        10202
      ],
      "performCfg": "QuestDialogue/LQ/Xiao1_11100/Q1110023",
      "heroTalk": "TALK_HERO_MAIN",
      "questId": 11100,
      "prePerformCfg": ""
    }
  ]
}