{
  "id": 12026,
  "type": "LQ",
  "series": 2026,
  "titleTextMapHash": 2566245607,
  "descTextMapHash": 1947172662,
  "luaPath": "Actor/Quest/LQ12026",
  "rewardIdList": [
    112026
  ],
  "chapterId": 2026,
  "subQuests": [
    {
      "subId": 1202601,
      "mainId": 12026,
      "order": 1,
      "descTextMapHash": 587338924,
      "acceptCond": [
        {
          "type": "QUEST_COND_STATE_EQUAL",
          "param": [
            1202514,
            3,
            0,
            0,
            0
          ],
          "param_str": ""
        }
      ],
      "finishCond": [
        {
          "type": "QUEST_CONTENT_FINISH_PLOT",
          "param": [
            1202601,
            0
          ],
          "param_str": ""
        }
      ],
      "failCond": [],
      "guide": {
        "type": "QUEST_GUIDE_LOCATION",
        "param": [
          "Q1202601_Shouhaizhe",
          "40"
        ],
        "guideScene": 3,
        "guideStyle": "QUEST_GUIDE_STYLE_START",
        "guideLayer": "QUEST_GUIDE_LAYER_SCENE"
      },
      "isRewind": true,
      "finishExec": [],
      "failExec": [],
      "beginExec": [
        {
          "type": "QUEST_EXEC_REGISTER_DYNAMIC_GROUP",
          "param": [
            "3",
            "133212589"
          ],
          "param_str": ""
        }
      ],
      "exclusiveNpcList": [
        12203,
        12201,
        12202,
        12380,
        12382
      ],
      "exclusiveNpcPriority": 1100
    },
    {
      "subId": 1202602,
      "mainId": 12026,
      "order": 2,
      "descTextMapHash": 4117063124,
      "acceptCond": [
        {
          "type": "QUEST_COND_STATE_EQUAL",
          "param": [
            1202601,
            3,
            0,
            0,
            0
          ],
          "param_str": ""
        }
      ],
      "finishCond": [
        {
          "type": "QUEST_CONTENT_COMPLETE_TALK",
          "param": [
            1202601,
            0
          ],
          "param_str": ""
        }
      ],
      "failCond": [],
      "guide": {
        "type": "QUEST_GUIDE_NPC",
        "param": [
          "12203"
        ],
        "guideScene": 3,
        "guideStyle": "QUEST_GUIDE_STYLE_TARGET",
        "guideLayer": "QUEST_GUIDE_LAYER_SCENE"
      },
      "finishExec": [],
      "failExec": [],
      "beginExec": [],
      "exclusiveNpcList": [
        12203,
        12201,
        12202,
        12380,
        12382,
        1044
      ],
      "exclusiveNpcPriority": 1100
    },
    {
      "subId": 1202603,
      "mainId": 12026,
      "order": 3,
      "descTextMapHash": 2152193620,
      "acceptCond": [
        {
          "type": "QUEST_COND_STATE_EQUAL",
          "param": [
            1202602,
            3,
            0,
            0,
            0
          ],
          "param_str": ""
        }
      ],
      "finishCond": [
        {
          "type": "QUEST_CONTENT_COMPLETE_TALK",
          "param": [
            1202612,
            0
          ],
          "param_str": ""
        }
      ],
      "failCond": [],
      "guide": {
        "type": "QUEST_GUIDE_LOCATION",
        "param": [
          "Q1202603_hidingpoint",
          "30"
        ],
        "guideScene": 3,
        "guideStyle": "QUEST_GUIDE_STYLE_TARGET",
        "guideLayer": "QUEST_GUIDE_LAYER_SCENE"
      },
      "isRewind": true,
      "finishExec": [
        {
          "type": "QUEST_EXEC_GRANT_TRIAL_AVATAR",
          "param": [
            "32"
          ],
          "param_str": ""
        }
      ],
      "failExec": [],
      "beginExec": [
        {
          "type": "QUEST_EXEC_REGISTER_DYNAMIC_GROUP",
          "param": [
            "3",
            "133212573"
          ],
          "param_str": ""
        },
        {
          "type": "QUEST_EXEC_REGISTER_DYNAMIC_GROUP_ONLY",
          "param": [
            "133212589"
          ],
          "param_str": ""
        },
        {
          "type": "QUEST_EXEC_REMOVE_TRIAL_AVATAR",
          "param": [
            "32"
          ],
          "param_str": ""
        }
      ],
      "exclusiveNpcList": [
        12203,
        12201,
        12202,
        1044,
        12380,
        12382
      ],
      "exclusiveNpcPriority": 1100,
      "exclusivePlaceList": [
        321201
      ]
    },
    {
      "subId": 1202604,
      "mainId": 12026,
      "order": 5,
      "isMpBlock": true,
      "descTextMapHash": 1377628980,
      "acceptCond": [
        {
          "type": "QUEST_COND_STATE_EQUAL",
          "param": [
            1202603,
            3,
            0,
            0,
            0
          ],
          "param_str": ""
        }
      ],
      "finishCond": [
        {
          "type": "QUEST_CONTENT_LUA_NOTIFY",
          "param": [
            0,
            0
          ],
          "param_str": "1332125731",
          "count": 1
        }
      ],
      "failCondComb": "LOGIC_OR",
      "failCond": [
        {
          "type": "QUEST_CONTENT_NOT_FINISH_PLOT",
          "param": [
            1202604,
            0
          ],
          "param_str": ""
        },
        {
          "type": "QUEST_CONTENT_ANY_MANUAL_TRANSPORT",
          "param": [
            0,
            0
          ],
          "param_str": ""
        },
        {
          "type": "QUEST_CONTENT_TEAM_DEAD",
          "param": [
            0,
            0
          ],
          "param_str": ""
        }
      ],
      "guide": {
        "type": "QUEST_GUIDE_LOCATION",
        "param": [
          "Q1202603_questpoint",
          "50"
        ],
        "guideScene": 3,
        "guideStyle": "QUEST_GUIDE_STYLE_POINT",
        "guideLayer": "QUEST_GUIDE_LAYER_SCENE"
      },
      "finishExec": [
        {
          "type": "QUEST_EXEC_SET_QUEST_VAR",
          "param": [
            "1",
            "1"
          ],
          "param_str": ""
        },
        {
          "type": "QUEST_EXEC_REMOVE_TRIAL_AVATAR",
          "param": [
            "32"
          ],
          "param_str": ""
        }
      ],
      "failExec": [
        {
          "type": "QUEST_EXEC_UNREGISTER_DYNAMIC_GROUP",
          "param": [
            "133212573"
          ],
          "param_str": ""
        },
        {
          "type": "QUEST_EXEC_ROLLBACK_QUEST",
          "param": [
            "1202603"
          ],
          "param_str": ""
        },
        {
          "type": "QUEST_EXEC_REMOVE_TRIAL_AVATAR",
          "param": [
            "32"
          ],
          "param_str": ""
        }
      ],
      "beginExec": [
        {
          "type": "QUEST_EXEC_REGISTER_DYNAMIC_GROUP_ONLY",
          "param": [
            "133212573"
          ],
          "param_str": ""
        },
        {
          "type": "QUEST_EXEC_REFRESH_GROUP_SUITE",
          "param": [
            "3",
            "133212573,2"
          ],
          "param_str": ""
        }
      ],
      "exclusiveNpcList": [
        12203,
        12201,
        12202,
        12380,
        12382,
        1044
      ],
      "exclusiveNpcPriority": 1100,
      "trialAvatarList": [
        32
      ],
      "exclusivePlaceList": [
        321201
      ]
    },
    {
      "subId": 1202605,
      "mainId": 12026,
      "order": 6,
      "descTextMapHash": 2476316284,
      "acceptCond": [
        {
          "type": "QUEST_COND_STATE_EQUAL",
          "param": [
            1202604,
            3,
            0,
            0,
            0
          ],
          "param_str": ""
        }
      ],
      "finishCondComb": "LOGIC_OR",
      "finishCond": [
        {
          "type": "QUEST_CONTENT_COMPLETE_TALK",
          "param": [
            1202602,
            0
          ],
          "param_str": ""
        },
        {
          "type": "QUEST_CONTENT_COMPLETE_TALK",
          "param": [
            1202620,
            0
          ],
          "param_str": ""
        }
      ],
      "failCond": [],
      "guide": {
        "type": "QUEST_GUIDE_LOCATION",
        "param": [
          "Q1202606_Itto",
          "35"
        ],
        "guideScene": 3,
        "guideStyle": "QUEST_GUIDE_STYLE_POINT",
        "guideLayer": "QUEST_GUIDE_LAYER_SCENE"
      },
      "isRewind": true,
      "finishExec": [
        {
          "type": "QUEST_EXEC_GRANT_TRIAL_AVATAR_AND_LOCK_TEAM",
          "param": [
            "32"
          ],
          "param_str": ""
        }
      ],
      "failExec": [],
      "beginExec": [
        {
          "type": "QUEST_EXEC_REGISTER_DYNAMIC_GROUP",
          "param": [
            "3",
            "133212573"
          ],
          "param_str": ""
        },
        {
          "type": "QUEST_EXEC_REGISTER_DYNAMIC_GROUP_ONLY",
          "param": [
            "133212589"
          ],
          "param_str": ""
        },
        {
          "type": "QUEST_EXEC_UNREGISTER_DYNAMIC_GROUP",
          "param": [
            "133212574"
          ],
          "param_str": ""
        },
        {
          "type": "QUEST_EXEC_REMOVE_TRIAL_AVATAR",
          "param": [
            "32"
          ],
          "param_str": ""
        },
        {
          "type": "QUEST_EXEC_UNLOCK_AVATAR_TEAM",
          "param": [],
          "param_str": ""
        }
      ],
      "exclusiveNpcList": [
        12230,
        12201,
        12202,
        1044,
        12380,
        12382
      ],
      "exclusiveNpcPriority": 1100,
      "exclusivePlaceList": [
        321201
      ]
    },
    {
      "subId": 1202606,
      "mainId": 12026,
      "order": 7,
      "isMpBlock": true,
      "descTextMapHash": 2767812140,
      "acceptCond": [
        {
          "type": "QUEST_COND_STATE_EQUAL",
          "param": [
            1202605,
            3,
            0,
            0,
            0
          ],
          "param_str": ""
        }
      ],
      "finishCond": [
        {
          "type": "QUEST_CONTENT_LUA_NOTIFY",
          "param": [
            0,
            0
          ],
          "param_str": "1332125741",
          "count": 1
        }
      ],
      "failCondComb": "LOGIC_OR",
      "failCond": [
        {
          "type": "QUEST_CONTENT_NOT_FINISH_PLOT",
          "param": [
            1202606,
            0
          ],
          "param_str": ""
        },
        {
          "type": "QUEST_CONTENT_ANY_MANUAL_TRANSPORT",
          "param": [
            0,
            0
          ],
          "param_str": ""
        },
        {
          "type": "QUEST_CONTENT_TEAM_DEAD",
          "param": [
            0,
            0
          ],
          "param_str": ""
        }
      ],
      "guide": {
        "type": "QUEST_GUIDE_LOCATION",
        "param": [
          "Q1202603_questpoint",
          "30"
        ],
        "guideScene": 3,
        "guideStyle": "QUEST_GUIDE_STYLE_TARGET",
        "guideLayer": "QUEST_GUIDE_LAYER_SCENE"
      },
      "finishExec": [
        {
          "type": "QUEST_EXEC_UNREGISTER_DYNAMIC_GROUP",
          "param": [
            "133212574"
          ],
          "param_str": ""
        },
        {
          "type": "QUEST_EXEC_REMOVE_TRIAL_AVATAR",
          "param": [
            "32"
          ],
          "param_str": ""
        },
        {
          "type": "QUEST_EXEC_UNLOCK_AVATAR_TEAM",
          "param": [],
          "param_str": ""
        }
      ],
      "failExec": [
        {
          "type": "QUEST_EXEC_UNREGISTER_DYNAMIC_GROUP",
          "param": [
            "133212574"
          ],
          "param_str": ""
        },
        {
          "type": "QUEST_EXEC_ROLLBACK_QUEST",
          "param": [
            "1202605"
          ],
          "param_str": ""
        },
        {
          "type": "QUEST_EXEC_REMOVE_TRIAL_AVATAR",
          "param": [
            "32"
          ],
          "param_str": ""
        },
        {
          "type": "QUEST_EXEC_SET_QUEST_VAR",
          "param": [
            "1",
            "2"
          ],
          "param_str": ""
        },
        {
          "type": "QUEST_EXEC_UNLOCK_AVATAR_TEAM",
          "param": [],
          "param_str": ""
        }
      ],
      "beginExec": [
        {
          "type": "QUEST_EXEC_REGISTER_DYNAMIC_GROUP",
          "param": [
            "3",
            "133212574"
          ],
          "param_str": ""
        }
      ],
      "exclusiveNpcList": [
        12201,
        12202,
        12380,
        12382,
        1044
      ],
      "exclusiveNpcPriority": 1100,
      "trialAvatarList": [
        32
      ],
      "exclusivePlaceList": [
        321201
      ]
    },
    {
      "subId": 1202607,
      "mainId": 12026,
      "order": 8,
      "descTextMapHash": 2973160292,
      "acceptCond": [
        {
          "type": "QUEST_COND_STATE_EQUAL",
          "param": [
            1202606,
            3,
            0,
            0,
            0
          ],
          "param_str": ""
        }
      ],
      "finishCond": [
        {
          "type": "QUEST_CONTENT_COMPLETE_TALK",
          "param": [
            1202603,
            0
          ],
          "param_str": ""
        }
      ],
      "failCond": [],
      "guide": {
        "type": "QUEST_GUIDE_NPC",
        "param": [
          "12231"
        ],
        "guideScene": 3,
        "guideStyle": "QUEST_GUIDE_STYLE_TARGET",
        "guideLayer": "QUEST_GUIDE_LAYER_SCENE"
      },
      "isRewind": true,
      "finishExec": [
        {
          "type": "QUEST_EXEC_UNREGISTER_DYNAMIC_GROUP",
          "param": [
            "133212573",
            "1"
          ],
          "param_str": ""
        }
      ],
      "failExec": [],
      "beginExec": [
        {
          "type": "QUEST_EXEC_REGISTER_DYNAMIC_GROUP",
          "param": [
            "3",
            "133212573"
          ],
          "param_str": ""
        },
        {
          "type": "QUEST_EXEC_REGISTER_DYNAMIC_GROUP_ONLY",
          "param": [
            "133212589"
          ],
          "param_str": ""
        }
      ],
      "exclusiveNpcList": [
        12201,
        12202,
        12231,
        1044,
        12276,
        12277,
        12278,
        12380,
        12382
      ],
      "exclusiveNpcPriority": 1100,
      "exclusivePlaceList": [
        321201
      ]
    },
    {
      "subId": 1202608,
      "mainId": 12026,
      "order": 14,
      "descTextMapHash": 2801053388,
      "acceptCond": [
        {
          "type": "QUEST_COND_STATE_EQUAL",
          "param": [
            1202610,
            3,
            0,
            0,
            0
          ],
          "param_str": ""
        }
      ],
      "finishCond": [
        {
          "type": "QUEST_CONTENT_FINISH_PLOT",
          "param": [
            1202608,
            0
          ],
          "param_str": ""
        }
      ],
      "failCond": [],
      "guide": {
        "type": "QUEST_GUIDE_LOCATION",
        "param": [
          "Q1202608_Dungeon",
          "25"
        ],
        "guideScene": 3,
        "guideStyle": "QUEST_GUIDE_STYLE_TARGET",
        "guideLayer": "QUEST_GUIDE_LAYER_SCENE"
      },
      "isRewind": true,
      "finishExec": [],
      "failExec": [],
      "beginExec": [
        {
          "type": "QUEST_EXEC_REGISTER_DYNAMIC_GROUP_ONLY",
          "param": [
            "133213551"
          ],
          "param_str": ""
        },
        {
          "type": "QUEST_EXEC_REGISTER_DYNAMIC_GROUP_ONLY",
          "param": [
            "133212589"
          ],
          "param_str": ""
        }
      ],
      "exclusiveNpcList": [
        12201,
        12202,
        12380,
        12382
      ],
      "exclusiveNpcPriority": 1100
    },
    {
      "subId": 1202609,
      "mainId": 12026,
      "order": 11,
      "descTextMapHash": 1938466380,
      "acceptCond": [
        {
          "type": "QUEST_COND_STATE_EQUAL",
          "param": [
            1202622,
            3,
            0,
            0,
            0
          ],
          "param_str": ""
        }
      ],
      "finishCond": [
        {
          "type": "QUEST_CONTENT_INTERACT_GADGET",
          "param": [
            70710554,
            0
          ],
          "param_str": "",
          "count": 1
        }
      ],
      "failCond": [],
      "guide": {
        "type": "QUEST_GUIDE_LOCATION",
        "param": [
          "Q1202609_gadget",
          "30"
        ],
        "guideScene": 3,
        "guideStyle": "QUEST_GUIDE_STYLE_POINT",
        "guideLayer": "QUEST_GUIDE_LAYER_SCENE"
      },
      "isRewind": true,
      "finishExec": [],
      "failExec": [],
      "beginExec": [
        {
          "type": "QUEST_EXEC_REGISTER_DYNAMIC_GROUP",
          "param": [
            "3",
            "133213551"
          ],
          "param_str": ""
        },
        {
          "type": "QUEST_EXEC_UNREGISTER_DYNAMIC_GROUP",
          "param": [
            "133213552"
          ],
          "param_str": ""
        },
        {
          "type": "QUEST_EXEC_REGISTER_DYNAMIC_GROUP_ONLY",
          "param": [
            "133212589"
          ],
          "param_str": ""
        }
      ],
      "exclusiveNpcList": [
        12201,
        12202,
        12380,
        12382
      ],
      "exclusiveNpcPriority": 1100
    },
    {
      "subId": 1202610,
      "mainId": 12026,
      "order": 13,
      "descTextMapHash": 187429076,
      "acceptCond": [
        {
          "type": "QUEST_COND_STATE_EQUAL",
          "param": [
            1202619,
            3,
            0,
            0,
            0
          ],
          "param_str": ""
        }
      ],
      "finishCond": [
        {
          "type": "QUEST_CONTENT_FINISH_PLOT",
          "param": [
            1202610,
            0
          ],
          "param_str": ""
        }
      ],
      "failCond": [],
      "guide": {
        "type": "QUEST_GUIDE_LOCATION",
        "param": [
          "Q1202610_questpoint",
          "35"
        ],
        "guideScene": 3,
        "guideStyle": "QUEST_GUIDE_STYLE_TARGET",
        "guideLayer": "QUEST_GUIDE_LAYER_SCENE"
      },
      "isRewind": true,
      "finishExec": [],
      "failExec": [],
      "beginExec": [
        {
          "type": "QUEST_EXEC_REGISTER_DYNAMIC_GROUP_ONLY",
          "param": [
            "133213551"
          ],
          "param_str": ""
        },
        {
          "type": "QUEST_EXEC_REGISTER_DYNAMIC_GROUP_ONLY",
          "param": [
            "133212589"
          ],
          "param_str": ""
        }
      ],
      "exclusiveNpcList": [
        12201,
        12202,
        12380,
        12382
      ],
      "exclusiveNpcPriority": 1100
    },
    {
      "subId": 1202611,
      "mainId": 12026,
      "order": 16,
      "descTextMapHash": 1411016508,
      "acceptCond": [
        {
          "type": "QUEST_COND_STATE_EQUAL",
          "param": [
            1202620,
            3,
            0,
            0,
            0
          ],
          "param_str": ""
        }
      ],
      "finishCond": [
        {
          "type": "QUEST_CONTENT_ENTER_DUNGEON",
          "param": [
            1125,
            419
          ],
          "param_str": ""
        }
      ],
      "failCond": [],
      "guide": {
        "type": "QUEST_GUIDE_LOCATION",
        "autoGuide": "QUEST_GUIDE_AUTO_ENABLE",
        "param": [
          "Q1202611_dungeon",
          "0"
        ],
        "guideScene": 3,
        "guideStyle": "QUEST_GUIDE_STYLE_POINT",
        "guideLayer": "QUEST_GUIDE_LAYER_SCENE"
      },
      "isRewind": true,
      "finishExec": [
        {
          "type": "QUEST_EXEC_UNREGISTER_DYNAMIC_GROUP",
          "param": [
            "133213551"
          ],
          "param_str": ""
        },
        {
          "type": "QUEST_EXEC_GRANT_TRIAL_AVATAR",
          "param": [
            "32"
          ],
          "param_str": ""
        }
      ],
      "failExec": [],
      "beginExec": [
        {
          "type": "QUEST_EXEC_UNLOCK_POINT",
          "param": [
            "3",
            "419"
          ],
          "param_str": ""
        },
        {
          "type": "QUEST_EXEC_REGISTER_DYNAMIC_GROUP_ONLY",
          "param": [
            "133213551"
          ],
          "param_str": ""
        },
        {
          "type": "QUEST_EXEC_REGISTER_DYNAMIC_GROUP_ONLY",
          "param": [
            "133212589"
          ],
          "param_str": ""
        }
      ],
      "exclusiveNpcList": [
        12201,
        12202,
        12380,
        12382
      ],
      "exclusiveNpcPriority": 1100
    },
    {
      "subId": 1202612,
      "mainId": 12026,
      "order": 17,
      "descTextMapHash": 741500100,
      "acceptCond": [
        {
          "type": "QUEST_COND_STATE_EQUAL",
          "param": [
            1202611,
            3,
            0,
            0,
            0
          ],
          "param_str": ""
        }
      ],
      "finishCond": [
        {
          "type": "QUEST_CONTENT_LUA_NOTIFY",
          "param": [
            0,
            0
          ],
          "param_str": "2201190071",
          "count": 1
        }
      ],
      "failCondComb": "LOGIC_OR",
      "failCond": [
        {
          "type": "QUEST_CONTENT_FAIL_DUNGEON",
          "param": [
            1125,
            0
          ],
          "param_str": ""
        },
        {
          "type": "QUEST_CONTENT_ENTER_MY_WORLD",
          "param": [
            3,
            0
          ],
          "param_str": ""
        }
      ],
      "guide": {
        "param": [],
        "guideScene": 3
      },
      "isRewind": true,
      "finishExec": [
        {
          "type": "QUEST_EXEC_NOTIFY_GROUP_LUA",
          "param": [
            "20119",
            "220119007"
          ],
          "param_str": ""
        }
      ],
      "failExec": [
        {
          "type": "QUEST_EXEC_ROLLBACK_QUEST",
          "param": [
            "1202611"
          ],
          "param_str": ""
        },
        {
          "type": "QUEST_EXEC_REMOVE_TRIAL_AVATAR",
          "param": [
            "32"
          ],
          "param_str": ""
        }
      ],
      "beginExec": [],
      "exclusiveNpcList": [
        12201,
        12202,
        12233,
        12234,
        12335,
        12336,
        12384,
        12385,
        12380,
        12382
      ],
      "exclusiveNpcPriority": 1100,
      "trialAvatarList": [
        32
      ]
    },
    {
      "subId": 1202613,
      "mainId": 12026,
      "order": 18,
      "descTextMapHash": 1963830828,
      "acceptCond": [
        {
          "type": "QUEST_COND_STATE_EQUAL",
          "param": [
            1202612,
            3,
            0,
            0,
            0
          ],
          "param_str": ""
        }
      ],
      "finishCond": [
        {
          "type": "QUEST_CONTENT_COMPLETE_TALK",
          "param": [
            1202606,
            0
          ],
          "param_str": ""
        }
      ],
      "failCondComb": "LOGIC_OR",
      "failCond": [
        {
          "type": "QUEST_CONTENT_FAIL_DUNGEON",
          "param": [
            1125,
            0
          ],
          "param_str": ""
        },
        {
          "type": "QUEST_CONTENT_ENTER_MY_WORLD",
          "param": [
            3,
            0
          ],
          "param_str": ""
        }
      ],
      "guide": {
        "param": []
      },
      "showGuide": "QUEST_GUIDE_ITEM_DISABLE",
      "isRewind": true,
      "finishExec": [
        {
          "type": "QUEST_EXEC_NOTIFY_GROUP_LUA",
          "param": [
            "20119",
            "220119007"
          ],
          "param_str": ""
        }
      ],
      "failExec": [
        {
          "type": "QUEST_EXEC_ROLLBACK_QUEST",
          "param": [
            "1202611"
          ],
          "param_str": ""
        },
        {
          "type": "QUEST_EXEC_REMOVE_TRIAL_AVATAR",
          "param": [
            "32"
          ],
          "param_str": ""
        }
      ],
      "beginExec": [],
      "exclusiveNpcList": [
        12201,
        12202,
        12233,
        12234,
        12279,
        12335,
        12336,
        12384,
        12385,
        12380,
        12382
      ],
      "exclusiveNpcPriority": 1100,
      "trialAvatarList": [
        32
      ]
    },
    {
      "subId": 1202614,
      "mainId": 12026,
      "order": 19,
      "descTextMapHash": 694772556,
      "acceptCond": [
        {
          "type": "QUEST_COND_STATE_EQUAL",
          "param": [
            1202613,
            3,
            0,
            0,
            0
          ],
          "param_str": ""
        }
      ],
      "finishCond": [
        {
          "type": "QUEST_CONTENT_LUA_NOTIFY",
          "param": [
            0,
            0
          ],
          "param_str": "2201190091",
          "count": 1
        }
      ],
      "failCondComb": "LOGIC_OR",
      "failCond": [
        {
          "type": "QUEST_CONTENT_FAIL_DUNGEON",
          "param": [
            1125,
            0
          ],
          "param_str": ""
        },
        {
          "type": "QUEST_CONTENT_ENTER_MY_WORLD",
          "param": [
            3,
            0
          ],
          "param_str": ""
        }
      ],
      "guide": {
        "param": []
      },
      "isRewind": true,
      "finishExec": [
        {
          "type": "QUEST_EXEC_NOTIFY_GROUP_LUA",
          "param": [
            "20119",
            "220119009"
          ],
          "param_str": ""
        }
      ],
      "failExec": [
        {
          "type": "QUEST_EXEC_ROLLBACK_QUEST",
          "param": [
            "1202611"
          ],
          "param_str": ""
        },
        {
          "type": "QUEST_EXEC_REMOVE_TRIAL_AVATAR",
          "param": [
            "32"
          ],
          "param_str": ""
        }
      ],
      "beginExec": [],
      "exclusiveNpcList": [
        12201,
        12202,
        12380,
        12382
      ],
      "exclusiveNpcPriority": 1100,
      "trialAvatarList": [
        32
      ]
    },
    {
      "subId": 1202615,
      "mainId": 12026,
      "order": 21,
      "descTextMapHash": 1462927508,
      "acceptCond": [
        {
          "type": "QUEST_COND_STATE_EQUAL",
          "param": [
            1202614,
            3,
            0,
            0,
            0
          ],
          "param_str": ""
        }
      ],
      "finishCond": [
        {
          "type": "QUEST_CONTENT_COMPLETE_TALK",
          "param": [
            1202607,
            0
          ],
          "param_str": ""
        }
      ],
      "failCondComb": "LOGIC_OR",
      "failCond": [
        {
          "type": "QUEST_CONTENT_FAIL_DUNGEON",
          "param": [
            1125,
            0
          ],
          "param_str": ""
        },
        {
          "type": "QUEST_CONTENT_ENTER_MY_WORLD",
          "param": [
            3,
            0
          ],
          "param_str": ""
        }
      ],
      "guide": {
        "type": "QUEST_GUIDE_NPC",
        "param": [
          "12230"
        ],
        "guideScene": 20119,
        "guideStyle": "QUEST_GUIDE_STYLE_TARGET",
        "guideLayer": "QUEST_GUIDE_LAYER_SCENE"
      },
      "isRewind": true,
      "finishExec": [
        {
          "type": "QUEST_EXEC_REMOVE_TRIAL_AVATAR",
          "param": [
            "32"
          ],
          "param_str": ""
        },
        {
          "type": "QUEST_EXEC_LOCK_POINT",
          "param": [
            "3",
            "419"
          ],
          "param_str": ""
        }
      ],
      "failExec": [
        {
          "type": "QUEST_EXEC_ROLLBACK_QUEST",
          "param": [
            "1202611"
          ],
          "param_str": ""
        },
        {
          "type": "QUEST_EXEC_REMOVE_TRIAL_AVATAR",
          "param": [
            "32"
          ],
          "param_str": ""
        }
      ],
      "beginExec": [],
      "exclusiveNpcList": [
        12230,
        12201,
        12202,
        1044,
        12275,
        12380,
        12382
      ],
      "exclusiveNpcPriority": 1100,
      "trialAvatarList": [
        32
      ]
    },
    {
      "subId": 1202616,
      "mainId": 12026,
      "order": 9,
      "descTextMapHash": 2991209756,
      "acceptCond": [
        {
          "type": "QUEST_COND_STATE_EQUAL",
          "param": [
            1202607,
            3,
            0,
            0,
            0
          ],
          "param_str": ""
        }
      ],
      "finishCond": [
        {
          "type": "QUEST_CONTENT_FINISH_PLOT",
          "param": [
            1202616,
            0
          ],
          "param_str": ""
        }
      ],
      "failCond": [],
      "guide": {
        "type": "QUEST_GUIDE_LOCATION",
        "param": [
          "Q1202616_questpoint02",
          "40"
        ],
        "guideScene": 3,
        "guideStyle": "QUEST_GUIDE_STYLE_TARGET",
        "guideLayer": "QUEST_GUIDE_LAYER_SCENE"
      },
      "isRewind": true,
      "finishExec": [],
      "failExec": [],
      "beginExec": [
        {
          "type": "QUEST_EXEC_REGISTER_DYNAMIC_GROUP",
          "param": [
            "3",
            "133213551"
          ],
          "param_str": ""
        },
        {
          "type": "QUEST_EXEC_REGISTER_DYNAMIC_GROUP_ONLY",
          "param": [
            "133212589"
          ],
          "param_str": ""
        }
      ],
      "exclusiveNpcList": [
        12201,
        12202,
        12380,
        12382
      ],
      "exclusiveNpcPriority": 1100
    },
    {
      "subId": 1202617,
      "mainId": 12026,
      "order": 22,
      "descTextMapHash": 733228756,
      "acceptCond": [
        {
          "type": "QUEST_COND_STATE_EQUAL",
          "param": [
            1202615,
            3,
            0,
            0,
            0
          ],
          "param_str": ""
        }
      ],
      "finishCond": [
        {
          "type": "QUEST_CONTENT_COMPLETE_TALK",
          "param": [
            1202604,
            0
          ],
          "param_str": ""
        }
      ],
      "failCond": [],
      "guide": {
        "type": "QUEST_GUIDE_LOCATION",
        "param": [
          "Q1202617_Itto",
          "15"
        ],
        "guideScene": 3,
        "guideStyle": "QUEST_GUIDE_STYLE_POINT",
        "guideLayer": "QUEST_GUIDE_LAYER_SCENE"
      },
      "isRewind": true,
      "finishExec": [],
      "failExec": [],
      "beginExec": [
        {
          "type": "QUEST_EXEC_REGISTER_DYNAMIC_GROUP",
          "param": [
            "3",
            "133213551"
          ],
          "param_str": ""
        },
        {
          "type": "QUEST_EXEC_REGISTER_DYNAMIC_GROUP_ONLY",
          "param": [
            "133212589"
          ],
          "param_str": ""
        }
      ],
      "exclusiveNpcList": [
        12230,
        12201,
        12202,
        12231,
        1044
      ],
      "exclusiveNpcPriority": 1100
    },
    {
      "subId": 1202618,
      "mainId": 12026,
      "order": 23,
      "descTextMapHash": 2521721972,
      "acceptCond": [
        {
          "type": "QUEST_COND_STATE_EQUAL",
          "param": [
            1202617,
            3,
            0,
            0,
            0
          ],
          "param_str": ""
        }
      ],
      "finishCond": [
        {
          "type": "QUEST_CONTENT_COMPLETE_TALK",
          "param": [
            1202605,
            0
          ],
          "param_str": ""
        }
      ],
      "failCond": [],
      "guide": {
        "type": "QUEST_GUIDE_NPC",
        "param": [
          "12201"
        ],
        "guideScene": 3,
        "guideStyle": "QUEST_GUIDE_STYLE_TARGET",
        "guideLayer": "QUEST_GUIDE_LAYER_SCENE"
      },
      "finishParent": true,
      "isRewind": true,
      "finishExec": [
        {
          "type": "QUEST_EXEC_UNREGISTER_DYNAMIC_GROUP",
          "param": [
            "133212589",
            "1"
          ],
          "param_str": ""
        },
        {
          "type": "QUEST_EXEC_UNREGISTER_DYNAMIC_GROUP",
          "param": [
            "133213551"
          ],
          "param_str": ""
        },
        {
          "type": "QUEST_EXEC_SET_QUEST_GLOBAL_VAR",
          "param": [
            "1202601",
            "1"
          ],
          "param_str": ""
        }
      ],
      "failExec": [],
      "beginExec": [
        {
          "type": "QUEST_EXEC_REGISTER_DYNAMIC_GROUP",
          "param": [
            "3",
            "133212589"
          ],
          "param_str": ""
        },
        {
          "type": "QUEST_EXEC_REGISTER_DYNAMIC_GROUP",
          "param": [
            "3",
            "133213551"
          ],
          "param_str": ""
        }
      ],
      "exclusiveNpcList": [
        12201,
        12202,
        12233,
        12234
      ],
      "exclusiveNpcPriority": 1100
    },
    {
      "subId": 1202619,
      "mainId": 12026,
      "order": 12,
      "descTextMapHash": 1855116116,
      "acceptCond": [
        {
          "type": "QUEST_COND_STATE_EQUAL",
          "param": [
            1202609,
            3,
            0,
            0,
            0
          ],
          "param_str": ""
        }
      ],
      "finishCond": [
        {
          "type": "QUEST_CONTENT_LUA_NOTIFY",
          "param": [
            0,
            0
          ],
          "param_str": "1332135521",
          "count": 1
        }
      ],
      "failCond": [],
      "guide": {
        "type": "QUEST_GUIDE_LOCATION",
        "param": [
          "Q1202609_questpoint",
          "30"
        ],
        "guideScene": 3,
        "guideStyle": "QUEST_GUIDE_STYLE_TARGET",
        "guideLayer": "QUEST_GUIDE_LAYER_SCENE"
      },
      "finishExec": [
        {
          "type": "QUEST_EXEC_UNREGISTER_DYNAMIC_GROUP",
          "param": [
            "133213552"
          ],
          "param_str": ""
        }
      ],
      "failExec": [],
      "beginExec": [
        {
          "type": "QUEST_EXEC_REGISTER_DYNAMIC_GROUP",
          "param": [
            "3",
            "133213552"
          ],
          "param_str": ""
        },
        {
          "type": "QUEST_EXEC_REGISTER_DYNAMIC_GROUP",
          "param": [
            "3",
            "133213551"
          ],
          "param_str": ""
        }
      ],
      "exclusiveNpcList": [
        12201,
        12202,
        12380,
        12382
      ],
      "exclusiveNpcPriority": 1100
    },
    {
      "subId": 1202620,
      "mainId": 12026,
      "order": 15,
      "descTextMapHash": 4236952244,
      "acceptCond": [
        {
          "type": "QUEST_COND_STATE_EQUAL",
          "param": [
            1202608,
            3,
            0,
            0,
            0
          ],
          "param_str": ""
        }
      ],
      "finishCond": [
        {
          "type": "QUEST_CONTENT_COMPLETE_TALK",
          "param": [
            1202608,
            0
          ],
          "param_str": ""
        }
      ],
      "failCond": [],
      "guide": {
        "type": "QUEST_GUIDE_NPC",
        "param": [
          "1044"
        ],
        "guideScene": 3,
        "guideStyle": "QUEST_GUIDE_STYLE_TARGET",
        "guideLayer": "QUEST_GUIDE_LAYER_SCENE"
      },
      "isRewind": true,
      "finishExec": [],
      "failExec": [],
      "beginExec": [
        {
          "type": "QUEST_EXEC_REGISTER_DYNAMIC_GROUP_ONLY",
          "param": [
            "133213551"
          ],
          "param_str": ""
        },
        {
          "type": "QUEST_EXEC_REGISTER_DYNAMIC_GROUP_ONLY",
          "param": [
            "133212589"
          ],
          "param_str": ""
        }
      ],
      "exclusiveNpcList": [
        12201,
        12202,
        1044,
        12380,
        12382
      ],
      "exclusiveNpcPriority": 1100
    },
    {
      "subId": 1202621,
      "mainId": 12026,
      "order": 95,
      "descTextMapHash": 1154389732,
      "acceptCond": [
        {
          "type": "QUEST_COND_STATE_EQUAL",
          "param": [
            99902,
            3,
            0,
            0,
            0
          ],
          "param_str": ""
        }
      ],
      "finishCond": [
        {
          "type": "QUEST_CONTENT_FINISH_PLOT",
          "param": [
            1202621,
            0
          ],
          "param_str": ""
        }
      ],
      "failCond": [],
      "guide": {
        "type": "QUEST_GUIDE_LOCATION",
        "param": [
          "Q1202605_Qinggui",
          "30"
        ],
        "guideScene": 3,
        "guideStyle": "QUEST_GUIDE_STYLE_TARGET",
        "guideLayer": "QUEST_GUIDE_LAYER_SCENE"
      },
      "finishExec": [],
      "failExec": [],
      "beginExec": [
        {
          "type": "QUEST_EXEC_REGISTER_DYNAMIC_GROUP",
          "param": [
            "3",
            "133212573"
          ],
          "param_str": ""
        }
      ]
    },
    {
      "subId": 1202622,
      "mainId": 12026,
      "order": 10,
      "descTextMapHash": 1619137388,
      "acceptCond": [
        {
          "type": "QUEST_COND_STATE_EQUAL",
          "param": [
            1202616,
            3,
            0,
            0,
            0
          ],
          "param_str": ""
        }
      ],
      "finishCond": [
        {
          "type": "QUEST_CONTENT_FINISH_PLOT",
          "param": [
            1202622,
            0
          ],
          "param_str": ""
        }
      ],
      "failCond": [],
      "guide": {
        "type": "QUEST_GUIDE_LOCATION",
        "param": [
          "Q1202609_questpoint",
          "50"
        ],
        "guideScene": 3,
        "guideStyle": "QUEST_GUIDE_STYLE_TARGET",
        "guideLayer": "QUEST_GUIDE_LAYER_SCENE"
      },
      "isRewind": true,
      "finishExec": [],
      "failExec": [],
      "beginExec": [
        {
          "type": "QUEST_EXEC_REGISTER_DYNAMIC_GROUP",
          "param": [
            "3",
            "133213551"
          ],
          "param_str": ""
        },
        {
          "type": "QUEST_EXEC_REGISTER_DYNAMIC_GROUP_ONLY",
          "param": [
            "133212589"
          ],
          "param_str": ""
        }
      ],
      "exclusiveNpcList": [
        12201,
        12202,
        12380,
        12382
      ],
      "exclusiveNpcPriority": 1100
    },
    {
      "subId": 1202623,
      "mainId": 12026,
      "order": 20,
      "descTextMapHash": 213591596,
      "showType": "QUEST_HIDDEN",
      "acceptCond": [
        {
          "type": "QUEST_COND_STATE_EQUAL",
          "param": [
            1202607,
            3,
            0,
            0,
            0
          ],
          "param_str": ""
        }
      ],
      "finishCondComb": "LOGIC_OR",
      "finishCond": [
        {
          "type": "QUEST_CONTENT_FINISH_PLOT",
          "param": [
            1202623,
            0
          ],
          "param_str": ""
        },
        {
          "type": "QUEST_CONTENT_QUEST_STATE_EQUAL",
          "param": [
            1202615,
            3
          ],
          "param_str": ""
        }
      ],
      "failCond": [],
      "guide": {
        "param": []
      },
      "finishExec": [],
      "failExec": [],
      "beginExec": [],
      "exclusiveNpcList": [
        12201,
        12202,
        12380,
        12382
      ],
      "exclusiveNpcPriority": 1100
    },
    {
      "subId": 1202624,
      "mainId": 12026,
      "order": 4,
      "descTextMapHash": 3529569132,
      "showType": "QUEST_HIDDEN",
      "acceptCond": [
        {
          "type": "QUEST_COND_STATE_EQUAL",
          "param": [
            1202602,
            3,
            0,
            0,
            0
          ],
          "param_str": ""
        }
      ],
      "finishCond": [
        {
          "type": "QUEST_CONTENT_FINISH_PLOT",
          "param": [
            1202624,
            0
          ],
          "param_str": ""
        }
      ],
      "failCond": [],
      "guide": {
        "param": []
      },
      "finishExec": [
        {
          "type": "QUEST_EXEC_REFRESH_GROUP_SUITE",
          "param": [
            "3",
            "133212573,2"
          ],
          "param_str": ""
        }
      ],
      "failExec": [],
      "beginExec": [],
      "exclusiveNpcList": [
        12201,
        12202,
        12380,
        12382
      ],
      "exclusiveNpcPriority": 1100
    }
  ],
  "talks": [
    {
      "id": 1202601,
      "beginWay": "TALK_BEGIN_MANUAL",
      "activeMode": "PLAY_MODE_SINGLE",
      "beginCond": [
        {
          "type": "QUEST_COND_STATE_EQUAL",
          "param": [
            "1202602",
            "2"
          ],
          "param_str": ""
        }
      ],
      "priority": 5,
      "initDialog": 120260101,
      "npcId": [
        1044,
        12203,
        1005
      ],
      "performCfg": "QuestDialogue/LQ/Itto1_12026/Q1202601",
      "heroTalk": "TALK_HERO_MAIN",
      "questId": 12026,
      "prePerformCfg": ""
    },
    {
      "id": 1202602,
      "beginWay": "TALK_BEGIN_AUTO",
      "activeMode": "PLAY_MODE_SINGLE",
      "beginCondComb": "LOGIC_AND",
      "beginCond": [
        {
          "type": "QUEST_COND_STATE_EQUAL",
          "param": [
            "1202605",
            "2"
          ],
          "param_str": ""
        },
        {
          "type": "QUEST_COND_QUEST_VAR_EQUAL",
          "param": [
            "1",
            "1",
            "12026"
          ],
          "param_str": ""
        }
      ],
      "priority": 5,
      "initDialog": 120260201,
      "npcId": [
        1044
      ],
      "performCfg": "QuestDialogue/LQ/Itto1_12026/Q1202602",
      "heroTalk": "TALK_HERO_MAIN",
      "questId": 12026,
      "prePerformCfg": ""
    },
    {
      "id": 1202603,
      "beginWay": "TALK_BEGIN_AUTO",
      "activeMode": "PLAY_MODE_SINGLE",
      "beginCond": [
        {
          "type": "QUEST_COND_STATE_EQUAL",
          "param": [
            "1202607",
            "2"
          ],
          "param_str": ""
        }
      ],
      "priority": 5,
      "initDialog": 120260301,
      "npcId": [
        1044
      ],
      "performCfg": "QuestDialogue/LQ/Itto1_12026/Q1202603",
      "heroTalk": "TALK_HERO_MAIN",
      "questId": 12026,
      "prePerformCfg": ""
    },
    {
      "id": 1202604,
      "beginWay": "TALK_BEGIN_MANUAL",
      "activeMode": "PLAY_MODE_SINGLE",
      "beginCond": [
        {
          "type": "QUEST_COND_STATE_EQUAL",
          "param": [
            "1202617",
            "2"
          ],
          "param_str": ""
        }
      ],
      "priority": 5,
      "initDialog": 120260401,
      "npcId": [
        1044,
        1005
      ],
      "performCfg": "QuestDialogue/LQ/Itto1_12026/Q1202604",
      "heroTalk": "TALK_HERO_MAIN",
      "questId": 12026,
      "prePerformCfg": ""
    },
    {
      "id": 1202605,
      "beginWay": "TALK_BEGIN_MANUAL",
      "activeMode": "PLAY_MODE_SINGLE",
      "beginCond": [
        {
          "type": "QUEST_COND_STATE_EQUAL",
          "param": [
            "1202618",
            "2"
          ],
          "param_str": ""
        }
      ],
      "priority": 5,
      "initDialog": 120260501,
      "npcId": [
        12201,
        12202,
        12233,
        12234,
        1005
      ],
      "performCfg": "QuestDialogue/LQ/Itto1_12026/Q1202605",
      "heroTalk": "TALK_HERO_MAIN",
      "questId": 12026,
      "prePerformCfg": ""
    },
    {
      "id": 1202606,
      "beginWay": "TALK_BEGIN_MANUAL",
      "activeMode": "PLAY_MODE_SINGLE",
      "beginCond": [
        {
          "type": "QUEST_COND_STATE_EQUAL",
          "param": [
            "1202613",
            "2"
          ],
          "param_str": ""
        }
      ],
      "priority": 5,
      "initDialog": 120260601,
      "npcId": [
        12233,
        12234
      ],
      "performCfg": "QuestDialogue/LQ/Itto1_12026/Q1202606",
      "heroTalk": "TALK_HERO_MAIN",
      "questId": 12026,
      "prePerformCfg": ""
    },
    {
      "id": 1202607,
      "beginWay": "TALK_BEGIN_MANUAL",
      "activeMode": "PLAY_MODE_SINGLE",
      "beginCond": [
        {
          "type": "QUEST_COND_STATE_EQUAL",
          "param": [
            "1202615",
            "2"
          ],
          "param_str": ""
        }
      ],
      "priority": 5,
      "initDialog": 120260701,
      "npcId": [
        12275,
        1044,
        1005,
        12230,
        12231
      ],
      "performCfg": "QuestDialogue/LQ/Itto1_12026/Q1202607",
      "heroTalk": "TALK_HERO_MAIN",
      "questId": 12026,
      "prePerformCfg": ""
    },
    {
      "id": 1202608,
      "beginWay": "TALK_BEGIN_AUTO",
      "activeMode": "PLAY_MODE_SINGLE",
      "beginCond": [
        {
          "type": "QUEST_COND_STATE_EQUAL",
          "param": [
            "1202620",
            "2"
          ],
          "param_str": ""
        }
      ],
      "priority": 5,
      "initDialog": 120260801,
      "npcId": [
        1044
      ],
      "performCfg": "QuestDialogue/LQ/Itto1_12026/Q1202608",
      "heroTalk": "TALK_HERO_MAIN",
      "questId": 12026,
      "prePerformCfg": ""
    },
    {
      "id": 1202610,
      "beginWay": "TALK_BEGIN_MANUAL",
      "activeMode": "PLAY_MODE_SINGLE",
      "beginCondComb": "LOGIC_OR",
      "beginCond": [
        {
          "type": "QUEST_COND_STATE_EQUAL",
          "param": [
            "1202603",
            "2"
          ],
          "param_str": ""
        },
        {
          "type": "QUEST_COND_STATE_EQUAL",
          "param": [
            "1202604",
            "2"
          ],
          "param_str": ""
        }
      ],
      "priority": 5,
      "initDialog": 120261001,
      "npcId": [
        12203
      ],
      "performCfg": "QuestDialogue/LQ/Itto1_12026/Q1202610",
      "heroTalk": "TALK_HERO_MAIN",
      "questId": 12026,
      "prePerformCfg": ""
    },
    {
      "id": 1202612,
      "beginWay": "TALK_BEGIN_MANUAL",
      "activeMode": "PLAY_MODE_SINGLE",
      "beginCond": [
        {
          "type": "QUEST_COND_STATE_EQUAL",
          "param": [
            "1202603",
            "2"
          ],
          "param_str": ""
        }
      ],
      "priority": 5,
      "initDialog": 120261201,
      "npcId": [
        1044,
        1005
      ],
      "performCfg": "QuestDialogue/LQ/Itto1_12026/Q1202612",
      "heroTalk": "TALK_HERO_MAIN",
      "questId": 12026,
      "prePerformCfg": ""
    },
    {
      "id": 1202619,
      "activeMode": "PLAY_MODE_SINGLE",
      "beginCond": [
        {
          "type": "QUEST_COND_STATE_EQUAL",
          "param": [
            "99902",
            "3"
          ],
          "param_str": ""
        }
      ],
      "priority": 5,
      "initDialog": 120261901,
      "npcId": [
        12201
      ],
      "performCfg": "QuestDialogue/LQ/Itto1_12026/Q1202619",
      "questId": 12026,
      "prePerformCfg": "",
      "questIdleTalk": true
    },
    {
      "id": 1202620,
      "beginWay": "TALK_BEGIN_AUTO",
      "activeMode": "PLAY_MODE_SINGLE",
      "beginCondComb": "LOGIC_AND",
      "beginCond": [
        {
          "type": "QUEST_COND_STATE_EQUAL",
          "param": [
            "1202605",
            "2"
          ],
          "param_str": ""
        },
        {
          "type": "QUEST_COND_QUEST_VAR_EQUAL",
          "param": [
            "1",
            "2",
            "12026"
          ],
          "param_str": ""
        }
      ],
      "priority": 5,
      "initDialog": 120260247,
      "npcId": [
        1044
      ],
      "performCfg": "QuestDialogue/LQ/Itto1_12026/Q1202620",
      "heroTalk": "TALK_HERO_MAIN",
      "questId": 12026,
      "prePerformCfg": ""
    },
    {
      "id": 1202621,
      "beginWay": "TALK_BEGIN_MANUAL",
      "activeMode": "PLAY_MODE_SINGLE",
      "beginCondComb": "LOGIC_OR",
      "beginCond": [
        {
          "type": "QUEST_COND_STATE_EQUAL",
          "param": [
            "1202601",
            "2"
          ],
          "param_str": ""
        },
        {
          "type": "QUEST_COND_STATE_EQUAL",
          "param": [
            "1202602",
            "2"
          ],
          "param_str": ""
        },
        {
          "type": "QUEST_COND_STATE_EQUAL",
          "param": [
            "1202603",
            "2"
          ],
          "param_str": ""
        },
        {
          "type": "QUEST_COND_STATE_EQUAL",
          "param": [
            "1202604",
            "2"
          ],
          "param_str": ""
        },
        {
          "type": "QUEST_COND_STATE_EQUAL",
          "param": [
            "1202605",
            "2"
          ],
          "param_str": ""
        },
        {
          "type": "QUEST_COND_STATE_EQUAL",
          "param": [
            "1202606",
            "2"
          ],
          "param_str": ""
        }
      ],
      "priority": 2,
      "initDialog": 120252001,
      "npcId": [
        12201,
        12202
      ],
      "performCfg": "QuestDialogue/LQ/Itto1_12025/Q1202520",
      "heroTalk": "TALK_HERO_MAIN",
      "questId": 12026,
      "prePerformCfg": "",
      "stayFreeStyle": true,
      "lowPriority": true
    },
    {
      "id": 1202622,
      "beginWay": "TALK_BEGIN_MANUAL",
      "activeMode": "PLAY_MODE_SINGLE",
      "beginCondComb": "LOGIC_OR",
      "beginCond": [
        {
          "type": "QUEST_COND_STATE_EQUAL",
          "param": [
            "1202607",
            "2"
          ],
          "param_str": ""
        },
        {
          "type": "QUEST_COND_STATE_EQUAL",
          "param": [
            "1202616",
            "2"
          ],
          "param_str": ""
        },
        {
          "type": "QUEST_COND_STATE_EQUAL",
          "param": [
            "1202622",
            "2"
          ],
          "param_str": ""
        },
        {
          "type": "QUEST_COND_STATE_EQUAL",
          "param": [
            "1202609",
            "2"
          ],
          "param_str": ""
        },
        {
          "type": "QUEST_COND_STATE_EQUAL",
          "param": [
            "1202619",
            "2"
          ],
          "param_str": ""
        },
        {
          "type": "QUEST_COND_STATE_EQUAL",
          "param": [
            "1202610",
            "2"
          ],
          "param_str": ""
        }
      ],
      "priority": 2,
      "initDialog": 120252001,
      "npcId": [
        12201,
        12202
      ],
      "performCfg": "QuestDialogue/LQ/Itto1_12025/Q1202520",
      "heroTalk": "TALK_HERO_MAIN",
      "questId": 12026,
      "prePerformCfg": "",
      "stayFreeStyle": true,
      "lowPriority": true
    },
    {
      "id": 1202623,
      "beginWay": "TALK_BEGIN_MANUAL",
      "activeMode": "PLAY_MODE_SINGLE",
      "beginCondComb": "LOGIC_OR",
      "beginCond": [
        {
          "type": "QUEST_COND_STATE_EQUAL",
          "param": [
            "1202608",
            "2"
          ],
          "param_str": ""
        },
        {
          "type": "QUEST_COND_STATE_EQUAL",
          "param": [
            "1202620",
            "2"
          ],
          "param_str": ""
        },
        {
          "type": "QUEST_COND_STATE_EQUAL",
          "param": [
            "1202611",
            "2"
          ],
          "param_str": ""
        },
        {
          "type": "QUEST_COND_STATE_EQUAL",
          "param": [
            "1202612",
            "2"
          ],
          "param_str": ""
        },
        {
          "type": "QUEST_COND_STATE_EQUAL",
          "param": [
            "1202613",
            "2"
          ],
          "param_str": ""
        },
        {
          "type": "QUEST_COND_STATE_EQUAL",
          "param": [
            "1202614",
            "2"
          ],
          "param_str": ""
        }
      ],
      "priority": 2,
      "initDialog": 120252001,
      "npcId": [
        12201,
        12202
      ],
      "performCfg": "QuestDialogue/LQ/Itto1_12025/Q1202520",
      "heroTalk": "TALK_HERO_MAIN",
      "questId": 12026,
      "prePerformCfg": "",
      "stayFreeStyle": true,
      "lowPriority": true
    },
    {
      "id": 1202624,
      "beginWay": "TALK_BEGIN_MANUAL",
      "activeMode": "PLAY_MODE_SINGLE",
      "beginCondComb": "LOGIC_OR",
      "beginCond": [
        {
          "type": "QUEST_COND_STATE_EQUAL",
          "param": [
            "1202615",
            "2"
          ],
          "param_str": ""
        },
        {
          "type": "QUEST_COND_STATE_EQUAL",
          "param": [
            "1202617",
            "2"
          ],
          "param_str": ""
        },
        {
          "type": "QUEST_COND_STATE_EQUAL",
          "param": [
            "1202622",
            "2"
          ],
          "param_str": ""
        }
      ],
      "priority": 2,
      "initDialog": 120252001,
      "npcId": [
        12201,
        12202
      ],
      "performCfg": "QuestDialogue/LQ/Itto1_12025/Q1202520",
      "heroTalk": "TALK_HERO_MAIN",
      "questId": 12026,
      "prePerformCfg": "",
      "stayFreeStyle": true,
      "lowPriority": true
    }
  ]
}