{
  "id": 13005,
  "type": "LQ",
  "series": 13000,
  "titleTextMapHash": 886173863,
  "descTextMapHash": 1943984606,
  "luaPath": "Actor/Quest/LQ13005",
  "showType": "QUEST_HIDDEN",
  "rewardIdList": [
    113005
  ],
  "subQuests": [
    {
      "mainId": 13005,
      "subId": 1300501,
      "order": 1,
      "showType": "QUEST_HIDDEN",
      "acceptCond": [
        {
          "type": "QUEST_COND_UNKNOWN",
          "param": [
            0,
            0
          ]
        }
      ],
      "finishCond": [],
      "failCond": [],
      "guide": {},
      "finishExec": [],
      "failExec": [],
      "beginExec": []
    }
  ]
}