{
  "id": 13009,
  "type": "LQ",
  "series": 2032,
  "titleTextMapHash": 2539282631,
  "descTextMapHash": 2650266510,
  "luaPath": "Actor/Quest/LQ13009",
  "suggestTrackMainQuestList": [
    13010
  ],
  "rewardIdList": [
    113009
  ],
  "chapterId": 2032,
  "subQuests": [
    {
      "mainId": 13009,
      "subId": 1300901,
      "order": 1,
      "descTextMapHash": 1228835380,
      "acceptCond": [
        {
          "type": "QUEST_COND_UNKNOWN",
          "param": [
            0,
            0
          ]
        }
      ],
      "finishCond": [],
      "failCond": [],
      "guide": {
        "type": "QUEST_GUIDE_LOCATION",
        "param": [
          "Q1300901_N10000005",
          "15"
        ],
        "guideScene": 3,
        "guideStyle": "QUEST_GUIDE_STYLE_POINT",
        "guideLayer": "QUEST_GUIDE_LAYER_SCENE"
      },
      "finishExec": [],
      "failExec": [],
      "beginExec": []
    },
    {
      "mainId": 13009,
      "subId": 1300902,
      "order": 2,
      "acceptCond": [
        {
          "type": "QUEST_COND_UNKNOWN",
          "param": [
            0,
            0
          ]
        }
      ],
      "finishCond": [],
      "failCond": [],
      "guide": {},
      "finishExec": [],
      "failExec": [],
      "beginExec": []
    },
    {
      "mainId": 13009,
      "subId": 1300903,
      "order": 3,
      "descTextMapHash": 1372728484,
      "acceptCond": [
        {
          "type": "QUEST_COND_UNKNOWN",
          "param": [
            0,
            0
          ]
        }
      ],
      "finishCond": [],
      "failCond": [],
      "guide": {
        "type": "QUEST_GUIDE_LOCATION",
        "param": [
          "Q1300902_N10000005",
          "30"
        ],
        "guideScene": 3,
        "guideStyle": "QUEST_GUIDE_STYLE_POINT",
        "guideLayer": "QUEST_GUIDE_LAYER_SCENE"
      },
      "finishExec": [],
      "failExec": [],
      "beginExec": []
    },
    {
      "mainId": 13009,
      "subId": 1300904,
      "order": 5,
      "descTextMapHash": 1414251396,
      "acceptCond": [
        {
          "type": "QUEST_COND_UNKNOWN",
          "param": [
            0,
            0
          ]
        }
      ],
      "finishCond": [],
      "failCond": [],
      "guide": {
        "type": "QUEST_GUIDE_NPC",
        "param": [
          "1055"
        ],
        "guideScene": 3,
        "guideStyle": "QUEST_GUIDE_STYLE_TARGET",
        "guideLayer": "QUEST_GUIDE_LAYER_SCENE"
      },
      "finishExec": [],
      "failExec": [],
      "beginExec": []
    },
    {
      "mainId": 13009,
      "subId": 1300905,
      "order": 6,
      "descTextMapHash": 1105236332,
      "acceptCond": [
        {
          "type": "QUEST_COND_UNKNOWN",
          "param": [
            0,
            0
          ]
        }
      ],
      "finishCond": [],
      "failCond": [],
      "guide": {
        "type": "QUEST_GUIDE_NPC",
        "param": [
          "1058"
        ],
        "guideScene": 3,
        "guideStyle": "QUEST_GUIDE_STYLE_TARGET",
        "guideLayer": "QUEST_GUIDE_LAYER_SCENE"
      },
      "finishExec": [],
      "failExec": [],
      "beginExec": []
    },
    {
      "mainId": 13009,
      "subId": 1300906,
      "order": 7,
      "descTextMapHash": 3798296516,
      "acceptCond": [
        {
          "type": "QUEST_COND_UNKNOWN",
          "param": [
            0,
            0
          ]
        }
      ],
      "finishCond": [],
      "failCond": [],
      "guide": {
        "type": "QUEST_GUIDE_LOCATION",
        "param": [
          "Q1300906_guide"
        ],
        "guideScene": 3,
        "guideStyle": "QUEST_GUIDE_STYLE_POINT",
        "guideLayer": "QUEST_GUIDE_LAYER_SCENE"
      },
      "finishExec": [],
      "failExec": [],
      "beginExec": []
    },
    {
      "mainId": 13009,
      "subId": 1300907,
      "order": 8,
      "descTextMapHash": 3841556124,
      "acceptCond": [
        {
          "type": "QUEST_COND_UNKNOWN",
          "param": [
            0,
            0
          ]
        }
      ],
      "finishCond": [],
      "failCond": [],
      "guide": {
        "type": "QUEST_GUIDE_NPC",
        "param": [
          "1058"
        ],
        "guideScene": 3,
        "guideStyle": "QUEST_GUIDE_STYLE_TARGET",
        "guideLayer": "QUEST_GUIDE_LAYER_SCENE"
      },
      "finishExec": [],
      "failExec": [],
      "beginExec": []
    },
    {
      "mainId": 13009,
      "subId": 1300908,
      "order": 9,
      "descTextMapHash": 954053860,
      "acceptCond": [
        {
          "type": "QUEST_COND_UNKNOWN",
          "param": [
            0,
            0
          ]
        }
      ],
      "finishCond": [],
      "failCond": [],
      "guide": {
        "type": "QUEST_GUIDE_LOCATION",
        "param": [
          "Q1300906_guide",
          "30"
        ],
        "guideScene": 3,
        "guideStyle": "QUEST_GUIDE_STYLE_POINT",
        "guideLayer": "QUEST_GUIDE_LAYER_SCENE"
      },
      "finishExec": [],
      "failExec": [],
      "beginExec": []
    },
    {
      "mainId": 13009,
      "subId": 1300909,
      "order": 10,
      "descTextMapHash": 3896561796,
      "acceptCond": [
        {
          "type": "QUEST_COND_UNKNOWN",
          "param": [
            0,
            0
          ]
        }
      ],
      "finishCond": [],
      "failCond": [],
      "guide": {
        "type": "QUEST_GUIDE_LOCATION",
        "param": [
          "Q1300906_guide",
          "30"
        ],
        "guideScene": 3,
        "guideStyle": "QUEST_GUIDE_STYLE_POINT",
        "guideLayer": "QUEST_GUIDE_LAYER_SCENE"
      },
      "finishExec": [],
      "failExec": [],
      "beginExec": []
    },
    {
      "mainId": 13009,
      "subId": 1300910,
      "order": 4,
      "descTextMapHash": 2010328796,
      "acceptCond": [
        {
          "type": "QUEST_COND_UNKNOWN",
          "param": [
            0,
            0
          ]
        }
      ],
      "finishCond": [],
      "failCond": [],
      "guide": {
        "type": "QUEST_GUIDE_LOCATION",
        "param": [
          "Q1300910_guide",
          "30"
        ],
        "guideScene": 3,
        "guideStyle": "QUEST_GUIDE_STYLE_POINT",
        "guideLayer": "QUEST_GUIDE_LAYER_SCENE"
      },
      "finishExec": [],
      "failExec": [],
      "beginExec": []
    }
  ],
  "talks": [
    {
      "id": 1300901,
      "beginWay": "TALK_BEGIN_MANUAL",
      "activeMode": "PLAY_MODE_SINGLE",
      "beginCondComb": "LOGIC_AND",
      "beginCond": [
        {
          "type": "QUEST_COND_STATE_EQUAL",
          "param": [
            "1300901",
            "2"
          ],
          "param_str": ""
        },
        {
          "type": "QUEST_COND_QUEST_GLOBAL_VAR_EQUAL",
          "param": [
            "302821",
            "0"
          ],
          "param_str": ""
        }
      ],
      "priority": 5,
      "initDialog": 130090101,
      "npcId": [
        12772
      ],
      "performCfg": "QuestDialogue/LQ/Cyno_13009/Q1300901",
      "heroTalk": "TALK_HERO_MAIN",
      "questId": 13009,
      "prePerformCfg": "",
      "finishExec": [
        {
          "type": "TALK_EXEC_SAVE_TALK_ID",
          "param": [
            "1300901"
          ],
          "param_str": ""
        }
      ]
    },
    {
      "id": 1300902,
      "beginWay": "TALK_BEGIN_MANUAL",
      "activeMode": "PLAY_MODE_SINGLE",
      "beginCondComb": "LOGIC_AND",
      "beginCond": [
        {
          "type": "QUEST_COND_STATE_EQUAL",
          "param": [
            "1300903",
            "2"
          ],
          "param_str": ""
        },
        {
          "type": "QUEST_COND_QUEST_GLOBAL_VAR_EQUAL",
          "param": [
            "302821",
            "0"
          ],
          "param_str": ""
        }
      ],
      "priority": 5,
      "initDialog": 130090201,
      "npcId": [
        1058
      ],
      "performCfg": "QuestDialogue/LQ/Cyno_13009/Q1300902",
      "heroTalk": "TALK_HERO_MAIN",
      "questId": 13009,
      "prePerformCfg": "",
      "finishExec": [
        {
          "type": "TALK_EXEC_SAVE_TALK_ID",
          "param": [
            "1300902"
          ],
          "param_str": ""
        }
      ]
    },
    {
      "id": 1300903,
      "beginWay": "TALK_BEGIN_MANUAL",
      "activeMode": "PLAY_MODE_SINGLE",
      "beginCond": [
        {
          "type": "QUEST_COND_STATE_EQUAL",
          "param": [
            "1300910",
            "2"
          ],
          "param_str": ""
        }
      ],
      "priority": 5,
      "initDialog": 130090301,
      "npcId": [
        12773,
        12774,
        12775,
        1058
      ],
      "performCfg": "QuestDialogue/LQ/Cyno_13009/Q1300903",
      "heroTalk": "TALK_HERO_MAIN",
      "questId": 13009,
      "prePerformCfg": ""
    },
    {
      "id": 1300904,
      "beginWay": "TALK_BEGIN_MANUAL",
      "activeMode": "PLAY_MODE_SINGLE",
      "beginCondComb": "LOGIC_AND",
      "beginCond": [
        {
          "type": "QUEST_COND_STATE_EQUAL",
          "param": [
            "1300904",
            "2"
          ],
          "param_str": ""
        },
        {
          "type": "QUEST_COND_QUEST_GLOBAL_VAR_EQUAL",
          "param": [
            "302821",
            "0"
          ],
          "param_str": ""
        }
      ],
      "priority": 5,
      "initDialog": 130090401,
      "npcId": [
        1055
      ],
      "performCfg": "QuestDialogue/LQ/Cyno_13009/Q1300904",
      "heroTalk": "TALK_HERO_MAIN",
      "questId": 13009,
      "prePerformCfg": "",
      "finishExec": [
        {
          "type": "TALK_EXEC_SAVE_TALK_ID",
          "param": [
            "1300904"
          ],
          "param_str": ""
        }
      ]
    },
    {
      "id": 1300905,
      "beginWay": "TALK_BEGIN_MANUAL",
      "activeMode": "PLAY_MODE_SINGLE",
      "beginCond": [
        {
          "type": "QUEST_COND_STATE_EQUAL",
          "param": [
            "1300905",
            "2"
          ],
          "param_str": ""
        }
      ],
      "priority": 5,
      "initDialog": 130090501,
      "npcId": [
        1058
      ],
      "performCfg": "QuestDialogue/LQ/Cyno_13009/Q1300905",
      "heroTalk": "TALK_HERO_MAIN",
      "questId": 13009,
      "prePerformCfg": ""
    },
    {
      "id": 1300906,
      "beginWay": "TALK_BEGIN_MANUAL",
      "activeMode": "PLAY_MODE_SINGLE",
      "beginCond": [
        {
          "type": "QUEST_COND_STATE_EQUAL",
          "param": [
            "1300905",
            "2"
          ],
          "param_str": ""
        }
      ],
      "priority": 5,
      "initDialog": 130090601,
      "npcId": [
        1055
      ],
      "performCfg": "QuestDialogue/LQ/Cyno_13009/Q1300906",
      "heroTalk": "TALK_HERO_MAIN",
      "questId": 13009,
      "prePerformCfg": ""
    },
    {
      "id": 1300907,
      "beginWay": "TALK_BEGIN_MANUAL",
      "activeMode": "PLAY_MODE_SINGLE",
      "beginCond": [
        {
          "type": "QUEST_COND_STATE_EQUAL",
          "param": [
            "1300907",
            "2"
          ],
          "param_str": ""
        }
      ],
      "priority": 5,
      "initDialog": 130090701,
      "npcId": [
        12776,
        1058
      ],
      "performCfg": "QuestDialogue/LQ/Cyno_13009/Q1300907",
      "heroTalk": "TALK_HERO_MAIN",
      "questId": 13009,
      "prePerformCfg": "",
      "lockGameTime": true
    },
    {
      "id": 1300909,
      "beginWay": "TALK_BEGIN_MANUAL",
      "activeMode": "PLAY_MODE_SINGLE",
      "beginCond": [
        {
          "type": "QUEST_COND_STATE_EQUAL",
          "param": [
            "1300909",
            "2"
          ],
          "param_str": ""
        }
      ],
      "priority": 5,
      "initDialog": 130090901,
      "npcId": [
        12776,
        1058
      ],
      "performCfg": "QuestDialogue/LQ/Cyno_13009/Q1300909",
      "heroTalk": "TALK_HERO_MAIN",
      "questId": 13009,
      "prePerformCfg": "",
      "lockGameTime": true
    },
    {
      "id": 1300912,
      "beginWay": "TALK_BEGIN_MANUAL",
      "activeMode": "PLAY_MODE_SINGLE",
      "beginCond": [
        {
          "type": "QUEST_COND_STATE_EQUAL",
          "param": [
            "1300903",
            "2"
          ],
          "param_str": ""
        }
      ],
      "priority": 5,
      "initDialog": 130091201,
      "npcId": [
        12772
      ],
      "performCfg": "QuestDialogue/LQ/Cyno_13009/Q1300912",
      "heroTalk": "TALK_HERO_MAIN",
      "questId": 13009,
      "prePerformCfg": ""
    },
    {
      "id": 1300921,
      "beginWay": "TALK_BEGIN_MANUAL",
      "activeMode": "PLAY_MODE_SINGLE",
      "beginCondComb": "LOGIC_AND",
      "beginCond": [
        {
          "type": "QUEST_COND_STATE_EQUAL",
          "param": [
            "1300901",
            "2"
          ],
          "param_str": ""
        },
        {
          "type": "QUEST_COND_QUEST_GLOBAL_VAR_EQUAL",
          "param": [
            "302821",
            "1"
          ],
          "param_str": ""
        }
      ],
      "priority": 5,
      "initDialog": 130092101,
      "npcId": [
        12772
      ],
      "performCfg": "QuestDialogue/LQ/Cyno_13009/Q1300921",
      "heroTalk": "TALK_HERO_MAIN",
      "questId": 13009,
      "prePerformCfg": "",
      "finishExec": [
        {
          "type": "TALK_EXEC_SAVE_TALK_ID",
          "param": [
            "1300921"
          ],
          "param_str": ""
        }
      ]
    },
    {
      "id": 1300922,
      "beginWay": "TALK_BEGIN_MANUAL",
      "activeMode": "PLAY_MODE_SINGLE",
      "beginCondComb": "LOGIC_AND",
      "beginCond": [
        {
          "type": "QUEST_COND_STATE_EQUAL",
          "param": [
            "1300903",
            "2"
          ],
          "param_str": ""
        },
        {
          "type": "QUEST_COND_QUEST_GLOBAL_VAR_EQUAL",
          "param": [
            "302821",
            "1"
          ],
          "param_str": ""
        }
      ],
      "priority": 5,
      "initDialog": 130092201,
      "npcId": [
        1058
      ],
      "performCfg": "QuestDialogue/LQ/Cyno_13009/Q1300922",
      "heroTalk": "TALK_HERO_MAIN",
      "questId": 13009,
      "prePerformCfg": "",
      "finishExec": [
        {
          "type": "TALK_EXEC_SAVE_TALK_ID",
          "param": [
            "1300922"
          ],
          "param_str": ""
        }
      ]
    },
    {
      "id": 1300923,
      "beginWay": "TALK_BEGIN_MANUAL",
      "activeMode": "PLAY_MODE_SINGLE",
      "beginCondComb": "LOGIC_AND",
      "beginCond": [
        {
          "type": "QUEST_COND_STATE_EQUAL",
          "param": [
            "1300904",
            "2"
          ],
          "param_str": ""
        },
        {
          "type": "QUEST_COND_QUEST_GLOBAL_VAR_EQUAL",
          "param": [
            "302821",
            "1"
          ],
          "param_str": ""
        }
      ],
      "priority": 5,
      "initDialog": 130092301,
      "npcId": [
        1055
      ],
      "performCfg": "QuestDialogue/LQ/Cyno_13009/Q1300923",
      "heroTalk": "TALK_HERO_MAIN",
      "questId": 13009,
      "prePerformCfg": "",
      "finishExec": [
        {
          "type": "TALK_EXEC_SAVE_TALK_ID",
          "param": [
            "1300923"
          ],
          "param_str": ""
        }
      ]
    }
  ]
}