{
  "id": 13012,
  "type": "LQ",
  "series": 2032,
  "titleTextMapHash": 660099895,
  "descTextMapHash": 3503283638,
  "luaPath": "Actor/Quest/LQ13012",
  "showType": "QUEST_HIDDEN",
  "subQuests": [
    {
      "mainId": 13012,
      "subId": 1301201,
      "order": 1,
      "showType": "QUEST_HIDDEN",
      "acceptCond": [
        {
          "type": "QUEST_COND_UNKNOWN",
          "param": [
            0,
            0
          ]
        }
      ],
      "finishCond": [],
      "failCond": [],
      "guide": {},
      "finishExec": [],
      "failExec": [],
      "beginExec": []
    },
    {
      "mainId": 13012,
      "subId": 1301202,
      "order": 2,
      "acceptCond": [
        {
          "type": "QUEST_COND_UNKNOWN",
          "param": [
            0,
            0
          ]
        }
      ],
      "finishCond": [],
      "failCond": [],
      "guide": {},
      "finishExec": [],
      "failExec": [],
      "beginExec": []
    }
  ],
  "talks": [
    {
      "id": 1301202,
      "beginWay": "TALK_BEGIN_MANUAL",
      "activeMode": "PLAY_MODE_SINGLE",
      "beginCond": [
        {
          "type": "QUEST_COND_STATE_EQUAL",
          "param": [
            "1301201",
            "2"
          ],
          "param_str": ""
        }
      ],
      "priority": 5,
      "initDialog": 130120201,
      "npcId": [
        1058
      ],
      "performCfg": "QuestDialogue/LQ/Cyno_13012/Q1301202",
      "heroTalk": "TALK_HERO_MAIN",
      "questId": 13012,
      "prePerformCfg": "",
      "questIdleTalk": true
    }
  ]
}