{
  "id": 13016,
  "type": "LQ",
  "series": 13000,
  "titleTextMapHash": 2140428879,
  "descTextMapHash": 1797340838,
  "luaPath": "Actor/Quest/LQ13016",
  "showType": "QUEST_HIDDEN",
  "subQuests": [
    {
      "mainId": 13016,
      "subId": 1301601,
      "order": 1,
      "showType": "QUEST_HIDDEN",
      "acceptCond": [
        {
          "type": "QUEST_COND_UNKNOWN",
          "param": [
            0,
            0
          ]
        }
      ],
      "finishCond": [],
      "failCond": [],
      "guide": {},
      "finishExec": [],
      "failExec": [],
      "beginExec": []
    },
    {
      "mainId": 13016,
      "subId": 1301602,
      "order": 2,
      "showType": "QUEST_HIDDEN",
      "acceptCond": [
        {
          "type": "QUEST_COND_UNKNOWN",
          "param": [
            0,
            0
          ]
        }
      ],
      "finishCond": [],
      "failCond": [],
      "guide": {},
      "finishExec": [],
      "failExec": [],
      "beginExec": []
    }
  ]
}