{
  "id": 13011,
  "type": "LQ",
  "series": 2032,
  "titleTextMapHash": 3504135695,
  "descTextMapHash": 2448156550,
  "luaPath": "Actor/Quest/LQ13011",
  "rewardIdList": [
    113011
  ],
  "chapterId": 2032,
  "subQuests": [
    {
      "mainId": 13011,
      "subId": 1301101,
      "order": 1,
      "descTextMapHash": 3912173812,
      "acceptCond": [
        {
          "type": "QUEST_COND_UNKNOWN",
          "param": [
            0,
            0
          ]
        }
      ],
      "finishCond": [],
      "failCond": [],
      "guide": {
        "type": "QUEST_GUIDE_NPC",
        "param": [
          "12772"
        ],
        "guideScene": 3,
        "guideStyle": "QUEST_GUIDE_STYLE_TARGET",
        "guideLayer": "QUEST_GUIDE_LAYER_SCENE"
      },
      "finishExec": [],
      "failExec": [],
      "beginExec": []
    },
    {
      "mainId": 13011,
      "subId": 1301102,
      "order": 3,
      "descTextMapHash": 46408228,
      "acceptCond": [
        {
          "type": "QUEST_COND_UNKNOWN",
          "param": [
            0,
            0
          ]
        }
      ],
      "finishCond": [],
      "failCond": [],
      "guide": {
        "type": "QUEST_GUIDE_NPC",
        "param": [
          "12782"
        ],
        "guideScene": 3,
        "guideStyle": "QUEST_GUIDE_STYLE_TARGET",
        "guideLayer": "QUEST_GUIDE_LAYER_SCENE"
      },
      "finishExec": [],
      "failExec": [],
      "beginExec": []
    },
    {
      "mainId": 13011,
      "subId": 1301103,
      "order": 5,
      "descTextMapHash": 3776944164,
      "acceptCond": [
        {
          "type": "QUEST_COND_UNKNOWN",
          "param": [
            0,
            0
          ]
        }
      ],
      "finishCond": [],
      "failCond": [],
      "guide": {
        "type": "QUEST_GUIDE_NPC",
        "param": [
          "12772"
        ],
        "guideScene": 1078,
        "guideStyle": "QUEST_GUIDE_STYLE_TARGET",
        "guideLayer": "QUEST_GUIDE_LAYER_SCENE"
      },
      "finishExec": [],
      "failExec": [],
      "beginExec": []
    },
    {
      "mainId": 13011,
      "subId": 1301104,
      "order": 8,
      "descTextMapHash": 2941228108,
      "acceptCond": [
        {
          "type": "QUEST_COND_UNKNOWN",
          "param": [
            0,
            0
          ]
        }
      ],
      "finishCond": [],
      "failCond": [],
      "guide": {
        "type": "QUEST_GUIDE_NPC",
        "param": [
          "12784"
        ],
        "guideScene": 3,
        "guideStyle": "QUEST_GUIDE_STYLE_TARGET",
        "guideLayer": "QUEST_GUIDE_LAYER_SCENE"
      },
      "finishExec": [],
      "failExec": [],
      "beginExec": []
    },
    {
      "mainId": 13011,
      "subId": 1301105,
      "order": 9,
      "descTextMapHash": 3773282812,
      "acceptCond": [
        {
          "type": "QUEST_COND_UNKNOWN",
          "param": [
            0,
            0
          ]
        }
      ],
      "finishCond": [],
      "failCond": [],
      "guide": {
        "type": "QUEST_GUIDE_NPC",
        "param": [
          "12786"
        ],
        "guideScene": 3,
        "guideStyle": "QUEST_GUIDE_STYLE_TARGET",
        "guideLayer": "QUEST_GUIDE_LAYER_SCENE"
      },
      "finishExec": [],
      "failExec": [],
      "beginExec": []
    },
    {
      "mainId": 13011,
      "subId": 1301106,
      "order": 10,
      "showType": "QUEST_HIDDEN",
      "acceptCond": [
        {
          "type": "QUEST_COND_UNKNOWN",
          "param": [
            0,
            0
          ]
        }
      ],
      "finishCond": [],
      "failCond": [],
      "guide": {},
      "finishExec": [],
      "failExec": [],
      "beginExec": []
    },
    {
      "mainId": 13011,
      "subId": 1301107,
      "order": 11,
      "descTextMapHash": 1705582460,
      "acceptCond": [
        {
          "type": "QUEST_COND_UNKNOWN",
          "param": [
            0,
            0
          ]
        }
      ],
      "finishCond": [],
      "failCond": [],
      "guide": {
        "type": "QUEST_GUIDE_NPC",
        "param": [
          "12785"
        ],
        "guideScene": 3,
        "guideStyle": "QUEST_GUIDE_STYLE_TARGET",
        "guideLayer": "QUEST_GUIDE_LAYER_SCENE"
      },
      "finishExec": [],
      "failExec": [],
      "beginExec": []
    },
    {
      "mainId": 13011,
      "subId": 1301108,
      "order": 12,
      "descTextMapHash": 2731089828,
      "acceptCond": [
        {
          "type": "QUEST_COND_UNKNOWN",
          "param": [
            0,
            0
          ]
        }
      ],
      "finishCond": [],
      "failCond": [],
      "guide": {
        "type": "QUEST_GUIDE_LOCATION",
        "param": [
          "Q1301107_N10000005"
        ],
        "guideScene": 3,
        "guideStyle": "QUEST_GUIDE_STYLE_POINT",
        "guideLayer": "QUEST_GUIDE_LAYER_SCENE"
      },
      "finishExec": [],
      "failExec": [],
      "beginExec": []
    },
    {
      "mainId": 13011,
      "subId": 1301109,
      "order": 13,
      "showType": "QUEST_HIDDEN",
      "acceptCond": [
        {
          "type": "QUEST_COND_UNKNOWN",
          "param": [
            0,
            0
          ]
        }
      ],
      "finishCond": [],
      "failCond": [],
      "guide": {},
      "finishExec": [],
      "failExec": [],
      "beginExec": []
    },
    {
      "mainId": 13011,
      "subId": 1301110,
      "order": 14,
      "descTextMapHash": 1599067052,
      "acceptCond": [
        {
          "type": "QUEST_COND_UNKNOWN",
          "param": [
            0,
            0
          ]
        }
      ],
      "finishCond": [],
      "failCond": [],
      "guide": {
        "type": "QUEST_GUIDE_NPC",
        "param": [
          "1058"
        ],
        "guideScene": 3,
        "guideStyle": "QUEST_GUIDE_STYLE_TARGET",
        "guideLayer": "QUEST_GUIDE_LAYER_SCENE"
      },
      "finishExec": [],
      "failExec": [],
      "beginExec": []
    },
    {
      "mainId": 13011,
      "subId": 1301111,
      "order": 15,
      "descTextMapHash": 2519356676,
      "acceptCond": [
        {
          "type": "QUEST_COND_UNKNOWN",
          "param": [
            0,
            0
          ]
        }
      ],
      "finishCond": [],
      "failCond": [],
      "guide": {
        "type": "QUEST_GUIDE_LOCATION",
        "param": [
          "Q1301111_guide",
          "120"
        ],
        "guideScene": 3,
        "guideStyle": "QUEST_GUIDE_STYLE_POINT",
        "guideLayer": "QUEST_GUIDE_LAYER_SCENE"
      },
      "finishExec": [],
      "failExec": [],
      "beginExec": []
    },
    {
      "mainId": 13011,
      "subId": 1301112,
      "order": 19,
      "showType": "QUEST_HIDDEN",
      "acceptCond": [
        {
          "type": "QUEST_COND_UNKNOWN",
          "param": [
            0,
            0
          ]
        }
      ],
      "finishCond": [],
      "failCond": [],
      "guide": {},
      "finishExec": [],
      "failExec": [],
      "beginExec": []
    },
    {
      "mainId": 13011,
      "subId": 1301113,
      "order": 20,
      "descTextMapHash": 1599464468,
      "acceptCond": [
        {
          "type": "QUEST_COND_UNKNOWN",
          "param": [
            0,
            0
          ]
        }
      ],
      "finishCond": [],
      "failCond": [],
      "guide": {},
      "finishExec": [],
      "failExec": [],
      "beginExec": []
    },
    {
      "mainId": 13011,
      "subId": 1301114,
      "order": 22,
      "descTextMapHash": 1156206708,
      "acceptCond": [
        {
          "type": "QUEST_COND_UNKNOWN",
          "param": [
            0,
            0
          ]
        }
      ],
      "finishCond": [],
      "failCond": [],
      "guide": {},
      "finishExec": [],
      "failExec": [],
      "beginExec": []
    },
    {
      "mainId": 13011,
      "subId": 1301115,
      "order": 23,
      "descTextMapHash": 647793052,
      "acceptCond": [
        {
          "type": "QUEST_COND_UNKNOWN",
          "param": [
            0,
            0
          ]
        }
      ],
      "finishCond": [],
      "failCond": [],
      "guide": {
        "type": "QUEST_GUIDE_LOCATION",
        "param": [
          "Q1301115_N1058",
          "30"
        ],
        "guideScene": 3,
        "guideStyle": "QUEST_GUIDE_STYLE_POINT",
        "guideLayer": "QUEST_GUIDE_LAYER_SCENE"
      },
      "finishExec": [],
      "failExec": [],
      "beginExec": []
    },
    {
      "mainId": 13011,
      "subId": 1301116,
      "order": 24,
      "descTextMapHash": 1989423316,
      "acceptCond": [
        {
          "type": "QUEST_COND_UNKNOWN",
          "param": [
            0,
            0
          ]
        }
      ],
      "finishCond": [],
      "failCond": [],
      "guide": {},
      "finishExec": [],
      "failExec": [],
      "beginExec": []
    },
    {
      "mainId": 13011,
      "subId": 1301117,
      "order": 25,
      "descTextMapHash": 3848789300,
      "acceptCond": [
        {
          "type": "QUEST_COND_UNKNOWN",
          "param": [
            0,
            0
          ]
        }
      ],
      "finishCond": [],
      "failCond": [],
      "guide": {
        "type": "QUEST_GUIDE_LOCATION",
        "param": [
          "Q1301109",
          "20"
        ],
        "guideScene": 3,
        "guideStyle": "QUEST_GUIDE_STYLE_POINT",
        "guideLayer": "QUEST_GUIDE_LAYER_SCENE"
      },
      "finishExec": [],
      "failExec": [],
      "beginExec": []
    },
    {
      "mainId": 13011,
      "subId": 1301118,
      "order": 26,
      "descTextMapHash": 3914397284,
      "acceptCond": [
        {
          "type": "QUEST_COND_UNKNOWN",
          "param": [
            0,
            0
          ]
        }
      ],
      "finishCond": [],
      "failCond": [],
      "guide": {
        "type": "QUEST_GUIDE_NPC",
        "param": [
          "1058"
        ],
        "guideScene": 3,
        "guideStyle": "QUEST_GUIDE_STYLE_TARGET",
        "guideLayer": "QUEST_GUIDE_LAYER_SCENE"
      },
      "finishExec": [],
      "failExec": [],
      "beginExec": []
    },
    {
      "mainId": 13011,
      "subId": 1301119,
      "order": 21,
      "descTextMapHash": 749615956,
      "acceptCond": [
        {
          "type": "QUEST_COND_UNKNOWN",
          "param": [
            0,
            0
          ]
        }
      ],
      "finishCond": [],
      "failCond": [],
      "guide": {},
      "finishExec": [],
      "failExec": [],
      "beginExec": []
    },
    {
      "mainId": 13011,
      "subId": 1301120,
      "order": 18,
      "descTextMapHash": 3220139492,
      "acceptCond": [
        {
          "type": "QUEST_COND_UNKNOWN",
          "param": [
            0,
            0
          ]
        }
      ],
      "finishCond": [],
      "failCond": [],
      "guide": {},
      "finishExec": [],
      "failExec": [],
      "beginExec": []
    },
    {
      "mainId": 13011,
      "subId": 1301121,
      "order": 6,
      "descTextMapHash": 1929895732,
      "acceptCond": [
        {
          "type": "QUEST_COND_UNKNOWN",
          "param": [
            0,
            0
          ]
        }
      ],
      "finishCond": [],
      "failCond": [],
      "guide": {
        "type": "QUEST_GUIDE_LOCATION",
        "param": [
          "Q1301103_N10000005",
          "30"
        ],
        "guideScene": 1078,
        "guideStyle": "QUEST_GUIDE_STYLE_POINT",
        "guideLayer": "QUEST_GUIDE_LAYER_SCENE"
      },
      "finishExec": [],
      "failExec": [],
      "beginExec": []
    },
    {
      "mainId": 13011,
      "subId": 1301122,
      "order": 7,
      "descTextMapHash": 717752540,
      "acceptCond": [
        {
          "type": "QUEST_COND_UNKNOWN",
          "param": [
            0,
            0
          ]
        }
      ],
      "finishCond": [],
      "failCond": [],
      "guide": {
        "type": "QUEST_GUIDE_LOCATION",
        "param": [
          "Q1301105_guide"
        ],
        "guideScene": 1078,
        "guideStyle": "QUEST_GUIDE_STYLE_POINT",
        "guideLayer": "QUEST_GUIDE_LAYER_SCENE"
      },
      "finishExec": [],
      "failExec": [],
      "beginExec": []
    },
    {
      "mainId": 13011,
      "subId": 1301123,
      "order": 2,
      "showType": "QUEST_HIDDEN",
      "acceptCond": [
        {
          "type": "QUEST_COND_UNKNOWN",
          "param": [
            0,
            0
          ]
        }
      ],
      "finishCond": [],
      "failCond": [],
      "guide": {},
      "finishExec": [],
      "failExec": [],
      "beginExec": []
    },
    {
      "mainId": 13011,
      "subId": 1301124,
      "order": 16,
      "descTextMapHash": 1760116308,
      "acceptCond": [
        {
          "type": "QUEST_COND_UNKNOWN",
          "param": [
            0,
            0
          ]
        }
      ],
      "finishCond": [],
      "failCond": [],
      "guide": {
        "type": "QUEST_GUIDE_LOCATION",
        "param": [
          "Q1301202"
        ],
        "guideScene": 3,
        "guideStyle": "QUEST_GUIDE_STYLE_POINT",
        "guideLayer": "QUEST_GUIDE_LAYER_SCENE"
      },
      "finishExec": [],
      "failExec": [],
      "beginExec": []
    },
    {
      "mainId": 13011,
      "subId": 1301125,
      "order": 17,
      "descTextMapHash": 3442813068,
      "acceptCond": [
        {
          "type": "QUEST_COND_UNKNOWN",
          "param": [
            0,
            0
          ]
        }
      ],
      "finishCond": [],
      "failCond": [],
      "guide": {},
      "finishExec": [],
      "failExec": [],
      "beginExec": []
    },
    {
      "mainId": 13011,
      "subId": 1301126,
      "order": 4,
      "showType": "QUEST_HIDDEN",
      "acceptCond": [
        {
          "type": "QUEST_COND_UNKNOWN",
          "param": [
            0,
            0
          ]
        }
      ],
      "finishCond": [],
      "failCond": [],
      "guide": {},
      "finishExec": [],
      "failExec": [],
      "beginExec": []
    }
  ],
  "talks": [
    {
      "id": 1301101,
      "beginWay": "TALK_BEGIN_MANUAL",
      "activeMode": "PLAY_MODE_SINGLE",
      "beginCondComb": "LOGIC_AND",
      "beginCond": [
        {
          "type": "QUEST_COND_STATE_EQUAL",
          "param": [
            "1301101",
            "2"
          ],
          "param_str": ""
        },
        {
          "type": "QUEST_COND_QUEST_GLOBAL_VAR_EQUAL",
          "param": [
            "302821",
            "0"
          ],
          "param_str": ""
        }
      ],
      "priority": 5,
      "initDialog": 130110101,
      "npcId": [
        12772
      ],
      "performCfg": "QuestDialogue/LQ/Cyno_13011/Q1301101",
      "heroTalk": "TALK_HERO_MAIN",
      "questId": 13011,
      "prePerformCfg": "",
      "finishExec": [
        {
          "type": "TALK_EXEC_SAVE_TALK_ID",
          "param": [
            "1301101"
          ],
          "param_str": ""
        }
      ]
    },
    {
      "id": 1301102,
      "beginWay": "TALK_BEGIN_MANUAL",
      "activeMode": "PLAY_MODE_SINGLE",
      "beginCond": [
        {
          "type": "QUEST_COND_STATE_EQUAL",
          "param": [
            "1301102",
            "2"
          ],
          "param_str": ""
        }
      ],
      "priority": 5,
      "initDialog": 130110201,
      "npcId": [
        12782
      ],
      "performCfg": "QuestDialogue/LQ/Cyno_13011/Q1301102",
      "heroTalk": "TALK_HERO_MAIN",
      "questId": 13011,
      "prePerformCfg": ""
    },
    {
      "id": 1301103,
      "beginWay": "TALK_BEGIN_MANUAL",
      "activeMode": "PLAY_MODE_SINGLE",
      "beginCond": [
        {
          "type": "QUEST_COND_STATE_EQUAL",
          "param": [
            "1301121",
            "2"
          ],
          "param_str": ""
        }
      ],
      "priority": 5,
      "initDialog": 130110301,
      "npcId": [
        12783
      ],
      "performCfg": "QuestDialogue/LQ/Cyno_13011/Q1301103",
      "heroTalk": "TALK_HERO_MAIN",
      "questId": 13011,
      "prePerformCfg": ""
    },
    {
      "id": 1301104,
      "beginWay": "TALK_BEGIN_MANUAL",
      "activeMode": "PLAY_MODE_SINGLE",
      "beginCond": [
        {
          "type": "QUEST_COND_STATE_EQUAL",
          "param": [
            "1301104",
            "2"
          ],
          "param_str": ""
        }
      ],
      "priority": 5,
      "initDialog": 130110401,
      "npcId": [
        12772,
        12784
      ],
      "performCfg": "QuestDialogue/LQ/Cyno_13011/Q1301104",
      "heroTalk": "TALK_HERO_MAIN",
      "questId": 13011,
      "prePerformCfg": ""
    },
    {
      "id": 1301105,
      "beginWay": "TALK_BEGIN_MANUAL",
      "activeMode": "PLAY_MODE_SINGLE",
      "beginCond": [
        {
          "type": "QUEST_COND_STATE_EQUAL",
          "param": [
            "1301105",
            "2"
          ],
          "param_str": ""
        }
      ],
      "priority": 5,
      "initDialog": 130110501,
      "npcId": [
        12772,
        12786
      ],
      "performCfg": "QuestDialogue/LQ/Cyno_13011/Q1301105",
      "heroTalk": "TALK_HERO_MAIN",
      "questId": 13011,
      "prePerformCfg": ""
    },
    {
      "id": 1301106,
      "beginWay": "TALK_BEGIN_MANUAL",
      "activeMode": "PLAY_MODE_SINGLE",
      "beginCond": [
        {
          "type": "QUEST_COND_STATE_EQUAL",
          "param": [
            "1301107",
            "2"
          ],
          "param_str": ""
        }
      ],
      "priority": 5,
      "initDialog": 130110601,
      "npcId": [
        12772,
        12785,
        12787
      ],
      "performCfg": "QuestDialogue/LQ/Cyno_13011/Q1301106",
      "heroTalk": "TALK_HERO_MAIN",
      "questId": 13011,
      "prePerformCfg": ""
    },
    {
      "id": 1301107,
      "beginWay": "TALK_BEGIN_MANUAL",
      "activeMode": "PLAY_MODE_SINGLE",
      "beginCond": [
        {
          "type": "QUEST_COND_STATE_EQUAL",
          "param": [
            "1301108",
            "2"
          ],
          "param_str": ""
        }
      ],
      "priority": 5,
      "initDialog": 130110701,
      "npcId": [
        12772
      ],
      "performCfg": "QuestDialogue/LQ/Cyno_13011/Q1301107",
      "heroTalk": "TALK_HERO_MAIN",
      "questId": 13011,
      "prePerformCfg": ""
    },
    {
      "id": 1301108,
      "beginWay": "TALK_BEGIN_MANUAL",
      "activeMode": "PLAY_MODE_SINGLE",
      "beginCond": [
        {
          "type": "QUEST_COND_STATE_EQUAL",
          "param": [
            "1301110",
            "2"
          ],
          "param_str": ""
        }
      ],
      "priority": 5,
      "initDialog": 130110801,
      "npcId": [
        1058
      ],
      "performCfg": "QuestDialogue/LQ/Cyno_13011/Q1301108",
      "heroTalk": "TALK_HERO_MAIN",
      "questId": 13011,
      "prePerformCfg": ""
    },
    {
      "id": 1301111,
      "beginWay": "TALK_BEGIN_MANUAL",
      "activeMode": "PLAY_MODE_SINGLE",
      "beginCond": [
        {
          "type": "QUEST_COND_STATE_EQUAL",
          "param": [
            "1301113",
            "2"
          ],
          "param_str": ""
        }
      ],
      "priority": 5,
      "initDialog": 130111101,
      "npcId": [
        1058,
        12788
      ],
      "performCfg": "QuestDialogue/LQ/Cyno_13011/Q1301111",
      "heroTalk": "TALK_HERO_MAIN",
      "questId": 13011,
      "prePerformCfg": ""
    },
    {
      "id": 1301112,
      "beginWay": "TALK_BEGIN_MANUAL",
      "activeMode": "PLAY_MODE_SINGLE",
      "beginCond": [
        {
          "type": "QUEST_COND_STATE_EQUAL",
          "param": [
            "1301114",
            "2"
          ],
          "param_str": ""
        }
      ],
      "priority": 5,
      "initDialog": 130111201,
      "npcId": [
        1058,
        12788
      ],
      "performCfg": "QuestDialogue/LQ/Cyno_13011/Q1301112",
      "heroTalk": "TALK_HERO_MAIN",
      "questId": 13011,
      "prePerformCfg": ""
    },
    {
      "id": 1301113,
      "beginWay": "TALK_BEGIN_MANUAL",
      "activeMode": "PLAY_MODE_SINGLE",
      "beginCond": [
        {
          "type": "QUEST_COND_STATE_EQUAL",
          "param": [
            "1301115",
            "2"
          ],
          "param_str": ""
        }
      ],
      "priority": 5,
      "initDialog": 130111301,
      "npcId": [
        1058
      ],
      "performCfg": "QuestDialogue/LQ/Cyno_13011/Q1301113",
      "heroTalk": "TALK_HERO_MAIN",
      "questId": 13011,
      "prePerformCfg": ""
    },
    {
      "id": 1301114,
      "beginWay": "TALK_BEGIN_MANUAL",
      "activeMode": "PLAY_MODE_SINGLE",
      "beginCondComb": "LOGIC_AND",
      "beginCond": [
        {
          "type": "QUEST_COND_STATE_EQUAL",
          "param": [
            "1301117",
            "2"
          ],
          "param_str": ""
        },
        {
          "type": "QUEST_COND_QUEST_GLOBAL_VAR_EQUAL",
          "param": [
            "302821",
            "0"
          ],
          "param_str": ""
        }
      ],
      "priority": 5,
      "initDialog": 130111401,
      "npcId": [
        12772
      ],
      "performCfg": "QuestDialogue/LQ/Cyno_13011/Q1301114",
      "heroTalk": "TALK_HERO_MAIN",
      "questId": 13011,
      "prePerformCfg": "",
      "finishExec": [
        {
          "type": "TALK_EXEC_SAVE_TALK_ID",
          "param": [
            "1301114"
          ],
          "param_str": ""
        }
      ]
    },
    {
      "id": 1301115,
      "beginWay": "TALK_BEGIN_MANUAL",
      "activeMode": "PLAY_MODE_SINGLE",
      "beginCondComb": "LOGIC_AND",
      "beginCond": [
        {
          "type": "QUEST_COND_STATE_EQUAL",
          "param": [
            "1301118",
            "2"
          ],
          "param_str": ""
        },
        {
          "type": "QUEST_COND_QUEST_GLOBAL_VAR_EQUAL",
          "param": [
            "302821",
            "0"
          ],
          "param_str": ""
        }
      ],
      "priority": 5,
      "initDialog": 130111501,
      "npcId": [
        1058,
        1050
      ],
      "performCfg": "QuestDialogue/LQ/Cyno_13011/Q1301115",
      "heroTalk": "TALK_HERO_MAIN",
      "questId": 13011,
      "prePerformCfg": "",
      "finishExec": [
        {
          "type": "TALK_EXEC_SAVE_TALK_ID",
          "param": [
            "1301115"
          ],
          "param_str": ""
        }
      ]
    },
    {
      "id": 1301121,
      "beginWay": "TALK_BEGIN_MANUAL",
      "activeMode": "PLAY_MODE_SINGLE",
      "beginCond": [
        {
          "type": "QUEST_COND_STATE_EQUAL",
          "param": [
            "1301122",
            "2"
          ],
          "param_str": ""
        }
      ],
      "priority": 5,
      "npcId": [
        12783
      ],
      "performCfg": "QuestDialogue/LQ/Cyno_13011/Q1301121",
      "heroTalk": "TALK_HERO_MAIN",
      "questId": 13011,
      "prePerformCfg": ""
    },
    {
      "id": 1301122,
      "beginWay": "TALK_BEGIN_MANUAL",
      "activeMode": "PLAY_MODE_SINGLE",
      "beginCond": [
        {
          "type": "QUEST_COND_STATE_EQUAL",
          "param": [
            "1301121",
            "2"
          ],
          "param_str": ""
        }
      ],
      "priority": 5,
      "initDialog": 130112201,
      "npcId": [
        12782
      ],
      "performCfg": "QuestDialogue/LQ/Cyno_13011/Q1301122",
      "heroTalk": "TALK_HERO_MAIN",
      "questId": 13011,
      "prePerformCfg": ""
    },
    {
      "id": 1301123,
      "beginWay": "TALK_BEGIN_MANUAL",
      "activeMode": "PLAY_MODE_SINGLE",
      "beginCondComb": "LOGIC_A_AND_ETCOR",
      "beginCond": [
        {
          "type": "QUEST_COND_STATE_EQUAL",
          "param": [
            "1301104",
            "3"
          ],
          "param_str": ""
        },
        {
          "type": "QUEST_COND_STATE_EQUAL",
          "param": [
            "1301106",
            "2"
          ],
          "param_str": ""
        },
        {
          "type": "QUEST_COND_STATE_EQUAL",
          "param": [
            "1301107",
            "2"
          ],
          "param_str": ""
        }
      ],
      "priority": 5,
      "initDialog": 130112301,
      "npcId": [
        12784
      ],
      "performCfg": "QuestDialogue/LQ/Cyno_13011/Q1301123",
      "heroTalk": "TALK_HERO_MAIN",
      "questId": 13011,
      "prePerformCfg": ""
    },
    {
      "id": 1301124,
      "beginWay": "TALK_BEGIN_MANUAL",
      "activeMode": "PLAY_MODE_SINGLE",
      "beginCondComb": "LOGIC_A_AND_ETCOR",
      "beginCond": [
        {
          "type": "QUEST_COND_STATE_EQUAL",
          "param": [
            "1301105",
            "3"
          ],
          "param_str": ""
        },
        {
          "type": "QUEST_COND_STATE_EQUAL",
          "param": [
            "1301106",
            "2"
          ],
          "param_str": ""
        },
        {
          "type": "QUEST_COND_STATE_EQUAL",
          "param": [
            "1301107",
            "2"
          ],
          "param_str": ""
        }
      ],
      "priority": 5,
      "initDialog": 130112401,
      "npcId": [
        12786
      ],
      "performCfg": "QuestDialogue/LQ/Cyno_13011/Q1301124",
      "heroTalk": "TALK_HERO_MAIN",
      "questId": 13011,
      "prePerformCfg": ""
    },
    {
      "id": 1301125,
      "beginWay": "TALK_BEGIN_MANUAL",
      "activeMode": "PLAY_MODE_SINGLE",
      "beginCond": [
        {
          "type": "QUEST_COND_STATE_EQUAL",
          "param": [
            "1301108",
            "2"
          ],
          "param_str": ""
        }
      ],
      "priority": 5,
      "initDialog": 130112501,
      "npcId": [
        12785
      ],
      "performCfg": "QuestDialogue/LQ/Cyno_13011/Q1301125",
      "heroTalk": "TALK_HERO_MAIN",
      "questId": 13011,
      "prePerformCfg": ""
    },
    {
      "id": 1301126,
      "beginWay": "TALK_BEGIN_MANUAL",
      "activeMode": "PLAY_MODE_SINGLE",
      "beginCond": [
        {
          "type": "QUEST_COND_STATE_EQUAL",
          "param": [
            "1301123",
            "2"
          ],
          "param_str": ""
        }
      ],
      "priority": 5,
      "initDialog": 130112601,
      "npcId": [
        12781
      ],
      "performCfg": "QuestDialogue/LQ/Cyno_13011/Q1301126",
      "heroTalk": "TALK_HERO_MAIN",
      "questId": 13011,
      "prePerformCfg": ""
    },
    {
      "id": 1301127,
      "beginWay": "TALK_BEGIN_MANUAL",
      "activeMode": "PLAY_MODE_SINGLE",
      "beginCond": [
        {
          "type": "QUEST_COND_STATE_EQUAL",
          "param": [
            "1301123",
            "2"
          ],
          "param_str": ""
        }
      ],
      "priority": 5,
      "initDialog": 130112701,
      "npcId": [
        12780,
        1058
      ],
      "performCfg": "QuestDialogue/LQ/Cyno_13011/Q1301127",
      "heroTalk": "TALK_HERO_MAIN",
      "questId": 13011,
      "prePerformCfg": ""
    },
    {
      "id": 1301128,
      "beginWay": "TALK_BEGIN_MANUAL",
      "activeMode": "PLAY_MODE_SINGLE",
      "beginCond": [
        {
          "type": "QUEST_COND_STATE_EQUAL",
          "param": [
            "1301122",
            "2"
          ],
          "param_str": ""
        }
      ],
      "priority": 5,
      "initDialog": 130112801,
      "npcId": [
        12782
      ],
      "performCfg": "QuestDialogue/LQ/Cyno_13011/Q1301128",
      "heroTalk": "TALK_HERO_MAIN",
      "questId": 13011,
      "prePerformCfg": ""
    },
    {
      "id": 1301129,
      "beginWay": "TALK_BEGIN_MANUAL",
      "activeMode": "PLAY_MODE_SINGLE",
      "beginCond": [
        {
          "type": "QUEST_COND_STATE_EQUAL",
          "param": [
            "1301108",
            "2"
          ],
          "param_str": ""
        }
      ],
      "priority": 5,
      "initDialog": 130112901,
      "npcId": [
        12787
      ],
      "performCfg": "QuestDialogue/LQ/Cyno_13011/Q1301129",
      "heroTalk": "TALK_HERO_MAIN",
      "questId": 13011,
      "prePerformCfg": ""
    },
    {
      "id": 1301130,
      "beginWay": "TALK_BEGIN_MANUAL",
      "activeMode": "PLAY_MODE_SINGLE",
      "beginCond": [
        {
          "type": "QUEST_COND_STATE_EQUAL",
          "param": [
            "1301103",
            "2"
          ],
          "param_str": ""
        }
      ],
      "priority": 5,
      "initDialog": 130113001,
      "npcId": [
        12772,
        12782
      ],
      "performCfg": "QuestDialogue/LQ/Cyno_13011/Q1301130",
      "heroTalk": "TALK_HERO_MAIN",
      "questId": 13011,
      "prePerformCfg": ""
    },
    {
      "id": 1301131,
      "beginWay": "TALK_BEGIN_MANUAL",
      "activeMode": "PLAY_MODE_SINGLE",
      "beginCond": [
        {
          "type": "QUEST_COND_STATE_EQUAL",
          "param": [
            "1301120",
            "2"
          ],
          "param_str": ""
        }
      ],
      "priority": 5,
      "npcId": [
        1058
      ],
      "performCfg": "QuestDialogue/LQ/Cyno_13011/Q1301131",
      "heroTalk": "TALK_HERO_MAIN",
      "questId": 13011,
      "prePerformCfg": ""
    },
    {
      "id": 1301132,
      "beginWay": "TALK_BEGIN_MANUAL",
      "activeMode": "PLAY_MODE_SINGLE",
      "beginCond": [
        {
          "type": "QUEST_COND_STATE_EQUAL",
          "param": [
            "1301110",
            "2"
          ],
          "param_str": ""
        }
      ],
      "priority": 5,
      "initDialog": 130110720,
      "npcId": [
        12772
      ],
      "performCfg": "QuestDialogue/LQ/Cyno_13011/Q1301132",
      "heroTalk": "TALK_HERO_MAIN",
      "questId": 13011,
      "prePerformCfg": ""
    },
    {
      "id": 1301133,
      "beginWay": "TALK_BEGIN_MANUAL",
      "activeMode": "PLAY_MODE_SINGLE",
      "beginCondComb": "LOGIC_OR",
      "beginCond": [
        {
          "type": "QUEST_COND_STATE_EQUAL",
          "param": [
            "1301122",
            "2"
          ],
          "param_str": ""
        },
        {
          "type": "QUEST_COND_STATE_EQUAL",
          "param": [
            "1301121",
            "2"
          ],
          "param_str": ""
        }
      ],
      "priority": 5,
      "initDialog": 130113301,
      "npcId": [
        12799
      ],
      "performCfg": "",
      "heroTalk": "TALK_HERO_MAIN",
      "questId": 13011,
      "prePerformCfg": ""
    },
    {
      "id": 1301134,
      "beginWay": "TALK_BEGIN_MANUAL",
      "activeMode": "PLAY_MODE_SINGLE",
      "beginCondComb": "LOGIC_OR",
      "beginCond": [
        {
          "type": "QUEST_COND_STATE_EQUAL",
          "param": [
            "1301122",
            "2"
          ],
          "param_str": ""
        },
        {
          "type": "QUEST_COND_STATE_EQUAL",
          "param": [
            "1301121",
            "2"
          ],
          "param_str": ""
        }
      ],
      "priority": 5,
      "initDialog": 130113401,
      "npcId": [
        12800
      ],
      "performCfg": "",
      "heroTalk": "TALK_HERO_MAIN",
      "questId": 13011,
      "prePerformCfg": ""
    },
    {
      "id": 1301141,
      "beginWay": "TALK_BEGIN_MANUAL",
      "activeMode": "PLAY_MODE_SINGLE",
      "beginCondComb": "LOGIC_AND",
      "beginCond": [
        {
          "type": "QUEST_COND_STATE_EQUAL",
          "param": [
            "1301101",
            "2"
          ],
          "param_str": ""
        },
        {
          "type": "QUEST_COND_QUEST_GLOBAL_VAR_EQUAL",
          "param": [
            "302821",
            "1"
          ],
          "param_str": ""
        }
      ],
      "priority": 5,
      "initDialog": 130114101,
      "npcId": [
        12772
      ],
      "performCfg": "QuestDialogue/LQ/Cyno_13011/Q1301141",
      "heroTalk": "TALK_HERO_MAIN",
      "questId": 13011,
      "prePerformCfg": "",
      "finishExec": [
        {
          "type": "TALK_EXEC_SAVE_TALK_ID",
          "param": [
            "1301141"
          ],
          "param_str": ""
        }
      ]
    },
    {
      "id": 1301142,
      "beginWay": "TALK_BEGIN_MANUAL",
      "activeMode": "PLAY_MODE_SINGLE",
      "beginCondComb": "LOGIC_AND",
      "beginCond": [
        {
          "type": "QUEST_COND_STATE_EQUAL",
          "param": [
            "1301117",
            "2"
          ],
          "param_str": ""
        },
        {
          "type": "QUEST_COND_QUEST_GLOBAL_VAR_EQUAL",
          "param": [
            "302821",
            "1"
          ],
          "param_str": ""
        }
      ],
      "priority": 5,
      "initDialog": 130114201,
      "npcId": [
        12772
      ],
      "performCfg": "QuestDialogue/LQ/Cyno_13011/Q1301142",
      "heroTalk": "TALK_HERO_MAIN",
      "questId": 13011,
      "prePerformCfg": "",
      "finishExec": [
        {
          "type": "TALK_EXEC_SAVE_TALK_ID",
          "param": [
            "1301142"
          ],
          "param_str": ""
        }
      ]
    },
    {
      "id": 1301143,
      "beginWay": "TALK_BEGIN_MANUAL",
      "activeMode": "PLAY_MODE_SINGLE",
      "beginCondComb": "LOGIC_AND",
      "beginCond": [
        {
          "type": "QUEST_COND_STATE_EQUAL",
          "param": [
            "1301118",
            "2"
          ],
          "param_str": ""
        },
        {
          "type": "QUEST_COND_QUEST_GLOBAL_VAR_EQUAL",
          "param": [
            "302821",
            "1"
          ],
          "param_str": ""
        }
      ],
      "priority": 5,
      "initDialog": 130114301,
      "npcId": [
        1050,
        1058
      ],
      "performCfg": "QuestDialogue/LQ/Cyno_13011/Q1301143",
      "heroTalk": "TALK_HERO_MAIN",
      "questId": 13011,
      "prePerformCfg": "",
      "finishExec": [
        {
          "type": "TALK_EXEC_SAVE_TALK_ID",
          "param": [
            "1301143"
          ],
          "param_str": ""
        }
      ]
    }
  ]
}