{
  "id": 13014,
  "type": "LQ",
  "series": 2034,
  "titleTextMapHash": 1832599599,
  "descTextMapHash": 2575099054,
  "luaPath": "Actor/Quest/LQ13014",
  "suggestTrackMainQuestList": [
    13015
  ],
  "rewardIdList": [
    113014
  ],
  "chapterId": 2034,
  "subQuests": [
    {
      "mainId": 13014,
      "subId": 1301401,
      "order": 1,
      "descTextMapHash": 2548163916,
      "acceptCond": [
        {
          "type": "QUEST_COND_UNKNOWN",
          "param": [
            0,
            0
          ]
        }
      ],
      "finishCond": [],
      "failCond": [],
      "guide": {
        "type": "QUEST_GUIDE_LOCATION",
        "autoGuide": "QUEST_GUIDE_AUTO_ENABLE",
        "param": [
          "Q13014MemberBEventB",
          "40"
        ],
        "guideScene": 3,
        "guideStyle": "QUEST_GUIDE_STYLE_TARGET",
        "guideLayer": "QUEST_GUIDE_LAYER_SCENE"
      },
      "finishExec": [],
      "failExec": [],
      "beginExec": []
    },
    {
      "mainId": 13014,
      "subId": 1301402,
      "order": 3,
      "descTextMapHash": 2665913332,
      "acceptCond": [
        {
          "type": "QUEST_COND_UNKNOWN",
          "param": [
            0,
            0
          ]
        }
      ],
      "finishCond": [],
      "failCond": [],
      "guide": {
        "type": "QUEST_GUIDE_LOCATION",
        "autoGuide": "QUEST_GUIDE_AUTO_ENABLE",
        "param": [
          "Q13014MemberBEventB",
          "40"
        ],
        "guideScene": 3,
        "guideStyle": "QUEST_GUIDE_STYLE_TARGET",
        "guideLayer": "QUEST_GUIDE_LAYER_SCENE"
      },
      "finishExec": [],
      "failExec": [],
      "beginExec": []
    },
    {
      "mainId": 13014,
      "subId": 1301403,
      "order": 4,
      "descTextMapHash": 3000142948,
      "acceptCond": [
        {
          "type": "QUEST_COND_UNKNOWN",
          "param": [
            0,
            0
          ]
        }
      ],
      "finishCond": [],
      "failCond": [],
      "guide": {
        "type": "QUEST_GUIDE_NPC",
        "autoGuide": "QUEST_GUIDE_AUTO_ENABLE",
        "param": [
          "12841"
        ],
        "guideScene": 3,
        "guideStyle": "QUEST_GUIDE_STYLE_TARGET",
        "guideLayer": "QUEST_GUIDE_LAYER_SCENE"
      },
      "finishExec": [],
      "failExec": [],
      "beginExec": []
    },
    {
      "mainId": 13014,
      "subId": 1301404,
      "order": 5,
      "descTextMapHash": 3415132156,
      "acceptCond": [
        {
          "type": "QUEST_COND_UNKNOWN",
          "param": [
            0,
            0
          ]
        }
      ],
      "finishCond": [],
      "failCond": [],
      "guide": {
        "type": "QUEST_GUIDE_LOCATION",
        "autoGuide": "QUEST_GUIDE_AUTO_ENABLE",
        "param": [
          "Q13013BasePos",
          "20"
        ],
        "guideScene": 3,
        "guideStyle": "QUEST_GUIDE_STYLE_TARGET",
        "guideLayer": "QUEST_GUIDE_LAYER_SCENE"
      },
      "finishExec": [],
      "failExec": [],
      "beginExec": []
    },
    {
      "mainId": 13014,
      "subId": 1301405,
      "order": 8,
      "descTextMapHash": 3645136596,
      "acceptCond": [
        {
          "type": "QUEST_COND_UNKNOWN",
          "param": [
            0,
            0
          ]
        }
      ],
      "finishCond": [],
      "failCond": [],
      "guide": {
        "type": "QUEST_GUIDE_LOCATION",
        "autoGuide": "QUEST_GUIDE_AUTO_ENABLE",
        "param": [
          "Q13013BasePos",
          "20"
        ],
        "guideScene": 3,
        "guideStyle": "QUEST_GUIDE_STYLE_TARGET",
        "guideLayer": "QUEST_GUIDE_LAYER_SCENE"
      },
      "finishExec": [],
      "failExec": [],
      "beginExec": []
    },
    {
      "mainId": 13014,
      "subId": 1301406,
      "order": 9,
      "descTextMapHash": 1945739636,
      "acceptCond": [
        {
          "type": "QUEST_COND_UNKNOWN",
          "param": [
            0,
            0
          ]
        }
      ],
      "finishCond": [],
      "failCond": [],
      "guide": {
        "type": "QUEST_GUIDE_LOCATION",
        "autoGuide": "QUEST_GUIDE_AUTO_ENABLE",
        "param": [
          "Q13014Area1Player"
        ],
        "guideScene": 20165,
        "guideStyle": "QUEST_GUIDE_STYLE_POINT",
        "guideLayer": "QUEST_GUIDE_LAYER_SCENE"
      },
      "finishExec": [],
      "failExec": [],
      "beginExec": []
    },
    {
      "mainId": 13014,
      "subId": 1301407,
      "order": 10,
      "descTextMapHash": 2866064708,
      "acceptCond": [
        {
          "type": "QUEST_COND_UNKNOWN",
          "param": [
            0,
            0
          ]
        }
      ],
      "finishCond": [],
      "failCond": [],
      "guide": {
        "type": "QUEST_GUIDE_LOCATION",
        "guideScene": 20165,
        "guideLayer": "QUEST_GUIDE_LAYER_SCENE"
      },
      "finishExec": [],
      "failExec": [],
      "beginExec": []
    },
    {
      "mainId": 13014,
      "subId": 1301408,
      "order": 11,
      "descTextMapHash": 2804510124,
      "acceptCond": [
        {
          "type": "QUEST_COND_UNKNOWN",
          "param": [
            0,
            0
          ]
        }
      ],
      "finishCond": [],
      "failCond": [],
      "guide": {
        "type": "QUEST_GUIDE_LOCATION",
        "autoGuide": "QUEST_GUIDE_AUTO_ENABLE",
        "param": [
          "Q13014Area2Nahida"
        ],
        "guideScene": 20165,
        "guideStyle": "QUEST_GUIDE_STYLE_POINT",
        "guideLayer": "QUEST_GUIDE_LAYER_SCENE"
      },
      "finishExec": [],
      "failExec": [],
      "beginExec": []
    },
    {
      "mainId": 13014,
      "subId": 1301409,
      "order": 12,
      "descTextMapHash": 1880714012,
      "acceptCond": [
        {
          "type": "QUEST_COND_UNKNOWN",
          "param": [
            0,
            0
          ]
        }
      ],
      "finishCond": [],
      "failCond": [],
      "guide": {
        "guideScene": 20165,
        "guideLayer": "QUEST_GUIDE_LAYER_SCENE"
      },
      "finishExec": [],
      "failExec": [],
      "beginExec": []
    },
    {
      "mainId": 13014,
      "subId": 1301410,
      "order": 17,
      "descTextMapHash": 3892950196,
      "acceptCond": [
        {
          "type": "QUEST_COND_UNKNOWN",
          "param": [
            0,
            0
          ]
        }
      ],
      "finishCond": [],
      "failCond": [],
      "guide": {
        "guideScene": 20165,
        "guideLayer": "QUEST_GUIDE_LAYER_SCENE"
      },
      "finishExec": [],
      "failExec": [],
      "beginExec": []
    },
    {
      "mainId": 13014,
      "subId": 1301411,
      "order": 18,
      "descTextMapHash": 1575041284,
      "acceptCond": [
        {
          "type": "QUEST_COND_UNKNOWN",
          "param": [
            0,
            0
          ]
        }
      ],
      "finishCond": [],
      "failCond": [],
      "guide": {
        "type": "QUEST_GUIDE_LOCATION",
        "autoGuide": "QUEST_GUIDE_AUTO_ENABLE",
        "param": [
          "Q13014DungeonArea4Start"
        ],
        "guideScene": 20165,
        "guideStyle": "QUEST_GUIDE_STYLE_POINT",
        "guideLayer": "QUEST_GUIDE_LAYER_SCENE"
      },
      "finishExec": [],
      "failExec": [],
      "beginExec": []
    },
    {
      "mainId": 13014,
      "subId": 1301412,
      "order": 19,
      "descTextMapHash": 3460636396,
      "acceptCond": [
        {
          "type": "QUEST_COND_UNKNOWN",
          "param": [
            0,
            0
          ]
        }
      ],
      "finishCond": [],
      "failCond": [],
      "guide": {
        "type": "QUEST_GUIDE_LOCATION",
        "autoGuide": "QUEST_GUIDE_AUTO_ENABLE",
        "param": [
          "Q13014Area4Ilman",
          "30"
        ],
        "guideScene": 20165,
        "guideStyle": "QUEST_GUIDE_STYLE_TARGET",
        "guideLayer": "QUEST_GUIDE_LAYER_SCENE"
      },
      "finishExec": [],
      "failExec": [],
      "beginExec": []
    },
    {
      "mainId": 13014,
      "subId": 1301413,
      "order": 22,
      "descTextMapHash": 2482211748,
      "acceptCond": [
        {
          "type": "QUEST_COND_UNKNOWN",
          "param": [
            0,
            0
          ]
        }
      ],
      "finishCond": [],
      "failCond": [],
      "guide": {
        "guideScene": 20165,
        "guideLayer": "QUEST_GUIDE_LAYER_SCENE"
      },
      "finishExec": [],
      "failExec": [],
      "beginExec": []
    },
    {
      "mainId": 13014,
      "subId": 1301414,
      "order": 24,
      "descTextMapHash": 352821596,
      "acceptCond": [
        {
          "type": "QUEST_COND_UNKNOWN",
          "param": [
            0,
            0
          ]
        }
      ],
      "finishCond": [],
      "failCond": [],
      "guide": {
        "guideScene": 20165,
        "guideLayer": "QUEST_GUIDE_LAYER_SCENE"
      },
      "finishExec": [],
      "failExec": [],
      "beginExec": []
    },
    {
      "mainId": 13014,
      "subId": 1301415,
      "order": 26,
      "descTextMapHash": 2641839788,
      "acceptCond": [
        {
          "type": "QUEST_COND_UNKNOWN",
          "param": [
            0,
            0
          ]
        }
      ],
      "finishCond": [],
      "failCond": [],
      "guide": {
        "type": "QUEST_GUIDE_LOCATION",
        "autoGuide": "QUEST_GUIDE_AUTO_ENABLE",
        "param": [
          "Q13014Area6Talk5Nahida",
          "30"
        ],
        "guideScene": 20165,
        "guideStyle": "QUEST_GUIDE_STYLE_TARGET",
        "guideLayer": "QUEST_GUIDE_LAYER_SCENE"
      },
      "finishExec": [],
      "failExec": [],
      "beginExec": []
    },
    {
      "mainId": 13014,
      "subId": 1301416,
      "order": 27,
      "descTextMapHash": 4070254636,
      "acceptCond": [
        {
          "type": "QUEST_COND_UNKNOWN",
          "param": [
            0,
            0
          ]
        }
      ],
      "finishCond": [],
      "failCond": [],
      "guide": {
        "type": "QUEST_GUIDE_LOCATION",
        "autoGuide": "QUEST_GUIDE_AUTO_ENABLE",
        "param": [
          "Q13014Area6Talk5Nahida"
        ],
        "guideScene": 20165,
        "guideStyle": "QUEST_GUIDE_STYLE_POINT",
        "guideLayer": "QUEST_GUIDE_LAYER_SCENE"
      },
      "finishExec": [],
      "failExec": [],
      "beginExec": []
    },
    {
      "mainId": 13014,
      "subId": 1301417,
      "order": 28,
      "descTextMapHash": 696149156,
      "acceptCond": [
        {
          "type": "QUEST_COND_UNKNOWN",
          "param": [
            0,
            0
          ]
        }
      ],
      "finishCond": [],
      "failCond": [],
      "guide": {
        "type": "QUEST_GUIDE_LOCATION",
        "autoGuide": "QUEST_GUIDE_AUTO_ENABLE",
        "param": [
          "Q13014Area6Talk1Nahida",
          "30"
        ],
        "guideScene": 20165,
        "guideStyle": "QUEST_GUIDE_STYLE_TARGET",
        "guideLayer": "QUEST_GUIDE_LAYER_SCENE"
      },
      "finishExec": [],
      "failExec": [],
      "beginExec": []
    },
    {
      "mainId": 13014,
      "subId": 1301418,
      "order": 29,
      "descTextMapHash": 4181844740,
      "acceptCond": [
        {
          "type": "QUEST_COND_UNKNOWN",
          "param": [
            0,
            0
          ]
        }
      ],
      "finishCond": [],
      "failCond": [],
      "guide": {
        "type": "QUEST_GUIDE_LOCATION",
        "autoGuide": "QUEST_GUIDE_AUTO_ENABLE",
        "param": [
          "Q13014Area6Talk1Nahida"
        ],
        "guideScene": 20165,
        "guideStyle": "QUEST_GUIDE_STYLE_POINT",
        "guideLayer": "QUEST_GUIDE_LAYER_SCENE"
      },
      "finishExec": [],
      "failExec": [],
      "beginExec": []
    },
    {
      "mainId": 13014,
      "subId": 1301419,
      "order": 30,
      "descTextMapHash": 3175066164,
      "acceptCond": [
        {
          "type": "QUEST_COND_UNKNOWN",
          "param": [
            0,
            0
          ]
        }
      ],
      "finishCond": [],
      "failCond": [],
      "guide": {
        "type": "QUEST_GUIDE_LOCATION",
        "autoGuide": "QUEST_GUIDE_AUTO_ENABLE",
        "param": [
          "Q13013BaseManager"
        ],
        "guideScene": 3,
        "guideStyle": "QUEST_GUIDE_STYLE_POINT",
        "guideLayer": "QUEST_GUIDE_LAYER_SCENE"
      },
      "finishExec": [],
      "failExec": [],
      "beginExec": []
    },
    {
      "mainId": 13014,
      "subId": 1301420,
      "order": 16,
      "descTextMapHash": 3247747972,
      "acceptCond": [
        {
          "type": "QUEST_COND_UNKNOWN",
          "param": [
            0,
            0
          ]
        }
      ],
      "finishCond": [],
      "failCond": [],
      "guide": {
        "guideScene": 20165,
        "guideLayer": "QUEST_GUIDE_LAYER_SCENE"
      },
      "finishExec": [],
      "failExec": [],
      "beginExec": []
    },
    {
      "mainId": 13014,
      "subId": 1301421,
      "order": 21,
      "descTextMapHash": 47980572,
      "acceptCond": [
        {
          "type": "QUEST_COND_UNKNOWN",
          "param": [
            0,
            0
          ]
        }
      ],
      "finishCond": [],
      "failCond": [],
      "guide": {
        "type": "QUEST_GUIDE_LOCATION",
        "autoGuide": "QUEST_GUIDE_AUTO_ENABLE",
        "param": [
          "Q13014DungeonArea15Start"
        ],
        "guideScene": 20165,
        "guideStyle": "QUEST_GUIDE_STYLE_POINT",
        "guideLayer": "QUEST_GUIDE_LAYER_SCENE"
      },
      "finishExec": [],
      "failExec": [],
      "beginExec": []
    },
    {
      "mainId": 13014,
      "subId": 1301422,
      "order": 23,
      "descTextMapHash": 356960364,
      "acceptCond": [
        {
          "type": "QUEST_COND_UNKNOWN",
          "param": [
            0,
            0
          ]
        }
      ],
      "finishCond": [],
      "failCond": [],
      "guide": {
        "type": "QUEST_GUIDE_LOCATION",
        "autoGuide": "QUEST_GUIDE_AUTO_ENABLE",
        "param": [
          "Q13014DungeonArea6Start"
        ],
        "guideScene": 20165,
        "guideStyle": "QUEST_GUIDE_STYLE_POINT",
        "guideLayer": "QUEST_GUIDE_LAYER_SCENE"
      },
      "finishExec": [],
      "failExec": [],
      "beginExec": []
    },
    {
      "mainId": 13014,
      "subId": 1301423,
      "order": 6,
      "descTextMapHash": 2332900596,
      "acceptCond": [
        {
          "type": "QUEST_COND_UNKNOWN",
          "param": [
            0,
            0
          ]
        }
      ],
      "finishCond": [],
      "failCond": [],
      "guide": {
        "type": "QUEST_GUIDE_LOCATION",
        "autoGuide": "QUEST_GUIDE_AUTO_ENABLE",
        "param": [
          "Q13013BasePos",
          "20"
        ],
        "guideScene": 3,
        "guideStyle": "QUEST_GUIDE_STYLE_TARGET",
        "guideLayer": "QUEST_GUIDE_LAYER_SCENE"
      },
      "finishExec": [],
      "failExec": [],
      "beginExec": []
    },
    {
      "mainId": 13014,
      "subId": 1301424,
      "order": 7,
      "descTextMapHash": 4122367724,
      "acceptCond": [
        {
          "type": "QUEST_COND_UNKNOWN",
          "param": [
            0,
            0
          ]
        }
      ],
      "finishCond": [],
      "failCond": [],
      "guide": {
        "type": "QUEST_GUIDE_LOCATION",
        "autoGuide": "QUEST_GUIDE_AUTO_ENABLE",
        "param": [
          "Q13013BasePos",
          "20"
        ],
        "guideScene": 3,
        "guideStyle": "QUEST_GUIDE_STYLE_TARGET",
        "guideLayer": "QUEST_GUIDE_LAYER_SCENE"
      },
      "finishExec": [],
      "failExec": [],
      "beginExec": []
    },
    {
      "mainId": 13014,
      "subId": 1301425,
      "order": 14,
      "descTextMapHash": 3721569588,
      "acceptCond": [
        {
          "type": "QUEST_COND_UNKNOWN",
          "param": [
            0,
            0
          ]
        }
      ],
      "finishCond": [],
      "failCond": [],
      "guide": {
        "type": "QUEST_GUIDE_LOCATION",
        "autoGuide": "QUEST_GUIDE_AUTO_ENABLE",
        "param": [
          "Q13014Area2Deby",
          "25"
        ],
        "guideScene": 20165,
        "guideStyle": "QUEST_GUIDE_STYLE_TARGET",
        "guideLayer": "QUEST_GUIDE_LAYER_SCENE"
      },
      "finishExec": [],
      "failExec": [],
      "beginExec": []
    },
    {
      "mainId": 13014,
      "subId": 1301426,
      "order": 25,
      "descTextMapHash": 3209786444,
      "acceptCond": [
        {
          "type": "QUEST_COND_UNKNOWN",
          "param": [
            0,
            0
          ]
        }
      ],
      "finishCond": [],
      "failCond": [],
      "guide": {
        "type": "QUEST_GUIDE_NPC",
        "autoGuide": "QUEST_GUIDE_AUTO_ENABLE",
        "param": [
          "12848"
        ],
        "guideScene": 20165,
        "guideStyle": "QUEST_GUIDE_STYLE_TARGET",
        "guideLayer": "QUEST_GUIDE_LAYER_SCENE"
      },
      "finishExec": [],
      "failExec": [],
      "beginExec": []
    },
    {
      "mainId": 13014,
      "subId": 1301427,
      "order": 2,
      "showType": "QUEST_HIDDEN",
      "descTextMapHash": 1543629436,
      "acceptCond": [
        {
          "type": "QUEST_COND_UNKNOWN",
          "param": [
            0,
            0
          ]
        }
      ],
      "finishCond": [],
      "failCond": [],
      "guide": {
        "guideScene": 3,
        "guideLayer": "QUEST_GUIDE_LAYER_SCENE"
      },
      "finishExec": [],
      "failExec": [],
      "beginExec": []
    },
    {
      "mainId": 13014,
      "subId": 1301428,
      "order": 15,
      "descTextMapHash": 3851109460,
      "acceptCond": [
        {
          "type": "QUEST_COND_UNKNOWN",
          "param": [
            0,
            0
          ]
        }
      ],
      "finishCond": [],
      "failCond": [],
      "guide": {
        "guideScene": 20165,
        "guideLayer": "QUEST_GUIDE_LAYER_SCENE"
      },
      "finishExec": [],
      "failExec": [],
      "beginExec": []
    },
    {
      "mainId": 13014,
      "subId": 1301429,
      "order": 20,
      "descTextMapHash": 3983168956,
      "acceptCond": [
        {
          "type": "QUEST_COND_UNKNOWN",
          "param": [
            0,
            0
          ]
        }
      ],
      "finishCond": [],
      "failCond": [],
      "guide": {
        "guideScene": 20165
      },
      "finishExec": [],
      "failExec": [],
      "beginExec": []
    },
    {
      "mainId": 13014,
      "subId": 1301430,
      "order": 13,
      "showType": "QUEST_HIDDEN",
      "descTextMapHash": 758530124,
      "acceptCond": [
        {
          "type": "QUEST_COND_UNKNOWN",
          "param": [
            0,
            0
          ]
        }
      ],
      "finishCond": [],
      "failCond": [],
      "guide": {
        "guideScene": 20165
      },
      "finishExec": [],
      "failExec": [],
      "beginExec": []
    }
  ],
  "talks": [
    {
      "id": 1301401,
      "beginWay": "TALK_BEGIN_MANUAL",
      "activeMode": "PLAY_MODE_SINGLE",
      "beginCond": [
        {
          "type": "QUEST_COND_STATE_EQUAL",
          "param": [
            "1301401",
            "2"
          ],
          "param_str": ""
        }
      ],
      "priority": 5,
      "initDialog": 130140101,
      "npcId": [
        1056
      ],
      "performCfg": "QuestDialogue/LQ/Nahida1_13014/Q1301401",
      "heroTalk": "TALK_HERO_MAIN",
      "questId": 13014,
      "prePerformCfg": ""
    },
    {
      "id": 1301402,
      "beginWay": "TALK_BEGIN_MANUAL",
      "activeMode": "PLAY_MODE_SINGLE",
      "beginCond": [
        {
          "type": "QUEST_COND_STATE_EQUAL",
          "param": [
            "1301403",
            "2"
          ],
          "param_str": ""
        }
      ],
      "priority": 5,
      "initDialog": 130140201,
      "npcId": [
        1056,
        12841
      ],
      "performCfg": "QuestDialogue/LQ/Nahida1_13014/Q1301402",
      "heroTalk": "TALK_HERO_MAIN",
      "questId": 13014,
      "prePerformCfg": "",
      "lockGameTime": true
    },
    {
      "id": 1301403,
      "beginWay": "TALK_BEGIN_MANUAL",
      "activeMode": "PLAY_MODE_SINGLE",
      "beginCond": [
        {
          "type": "QUEST_COND_STATE_EQUAL",
          "param": [
            "1301404",
            "2"
          ],
          "param_str": ""
        }
      ],
      "priority": 5,
      "initDialog": 130140301,
      "npcId": [
        12839,
        12841
      ],
      "performCfg": "QuestDialogue/LQ/Nahida1_13014/Q1301403",
      "heroTalk": "TALK_HERO_MAIN",
      "questId": 13014,
      "prePerformCfg": ""
    },
    {
      "id": 1301404,
      "beginWay": "TALK_BEGIN_MANUAL",
      "activeMode": "PLAY_MODE_SINGLE",
      "beginCond": [
        {
          "type": "QUEST_COND_STATE_EQUAL",
          "param": [
            "1301406",
            "2"
          ],
          "param_str": ""
        }
      ],
      "priority": 5,
      "initDialog": 130140401,
      "npcId": [
        1056
      ],
      "performCfg": "QuestDialogue/LQ/Nahida1_13014/Q1301404",
      "heroTalk": "TALK_HERO_MAIN",
      "questId": 13014,
      "prePerformCfg": ""
    },
    {
      "id": 1301405,
      "beginWay": "TALK_BEGIN_MANUAL",
      "activeMode": "PLAY_MODE_SINGLE",
      "beginCond": [
        {
          "type": "QUEST_COND_STATE_EQUAL",
          "param": [
            "1301408",
            "2"
          ],
          "param_str": ""
        }
      ],
      "priority": 5,
      "initDialog": 130140501,
      "npcId": [
        1056
      ],
      "performCfg": "QuestDialogue/LQ/Nahida1_13014/Q1301405",
      "heroTalk": "TALK_HERO_MAIN",
      "questId": 13014,
      "prePerformCfg": ""
    },
    {
      "id": 1301406,
      "beginWay": "TALK_BEGIN_MANUAL",
      "activeMode": "PLAY_MODE_SINGLE",
      "beginCond": [
        {
          "type": "QUEST_COND_STATE_EQUAL",
          "param": [
            "1301411",
            "2"
          ],
          "param_str": ""
        }
      ],
      "priority": 5,
      "initDialog": 130140601,
      "npcId": [
        1056
      ],
      "performCfg": "QuestDialogue/LQ/Nahida1_13014/Q1301406",
      "heroTalk": "TALK_HERO_MAIN",
      "questId": 13014,
      "prePerformCfg": ""
    },
    {
      "id": 1301407,
      "beginWay": "TALK_BEGIN_MANUAL",
      "activeMode": "PLAY_MODE_SINGLE",
      "beginCond": [
        {
          "type": "QUEST_COND_STATE_EQUAL",
          "param": [
            "1301426",
            "2"
          ],
          "param_str": ""
        }
      ],
      "priority": 5,
      "nextTalks": [
        1301415
      ],
      "initDialog": 130140701,
      "npcId": [
        12848,
        1056
      ],
      "performCfg": "QuestDialogue/LQ/Nahida1_13014/Q1301407",
      "heroTalk": "TALK_HERO_MAIN",
      "questId": 13014,
      "prePerformCfg": ""
    },
    {
      "id": 1301408,
      "beginWay": "TALK_BEGIN_MANUAL",
      "activeMode": "PLAY_MODE_SINGLE",
      "beginCond": [
        {
          "type": "QUEST_COND_STATE_EQUAL",
          "param": [
            "1301416",
            "2"
          ],
          "param_str": ""
        }
      ],
      "priority": 5,
      "initDialog": 130140801,
      "npcId": [
        12848
      ],
      "performCfg": "",
      "heroTalk": "TALK_HERO_MAIN",
      "questId": 13014,
      "prePerformCfg": ""
    },
    {
      "id": 1301409,
      "beginWay": "TALK_BEGIN_MANUAL",
      "activeMode": "PLAY_MODE_SINGLE",
      "beginCond": [
        {
          "type": "QUEST_COND_STATE_EQUAL",
          "param": [
            "1301418",
            "2"
          ],
          "param_str": ""
        }
      ],
      "priority": 5,
      "initDialog": 130140901,
      "npcId": [
        1056,
        12848
      ],
      "performCfg": "QuestDialogue/LQ/Nahida1_13014/Q1301409",
      "heroTalk": "TALK_HERO_MAIN",
      "questId": 13014,
      "prePerformCfg": ""
    },
    {
      "id": 1301410,
      "beginWay": "TALK_BEGIN_MANUAL",
      "activeMode": "PLAY_MODE_SINGLE",
      "beginCond": [
        {
          "type": "QUEST_COND_STATE_EQUAL",
          "param": [
            "1301409",
            "2"
          ],
          "param_str": ""
        }
      ],
      "priority": 5,
      "initDialog": 130141001,
      "npcId": [
        12843,
        12844,
        12845
      ],
      "performCfg": "QuestDialogue/LQ/Nahida1_13014/Q1301410",
      "heroTalk": "TALK_HERO_MAIN",
      "questId": 13014,
      "prePerformCfg": ""
    },
    {
      "id": 1301411,
      "beginWay": "TALK_BEGIN_MANUAL",
      "activeMode": "PLAY_MODE_SINGLE",
      "beginCond": [
        {
          "type": "QUEST_COND_STATE_EQUAL",
          "param": [
            "1301412",
            "2"
          ],
          "param_str": ""
        }
      ],
      "priority": 5,
      "initDialog": 130141101,
      "npcId": [
        12840,
        12846,
        12847
      ],
      "performCfg": "QuestDialogue/LQ/Nahida1_13014/Q1301411",
      "heroTalk": "TALK_HERO_MAIN",
      "questId": 13014,
      "prePerformCfg": ""
    },
    {
      "id": 1301412,
      "beginWay": "TALK_BEGIN_MANUAL",
      "activeMode": "PLAY_MODE_SINGLE",
      "beginCond": [
        {
          "type": "QUEST_COND_STATE_EQUAL",
          "param": [
            "1301420",
            "2"
          ],
          "param_str": ""
        }
      ],
      "priority": 5,
      "initDialog": 130141201,
      "npcId": [
        1056
      ],
      "performCfg": "QuestDialogue/LQ/Nahida1_13014/Q1301412",
      "heroTalk": "TALK_HERO_MAIN",
      "questId": 13014,
      "prePerformCfg": ""
    },
    {
      "id": 1301413,
      "beginWay": "TALK_BEGIN_MANUAL",
      "activeMode": "PLAY_MODE_SINGLE",
      "beginCond": [
        {
          "type": "QUEST_COND_STATE_EQUAL",
          "param": [
            "1301421",
            "2"
          ],
          "param_str": ""
        }
      ],
      "priority": 5,
      "initDialog": 130141301,
      "npcId": [
        1056
      ],
      "performCfg": "QuestDialogue/LQ/Nahida1_13014/Q1301413",
      "heroTalk": "TALK_HERO_MAIN",
      "questId": 13014,
      "prePerformCfg": ""
    },
    {
      "id": 1301414,
      "beginWay": "TALK_BEGIN_MANUAL",
      "activeMode": "PLAY_MODE_SINGLE",
      "beginCond": [
        {
          "type": "QUEST_COND_STATE_EQUAL",
          "param": [
            "1301422",
            "2"
          ],
          "param_str": ""
        }
      ],
      "priority": 5,
      "initDialog": 130141401,
      "npcId": [
        1056
      ],
      "performCfg": "QuestDialogue/LQ/Nahida1_13014/Q1301414",
      "heroTalk": "TALK_HERO_MAIN",
      "questId": 13014,
      "prePerformCfg": ""
    },
    {
      "id": 1301415,
      "activeMode": "PLAY_MODE_SINGLE",
      "beginCond": [
        {
          "type": "QUEST_COND_STATE_EQUAL",
          "param": [
            "1301426",
            "2"
          ],
          "param_str": ""
        }
      ],
      "priority": 5,
      "initDialog": 130141501,
      "npcId": [
        12848,
        1056
      ],
      "performCfg": "QuestDialogue/LQ/Nahida1_13014/Q1301415",
      "heroTalk": "TALK_HERO_MAIN",
      "questId": 13014,
      "prePerformCfg": ""
    },
    {
      "id": 1301416,
      "beginWay": "TALK_BEGIN_AUTO",
      "activeMode": "PLAY_MODE_SINGLE",
      "beginCond": [
        {
          "type": "QUEST_COND_STATE_EQUAL",
          "param": [
            "1301424",
            "2"
          ],
          "param_str": ""
        }
      ],
      "priority": 5,
      "initDialog": 130141601,
      "npcId": [
        12839,
        12843
      ],
      "performCfg": "QuestDialogue/LQ/Nahida1_13014/Q1301416",
      "heroTalk": "TALK_HERO_MAIN",
      "questId": 13014,
      "prePerformCfg": ""
    },
    {
      "id": 1301417,
      "beginWay": "TALK_BEGIN_MANUAL",
      "activeMode": "PLAY_MODE_SINGLE",
      "beginCondComb": "LOGIC_OR",
      "beginCond": [
        {
          "type": "QUEST_COND_STATE_EQUAL",
          "param": [
            "1301401",
            "2"
          ],
          "param_str": ""
        },
        {
          "type": "QUEST_COND_STATE_EQUAL",
          "param": [
            "1301402",
            "2"
          ],
          "param_str": ""
        },
        {
          "type": "QUEST_COND_STATE_EQUAL",
          "param": [
            "1301403",
            "2"
          ],
          "param_str": ""
        }
      ],
      "priority": 5,
      "initDialog": 130141701,
      "npcId": [
        12840
      ],
      "performCfg": "QuestDialogue/LQ/Nahida1_13014/Q1301417",
      "heroTalk": "TALK_HERO_MAIN",
      "questId": 13014,
      "prePerformCfg": ""
    },
    {
      "id": 1301418,
      "beginWay": "TALK_BEGIN_MANUAL",
      "activeMode": "PLAY_MODE_SINGLE",
      "beginCondComb": "LOGIC_OR",
      "beginCond": [
        {
          "type": "QUEST_COND_STATE_EQUAL",
          "param": [
            "1301401",
            "2"
          ],
          "param_str": ""
        },
        {
          "type": "QUEST_COND_STATE_EQUAL",
          "param": [
            "1301402",
            "2"
          ],
          "param_str": ""
        }
      ],
      "priority": 5,
      "initDialog": 130131101,
      "npcId": [
        12843
      ],
      "performCfg": "QuestDialogue/LQ/Nahida1_13013/Q1301311",
      "heroTalk": "TALK_HERO_MAIN",
      "questId": 13014,
      "prePerformCfg": ""
    },
    {
      "id": 1301419,
      "beginWay": "TALK_BEGIN_MANUAL",
      "activeMode": "PLAY_MODE_SINGLE",
      "beginCondComb": "LOGIC_OR",
      "beginCond": [
        {
          "type": "QUEST_COND_STATE_EQUAL",
          "param": [
            "1301401",
            "2"
          ],
          "param_str": ""
        },
        {
          "type": "QUEST_COND_STATE_EQUAL",
          "param": [
            "1301402",
            "2"
          ],
          "param_str": ""
        },
        {
          "type": "QUEST_COND_STATE_EQUAL",
          "param": [
            "1301403",
            "2"
          ],
          "param_str": ""
        }
      ],
      "priority": 5,
      "initDialog": 130131201,
      "npcId": [
        12842
      ],
      "performCfg": "QuestDialogue/LQ/Nahida1_13013/Q1301312",
      "heroTalk": "TALK_HERO_MAIN",
      "questId": 13014,
      "prePerformCfg": ""
    },
    {
      "id": 1301420,
      "beginWay": "TALK_BEGIN_MANUAL",
      "activeMode": "PLAY_MODE_SINGLE",
      "beginCondComb": "LOGIC_OR",
      "beginCond": [
        {
          "type": "QUEST_COND_STATE_EQUAL",
          "param": [
            "1301401",
            "2"
          ],
          "param_str": ""
        },
        {
          "type": "QUEST_COND_STATE_EQUAL",
          "param": [
            "1301402",
            "2"
          ],
          "param_str": ""
        },
        {
          "type": "QUEST_COND_STATE_EQUAL",
          "param": [
            "1301403",
            "2"
          ],
          "param_str": ""
        }
      ],
      "priority": 5,
      "initDialog": 130131301,
      "npcId": [
        12967
      ],
      "performCfg": "QuestDialogue/LQ/Nahida1_13013/Q1301313",
      "heroTalk": "TALK_HERO_MAIN",
      "questId": 13014,
      "prePerformCfg": ""
    },
    {
      "id": 1301421,
      "beginWay": "TALK_BEGIN_MANUAL",
      "activeMode": "PLAY_MODE_SINGLE",
      "beginCondComb": "LOGIC_OR",
      "beginCond": [
        {
          "type": "QUEST_COND_STATE_EQUAL",
          "param": [
            "1301423",
            "2"
          ],
          "param_str": ""
        },
        {
          "type": "QUEST_COND_STATE_EQUAL",
          "param": [
            "1301424",
            "2"
          ],
          "param_str": ""
        }
      ],
      "priority": 5,
      "initDialog": 130142101,
      "npcId": [
        12842
      ],
      "performCfg": "QuestDialogue/LQ/Nahida1_13014/Q1301421",
      "heroTalk": "TALK_HERO_MAIN",
      "questId": 13014,
      "prePerformCfg": ""
    },
    {
      "id": 1301422,
      "beginWay": "TALK_BEGIN_MANUAL",
      "activeMode": "PLAY_MODE_SINGLE",
      "beginCondComb": "LOGIC_OR",
      "beginCond": [
        {
          "type": "QUEST_COND_STATE_EQUAL",
          "param": [
            "99902",
            "3"
          ],
          "param_str": ""
        }
      ],
      "priority": 5,
      "initDialog": 130142201,
      "npcId": [
        12839
      ],
      "performCfg": "QuestDialogue/LQ/Nahida1_13014/Q1301422",
      "heroTalk": "TALK_HERO_MAIN",
      "questId": 13014,
      "prePerformCfg": ""
    },
    {
      "id": 1301423,
      "beginWay": "TALK_BEGIN_MANUAL",
      "activeMode": "PLAY_MODE_SINGLE",
      "beginCondComb": "LOGIC_OR",
      "beginCond": [
        {
          "type": "QUEST_COND_STATE_EQUAL",
          "param": [
            "1301423",
            "2"
          ],
          "param_str": ""
        },
        {
          "type": "QUEST_COND_STATE_EQUAL",
          "param": [
            "1301424",
            "2"
          ],
          "param_str": ""
        }
      ],
      "priority": 5,
      "initDialog": 130142301,
      "npcId": [
        12841
      ],
      "performCfg": "QuestDialogue/LQ/Nahida1_13014/Q1301423",
      "heroTalk": "TALK_HERO_MAIN",
      "questId": 13014,
      "prePerformCfg": ""
    },
    {
      "id": 1301424,
      "beginWay": "TALK_BEGIN_MANUAL",
      "activeMode": "PLAY_MODE_SINGLE",
      "beginCondComb": "LOGIC_OR",
      "beginCond": [
        {
          "type": "QUEST_COND_STATE_EQUAL",
          "param": [
            "1301423",
            "2"
          ],
          "param_str": ""
        },
        {
          "type": "QUEST_COND_STATE_EQUAL",
          "param": [
            "1301424",
            "2"
          ],
          "param_str": ""
        }
      ],
      "priority": 5,
      "initDialog": 130142401,
      "npcId": [
        12967
      ],
      "performCfg": "QuestDialogue/LQ/Nahida1_13014/Q1301424",
      "heroTalk": "TALK_HERO_MAIN",
      "questId": 13014,
      "prePerformCfg": ""
    },
    {
      "id": 1301425,
      "beginWay": "TALK_BEGIN_MANUAL",
      "activeMode": "PLAY_MODE_SINGLE",
      "beginCond": [
        {
          "type": "QUEST_COND_STATE_EQUAL",
          "param": [
            "1301425",
            "2"
          ],
          "param_str": ""
        }
      ],
      "priority": 5,
      "initDialog": 130142501,
      "npcId": [
        12843,
        1056,
        12845,
        12844
      ],
      "performCfg": "QuestDialogue/LQ/Nahida1_13014/Q1301425",
      "heroTalk": "TALK_HERO_MAIN",
      "questId": 13014,
      "prePerformCfg": ""
    },
    {
      "id": 1301426,
      "beginWay": "TALK_BEGIN_MANUAL",
      "activeMode": "PLAY_MODE_SINGLE",
      "beginCondComb": "LOGIC_OR",
      "beginCond": [
        {
          "type": "QUEST_COND_STATE_EQUAL",
          "param": [
            "1301420",
            "2"
          ],
          "param_str": ""
        },
        {
          "type": "QUEST_COND_STATE_EQUAL",
          "param": [
            "1301428",
            "2"
          ],
          "param_str": ""
        }
      ],
      "priority": 5,
      "initDialog": 130142601,
      "npcId": [
        12843,
        12844,
        12845
      ],
      "performCfg": "QuestDialogue/LQ/Nahida1_13014/Q1301426",
      "heroTalk": "TALK_HERO_MAIN",
      "questId": 13014,
      "prePerformCfg": ""
    },
    {
      "id": 1301441,
      "beginWay": "TALK_BEGIN_MANUAL",
      "activeMode": "PLAY_MODE_SINGLE",
      "beginCondComb": "LOGIC_OR",
      "beginCond": [
        {
          "type": "QUEST_COND_STATE_EQUAL",
          "param": [
            "1301421",
            "2"
          ],
          "param_str": ""
        },
        {
          "type": "QUEST_COND_STATE_EQUAL",
          "param": [
            "1301429",
            "2"
          ],
          "param_str": ""
        }
      ],
      "priority": 5,
      "initDialog": 130144101,
      "npcId": [
        12840,
        12847,
        12846
      ],
      "performCfg": "QuestDialogue/LQ/Nahida1_13014/Q1301441",
      "heroTalk": "TALK_HERO_MAIN",
      "questId": 13014,
      "prePerformCfg": ""
    },
    {
      "id": 1301444,
      "beginWay": "TALK_BEGIN_MANUAL",
      "activeMode": "PLAY_MODE_SINGLE",
      "beginCond": [
        {
          "type": "QUEST_COND_STATE_EQUAL",
          "param": [
            "1301414",
            "2"
          ],
          "param_str": ""
        }
      ],
      "priority": 5,
      "initDialog": 130144401,
      "npcId": [
        12850,
        12849
      ],
      "performCfg": "QuestDialogue/LQ/Nahida1_13014/Q1301444",
      "heroTalk": "TALK_HERO_MAIN",
      "questId": 13014,
      "prePerformCfg": ""
    },
    {
      "id": 1301445,
      "beginWay": "TALK_BEGIN_MANUAL",
      "activeMode": "PLAY_MODE_SINGLE",
      "beginCond": [
        {
          "type": "QUEST_COND_STATE_EQUAL",
          "param": [
            "1301414",
            "2"
          ],
          "param_str": ""
        }
      ],
      "priority": 5,
      "initDialog": 130144501,
      "npcId": [
        12853,
        12963
      ],
      "performCfg": "QuestDialogue/LQ/Nahida1_13014/Q1301445",
      "heroTalk": "TALK_HERO_MAIN",
      "questId": 13014,
      "prePerformCfg": ""
    },
    {
      "id": 1301446,
      "beginWay": "TALK_BEGIN_MANUAL",
      "activeMode": "PLAY_MODE_SINGLE",
      "beginCond": [
        {
          "type": "QUEST_COND_STATE_EQUAL",
          "param": [
            "1301414",
            "2"
          ],
          "param_str": ""
        }
      ],
      "priority": 5,
      "initDialog": 130144601,
      "npcId": [
        12847,
        12846,
        12840
      ],
      "performCfg": "QuestDialogue/LQ/Nahida1_13014/Q1301446",
      "heroTalk": "TALK_HERO_MAIN",
      "questId": 13014,
      "prePerformCfg": ""
    },
    {
      "id": 1301447,
      "beginWay": "TALK_BEGIN_MANUAL",
      "activeMode": "PLAY_MODE_SINGLE",
      "beginCond": [
        {
          "type": "QUEST_COND_STATE_EQUAL",
          "param": [
            "1301414",
            "2"
          ],
          "param_str": ""
        }
      ],
      "priority": 5,
      "initDialog": 130144701,
      "npcId": [
        12964,
        12851
      ],
      "performCfg": "QuestDialogue/LQ/Nahida1_13014/Q1301447",
      "heroTalk": "TALK_HERO_MAIN",
      "questId": 13014,
      "prePerformCfg": ""
    },
    {
      "id": 1301448,
      "beginWay": "TALK_BEGIN_MANUAL",
      "activeMode": "PLAY_MODE_SINGLE",
      "beginCond": [
        {
          "type": "QUEST_COND_STATE_EQUAL",
          "param": [
            "1301414",
            "2"
          ],
          "param_str": ""
        }
      ],
      "priority": 5,
      "initDialog": 130144801,
      "npcId": [
        12852,
        12848
      ],
      "performCfg": "QuestDialogue/LQ/Nahida1_13014/Q1301448",
      "heroTalk": "TALK_HERO_MAIN",
      "questId": 13014,
      "prePerformCfg": ""
    },
    {
      "id": 1301490,
      "activeMode": "PLAY_MODE_SINGLE",
      "beginCond": [
        {
          "type": "QUEST_COND_STATE_EQUAL",
          "param": [
            "99902",
            "3"
          ],
          "param_str": ""
        }
      ],
      "priority": 5,
      "initDialog": 130149001,
      "npcId": [
        12852,
        12848
      ],
      "performCfg": "",
      "heroTalk": "TALK_HERO_MAIN",
      "questId": 13014,
      "prePerformCfg": ""
    },
    {
      "id": 1301491,
      "beginWay": "TALK_BEGIN_MANUAL",
      "activeMode": "PLAY_MODE_SINGLE",
      "beginCondComb": "LOGIC_OR",
      "beginCond": [
        {
          "type": "QUEST_COND_STATE_EQUAL",
          "param": [
            "99902",
            "3"
          ],
          "param_str": ""
        }
      ],
      "priority": 5,
      "initDialog": 130149101,
      "npcId": [
        13054
      ],
      "performCfg": "",
      "heroTalk": "TALK_HERO_MAIN",
      "questId": 13014,
      "prePerformCfg": ""
    }
  ]
}