{
  "id": 13034,
  "type": "LQ",
  "titleTextMapHash": 3453776639,
  "descTextMapHash": 3285162590,
  "luaPath": "Actor/Quest/LQ13034",
  "showType": "QUEST_HIDDEN",
  "subQuests": [
    {
      "mainId": 13034,
      "subId": 1303401,
      "order": 1,
      "showType": "QUEST_HIDDEN",
      "acceptCond": [
        {
          "type": "QUEST_COND_UNKNOWN",
          "param": [
            0,
            0
          ]
        }
      ],
      "finishCond": [],
      "failCond": [],
      "guide": {},
      "finishExec": [],
      "failExec": [],
      "beginExec": []
    }
  ]
}