{
  "id": 19015,
  "type": "LQ",
  "series": 105301,
  "titleTextMapHash": 859723255,
  "descTextMapHash": 1006353558,
  "luaPath": "Actor/Quest/LQ19015",
  "chapterId": 105301,
  "subQuests": [
    {
      "subId": 1901501,
      "mainId": 19015,
      "order": 1,
      "descTextMapHash": 851314412,
      "acceptCondComb": "LOGIC_AND",
      "acceptCond": [
        {
          "type": "QUEST_COND_STATE_EQUAL",
          "param": [
            1901001,
            3,
            0,
            0,
            0
          ],
          "param_str": ""
        },
        {
          "type": "QUEST_COND_MAIN_COOP_ENTER_SAVE_POINT",
          "param": [
            105301,
            19010013,
            0,
            0,
            0
          ],
          "param_str": ""
        }
      ],
      "finishCond": [
        {
          "type": "QUEST_CONTENT_MAIN_COOP_ENTER_SAVE_POINT",
          "param": [
            105301,
            1901501
          ],
          "param_str": ""
        }
      ],
      "failCond": [],
      "guide": {
        "type": "QUEST_GUIDE_LOCATION",
        "param": [
          "Q19015_Sayu1_Pos"
        ],
        "guideScene": 3,
        "guideStyle": "QUEST_GUIDE_STYLE_POINT",
        "guideLayer": "QUEST_GUIDE_LAYER_SCENE"
      },
      "isRewind": true,
      "finishExec": [],
      "failExec": [],
      "beginExec": [
        {
          "type": "QUEST_EXEC_UNREGISTER_DYNAMIC_GROUP",
          "param": [
            "133220674"
          ],
          "param_str": ""
        },
        {
          "type": "QUEST_EXEC_SET_QUEST_VAR",
          "param": [
            "0",
            "0"
          ],
          "param_str": ""
        }
      ],
      "exclusiveNpcList": [
        12170,
        1040,
        3106
      ],
      "exclusiveNpcPriority": 1100,
      "exclusivePlaceList": [
        3001
      ]
    },
    {
      "subId": 1901502,
      "mainId": 19015,
      "order": 2,
      "isMpBlock": true,
      "descTextMapHash": 9920244,
      "banType": "BAN_GROUP_TRANSPORT_ONLY",
      "acceptCond": [
        {
          "type": "QUEST_COND_STATE_EQUAL",
          "param": [
            1901501,
            3,
            0,
            0,
            0
          ],
          "param_str": ""
        }
      ],
      "finishCond": [
        {
          "type": "QUEST_CONTENT_FINISH_PLOT",
          "param": [
            1901502,
            0
          ],
          "param_str": ""
        }
      ],
      "failCondComb": "LOGIC_OR",
      "failCond": [
        {
          "type": "QUEST_CONTENT_NOT_FINISH_PLOT",
          "param": [
            1901502,
            0
          ],
          "param_str": ""
        },
        {
          "type": "QUEST_CONTENT_ANY_MANUAL_TRANSPORT",
          "param": [
            0,
            0
          ],
          "param_str": ""
        },
        {
          "type": "QUEST_CONTENT_TEAM_DEAD",
          "param": [
            0,
            0
          ],
          "param_str": ""
        },
        {
          "type": "QUEST_CONTENT_LUA_NOTIFY",
          "param": [
            0,
            0
          ],
          "param_str": "1332206740",
          "count": 1
        }
      ],
      "guide": {
        "param": []
      },
      "finishExec": [],
      "failExec": [
        {
          "type": "QUEST_EXEC_ROLLBACK_QUEST",
          "param": [
            "1901501"
          ],
          "param_str": ""
        },
        {
          "type": "QUEST_EXEC_UNREGISTER_DYNAMIC_GROUP",
          "param": [
            "133220674"
          ],
          "param_str": ""
        }
      ],
      "beginExec": [
        {
          "type": "QUEST_EXEC_REGISTER_DYNAMIC_GROUP",
          "param": [
            "3",
            "133220674"
          ],
          "param_str": ""
        },
        {
          "type": "QUEST_EXEC_NOTIFY_GROUP_LUA",
          "param": [
            "3",
            "133220674"
          ],
          "param_str": ""
        }
      ],
      "exclusiveNpcList": [
        1040,
        3106
      ],
      "exclusiveNpcPriority": 1100,
      "exclusivePlaceList": [
        3001
      ]
    },
    {
      "subId": 1901503,
      "mainId": 19015,
      "order": 4,
      "isMpBlock": true,
      "descTextMapHash": 2790259564,
      "showType": "QUEST_HIDDEN",
      "banType": "BAN_GROUP_TRANSPORT_ONLY",
      "acceptCondComb": "LOGIC_AND",
      "acceptCond": [
        {
          "type": "QUEST_COND_STATE_EQUAL",
          "param": [
            1901501,
            3,
            0,
            0,
            0
          ],
          "param_str": ""
        }
      ],
      "finishCond": [
        {
          "type": "QUEST_CONTENT_LUA_NOTIFY",
          "param": [
            0,
            0
          ],
          "param_str": "1901503",
          "count": 1
        }
      ],
      "failCondComb": "LOGIC_OR",
      "failCond": [
        {
          "type": "QUEST_CONTENT_FINISH_PLOT",
          "param": [
            1901508,
            0
          ],
          "param_str": ""
        },
        {
          "type": "QUEST_CONTENT_FINISH_PLOT",
          "param": [
            1901509,
            0
          ],
          "param_str": ""
        }
      ],
      "guide": {
        "type": "QUEST_GUIDE_LOCATION",
        "param": [
          "Q19015_Sayu2_Pos"
        ],
        "guideScene": 3,
        "guideStyle": "QUEST_GUIDE_STYLE_POINT",
        "guideLayer": "QUEST_GUIDE_LAYER_SCENE"
      },
      "finishExec": [
        {
          "type": "QUEST_EXEC_UNREGISTER_DYNAMIC_GROUP",
          "param": [
            "133220674"
          ],
          "param_str": ""
        }
      ],
      "failExec": [],
      "beginExec": []
    },
    {
      "subId": 1901504,
      "mainId": 19015,
      "order": 8,
      "descTextMapHash": 3235289028,
      "acceptCondComb": "LOGIC_OR",
      "acceptCond": [
        {
          "type": "QUEST_COND_STATE_EQUAL",
          "param": [
            1901510,
            3,
            0,
            0,
            0
          ],
          "param_str": ""
        }
      ],
      "finishCond": [
        {
          "type": "QUEST_CONTENT_MAIN_COOP_ENTER_SAVE_POINT",
          "param": [
            105301,
            1901504
          ],
          "param_str": ""
        }
      ],
      "failCond": [],
      "guide": {
        "type": "QUEST_GUIDE_LOCATION",
        "param": [
          "Q19015_Sayu3_Pos"
        ],
        "guideScene": 3,
        "guideStyle": "QUEST_GUIDE_STYLE_POINT",
        "guideLayer": "QUEST_GUIDE_LAYER_SCENE"
      },
      "isRewind": true,
      "finishExec": [
        {
          "type": "QUEST_EXEC_GRANT_TRIAL_AVATAR_AND_LOCK_TEAM",
          "param": [
            "502"
          ],
          "param_str": ""
        }
      ],
      "failExec": [],
      "beginExec": [
        {
          "type": "QUEST_EXEC_UNREGISTER_DYNAMIC_GROUP",
          "param": [
            "133220647"
          ],
          "param_str": ""
        }
      ],
      "exclusiveNpcList": [
        12170,
        1040,
        3106
      ],
      "exclusiveNpcPriority": 1100
    },
    {
      "subId": 1901505,
      "mainId": 19015,
      "order": 9,
      "isMpBlock": true,
      "descTextMapHash": 3843259884,
      "banType": "BAN_GROUP_TRANSPORT_ONLY",
      "acceptCond": [
        {
          "type": "QUEST_COND_STATE_EQUAL",
          "param": [
            1901504,
            3,
            0,
            0,
            0
          ],
          "param_str": ""
        }
      ],
      "finishCond": [
        {
          "type": "QUEST_CONTENT_LUA_NOTIFY",
          "param": [
            0,
            0
          ],
          "param_str": "133220647",
          "count": 1
        }
      ],
      "failCondComb": "LOGIC_OR",
      "failCond": [
        {
          "type": "QUEST_CONTENT_TEAM_DEAD",
          "param": [
            0,
            0
          ],
          "param_str": ""
        },
        {
          "type": "QUEST_CONTENT_NOT_FINISH_PLOT",
          "param": [
            1901505,
            0
          ],
          "param_str": ""
        }
      ],
      "guide": {
        "type": "QUEST_GUIDE_LOCATION",
        "param": [
          "Q19015_Battle_Pos",
          "15"
        ],
        "guideScene": 3,
        "guideStyle": "QUEST_GUIDE_STYLE_TARGET",
        "guideLayer": "QUEST_GUIDE_LAYER_SCENE"
      },
      "finishExec": [
        {
          "type": "QUEST_EXEC_UNREGISTER_DYNAMIC_GROUP",
          "param": [
            "133220647",
            "1"
          ],
          "param_str": ""
        },
        {
          "type": "QUEST_EXEC_UNLOCK_AVATAR_TEAM",
          "param": [],
          "param_str": ""
        },
        {
          "type": "QUEST_EXEC_REMOVE_TRIAL_AVATAR",
          "param": [
            "502"
          ],
          "param_str": ""
        }
      ],
      "failExec": [
        {
          "type": "QUEST_EXEC_UNREGISTER_DYNAMIC_GROUP",
          "param": [
            "133220647"
          ],
          "param_str": ""
        },
        {
          "type": "QUEST_EXEC_ROLLBACK_QUEST",
          "param": [
            "1901504"
          ],
          "param_str": ""
        },
        {
          "type": "QUEST_EXEC_UNLOCK_AVATAR_TEAM",
          "param": [],
          "param_str": ""
        },
        {
          "type": "QUEST_EXEC_REMOVE_TRIAL_AVATAR",
          "param": [
            "502"
          ],
          "param_str": ""
        }
      ],
      "beginExec": [
        {
          "type": "QUEST_EXEC_REGISTER_DYNAMIC_GROUP",
          "param": [
            "3",
            "133220647"
          ],
          "param_str": ""
        }
      ],
      "exclusiveNpcList": [
        1040,
        3106
      ],
      "exclusiveNpcPriority": 1100,
      "trialAvatarList": [
        502
      ]
    },
    {
      "subId": 1901506,
      "mainId": 19015,
      "order": 10,
      "isMpBlock": true,
      "descTextMapHash": 769205100,
      "acceptCond": [
        {
          "type": "QUEST_COND_STATE_EQUAL",
          "param": [
            1901505,
            3,
            0,
            0,
            0
          ],
          "param_str": ""
        }
      ],
      "finishCond": [
        {
          "type": "QUEST_CONTENT_MAIN_COOP_ENTER_SAVE_POINT",
          "param": [
            105301,
            1901506
          ],
          "param_str": ""
        }
      ],
      "failCond": [],
      "guide": {
        "type": "QUEST_GUIDE_LOCATION",
        "param": [
          "Q19015_Sayu3_Pos"
        ],
        "guideScene": 3,
        "guideStyle": "QUEST_GUIDE_STYLE_POINT",
        "guideLayer": "QUEST_GUIDE_LAYER_SCENE"
      },
      "isRewind": true,
      "finishExec": [],
      "failExec": [],
      "beginExec": [],
      "exclusiveNpcList": [
        12170,
        1040,
        3106
      ],
      "exclusiveNpcPriority": 1100
    },
    {
      "subId": 1901507,
      "mainId": 19015,
      "order": 11,
      "descTextMapHash": 1355287180,
      "acceptCond": [
        {
          "type": "QUEST_COND_STATE_EQUAL",
          "param": [
            1901506,
            3,
            0,
            0,
            0
          ],
          "param_str": ""
        }
      ],
      "finishCond": [
        {
          "type": "QUEST_CONTENT_MAIN_COOP_ENTER_SAVE_POINT",
          "param": [
            105301,
            1901507
          ],
          "param_str": ""
        }
      ],
      "failCond": [],
      "guide": {
        "type": "QUEST_GUIDE_LOCATION",
        "param": [
          "Q19015_Sayu4_Pos"
        ],
        "guideScene": 3,
        "guideStyle": "QUEST_GUIDE_STYLE_POINT",
        "guideLayer": "QUEST_GUIDE_LAYER_SCENE"
      },
      "finishParent": true,
      "isRewind": true,
      "finishExec": [],
      "failExec": [],
      "beginExec": [],
      "exclusiveNpcList": [
        12170,
        1040,
        3106
      ],
      "exclusiveNpcPriority": 1100
    },
    {
      "subId": 1901508,
      "mainId": 19015,
      "order": 5,
      "isMpBlock": true,
      "descTextMapHash": 2194096268,
      "showType": "QUEST_HIDDEN",
      "banType": "BAN_GROUP_TRANSPORT_ONLY",
      "acceptCondComb": "LOGIC_AND",
      "acceptCond": [
        {
          "type": "QUEST_COND_STATE_EQUAL",
          "param": [
            1901501,
            3,
            0,
            0,
            0
          ],
          "param_str": ""
        }
      ],
      "finishCond": [
        {
          "type": "QUEST_CONTENT_LUA_NOTIFY",
          "param": [
            0,
            0
          ],
          "param_str": "1901508",
          "count": 1
        }
      ],
      "failCondComb": "LOGIC_OR",
      "failCond": [
        {
          "type": "QUEST_CONTENT_FINISH_PLOT",
          "param": [
            1901503,
            0
          ],
          "param_str": ""
        },
        {
          "type": "QUEST_CONTENT_FINISH_PLOT",
          "param": [
            1901509,
            0
          ],
          "param_str": ""
        }
      ],
      "guide": {
        "type": "QUEST_GUIDE_LOCATION",
        "param": [
          "Q19015_Sayu2_Pos"
        ],
        "guideScene": 3,
        "guideStyle": "QUEST_GUIDE_STYLE_POINT",
        "guideLayer": "QUEST_GUIDE_LAYER_SCENE"
      },
      "finishExec": [
        {
          "type": "QUEST_EXEC_UNREGISTER_DYNAMIC_GROUP",
          "param": [
            "133220674"
          ],
          "param_str": ""
        }
      ],
      "failExec": [],
      "beginExec": []
    },
    {
      "subId": 1901509,
      "mainId": 19015,
      "order": 6,
      "isMpBlock": true,
      "descTextMapHash": 1843098372,
      "showType": "QUEST_HIDDEN",
      "banType": "BAN_GROUP_TRANSPORT_ONLY",
      "acceptCondComb": "LOGIC_AND",
      "acceptCond": [
        {
          "type": "QUEST_COND_STATE_EQUAL",
          "param": [
            1901501,
            3,
            0,
            0,
            0
          ],
          "param_str": ""
        }
      ],
      "finishCond": [
        {
          "type": "QUEST_CONTENT_LUA_NOTIFY",
          "param": [
            0,
            0
          ],
          "param_str": "1901509",
          "count": 1
        }
      ],
      "failCondComb": "LOGIC_OR",
      "failCond": [
        {
          "type": "QUEST_CONTENT_FINISH_PLOT",
          "param": [
            1901503,
            0
          ],
          "param_str": ""
        },
        {
          "type": "QUEST_CONTENT_FINISH_PLOT",
          "param": [
            1901508,
            0
          ],
          "param_str": ""
        }
      ],
      "guide": {
        "type": "QUEST_GUIDE_LOCATION",
        "param": [
          "Q19015_Sayu2_Pos"
        ],
        "guideScene": 3,
        "guideStyle": "QUEST_GUIDE_STYLE_POINT",
        "guideLayer": "QUEST_GUIDE_LAYER_SCENE"
      },
      "finishExec": [
        {
          "type": "QUEST_EXEC_UNREGISTER_DYNAMIC_GROUP",
          "param": [
            "133220674"
          ],
          "param_str": ""
        }
      ],
      "failExec": [],
      "beginExec": []
    },
    {
      "subId": 1901510,
      "mainId": 19015,
      "order": 7,
      "isMpBlock": true,
      "descTextMapHash": 2758549164,
      "acceptCondComb": "LOGIC_OR",
      "acceptCond": [
        {
          "type": "QUEST_COND_STATE_EQUAL",
          "param": [
            1901503,
            3,
            0,
            0,
            0
          ],
          "param_str": ""
        },
        {
          "type": "QUEST_COND_STATE_EQUAL",
          "param": [
            1901508,
            3,
            0,
            0,
            0
          ],
          "param_str": ""
        },
        {
          "type": "QUEST_COND_STATE_EQUAL",
          "param": [
            1901509,
            3,
            0,
            0,
            0
          ],
          "param_str": ""
        }
      ],
      "finishCond": [
        {
          "type": "QUEST_CONTENT_MAIN_COOP_ENTER_SAVE_POINT",
          "param": [
            105301,
            1901503
          ],
          "param_str": ""
        }
      ],
      "failCond": [],
      "guide": {
        "type": "QUEST_GUIDE_LOCATION",
        "param": [
          "Q19015_Sayu2_Pos"
        ],
        "guideScene": 3,
        "guideStyle": "QUEST_GUIDE_STYLE_POINT",
        "guideLayer": "QUEST_GUIDE_LAYER_SCENE"
      },
      "isRewind": true,
      "finishExec": [],
      "failExec": [],
      "beginExec": [],
      "exclusiveNpcList": [
        12170,
        1040,
        3106
      ],
      "exclusiveNpcPriority": 1100,
      "exclusivePlaceList": [
        3001
      ]
    },
    {
      "subId": 1901511,
      "mainId": 19015,
      "order": 3,
      "isMpBlock": true,
      "descTextMapHash": 3924351780,
      "showType": "QUEST_HIDDEN",
      "banType": "BAN_GROUP_TRANSPORT_ONLY",
      "acceptCond": [
        {
          "type": "QUEST_COND_STATE_EQUAL",
          "param": [
            1901501,
            3,
            0,
            0,
            0
          ],
          "param_str": ""
        }
      ],
      "finishCond": [
        {
          "type": "QUEST_CONTENT_FINISH_PLOT",
          "param": [
            1901502,
            0
          ],
          "param_str": ""
        }
      ],
      "failCondComb": "LOGIC_OR",
      "failCond": [
        {
          "type": "QUEST_CONTENT_NOT_FINISH_PLOT",
          "param": [
            1901511,
            0
          ],
          "param_str": ""
        }
      ],
      "guide": {
        "param": []
      },
      "finishExec": [],
      "failExec": [
        {
          "type": "QUEST_EXEC_ROLLBACK_QUEST",
          "param": [
            "1901501"
          ],
          "param_str": ""
        },
        {
          "type": "QUEST_EXEC_UNREGISTER_DYNAMIC_GROUP",
          "param": [
            "133220674"
          ],
          "param_str": ""
        }
      ],
      "beginExec": []
    }
  ],
  "talks": [
    {
      "id": 1901510,
      "beginWay": "TALK_BEGIN_MANUAL",
      "activeMode": "PLAY_MODE_SINGLE",
      "beginCond": [
        {
          "type": "QUEST_COND_STATE_EQUAL",
          "param": [
            "1901507",
            "2"
          ],
          "param_str": ""
        }
      ],
      "priority": 5,
      "initDialog": 190151001,
      "npcId": [
        3106
      ],
      "performCfg": "QuestDialogue/COOP/CoopSayu/Q1901510",
      "heroTalk": "TALK_HERO_MAIN",
      "questId": 19015,
      "prePerformCfg": ""
    }
  ]
}