{
  "id": 19010,
  "type": "LQ",
  "series": 105301,
  "titleTextMapHash": 2149710223,
  "descTextMapHash": 2398425350,
  "luaPath": "Actor/Quest/LQ19010",
  "suggestTrackMainQuestList": [
    19013,
    19014,
    19015
  ],
  "chapterId": 105301,
  "subQuests": [
    {
      "subId": 1901001,
      "mainId": 19010,
      "order": 1,
      "descTextMapHash": 3888033444,
      "acceptCondComb": "LOGIC_AND",
      "acceptCond": [
        {
          "type": "QUEST_COND_STATE_EQUAL",
          "param": [
            1901205,
            3,
            0,
            0,
            0
          ],
          "param_str": ""
        },
        {
          "type": "QUEST_COND_MAIN_COOP_ENTER_SAVE_POINT",
          "param": [
            105301,
            19012051,
            0,
            0,
            0
          ],
          "param_str": ""
        }
      ],
      "finishCondComb": "LOGIC_OR",
      "finishCond": [
        {
          "type": "QUEST_CONTENT_MAIN_COOP_ENTER_SAVE_POINT",
          "param": [
            105301,
            19010011
          ],
          "param_str": ""
        },
        {
          "type": "QUEST_CONTENT_MAIN_COOP_ENTER_SAVE_POINT",
          "param": [
            105301,
            19010012
          ],
          "param_str": ""
        },
        {
          "type": "QUEST_CONTENT_MAIN_COOP_ENTER_SAVE_POINT",
          "param": [
            105301,
            19010013
          ],
          "param_str": ""
        }
      ],
      "failCond": [],
      "guide": {
        "type": "QUEST_GUIDE_LOCATION",
        "param": [
          "Q19010_Player_Pos"
        ],
        "guideScene": 3,
        "guideStyle": "QUEST_GUIDE_STYLE_POINT",
        "guideLayer": "QUEST_GUIDE_LAYER_SCENE"
      },
      "finishParent": true,
      "isRewind": true,
      "finishExec": [],
      "failExec": [],
      "beginExec": [
        {
          "type": "QUEST_EXEC_SET_QUEST_GLOBAL_VAR",
          "param": [
            "105301",
            "1"
          ],
          "param_str": ""
        }
      ],
      "exclusiveNpcList": [
        3106,
        1040,
        12170
      ],
      "exclusiveNpcPriority": 1100,
      "exclusivePlaceList": [
        3001
      ]
    }
  ]
}