{
  "id": 19113,
  "type": "LQ",
  "series": 105001,
  "titleTextMapHash": 515042999,
  "descTextMapHash": 3111080510,
  "luaPath": "Actor/Quest/LQ19113",
  "suggestTrackMainQuestList": [
    19114,
    19115
  ],
  "chapterId": 105001,
  "subQuests": [
    {
      "subId": 1911301,
      "mainId": 19113,
      "order": 1,
      "descTextMapHash": 1470820716,
      "acceptCond": [
        {
          "type": "QUEST_COND_MAIN_COOP_ENTER_SAVE_POINT",
          "param": [
            105001,
            1911301,
            0,
            0,
            0
          ],
          "param_str": ""
        }
      ],
      "finishCondComb": "LOGIC_OR",
      "finishCond": [
        {
          "type": "QUEST_CONTENT_MAIN_COOP_ENTER_SAVE_POINT",
          "param": [
            105001,
            1911401
          ],
          "param_str": ""
        },
        {
          "type": "QUEST_CONTENT_MAIN_COOP_ENTER_SAVE_POINT",
          "param": [
            105001,
            1911501
          ],
          "param_str": ""
        }
      ],
      "failCond": [],
      "guide": {
        "type": "QUEST_GUIDE_NPC",
        "autoGuide": "QUEST_GUIDE_AUTO_ENABLE",
        "param": [
          "503"
        ],
        "guideScene": 1060,
        "guideStyle": "QUEST_GUIDE_STYLE_TARGET",
        "guideLayer": "QUEST_GUIDE_LAYER_SCENE"
      },
      "finishParent": true,
      "isRewind": true,
      "finishExec": [],
      "failExec": [],
      "beginExec": [
        {
          "type": "QUEST_EXEC_REFRESH_GROUP_SUITE",
          "param": [
            "1060",
            "201060002,3"
          ],
          "param_str": ""
        }
      ],
      "exclusiveNpcList": [
        1033
      ],
      "exclusiveNpcPriority": 1100
    },
    {
      "subId": 1911302,
      "mainId": 19113,
      "order": 2,
      "descTextMapHash": 4156014684,
      "showType": "QUEST_HIDDEN",
      "acceptCond": [
        {
          "type": "QUEST_COND_MAIN_COOP_ENTER_SAVE_POINT",
          "param": [
            105001,
            1911301,
            0,
            0,
            0
          ],
          "param_str": ""
        }
      ],
      "finishCond": [
        {
          "type": "QUEST_CONTENT_FINISH_PLOT",
          "param": [
            1911302,
            0
          ],
          "param_str": ""
        }
      ],
      "failCond": [],
      "guide": {
        "param": []
      },
      "finishExec": [
        {
          "type": "QUEST_EXEC_REFRESH_GROUP_SUITE",
          "param": [
            "1060",
            "201060002,4"
          ],
          "param_str": ""
        }
      ],
      "failExec": [],
      "beginExec": []
    }
  ]
}