{
  "id": 19143,
  "type": "LQ",
  "series": 106501,
  "titleTextMapHash": 1306845191,
  "descTextMapHash": 3199988606,
  "luaPath": "Actor/Quest/LQ19143",
  "suggestTrackMainQuestList": [
    19147,
    19148
  ],
  "chapterId": 106501,
  "subQuests": [
    {
      "subId": 1914301,
      "mainId": 19143,
      "order": 2,
      "descTextMapHash": 1538605132,
      "acceptCond": [
        {
          "type": "QUEST_COND_MAIN_COOP_ENTER_SAVE_POINT",
          "param": [
            106501,
            191410202,
            0,
            0,
            0
          ],
          "param_str": ""
        }
      ],
      "finishCondComb": "LOGIC_OR",
      "finishCond": [
        {
          "type": "QUEST_CONTENT_COMPLETE_TALK",
          "param": [
            1914309,
            0
          ],
          "param_str": ""
        },
        {
          "type": "QUEST_CONTENT_QUEST_STATE_EQUAL",
          "param": [
            1914303,
            3
          ],
          "param_str": ""
        }
      ],
      "failCond": [],
      "guide": {
        "type": "QUEST_GUIDE_LOCATION",
        "param": [
          "Q1914301_guide",
          "30"
        ],
        "guideScene": 3,
        "guideStyle": "QUEST_GUIDE_STYLE_POINT",
        "guideLayer": "QUEST_GUIDE_LAYER_SCENE"
      },
      "finishExec": [],
      "failExec": [],
      "beginExec": [],
      "exclusiveNpcList": [
        1049,
        3038,
        3018
      ],
      "exclusiveNpcPriority": 1100
    },
    {
      "subId": 1914302,
      "mainId": 19143,
      "order": 3,
      "descTextMapHash": 3598663700,
      "acceptCond": [
        {
          "type": "QUEST_COND_STATE_EQUAL",
          "param": [
            1914301,
            3,
            0,
            0,
            0
          ],
          "param_str": ""
        }
      ],
      "finishCondComb": "LOGIC_OR",
      "finishCond": [
        {
          "type": "QUEST_CONTENT_MAIN_COOP_ENTER_SAVE_POINT",
          "param": [
            106501,
            191430201
          ],
          "param_str": ""
        },
        {
          "type": "QUEST_CONTENT_QUEST_STATE_EQUAL",
          "param": [
            1914303,
            3
          ],
          "param_str": ""
        }
      ],
      "failCond": [],
      "guide": {
        "type": "QUEST_GUIDE_LOCATION",
        "param": [
          "Q1914301_guide",
          "30"
        ],
        "guideScene": 3,
        "guideStyle": "QUEST_GUIDE_STYLE_POINT",
        "guideLayer": "QUEST_GUIDE_LAYER_SCENE"
      },
      "finishExec": [],
      "failExec": [],
      "beginExec": [],
      "exclusiveNpcList": [
        1049,
        3038,
        12278,
        3018
      ],
      "exclusiveNpcPriority": 1100
    },
    {
      "subId": 1914303,
      "mainId": 19143,
      "order": 1,
      "descTextMapHash": 67089196,
      "showType": "QUEST_HIDDEN",
      "acceptCond": [
        {
          "type": "QUEST_COND_MAIN_COOP_ENTER_SAVE_POINT",
          "param": [
            106501,
            191410202,
            0,
            0,
            0
          ],
          "param_str": ""
        }
      ],
      "finishCond": [
        {
          "type": "QUEST_CONTENT_MAIN_COOP_ENTER_SAVE_POINT",
          "param": [
            106501,
            191430201
          ],
          "param_str": ""
        }
      ],
      "failCond": [],
      "guide": {
        "param": []
      },
      "isRewind": true,
      "finishExec": [],
      "failExec": [],
      "beginExec": [
        {
          "type": "QUEST_EXEC_REGISTER_DYNAMIC_GROUP",
          "param": [
            "3",
            "133221078"
          ],
          "param_str": ""
        }
      ],
      "exclusiveNpcList": [
        3038,
        12278,
        3018
      ],
      "exclusiveNpcPriority": 1100
    },
    {
      "subId": 1914304,
      "mainId": 19143,
      "order": 5,
      "descTextMapHash": 2978708604,
      "acceptCond": [
        {
          "type": "QUEST_COND_MAIN_COOP_ENTER_SAVE_POINT",
          "param": [
            106501,
            191430201,
            0,
            0,
            0
          ],
          "param_str": ""
        }
      ],
      "finishCondComb": "LOGIC_OR",
      "finishCond": [
        {
          "type": "QUEST_CONTENT_COMPLETE_TALK",
          "param": [
            1914310,
            0
          ],
          "param_str": ""
        },
        {
          "type": "QUEST_CONTENT_QUEST_STATE_EQUAL",
          "param": [
            1914306,
            3
          ],
          "param_str": ""
        }
      ],
      "failCond": [],
      "guide": {
        "type": "QUEST_GUIDE_LOCATION",
        "param": [
          "Q1914304_guide",
          "30"
        ],
        "guideScene": 3,
        "guideStyle": "QUEST_GUIDE_STYLE_POINT",
        "guideLayer": "QUEST_GUIDE_LAYER_SCENE"
      },
      "finishExec": [],
      "failExec": [],
      "beginExec": [],
      "exclusiveNpcList": [
        1049,
        12509,
        12510,
        12511
      ],
      "exclusiveNpcPriority": 1100
    },
    {
      "subId": 1914305,
      "mainId": 19143,
      "order": 6,
      "descTextMapHash": 4057147540,
      "acceptCond": [
        {
          "type": "QUEST_COND_STATE_EQUAL",
          "param": [
            1914304,
            3,
            0,
            0,
            0
          ],
          "param_str": ""
        }
      ],
      "finishCondComb": "LOGIC_OR",
      "finishCond": [
        {
          "type": "QUEST_CONTENT_MAIN_COOP_ENTER_SAVE_POINT",
          "param": [
            106501,
            191430501
          ],
          "param_str": ""
        },
        {
          "type": "QUEST_CONTENT_QUEST_STATE_EQUAL",
          "param": [
            1914306,
            3
          ],
          "param_str": ""
        }
      ],
      "failCond": [],
      "guide": {
        "type": "QUEST_GUIDE_LOCATION",
        "param": [
          "Q1914304_guide",
          "30"
        ],
        "guideScene": 3,
        "guideStyle": "QUEST_GUIDE_STYLE_POINT",
        "guideLayer": "QUEST_GUIDE_LAYER_SCENE"
      },
      "finishExec": [],
      "failExec": [],
      "beginExec": [],
      "exclusiveNpcList": [
        1049,
        12509,
        12510,
        12511,
        12277
      ],
      "exclusiveNpcPriority": 1100
    },
    {
      "subId": 1914306,
      "mainId": 19143,
      "order": 4,
      "descTextMapHash": 3743984276,
      "showType": "QUEST_HIDDEN",
      "acceptCond": [
        {
          "type": "QUEST_COND_MAIN_COOP_ENTER_SAVE_POINT",
          "param": [
            106501,
            191430201,
            0,
            0,
            0
          ],
          "param_str": ""
        }
      ],
      "finishCond": [
        {
          "type": "QUEST_CONTENT_MAIN_COOP_ENTER_SAVE_POINT",
          "param": [
            106501,
            191430501
          ],
          "param_str": ""
        }
      ],
      "failCond": [],
      "guide": {
        "param": []
      },
      "isRewind": true,
      "finishExec": [],
      "failExec": [],
      "beginExec": [
        {
          "type": "QUEST_EXEC_REGISTER_DYNAMIC_GROUP_ONLY",
          "param": [
            "133221078"
          ],
          "param_str": ""
        }
      ],
      "exclusiveNpcList": [
        12509,
        12510,
        12511,
        12277
      ],
      "exclusiveNpcPriority": 1100
    },
    {
      "subId": 1914307,
      "mainId": 19143,
      "order": 7,
      "descTextMapHash": 1118208364,
      "acceptCond": [
        {
          "type": "QUEST_COND_MAIN_COOP_ENTER_SAVE_POINT",
          "param": [
            106501,
            191430501,
            0,
            0,
            0
          ],
          "param_str": ""
        }
      ],
      "finishCond": [
        {
          "type": "QUEST_CONTENT_MAIN_COOP_ENTER_SAVE_POINT",
          "param": [
            106501,
            191430701
          ],
          "param_str": ""
        }
      ],
      "failCond": [],
      "guide": {
        "type": "QUEST_GUIDE_LOCATION",
        "param": [
          "Q1914307_guide",
          "20"
        ],
        "guideScene": 3,
        "guideLayer": "QUEST_GUIDE_LAYER_SCENE"
      },
      "isRewind": true,
      "finishExec": [
        {
          "type": "QUEST_EXEC_UNREGISTER_DYNAMIC_GROUP",
          "param": [
            "133221078"
          ],
          "param_str": ""
        }
      ],
      "failExec": [],
      "beginExec": [
        {
          "type": "QUEST_EXEC_REGISTER_DYNAMIC_GROUP_ONLY",
          "param": [
            "133221078"
          ],
          "param_str": ""
        }
      ],
      "exclusiveNpcList": [
        1049,
        12277,
        12278
      ],
      "exclusiveNpcPriority": 1100
    },
    {
      "subId": 1914308,
      "mainId": 19143,
      "order": 99,
      "descTextMapHash": 3962705220,
      "acceptCond": [
        {
          "type": "QUEST_COND_STATE_EQUAL",
          "param": [
            99902,
            3,
            0,
            0,
            0
          ],
          "param_str": ""
        }
      ],
      "finishCond": [
        {
          "type": "QUEST_CONTENT_FINISH_PLOT",
          "param": [
            1914308,
            0
          ],
          "param_str": ""
        }
      ],
      "failCond": [],
      "guide": {
        "type": "QUEST_GUIDE_LOCATION",
        "param": [
          "Q1914308_guide",
          "30"
        ],
        "guideScene": 3,
        "guideStyle": "QUEST_GUIDE_STYLE_POINT",
        "guideLayer": "QUEST_GUIDE_LAYER_SCENE"
      },
      "isRewind": true,
      "finishExec": [],
      "failExec": [],
      "beginExec": [
        {
          "type": "QUEST_EXEC_REGISTER_DYNAMIC_GROUP",
          "param": [
            "3",
            "133220749"
          ],
          "param_str": ""
        }
      ]
    },
    {
      "subId": 1914309,
      "mainId": 19143,
      "order": 8,
      "descTextMapHash": 1603981084,
      "acceptCond": [
        {
          "type": "QUEST_COND_MAIN_COOP_ENTER_SAVE_POINT",
          "param": [
            106501,
            191430701,
            0,
            0,
            0
          ],
          "param_str": ""
        }
      ],
      "finishCondComb": "LOGIC_OR",
      "finishCond": [
        {
          "type": "QUEST_CONTENT_MAIN_COOP_ENTER_SAVE_POINT",
          "param": [
            106501,
            191430901
          ],
          "param_str": ""
        },
        {
          "type": "QUEST_CONTENT_MAIN_COOP_ENTER_SAVE_POINT",
          "param": [
            106501,
            191430902
          ],
          "param_str": ""
        }
      ],
      "failCond": [],
      "guide": {
        "type": "QUEST_GUIDE_LOCATION",
        "param": [
          "Q1914309_guide",
          "40"
        ],
        "guideScene": 3,
        "guideStyle": "QUEST_GUIDE_STYLE_POINT",
        "guideLayer": "QUEST_GUIDE_LAYER_SCENE"
      },
      "finishParent": true,
      "isRewind": true,
      "finishExec": [
        {
          "type": "QUEST_EXEC_UNREGISTER_DYNAMIC_GROUP",
          "param": [
            "133220749"
          ],
          "param_str": ""
        }
      ],
      "failExec": [],
      "beginExec": [
        {
          "type": "QUEST_EXEC_REGISTER_DYNAMIC_GROUP",
          "param": [
            "3",
            "133220749"
          ],
          "param_str": ""
        },
        {
          "type": "QUEST_EXEC_REFRESH_GROUP_SUITE",
          "param": [
            "3",
            "133220749,1"
          ],
          "param_str": ""
        }
      ],
      "exclusiveNpcList": [
        1049,
        12276,
        12277,
        12278
      ],
      "exclusiveNpcPriority": 1100
    }
  ],
  "talks": [
    {
      "id": 1914301,
      "beginWay": "TALK_BEGIN_MANUAL",
      "activeMode": "PLAY_MODE_SINGLE",
      "beginCondComb": "LOGIC_OR",
      "beginCond": [
        {
          "type": "QUEST_COND_STATE_EQUAL",
          "param": [
            "1914301",
            "2"
          ],
          "param_str": ""
        },
        {
          "type": "QUEST_COND_STATE_EQUAL",
          "param": [
            "1914302",
            "2"
          ],
          "param_str": ""
        }
      ],
      "priority": 5,
      "initDialog": 191430101,
      "npcId": [
        3018
      ],
      "performCfg": "QuestDialogue/COOP/CoopShinobu/Q1914301",
      "heroTalk": "TALK_HERO_MAIN",
      "questId": 19143,
      "prePerformCfg": ""
    },
    {
      "id": 1914309,
      "beginWay": "TALK_BEGIN_MANUAL",
      "activeMode": "PLAY_MODE_SINGLE",
      "beginCondComb": "LOGIC_OR",
      "beginCond": [
        {
          "type": "QUEST_COND_STATE_EQUAL",
          "param": [
            "1914301",
            "2"
          ],
          "param_str": ""
        },
        {
          "type": "QUEST_COND_STATE_EQUAL",
          "param": [
            "1914302",
            "2"
          ],
          "param_str": ""
        }
      ],
      "priority": 5,
      "initDialog": 191430901,
      "npcId": [
        3038
      ],
      "performCfg": "QuestDialogue/COOP/CoopShinobu/Q1914309",
      "heroTalk": "TALK_HERO_MAIN",
      "questId": 19143,
      "prePerformCfg": ""
    },
    {
      "id": 1914310,
      "beginWay": "TALK_BEGIN_MANUAL",
      "activeMode": "PLAY_MODE_SINGLE",
      "beginCondComb": "LOGIC_OR",
      "beginCond": [
        {
          "type": "QUEST_COND_STATE_EQUAL",
          "param": [
            "1914306",
            "2"
          ],
          "param_str": ""
        },
        {
          "type": "QUEST_COND_STATE_EQUAL",
          "param": [
            "1914304",
            "2"
          ],
          "param_str": ""
        },
        {
          "type": "QUEST_COND_STATE_EQUAL",
          "param": [
            "1914305",
            "2"
          ],
          "param_str": ""
        }
      ],
      "priority": 5,
      "initDialog": 191431001,
      "npcId": [
        12509,
        12511,
        12510
      ],
      "performCfg": "QuestDialogue/COOP/CoopShinobu/Q1914310",
      "heroTalk": "TALK_HERO_MAIN",
      "questId": 19143,
      "prePerformCfg": ""
    },
    {
      "id": 1914311,
      "beginWay": "TALK_BEGIN_MANUAL",
      "activeMode": "PLAY_MODE_SINGLE",
      "beginCond": [
        {
          "type": "QUEST_COND_STATE_EQUAL",
          "param": [
            "1914309",
            "2"
          ],
          "param_str": ""
        }
      ],
      "priority": 5,
      "initDialog": 191431101,
      "npcId": [
        510,
        12278,
        12277
      ],
      "performCfg": "QuestDialogue/COOP/CoopShinobu/Q1914311",
      "heroTalk": "TALK_HERO_MAIN",
      "questId": 19143,
      "prePerformCfg": ""
    }
  ]
}