{
  "id": 20006,
  "type": "IQ",
  "titleTextMapHash": 1080204377,
  "descTextMapHash": 3565923127,
  "luaPath": "Actor/Quest/IQ20006",
  "rewardIdList": [
    501000
  ],
  "subQuests": [
    {
      "subId": 2000601,
      "mainId": 20006,
      "order": 1,
      "descTextMapHash": 2637200680,
      "acceptCond": [
        {
          "type": "QUEST_COND_DAILY_TASK_START",
          "param": [
            20300,
            0,
            0
          ],
          "param_str": ""
        }
      ],
      "finishCond": [
        {
          "type": "QUEST_CONTENT_LUA_NOTIFY",
          "param": [
            0,
            0
          ],
          "param_str": "133004906",
          "count": 1
        }
      ],
      "failCond": [],
      "guide": {
        "type": "QUEST_GUIDE_NPC",
        "param": [
          "1419"
        ],
        "guideScene": 3,
        "guideStyle": "QUEST_GUIDE_STYLE_START",
        "guideLayer": "QUEST_GUIDE_LAYER_UI"
      },
      "isRewind": true,
      "finishExec": [
        {
          "type": "QUEST_EXEC_DEL_PACK_ITEM",
          "param": [
            "100305",
            "1"
          ],
          "param_str": ""
        }
      ],
      "failExec": [],
      "beginExec": [
        {
          "type": "QUEST_EXEC_REFRESH_GROUP_SUITE",
          "param": [
            "3",
            "133004906,2"
          ],
          "param_str": ""
        }
      ],
      "exclusiveNpcList": [
        159401
      ]
    },
    {
      "subId": 2000602,
      "mainId": 20006,
      "order": 2,
      "descTextMapHash": 3050177168,
      "acceptCondComb": "LOGIC_AND",
      "acceptCond": [
        {
          "type": "QUEST_COND_DAILY_TASK_START",
          "param": [
            20300,
            0,
            0
          ],
          "param_str": ""
        },
        {
          "type": "QUEST_COND_STATE_EQUAL",
          "param": [
            2000601,
            3,
            0
          ],
          "param_str": ""
        }
      ],
      "finishCond": [
        {
          "type": "QUEST_CONTENT_COMPLETE_TALK",
          "param": [
            2000601,
            0
          ],
          "param_str": ""
        }
      ],
      "failCond": [],
      "guide": {
        "type": "QUEST_GUIDE_NPC",
        "param": [
          "1419"
        ],
        "guideScene": 3,
        "guideStyle": "QUEST_GUIDE_STYLE_TARGET",
        "guideLayer": "QUEST_GUIDE_LAYER_SCENE"
      },
      "isRewind": true,
      "finishExec": [
        {
          "type": "QUEST_EXEC_REFRESH_GROUP_SUITE",
          "param": [
            "3",
            "133002902,2"
          ],
          "param_str": ""
        }
      ],
      "failExec": [],
      "beginExec": [
        {
          "type": "QUEST_EXEC_REFRESH_GROUP_SUITE",
          "param": [
            "3",
            "133002902,1"
          ],
          "param_str": ""
        },
        {
          "type": "QUEST_EXEC_DEL_PACK_ITEM",
          "param": [
            "100305",
            "999"
          ],
          "param_str": ""
        },
        {
          "type": "QUEST_EXEC_DEL_PACK_ITEM",
          "param": [
            "100304",
            "999"
          ],
          "param_str": ""
        }
      ],
      "exclusiveNpcList": [
        159401
      ]
    },
    {
      "subId": 2000603,
      "mainId": 20006,
      "order": 3,
      "descTextMapHash": 386774408,
      "showType": "QUEST_HIDDEN",
      "banType": "BAN_GROUP_TRANSPOR_GOTO_SCENE",
      "acceptCondComb": "LOGIC_AND",
      "acceptCond": [
        {
          "type": "QUEST_COND_DAILY_TASK_START",
          "param": [
            20300,
            0,
            0
          ],
          "param_str": ""
        },
        {
          "type": "QUEST_COND_STATE_EQUAL",
          "param": [
            2000602,
            3,
            0
          ],
          "param_str": ""
        }
      ],
      "finishCond": [
        {
          "type": "QUEST_CONTENT_COMPLETE_TALK",
          "param": [
            2000602,
            0
          ],
          "param_str": ""
        }
      ],
      "failCondComb": "LOGIC_OR",
      "failCond": [
        {
          "type": "QUEST_CONTENT_NOT_FINISH_PLOT",
          "param": [
            2000603,
            0
          ],
          "param_str": ""
        },
        {
          "type": "QUEST_CONTENT_ITEM_LESS_THAN",
          "param": [
            100305,
            1
          ],
          "param_str": ""
        }
      ],
      "guide": {
        "param": []
      },
      "finishExec": [],
      "failExec": [
        {
          "type": "QUEST_EXEC_DEL_PACK_ITEM",
          "param": [
            "100305",
            "1"
          ],
          "param_str": ""
        }
      ],
      "beginExec": [],
      "exclusiveNpcList": [
        159401
      ]
    },
    {
      "subId": 2000604,
      "mainId": 20006,
      "order": 7,
      "descTextMapHash": 1534511024,
      "acceptCondComb": "LOGIC_AND",
      "acceptCond": [
        {
          "type": "QUEST_COND_DAILY_TASK_START",
          "param": [
            20300,
            0,
            0
          ],
          "param_str": ""
        },
        {
          "type": "QUEST_COND_STATE_EQUAL",
          "param": [
            2000607,
            3,
            0
          ],
          "param_str": ""
        }
      ],
      "finishCond": [
        {
          "type": "QUEST_CONTENT_COMPLETE_TALK",
          "param": [
            2000602,
            0
          ],
          "param_str": ""
        }
      ],
      "failCond": [],
      "guide": {
        "type": "QUEST_GUIDE_NPC",
        "param": [
          "159401"
        ],
        "guideScene": 3,
        "guideStyle": "QUEST_GUIDE_STYLE_TARGET",
        "guideLayer": "QUEST_GUIDE_LAYER_UI"
      },
      "finishExec": [
        {
          "type": "QUEST_EXEC_DEL_PACK_ITEM",
          "param": [
            "100305",
            "1"
          ],
          "param_str": ""
        }
      ],
      "failExec": [],
      "beginExec": []
    },
    {
      "subId": 2000605,
      "mainId": 20006,
      "order": 4,
      "descTextMapHash": 2898614968,
      "showType": "QUEST_HIDDEN",
      "acceptCondComb": "LOGIC_AND",
      "acceptCond": [
        {
          "type": "QUEST_COND_DAILY_TASK_START",
          "param": [
            20300,
            0,
            0
          ],
          "param_str": ""
        },
        {
          "type": "QUEST_COND_STATE_EQUAL",
          "param": [
            2000603,
            4,
            0
          ],
          "param_str": ""
        }
      ],
      "finishCond": [
        {
          "type": "QUEST_CONTENT_COMPLETE_TALK",
          "param": [
            2000602,
            0
          ],
          "param_str": ""
        }
      ],
      "failCond": [
        {
          "type": "QUEST_CONTENT_NOT_FINISH_PLOT",
          "param": [
            2000605,
            0
          ],
          "param_str": ""
        }
      ],
      "guide": {
        "param": []
      },
      "finishExec": [],
      "failExec": [
        {
          "type": "QUEST_EXEC_ROLLBACK_QUEST",
          "param": [
            "2000602"
          ],
          "param_str": ""
        }
      ],
      "beginExec": [],
      "exclusiveNpcList": [
        159401
      ]
    },
    {
      "subId": 2000606,
      "mainId": 20006,
      "order": 5,
      "descTextMapHash": 1836083320,
      "acceptCondComb": "LOGIC_AND",
      "acceptCond": [
        {
          "type": "QUEST_COND_DAILY_TASK_START",
          "param": [
            20300,
            0,
            0
          ],
          "param_str": ""
        },
        {
          "type": "QUEST_COND_STATE_EQUAL",
          "param": [
            2000602,
            3,
            0
          ],
          "param_str": ""
        }
      ],
      "finishCond": [
        {
          "type": "QUEST_CONTENT_LUA_NOTIFY",
          "param": [
            0,
            0
          ],
          "param_str": "13300290201",
          "count": 1
        }
      ],
      "failCond": [],
      "guide": {
        "type": "QUEST_GUIDE_NPC",
        "param": [
          "159401"
        ],
        "guideScene": 3,
        "guideStyle": "QUEST_GUIDE_STYLE_TARGET",
        "guideLayer": "QUEST_GUIDE_LAYER_SCENE"
      },
      "finishExec": [],
      "failExec": [],
      "beginExec": []
    },
    {
      "subId": 2000607,
      "mainId": 20006,
      "order": 6,
      "descTextMapHash": 2276142184,
      "acceptCondComb": "LOGIC_AND",
      "acceptCond": [
        {
          "type": "QUEST_COND_DAILY_TASK_START",
          "param": [
            20300,
            0,
            0
          ],
          "param_str": ""
        },
        {
          "type": "QUEST_COND_STATE_EQUAL",
          "param": [
            2000606,
            3,
            0
          ],
          "param_str": ""
        }
      ],
      "finishCond": [
        {
          "type": "QUEST_CONTENT_LUA_NOTIFY",
          "param": [
            0,
            0
          ],
          "param_str": "133002902",
          "count": 1
        }
      ],
      "failCond": [],
      "guide": {
        "type": "QUEST_GUIDE_LOCATION",
        "param": [
          "EventNpc102",
          "20"
        ],
        "guideScene": 3,
        "guideStyle": "QUEST_GUIDE_STYLE_TARGET",
        "guideLayer": "QUEST_GUIDE_LAYER_SCENE"
      },
      "finishExec": [],
      "failExec": [],
      "beginExec": []
    },
    {
      "subId": 2000610,
      "mainId": 20006,
      "order": 8,
      "descTextMapHash": 296639848,
      "acceptCondComb": "LOGIC_AND",
      "acceptCond": [
        {
          "type": "QUEST_COND_DAILY_TASK_START",
          "param": [
            20300,
            0,
            0
          ],
          "param_str": ""
        },
        {
          "type": "QUEST_COND_STATE_EQUAL",
          "param": [
            2000604,
            3,
            0
          ],
          "param_str": ""
        }
      ],
      "finishCond": [
        {
          "type": "QUEST_CONTENT_COMPLETE_TALK",
          "param": [
            2000604,
            0
          ],
          "param_str": ""
        }
      ],
      "failCond": [],
      "guide": {
        "type": "QUEST_GUIDE_NPC",
        "param": [
          "1419"
        ],
        "guideScene": 3,
        "guideStyle": "QUEST_GUIDE_STYLE_FINISH",
        "guideLayer": "QUEST_GUIDE_LAYER_SCENE"
      },
      "finishParent": true,
      "finishExec": [
        {
          "type": "QUEST_EXEC_NOTIFY_DAILY_TASK",
          "param": [
            "20300"
          ],
          "param_str": ""
        },
        {
          "type": "QUEST_EXEC_DEL_PACK_ITEM",
          "param": [
            "100304",
            "1"
          ],
          "param_str": ""
        }
      ],
      "failExec": [],
      "beginExec": []
    }
  ],
  "talks": [
    {
      "id": 2000601,
      "beginCondComb": "LOGIC_AND",
      "beginCond": [
        {
          "type": "QUEST_COND_STATE_EQUAL",
          "param": [
            "2000601",
            "3"
          ],
          "param_str": ""
        },
        {
          "type": "QUEST_COND_STATE_EQUAL",
          "param": [
            "2000602",
            "2"
          ],
          "param_str": ""
        }
      ],
      "priority": 2,
      "initDialog": 200060101,
      "npcId": [
        1419
      ],
      "performCfg": "",
      "questId": 20006,
      "dontBlockDaily": true,
      "prePerformCfg": ""
    },
    {
      "id": 2000602,
      "beginWay": "TALK_BEGIN_MANUAL",
      "beginCondComb": "LOGIC_AND",
      "beginCond": [
        {
          "type": "QUEST_COND_STATE_EQUAL",
          "param": [
            "2000607",
            "3"
          ],
          "param_str": ""
        },
        {
          "type": "QUEST_COND_STATE_EQUAL",
          "param": [
            "2000604",
            "2"
          ],
          "param_str": ""
        }
      ],
      "priority": 1,
      "initDialog": 200060201,
      "npcId": [
        159401
      ],
      "performCfg": "",
      "questId": 20006,
      "prePerformCfg": ""
    },
    {
      "id": 2000604,
      "beginCondComb": "LOGIC_AND",
      "beginCond": [
        {
          "type": "QUEST_COND_STATE_EQUAL",
          "param": [
            "2000604",
            "3"
          ],
          "param_str": ""
        },
        {
          "type": "QUEST_COND_STATE_EQUAL",
          "param": [
            "2000610",
            "2"
          ],
          "param_str": ""
        }
      ],
      "priority": 2,
      "initDialog": 200060401,
      "npcId": [
        1419
      ],
      "performCfg": "",
      "questId": 20006,
      "dontBlockDaily": true,
      "prePerformCfg": ""
    }
  ]
}