{
  "id": 2002,
  "series": 1201,
  "titleTextMapHash": 3473314535,
  "descTextMapHash": 2024314502,
  "luaPath": "Actor/Quest/AQ2002",
  "rewardIdList": [
    102002
  ],
  "chapterId": 1201,
  "subQuests": [
    {
      "subId": 200201,
      "mainId": 2002,
      "order": 5,
      "isMpBlock": true,
      "descTextMapHash": 126916732,
      "acceptCond": [
        {
          "type": "QUEST_COND_STATE_EQUAL",
          "param": [
            200204,
            3,
            0,
            0,
            0
          ],
          "param_str": ""
        }
      ],
      "finishCond": [
        {
          "type": "QUEST_CONTENT_FINISH_PLOT",
          "param": [
            200201,
            0
          ],
          "param_str": ""
        }
      ],
      "failCond": [],
      "guide": {
        "type": "QUEST_GUIDE_LOCATION",
        "param": [
          "Q200201Trigger"
        ],
        "guideScene": 3,
        "guideStyle": "QUEST_GUIDE_STYLE_POINT",
        "guideLayer": "QUEST_GUIDE_LAYER_SCENE"
      },
      "showGuide": "QUEST_GUIDE_ITEM_DISABLE",
      "isRewind": true,
      "finishExec": [],
      "failExec": [],
      "beginExec": [
        {
          "type": "QUEST_EXEC_REGISTER_DYNAMIC_GROUP",
          "param": [
            "3",
            "133108007"
          ],
          "param_str": ""
        },
        {
          "type": "QUEST_EXEC_REGISTER_DYNAMIC_GROUP",
          "param": [
            "3",
            "133108003"
          ],
          "param_str": ""
        }
      ],
      "exclusiveNpcList": [
        10412,
        10416,
        10417,
        10418,
        1031
      ],
      "exclusiveNpcPriority": 1000,
      "exclusivePlaceList": [
        40039
      ]
    },
    {
      "subId": 200202,
      "mainId": 2002,
      "order": 1,
      "descTextMapHash": 1669833132,
      "acceptCond": [
        {
          "type": "QUEST_COND_STATE_EQUAL",
          "param": [
            200113,
            3,
            0,
            0,
            0
          ],
          "param_str": ""
        }
      ],
      "finishCond": [
        {
          "type": "QUEST_CONTENT_COMPLETE_TALK",
          "param": [
            200202,
            0
          ],
          "param_str": ""
        }
      ],
      "failCond": [],
      "guide": {
        "type": "QUEST_GUIDE_NPC",
        "param": [
          "1031"
        ],
        "guideScene": 3,
        "guideStyle": "QUEST_GUIDE_STYLE_TARGET",
        "guideLayer": "QUEST_GUIDE_LAYER_SCENE"
      },
      "isRewind": true,
      "finishExec": [],
      "failExec": [],
      "beginExec": [
        {
          "type": "QUEST_EXEC_REGISTER_DYNAMIC_GROUP",
          "param": [
            "3",
            "133108007"
          ],
          "param_str": ""
        },
        {
          "type": "QUEST_EXEC_REGISTER_DYNAMIC_GROUP",
          "param": [
            "3",
            "133108008"
          ],
          "param_str": ""
        },
        {
          "type": "QUEST_EXEC_REFRESH_GROUP_SUITE",
          "param": [
            "3",
            "133108008,3"
          ],
          "param_str": ""
        },
        {
          "type": "QUEST_EXEC_REFRESH_GROUP_SUITE",
          "param": [
            "3",
            "133108906,9"
          ],
          "param_str": ""
        }
      ],
      "exclusiveNpcList": [
        10412,
        10416,
        10417,
        10418,
        1032,
        1031
      ],
      "exclusiveNpcPriority": 1000,
      "exclusivePlaceList": [
        40039
      ]
    },
    {
      "subId": 200203,
      "mainId": 2002,
      "order": 2,
      "descTextMapHash": 3990247908,
      "acceptCond": [
        {
          "type": "QUEST_COND_STATE_EQUAL",
          "param": [
            200202,
            3,
            0,
            0,
            0
          ],
          "param_str": ""
        }
      ],
      "finishCond": [
        {
          "type": "QUEST_CONTENT_INTERACT_GADGET",
          "param": [
            70710357,
            0
          ],
          "param_str": "",
          "count": 1
        }
      ],
      "failCond": [],
      "guide": {
        "type": "QUEST_GUIDE_LOCATION",
        "param": [
          "Q200203Vision"
        ],
        "guideScene": 3,
        "guideStyle": "QUEST_GUIDE_STYLE_POINT",
        "guideLayer": "QUEST_GUIDE_LAYER_SCENE"
      },
      "showGuide": "QUEST_GUIDE_ITEM_DISABLE",
      "isRewind": true,
      "finishExec": [],
      "failExec": [],
      "beginExec": [
        {
          "type": "QUEST_EXEC_REGISTER_DYNAMIC_GROUP",
          "param": [
            "3",
            "133108007"
          ],
          "param_str": ""
        },
        {
          "type": "QUEST_EXEC_REGISTER_DYNAMIC_GROUP",
          "param": [
            "3",
            "133108008"
          ],
          "param_str": ""
        },
        {
          "type": "QUEST_EXEC_REFRESH_GROUP_SUITE",
          "param": [
            "3",
            "133108008,3"
          ],
          "param_str": ""
        }
      ],
      "exclusiveNpcList": [
        10412,
        10416,
        10417,
        10418,
        1032,
        1031
      ],
      "exclusiveNpcPriority": 1000,
      "exclusivePlaceList": [
        40039
      ]
    },
    {
      "subId": 200204,
      "mainId": 2002,
      "order": 4,
      "descTextMapHash": 4050025652,
      "acceptCond": [
        {
          "type": "QUEST_COND_STATE_EQUAL",
          "param": [
            200203,
            3,
            0,
            0,
            0
          ],
          "param_str": ""
        }
      ],
      "finishCond": [
        {
          "type": "QUEST_CONTENT_COMPLETE_TALK",
          "param": [
            200204,
            0
          ],
          "param_str": ""
        }
      ],
      "failCond": [],
      "guide": {
        "type": "QUEST_GUIDE_NPC",
        "param": [
          "1032"
        ],
        "guideScene": 3,
        "guideStyle": "QUEST_GUIDE_STYLE_TARGET",
        "guideLayer": "QUEST_GUIDE_LAYER_SCENE"
      },
      "finishExec": [],
      "failExec": [],
      "beginExec": [
        {
          "type": "QUEST_EXEC_REFRESH_GROUP_SUITE",
          "param": [
            "3",
            "133108906,6"
          ],
          "param_str": ""
        },
        {
          "type": "QUEST_EXEC_REGISTER_DYNAMIC_GROUP",
          "param": [
            "3",
            "133108007"
          ],
          "param_str": ""
        }
      ],
      "exclusiveNpcList": [
        10412,
        10416,
        10417,
        10418,
        1032,
        1031
      ],
      "exclusiveNpcPriority": 1000,
      "exclusivePlaceList": [
        40039
      ]
    },
    {
      "subId": 200205,
      "mainId": 2002,
      "order": 6,
      "isMpBlock": true,
      "descTextMapHash": 2917796604,
      "banType": "BAN_GROUP_TRANSPORT_ONLY",
      "acceptCond": [
        {
          "type": "QUEST_COND_STATE_EQUAL",
          "param": [
            200201,
            3,
            0,
            0,
            0
          ],
          "param_str": ""
        }
      ],
      "finishCond": [
        {
          "type": "QUEST_CONTENT_FINISH_PLOT",
          "param": [
            200205,
            0
          ],
          "param_str": ""
        }
      ],
      "failCond": [
        {
          "type": "QUEST_CONTENT_LUA_NOTIFY",
          "param": [
            0,
            0
          ],
          "param_str": "200205",
          "count": 1
        }
      ],
      "guide": {
        "type": "QUEST_GUIDE_LOCATION",
        "param": [
          "Q200205Target",
          "30"
        ],
        "guideScene": 3,
        "guideStyle": "QUEST_GUIDE_STYLE_POINT",
        "guideLayer": "QUEST_GUIDE_LAYER_SCENE"
      },
      "showGuide": "QUEST_GUIDE_ITEM_DISABLE",
      "failParentShow": "QUEST_HIDDEN",
      "finishExec": [],
      "failExec": [
        {
          "type": "QUEST_EXEC_ROLLBACK_QUEST",
          "param": [
            "200201"
          ],
          "param_str": ""
        }
      ],
      "beginExec": [
        {
          "type": "QUEST_EXEC_REFRESH_GROUP_SUITE",
          "param": [
            "3",
            "133108906,7"
          ],
          "param_str": ""
        },
        {
          "type": "QUEST_EXEC_REGISTER_DYNAMIC_GROUP",
          "param": [
            "3",
            "133108007"
          ],
          "param_str": ""
        },
        {
          "type": "QUEST_EXEC_REGISTER_DYNAMIC_GROUP",
          "param": [
            "3",
            "133108003"
          ],
          "param_str": ""
        }
      ],
      "exclusiveNpcList": [
        10412,
        10416,
        10417,
        10418,
        1031
      ],
      "exclusiveNpcPriority": 1000,
      "exclusivePlaceList": [
        40039
      ]
    },
    {
      "subId": 200206,
      "mainId": 2002,
      "order": 7,
      "isMpBlock": true,
      "descTextMapHash": 1747203276,
      "acceptCond": [
        {
          "type": "QUEST_COND_STATE_EQUAL",
          "param": [
            200205,
            3,
            0,
            0,
            0
          ],
          "param_str": ""
        }
      ],
      "finishCond": [
        {
          "type": "QUEST_CONTENT_INTERACT_GADGET",
          "param": [
            70710358,
            0
          ],
          "param_str": "",
          "count": 1
        }
      ],
      "failCond": [],
      "guide": {
        "type": "QUEST_GUIDE_LOCATION",
        "param": [
          "Q200206Clue"
        ],
        "guideScene": 3,
        "guideStyle": "QUEST_GUIDE_STYLE_POINT",
        "guideLayer": "QUEST_GUIDE_LAYER_SCENE"
      },
      "showGuide": "QUEST_GUIDE_ITEM_DISABLE",
      "isRewind": true,
      "finishExec": [],
      "failExec": [],
      "beginExec": [
        {
          "type": "QUEST_EXEC_REGISTER_DYNAMIC_GROUP",
          "param": [
            "3",
            "133108007"
          ],
          "param_str": ""
        },
        {
          "type": "QUEST_EXEC_UNREGISTER_DYNAMIC_GROUP",
          "param": [
            "133108003"
          ],
          "param_str": ""
        }
      ],
      "exclusiveNpcList": [
        10412,
        10416,
        10417,
        10418
      ],
      "exclusiveNpcPriority": 1000,
      "exclusivePlaceList": [
        40039
      ]
    },
    {
      "subId": 200207,
      "mainId": 2002,
      "order": 8,
      "isMpBlock": true,
      "descTextMapHash": 4179872452,
      "banType": "BAN_GROUP_TRANSPORT_ONLY",
      "acceptCond": [
        {
          "type": "QUEST_COND_STATE_EQUAL",
          "param": [
            200206,
            3,
            0,
            0,
            0
          ],
          "param_str": ""
        }
      ],
      "finishCond": [
        {
          "type": "QUEST_CONTENT_FINISH_PLOT",
          "param": [
            200207,
            0
          ],
          "param_str": ""
        }
      ],
      "failCond": [
        {
          "type": "QUEST_CONTENT_LUA_NOTIFY",
          "param": [
            0,
            0
          ],
          "param_str": "200207",
          "count": 1
        }
      ],
      "guide": {
        "type": "QUEST_GUIDE_LOCATION",
        "param": [
          "Q200207Target",
          "30"
        ],
        "guideScene": 3,
        "guideStyle": "QUEST_GUIDE_STYLE_POINT",
        "guideLayer": "QUEST_GUIDE_LAYER_SCENE"
      },
      "showGuide": "QUEST_GUIDE_ITEM_DISABLE",
      "failParentShow": "QUEST_HIDDEN",
      "finishExec": [],
      "failExec": [
        {
          "type": "QUEST_EXEC_ROLLBACK_QUEST",
          "param": [
            "200206"
          ],
          "param_str": ""
        }
      ],
      "beginExec": [
        {
          "type": "QUEST_EXEC_REGISTER_DYNAMIC_GROUP",
          "param": [
            "3",
            "133108007"
          ],
          "param_str": ""
        },
        {
          "type": "QUEST_EXEC_REGISTER_DYNAMIC_GROUP",
          "param": [
            "3",
            "133108003"
          ],
          "param_str": ""
        },
        {
          "type": "QUEST_EXEC_REFRESH_GROUP_SUITE",
          "param": [
            "3",
            "133108003,2"
          ],
          "param_str": ""
        }
      ],
      "exclusiveNpcList": [
        10412,
        10416,
        10417,
        10418
      ],
      "exclusiveNpcPriority": 1000,
      "exclusivePlaceList": [
        40039
      ]
    },
    {
      "subId": 200208,
      "mainId": 2002,
      "order": 9,
      "descTextMapHash": 660727452,
      "acceptCond": [
        {
          "type": "QUEST_COND_STATE_EQUAL",
          "param": [
            200207,
            3,
            0,
            0,
            0
          ],
          "param_str": ""
        }
      ],
      "finishCond": [
        {
          "type": "QUEST_CONTENT_LUA_NOTIFY",
          "param": [
            0,
            0
          ],
          "param_str": "200208",
          "count": 1
        }
      ],
      "failCond": [],
      "guide": {
        "type": "QUEST_GUIDE_LOCATION",
        "param": [
          "Q200207Target",
          "30"
        ],
        "guideScene": 3,
        "guideStyle": "QUEST_GUIDE_STYLE_POINT",
        "guideLayer": "QUEST_GUIDE_LAYER_SCENE"
      },
      "showGuide": "QUEST_GUIDE_ITEM_DISABLE",
      "finishExec": [
        {
          "type": "QUEST_EXEC_UNREGISTER_DYNAMIC_GROUP",
          "param": [
            "133108003"
          ],
          "param_str": ""
        }
      ],
      "failExec": [],
      "beginExec": [
        {
          "type": "QUEST_EXEC_REGISTER_DYNAMIC_GROUP",
          "param": [
            "3",
            "133108909"
          ],
          "param_str": ""
        },
        {
          "type": "QUEST_EXEC_REGISTER_DYNAMIC_GROUP",
          "param": [
            "3",
            "133108007"
          ],
          "param_str": ""
        },
        {
          "type": "QUEST_EXEC_REFRESH_GROUP_SUITE",
          "param": [
            "3",
            "133108909,1"
          ],
          "param_str": ""
        }
      ],
      "exclusiveNpcList": [
        10412,
        10416,
        10417,
        10418
      ],
      "exclusiveNpcPriority": 1000,
      "exclusivePlaceList": [
        40039
      ]
    },
    {
      "subId": 200209,
      "mainId": 2002,
      "order": 10,
      "descTextMapHash": 1065994148,
      "acceptCond": [
        {
          "type": "QUEST_COND_STATE_EQUAL",
          "param": [
            200208,
            3,
            0,
            0,
            0
          ],
          "param_str": ""
        }
      ],
      "finishCond": [
        {
          "type": "QUEST_CONTENT_COMPLETE_TALK",
          "param": [
            200209,
            0
          ],
          "param_str": ""
        }
      ],
      "failCond": [],
      "guide": {
        "type": "QUEST_GUIDE_NPC",
        "param": [
          "10414"
        ],
        "guideScene": 3,
        "guideStyle": "QUEST_GUIDE_STYLE_TARGET",
        "guideLayer": "QUEST_GUIDE_LAYER_SCENE"
      },
      "isRewind": true,
      "finishExec": [],
      "failExec": [],
      "beginExec": [
        {
          "type": "QUEST_EXEC_REGISTER_DYNAMIC_GROUP",
          "param": [
            "3",
            "133108007"
          ],
          "param_str": ""
        },
        {
          "type": "QUEST_EXEC_UNREGISTER_DYNAMIC_GROUP",
          "param": [
            "133108910"
          ],
          "param_str": ""
        },
        {
          "type": "QUEST_EXEC_REGISTER_DYNAMIC_GROUP",
          "param": [
            "3",
            "133108909"
          ],
          "param_str": ""
        }
      ],
      "exclusiveNpcList": [
        10412,
        10416,
        10417,
        10418,
        1032,
        10414
      ],
      "exclusiveNpcPriority": 1000,
      "exclusivePlaceList": [
        40039
      ]
    },
    {
      "subId": 200210,
      "mainId": 2002,
      "order": 11,
      "descTextMapHash": 2637370004,
      "acceptCond": [
        {
          "type": "QUEST_COND_STATE_EQUAL",
          "param": [
            200209,
            3,
            0,
            0,
            0
          ],
          "param_str": ""
        }
      ],
      "finishCond": [
        {
          "type": "QUEST_CONTENT_LUA_NOTIFY",
          "param": [
            0,
            0
          ],
          "param_str": "200210",
          "count": 1
        }
      ],
      "failCond": [],
      "guide": {
        "type": "QUEST_GUIDE_LOCATION",
        "param": [
          "Q200209Npc",
          "30"
        ],
        "guideScene": 3,
        "guideStyle": "QUEST_GUIDE_STYLE_POINT",
        "guideLayer": "QUEST_GUIDE_LAYER_SCENE"
      },
      "showGuide": "QUEST_GUIDE_ITEM_DISABLE",
      "finishExec": [
        {
          "type": "QUEST_EXEC_UNREGISTER_DYNAMIC_GROUP",
          "param": [
            "133108910",
            "1"
          ],
          "param_str": ""
        }
      ],
      "failExec": [],
      "beginExec": [
        {
          "type": "QUEST_EXEC_REGISTER_DYNAMIC_GROUP",
          "param": [
            "3",
            "133108910"
          ],
          "param_str": ""
        },
        {
          "type": "QUEST_EXEC_REGISTER_DYNAMIC_GROUP",
          "param": [
            "3",
            "133108007"
          ],
          "param_str": ""
        },
        {
          "type": "QUEST_EXEC_REGISTER_DYNAMIC_GROUP",
          "param": [
            "3",
            "133108909"
          ],
          "param_str": ""
        }
      ],
      "exclusiveNpcList": [
        10412,
        10416,
        10417,
        10418,
        10414
      ],
      "exclusiveNpcPriority": 1000,
      "exclusivePlaceList": [
        40039
      ]
    },
    {
      "subId": 200211,
      "mainId": 2002,
      "order": 12,
      "descTextMapHash": 2133159044,
      "acceptCond": [
        {
          "type": "QUEST_COND_STATE_EQUAL",
          "param": [
            200210,
            3,
            0,
            0,
            0
          ],
          "param_str": ""
        }
      ],
      "finishCond": [
        {
          "type": "QUEST_CONTENT_COMPLETE_TALK",
          "param": [
            200211,
            0
          ],
          "param_str": ""
        }
      ],
      "failCond": [],
      "guide": {
        "type": "QUEST_GUIDE_NPC",
        "param": [
          "10414"
        ],
        "guideScene": 3,
        "guideStyle": "QUEST_GUIDE_STYLE_TARGET",
        "guideLayer": "QUEST_GUIDE_LAYER_SCENE"
      },
      "isRewind": true,
      "finishExec": [
        {
          "type": "QUEST_EXEC_UNREGISTER_DYNAMIC_GROUP",
          "param": [
            "133108909",
            "1"
          ],
          "param_str": ""
        }
      ],
      "failExec": [],
      "beginExec": [
        {
          "type": "QUEST_EXEC_REGISTER_DYNAMIC_GROUP",
          "param": [
            "3",
            "133108007"
          ],
          "param_str": ""
        },
        {
          "type": "QUEST_EXEC_REGISTER_DYNAMIC_GROUP",
          "param": [
            "3",
            "133108909"
          ],
          "param_str": ""
        }
      ],
      "exclusiveNpcList": [
        10412,
        10416,
        10417,
        10418,
        1032,
        10414
      ],
      "exclusiveNpcPriority": 1000,
      "exclusivePlaceList": [
        40039
      ]
    },
    {
      "subId": 200212,
      "mainId": 2002,
      "order": 13,
      "descTextMapHash": 2898332884,
      "acceptCond": [
        {
          "type": "QUEST_COND_STATE_EQUAL",
          "param": [
            200211,
            3,
            0,
            0,
            0
          ],
          "param_str": ""
        }
      ],
      "finishCond": [
        {
          "type": "QUEST_CONTENT_COMPLETE_TALK",
          "param": [
            200212,
            0
          ],
          "param_str": ""
        }
      ],
      "failCond": [],
      "guide": {
        "type": "QUEST_GUIDE_NPC",
        "param": [
          "10412"
        ],
        "guideScene": 3,
        "guideStyle": "QUEST_GUIDE_STYLE_TARGET",
        "guideLayer": "QUEST_GUIDE_LAYER_SCENE"
      },
      "finishParent": true,
      "isRewind": true,
      "finishExec": [
        {
          "type": "QUEST_EXEC_UNREGISTER_DYNAMIC_GROUP",
          "param": [
            "133108007",
            "1"
          ],
          "param_str": ""
        },
        {
          "type": "QUEST_EXEC_UNREGISTER_DYNAMIC_GROUP",
          "param": [
            "133108008"
          ],
          "param_str": ""
        },
        {
          "type": "QUEST_EXEC_REFRESH_GROUP_SUITE",
          "param": [
            "3",
            "133108906,1"
          ],
          "param_str": ""
        },
        {
          "type": "QUEST_EXEC_SET_QUEST_GLOBAL_VAR",
          "param": [
            "10013",
            "1"
          ],
          "param_str": ""
        },
        {
          "type": "QUEST_EXEC_UNLOCK_POINT",
          "param": [
            "3",
            "439"
          ],
          "param_str": ""
        }
      ],
      "failExec": [],
      "beginExec": [
        {
          "type": "QUEST_EXEC_REGISTER_DYNAMIC_GROUP",
          "param": [
            "3",
            "133108007"
          ],
          "param_str": ""
        }
      ],
      "exclusiveNpcList": [
        10412,
        1032,
        2143
      ],
      "exclusiveNpcPriority": 1000,
      "exclusivePlaceList": [
        40039
      ]
    },
    {
      "subId": 200213,
      "mainId": 2002,
      "order": 3,
      "descTextMapHash": 2070018292,
      "showType": "QUEST_HIDDEN",
      "acceptCond": [
        {
          "type": "QUEST_COND_STATE_EQUAL",
          "param": [
            200203,
            3,
            0,
            0,
            0
          ],
          "param_str": ""
        }
      ],
      "finishCond": [
        {
          "type": "QUEST_CONTENT_FINISH_PLOT",
          "param": [
            200213,
            0
          ],
          "param_str": ""
        }
      ],
      "failCond": [],
      "guide": {
        "param": []
      },
      "finishExec": [
        {
          "type": "QUEST_EXEC_REFRESH_GROUP_SUITE",
          "param": [
            "3",
            "133108008,4"
          ],
          "param_str": ""
        }
      ],
      "failExec": [],
      "beginExec": []
    }
  ],
  "talks": [
    {
      "id": 200201,
      "beginWay": "TALK_BEGIN_MANUAL",
      "activeMode": "PLAY_MODE_SINGLE",
      "beginCond": [
        {
          "type": "QUEST_COND_STATE_EQUAL",
          "param": [
            "200202",
            "2"
          ],
          "param_str": ""
        }
      ],
      "priority": 5,
      "initDialog": 20020101,
      "npcId": [
        10412
      ],
      "performCfg": "QuestDialogue/AQ/Daoqi1_2002/Q200201",
      "questId": 2002,
      "prePerformCfg": ""
    },
    {
      "id": 200202,
      "beginWay": "TALK_BEGIN_MANUAL",
      "activeMode": "PLAY_MODE_SINGLE",
      "beginCond": [
        {
          "type": "QUEST_COND_STATE_EQUAL",
          "param": [
            "200202",
            "2"
          ],
          "param_str": ""
        }
      ],
      "priority": 5,
      "initDialog": 20020201,
      "npcId": [
        1031
      ],
      "performCfg": "QuestDialogue/AQ/Daoqi1_2002/Q200202",
      "questId": 2002,
      "prePerformCfg": ""
    },
    {
      "id": 200204,
      "beginWay": "TALK_BEGIN_MANUAL",
      "activeMode": "PLAY_MODE_SINGLE",
      "beginCond": [
        {
          "type": "QUEST_COND_STATE_EQUAL",
          "param": [
            "200204",
            "2"
          ],
          "param_str": ""
        }
      ],
      "priority": 5,
      "initDialog": 20020401,
      "npcId": [
        1031,
        1005,
        1032
      ],
      "performCfg": "QuestDialogue/AQ/Daoqi1_2002/Q200204",
      "questId": 2002,
      "prePerformCfg": ""
    },
    {
      "id": 200209,
      "beginWay": "TALK_BEGIN_MANUAL",
      "activeMode": "PLAY_MODE_SINGLE",
      "beginCond": [
        {
          "type": "QUEST_COND_STATE_EQUAL",
          "param": [
            "200209",
            "2"
          ],
          "param_str": ""
        }
      ],
      "priority": 5,
      "initDialog": 20020901,
      "npcId": [
        10414,
        1032,
        1005
      ],
      "performCfg": "QuestDialogue/AQ/Daoqi1_2002/Q200209",
      "questId": 2002,
      "prePerformCfg": ""
    },
    {
      "id": 200211,
      "beginWay": "TALK_BEGIN_MANUAL",
      "activeMode": "PLAY_MODE_SINGLE",
      "beginCond": [
        {
          "type": "QUEST_COND_STATE_EQUAL",
          "param": [
            "200211",
            "2"
          ],
          "param_str": ""
        }
      ],
      "priority": 5,
      "initDialog": 20021101,
      "npcId": [
        10414,
        1032,
        1005
      ],
      "performCfg": "QuestDialogue/AQ/Daoqi1_2002/Q200211",
      "questId": 2002,
      "prePerformCfg": ""
    },
    {
      "id": 200212,
      "beginWay": "TALK_BEGIN_MANUAL",
      "activeMode": "PLAY_MODE_SINGLE",
      "beginCond": [
        {
          "type": "QUEST_COND_STATE_EQUAL",
          "param": [
            "200212",
            "2"
          ],
          "param_str": ""
        }
      ],
      "priority": 5,
      "initDialog": 20021201,
      "npcId": [
        1005,
        10412,
        1032
      ],
      "performCfg": "QuestDialogue/AQ/Daoqi1_2002/Q200212",
      "questId": 2002,
      "prePerformCfg": ""
    },
    {
      "id": 200224,
      "beginWay": "TALK_BEGIN_MANUAL",
      "activeMode": "PLAY_MODE_SINGLE",
      "beginCondComb": "LOGIC_OR",
      "beginCond": [
        {
          "type": "QUEST_COND_STATE_EQUAL",
          "param": [
            "200205",
            "2"
          ],
          "param_str": ""
        },
        {
          "type": "QUEST_COND_STATE_EQUAL",
          "param": [
            "200201",
            "2"
          ],
          "param_str": ""
        }
      ],
      "priority": 1,
      "initDialog": 20022401,
      "npcId": [
        1031
      ],
      "performCfg": "QuestDialogue/AQ/Daoqi1_2002/Q200224",
      "questId": 2002,
      "prePerformCfg": ""
    },
    {
      "id": 200229,
      "beginWay": "TALK_BEGIN_MANUAL",
      "activeMode": "PLAY_MODE_SINGLE",
      "beginCond": [
        {
          "type": "QUEST_COND_STATE_EQUAL",
          "param": [
            "200212",
            "2"
          ],
          "param_str": ""
        }
      ],
      "priority": 1,
      "initDialog": 20022901,
      "npcId": [
        214301
      ],
      "performCfg": "QuestDialogue/AQ/Daoqi1_2002/Q200229",
      "questId": 2002,
      "prePerformCfg": ""
    },
    {
      "id": 200230,
      "beginWay": "TALK_BEGIN_MANUAL",
      "activeMode": "PLAY_MODE_SINGLE",
      "beginCond": [
        {
          "type": "QUEST_COND_STATE_EQUAL",
          "param": [
            "200202",
            "2"
          ],
          "param_str": ""
        }
      ],
      "priority": 1,
      "initDialog": 20023001,
      "npcId": [
        1032
      ],
      "performCfg": "QuestDialogue/AQ/Daoqi1_2002/Q200230",
      "questId": 2002,
      "prePerformCfg": ""
    },
    {
      "id": 4131401,
      "beginWay": "TALK_BEGIN_MANUAL",
      "priority": 5,
      "nextTalks": [
        4131402,
        4131403,
        4131404,
        4131405
      ],
      "initDialog": 413140101,
      "npcId": [
        30043
      ],
      "performCfg": "",
      "loadType": "TALK_ACTIVITY",
      "questId": 2002,
      "prePerformCfg": ""
    },
    {
      "id": 4131402,
      "activeMode": "PLAY_MODE_HOST",
      "beginCond": [
        {
          "type": "QUEST_COND_STATE_EQUAL",
          "param": [
            "4000003",
            "3"
          ],
          "param_str": ""
        }
      ],
      "priority": 5,
      "initDialog": 413140201,
      "npcId": [
        30043
      ],
      "performCfg": "QuestDialogue/EQ/Sealamp2_41314/Q4131402",
      "loadType": "TALK_ACTIVITY",
      "questId": 2002,
      "prePerformCfg": ""
    },
    {
      "id": 4131403,
      "priority": 5,
      "initDialog": 413140301,
      "npcId": [
        30043
      ],
      "performCfg": "",
      "loadType": "TALK_ACTIVITY",
      "questId": 2002,
      "prePerformCfg": ""
    },
    {
      "id": 4131404,
      "priority": 5,
      "initDialog": 413140401,
      "npcId": [
        30043
      ],
      "performCfg": "",
      "loadType": "TALK_ACTIVITY",
      "questId": 2002,
      "prePerformCfg": ""
    },
    {
      "id": 4131405,
      "priority": 5,
      "initDialog": 413140501,
      "npcId": [
        30043
      ],
      "performCfg": "",
      "loadType": "TALK_ACTIVITY",
      "questId": 2002,
      "prePerformCfg": ""
    },
    {
      "id": 4131406,
      "beginWay": "TALK_BEGIN_MANUAL",
      "priority": 5,
      "initDialog": 413140601,
      "npcId": [
        30042
      ],
      "performCfg": "",
      "loadType": "TALK_ACTIVITY",
      "questId": 2002,
      "prePerformCfg": ""
    },
    {
      "id": 4131407,
      "beginWay": "TALK_BEGIN_MANUAL",
      "priority": 5,
      "initDialog": 413140701,
      "npcId": [
        30040
      ],
      "performCfg": "",
      "loadType": "TALK_ACTIVITY",
      "questId": 2002,
      "prePerformCfg": ""
    },
    {
      "id": 4131408,
      "beginWay": "TALK_BEGIN_MANUAL",
      "priority": 5,
      "initDialog": 413140801,
      "npcId": [
        30041
      ],
      "performCfg": "",
      "loadType": "TALK_ACTIVITY",
      "questId": 2002,
      "prePerformCfg": ""
    },
    {
      "id": 4131501,
      "beginWay": "TALK_BEGIN_MANUAL",
      "activeMode": "PLAY_MODE_SINGLE",
      "beginCond": [
        {
          "type": "QUEST_COND_ACTIVITY_CLIENT_COND",
          "param": [
            "2002",
            "2002101",
            "1"
          ],
          "param_str": ""
        }
      ],
      "priority": 4,
      "nextTalks": [
        4131502,
        4131503,
        4131504
      ],
      "initDialog": 413150101,
      "npcId": [
        2044
      ],
      "performCfg": "",
      "loadType": "TALK_ACTIVITY",
      "questId": 2002,
      "prePerformCfg": ""
    },
    {
      "id": 4131502,
      "activeMode": "PLAY_MODE_SINGLE",
      "beginCond": [
        {
          "type": "QUEST_COND_ACTIVITY_CLIENT_COND",
          "param": [
            "2002",
            "2002101",
            "1"
          ],
          "param_str": ""
        }
      ],
      "priority": 1,
      "initDialog": 413150201,
      "npcId": [
        2044
      ],
      "performCfg": "",
      "loadType": "TALK_ACTIVITY",
      "questId": 2002,
      "prePerformCfg": ""
    },
    {
      "id": 4131503,
      "activeMode": "PLAY_MODE_SINGLE",
      "beginCond": [
        {
          "type": "QUEST_COND_ACTIVITY_CLIENT_COND",
          "param": [
            "2002",
            "2002101",
            "1"
          ],
          "param_str": ""
        }
      ],
      "priority": 1,
      "initDialog": 413150301,
      "npcId": [
        2044
      ],
      "performCfg": "",
      "loadType": "TALK_ACTIVITY",
      "questId": 2002,
      "prePerformCfg": ""
    },
    {
      "id": 4131504,
      "activeMode": "PLAY_MODE_SINGLE",
      "beginCond": [
        {
          "type": "QUEST_COND_ACTIVITY_CLIENT_COND",
          "param": [
            "2002",
            "2002101",
            "1"
          ],
          "param_str": ""
        }
      ],
      "priority": 1,
      "initDialog": 413150401,
      "npcId": [
        2044
      ],
      "performCfg": "",
      "loadType": "TALK_ACTIVITY",
      "questId": 2002,
      "prePerformCfg": ""
    },
    {
      "id": 4131505,
      "beginWay": "TALK_BEGIN_MANUAL",
      "activeMode": "PLAY_MODE_SINGLE",
      "beginCondComb": "LOGIC_AND",
      "beginCond": [
        {
          "type": "QUEST_COND_ACTIVITY_CLIENT_COND",
          "param": [
            "2002",
            "2002101",
            "1"
          ],
          "param_str": ""
        },
        {
          "type": "QUEST_COND_IS_DAYTIME",
          "param": [
            "1"
          ],
          "param_str": ""
        }
      ],
      "priority": 4,
      "nextTalks": [
        7171401
      ],
      "initDialog": 413150501,
      "npcId": [
        2018,
        2007
      ],
      "performCfg": "",
      "loadType": "TALK_ACTIVITY",
      "questId": 2002,
      "prePerformCfg": ""
    },
    {
      "id": 4131506,
      "beginWay": "TALK_BEGIN_MANUAL",
      "activeMode": "PLAY_MODE_SINGLE",
      "beginCondComb": "LOGIC_AND",
      "beginCond": [
        {
          "type": "QUEST_COND_ACTIVITY_CLIENT_COND",
          "param": [
            "2002",
            "2002101",
            "1"
          ],
          "param_str": ""
        },
        {
          "type": "QUEST_COND_IS_DAYTIME",
          "param": [
            "0"
          ],
          "param_str": ""
        }
      ],
      "priority": 4,
      "nextTalks": [
        7171401,
        4131507,
        4131508
      ],
      "initDialog": 413150601,
      "npcId": [
        2007
      ],
      "performCfg": "",
      "loadType": "TALK_ACTIVITY",
      "questId": 2002,
      "prePerformCfg": ""
    },
    {
      "id": 4131507,
      "activeMode": "PLAY_MODE_SINGLE",
      "beginCondComb": "LOGIC_AND",
      "beginCond": [
        {
          "type": "QUEST_COND_ACTIVITY_CLIENT_COND",
          "param": [
            "2002",
            "2002101",
            "1"
          ],
          "param_str": ""
        },
        {
          "type": "QUEST_COND_IS_DAYTIME",
          "param": [
            "0"
          ],
          "param_str": ""
        }
      ],
      "priority": 1,
      "initDialog": 413150701,
      "npcId": [
        2007
      ],
      "performCfg": "",
      "loadType": "TALK_ACTIVITY",
      "questId": 2002,
      "prePerformCfg": ""
    },
    {
      "id": 4131508,
      "activeMode": "PLAY_MODE_SINGLE",
      "beginCondComb": "LOGIC_AND",
      "beginCond": [
        {
          "type": "QUEST_COND_ACTIVITY_CLIENT_COND",
          "param": [
            "2002",
            "2002101",
            "1"
          ],
          "param_str": ""
        },
        {
          "type": "QUEST_COND_IS_DAYTIME",
          "param": [
            "0"
          ],
          "param_str": ""
        }
      ],
      "priority": 1,
      "initDialog": 413150801,
      "npcId": [
        2007
      ],
      "performCfg": "",
      "loadType": "TALK_ACTIVITY",
      "questId": 2002,
      "prePerformCfg": ""
    },
    {
      "id": 4131509,
      "beginWay": "TALK_BEGIN_MANUAL",
      "activeMode": "PLAY_MODE_SINGLE",
      "beginCondComb": "LOGIC_AND",
      "beginCond": [
        {
          "type": "QUEST_COND_ACTIVITY_CLIENT_COND",
          "param": [
            "2002",
            "2002101",
            "1"
          ],
          "param_str": ""
        },
        {
          "type": "QUEST_COND_IS_DAYTIME",
          "param": [
            "1"
          ],
          "param_str": ""
        }
      ],
      "priority": 4,
      "nextTalks": [
        7101602,
        7101603,
        7100508,
        7100509,
        4131510,
        4131511
      ],
      "initDialog": 413150901,
      "npcId": [
        2023
      ],
      "performCfg": "",
      "loadType": "TALK_ACTIVITY",
      "questId": 2002,
      "prePerformCfg": ""
    },
    {
      "id": 4131510,
      "activeMode": "PLAY_MODE_SINGLE",
      "beginCondComb": "LOGIC_AND",
      "beginCond": [
        {
          "type": "QUEST_COND_ACTIVITY_CLIENT_COND",
          "param": [
            "2002",
            "2002101",
            "1"
          ],
          "param_str": ""
        },
        {
          "type": "QUEST_COND_IS_DAYTIME",
          "param": [
            "1"
          ],
          "param_str": ""
        }
      ],
      "priority": 1,
      "initDialog": 413151001,
      "npcId": [
        2023
      ],
      "performCfg": "",
      "loadType": "TALK_ACTIVITY",
      "questId": 2002,
      "prePerformCfg": ""
    },
    {
      "id": 4131511,
      "activeMode": "PLAY_MODE_SINGLE",
      "beginCondComb": "LOGIC_AND",
      "beginCond": [
        {
          "type": "QUEST_COND_ACTIVITY_CLIENT_COND",
          "param": [
            "2002",
            "2002101",
            "1"
          ],
          "param_str": ""
        },
        {
          "type": "QUEST_COND_IS_DAYTIME",
          "param": [
            "1"
          ],
          "param_str": ""
        }
      ],
      "priority": 1,
      "initDialog": 413151101,
      "npcId": [
        2023
      ],
      "performCfg": "",
      "loadType": "TALK_ACTIVITY",
      "questId": 2002,
      "prePerformCfg": ""
    },
    {
      "id": 4131512,
      "beginWay": "TALK_BEGIN_MANUAL",
      "activeMode": "PLAY_MODE_SINGLE",
      "beginCond": [
        {
          "type": "QUEST_COND_ACTIVITY_CLIENT_COND",
          "param": [
            "2002",
            "2002101",
            "1"
          ],
          "param_str": ""
        }
      ],
      "priority": 4,
      "initDialog": 413151201,
      "npcId": [
        2012
      ],
      "performCfg": "",
      "loadType": "TALK_ACTIVITY",
      "questId": 2002,
      "prePerformCfg": ""
    },
    {
      "id": 4131513,
      "beginWay": "TALK_BEGIN_MANUAL",
      "activeMode": "PLAY_MODE_SINGLE",
      "beginCond": [
        {
          "type": "QUEST_COND_ACTIVITY_CLIENT_COND",
          "param": [
            "2002",
            "2002101",
            "1"
          ],
          "param_str": ""
        }
      ],
      "priority": 4,
      "nextTalks": [
        7170001
      ],
      "initDialog": 413151301,
      "npcId": [
        2025
      ],
      "performCfg": "",
      "loadType": "TALK_ACTIVITY",
      "questId": 2002,
      "prePerformCfg": ""
    },
    {
      "id": 4131514,
      "beginWay": "TALK_BEGIN_MANUAL",
      "activeMode": "PLAY_MODE_SINGLE",
      "beginCond": [
        {
          "type": "QUEST_COND_ACTIVITY_CLIENT_COND",
          "param": [
            "2002",
            "2002101",
            "1"
          ],
          "param_str": ""
        }
      ],
      "priority": 4,
      "initDialog": 413151401,
      "npcId": [
        2026
      ],
      "performCfg": "",
      "loadType": "TALK_ACTIVITY",
      "questId": 2002,
      "prePerformCfg": ""
    },
    {
      "id": 4131515,
      "beginWay": "TALK_BEGIN_MANUAL",
      "activeMode": "PLAY_MODE_SINGLE",
      "beginCond": [
        {
          "type": "QUEST_COND_ACTIVITY_CLIENT_COND",
          "param": [
            "2002",
            "2002101",
            "1"
          ],
          "param_str": ""
        }
      ],
      "priority": 5,
      "nextTalks": [
        4131516,
        4131517
      ],
      "initDialog": 413151501,
      "npcId": [
        2093
      ],
      "performCfg": "",
      "loadType": "TALK_ACTIVITY",
      "questId": 2002,
      "prePerformCfg": ""
    },
    {
      "id": 4131516,
      "activeMode": "PLAY_MODE_SINGLE",
      "beginCond": [
        {
          "type": "QUEST_COND_ACTIVITY_CLIENT_COND",
          "param": [
            "2002",
            "2002101",
            "1"
          ],
          "param_str": ""
        }
      ],
      "priority": 1,
      "initDialog": 413151601,
      "npcId": [
        2093
      ],
      "performCfg": "",
      "loadType": "TALK_ACTIVITY",
      "questId": 2002,
      "prePerformCfg": ""
    },
    {
      "id": 4131517,
      "activeMode": "PLAY_MODE_SINGLE",
      "beginCond": [
        {
          "type": "QUEST_COND_ACTIVITY_CLIENT_COND",
          "param": [
            "2002",
            "2002101",
            "1"
          ],
          "param_str": ""
        }
      ],
      "priority": 1,
      "initDialog": 413151701,
      "npcId": [
        2093
      ],
      "performCfg": "",
      "loadType": "TALK_ACTIVITY",
      "questId": 2002,
      "prePerformCfg": ""
    },
    {
      "id": 4131518,
      "beginWay": "TALK_BEGIN_MANUAL",
      "activeMode": "PLAY_MODE_SINGLE",
      "beginCond": [
        {
          "type": "QUEST_COND_ACTIVITY_CLIENT_COND",
          "param": [
            "2002",
            "2002101",
            "1"
          ],
          "param_str": ""
        }
      ],
      "priority": 4,
      "initDialog": 413151801,
      "npcId": [
        2014
      ],
      "performCfg": "",
      "loadType": "TALK_ACTIVITY",
      "questId": 2002,
      "prePerformCfg": ""
    },
    {
      "id": 4131519,
      "beginWay": "TALK_BEGIN_MANUAL",
      "activeMode": "PLAY_MODE_SINGLE",
      "beginCond": [
        {
          "type": "QUEST_COND_ACTIVITY_CLIENT_COND",
          "param": [
            "2002",
            "2002101",
            "1"
          ],
          "param_str": ""
        }
      ],
      "priority": 4,
      "initDialog": 413151901,
      "npcId": [
        2059,
        2086
      ],
      "performCfg": "",
      "loadType": "TALK_ACTIVITY",
      "questId": 2002,
      "prePerformCfg": ""
    },
    {
      "id": 4131520,
      "beginWay": "TALK_BEGIN_MANUAL",
      "activeMode": "PLAY_MODE_SINGLE",
      "beginCond": [
        {
          "type": "QUEST_COND_ACTIVITY_CLIENT_COND",
          "param": [
            "2002",
            "2002101",
            "1"
          ],
          "param_str": ""
        }
      ],
      "priority": 4,
      "initDialog": 413152001,
      "npcId": [
        2067
      ],
      "performCfg": "",
      "loadType": "TALK_ACTIVITY",
      "questId": 2002,
      "prePerformCfg": ""
    },
    {
      "id": 4131521,
      "beginWay": "TALK_BEGIN_MANUAL",
      "activeMode": "PLAY_MODE_SINGLE",
      "beginCond": [
        {
          "type": "QUEST_COND_ACTIVITY_CLIENT_COND",
          "param": [
            "2002",
            "2002101",
            "1"
          ],
          "param_str": ""
        }
      ],
      "priority": 4,
      "nextTalks": [
        1200206
      ],
      "initDialog": 413152101,
      "npcId": [
        2072
      ],
      "performCfg": "",
      "loadType": "TALK_ACTIVITY",
      "questId": 2002,
      "prePerformCfg": ""
    },
    {
      "id": 4131522,
      "beginWay": "TALK_BEGIN_MANUAL",
      "activeMode": "PLAY_MODE_SINGLE",
      "beginCond": [
        {
          "type": "QUEST_COND_ACTIVITY_CLIENT_COND",
          "param": [
            "2002",
            "2002101",
            "1"
          ],
          "param_str": ""
        }
      ],
      "priority": 4,
      "initDialog": 413152201,
      "npcId": [
        2098,
        2099
      ],
      "performCfg": "",
      "loadType": "TALK_ACTIVITY",
      "questId": 2002,
      "prePerformCfg": ""
    },
    {
      "id": 4131523,
      "beginWay": "TALK_BEGIN_MANUAL",
      "activeMode": "PLAY_MODE_SINGLE",
      "beginCond": [
        {
          "type": "QUEST_COND_ACTIVITY_CLIENT_COND",
          "param": [
            "2002",
            "2002101",
            "1"
          ],
          "param_str": ""
        }
      ],
      "priority": 4,
      "initDialog": 413152301,
      "npcId": [
        2065
      ],
      "performCfg": "",
      "loadType": "TALK_ACTIVITY",
      "questId": 2002,
      "prePerformCfg": ""
    },
    {
      "id": 4131524,
      "beginWay": "TALK_BEGIN_MANUAL",
      "activeMode": "PLAY_MODE_SINGLE",
      "beginCond": [
        {
          "type": "QUEST_COND_ACTIVITY_CLIENT_COND",
          "param": [
            "2002",
            "2002101",
            "1"
          ],
          "param_str": ""
        }
      ],
      "priority": 4,
      "nextTalks": [
        4131525,
        4131526
      ],
      "initDialog": 413152401,
      "npcId": [
        2017
      ],
      "performCfg": "",
      "loadType": "TALK_ACTIVITY",
      "questId": 2002,
      "prePerformCfg": ""
    },
    {
      "id": 4131525,
      "activeMode": "PLAY_MODE_SINGLE",
      "beginCond": [
        {
          "type": "QUEST_COND_ACTIVITY_CLIENT_COND",
          "param": [
            "2002",
            "2002101",
            "1"
          ],
          "param_str": ""
        }
      ],
      "priority": 1,
      "initDialog": 413152501,
      "npcId": [
        2017
      ],
      "performCfg": "",
      "loadType": "TALK_ACTIVITY",
      "questId": 2002,
      "prePerformCfg": ""
    },
    {
      "id": 4131526,
      "activeMode": "PLAY_MODE_SINGLE",
      "beginCond": [
        {
          "type": "QUEST_COND_ACTIVITY_CLIENT_COND",
          "param": [
            "2002",
            "2002101",
            "1"
          ],
          "param_str": ""
        }
      ],
      "priority": 1,
      "initDialog": 413152601,
      "npcId": [
        2017
      ],
      "performCfg": "",
      "loadType": "TALK_ACTIVITY",
      "questId": 2002,
      "prePerformCfg": ""
    },
    {
      "id": 4131527,
      "beginWay": "TALK_BEGIN_MANUAL",
      "activeMode": "PLAY_MODE_SINGLE",
      "beginCond": [
        {
          "type": "QUEST_COND_ACTIVITY_CLIENT_COND",
          "param": [
            "2002",
            "2002101",
            "1"
          ],
          "param_str": ""
        }
      ],
      "priority": 4,
      "initDialog": 413152701,
      "npcId": [
        2082
      ],
      "performCfg": "",
      "loadType": "TALK_ACTIVITY",
      "questId": 2002,
      "prePerformCfg": ""
    },
    {
      "id": 4131528,
      "beginWay": "TALK_BEGIN_MANUAL",
      "activeMode": "PLAY_MODE_SINGLE",
      "beginCond": [
        {
          "type": "QUEST_COND_ACTIVITY_CLIENT_COND",
          "param": [
            "2002",
            "2002101",
            "1"
          ],
          "param_str": ""
        }
      ],
      "priority": 4,
      "nextTalks": [
        4131529,
        4131530
      ],
      "initDialog": 413152801,
      "npcId": [
        2049
      ],
      "performCfg": "",
      "loadType": "TALK_ACTIVITY",
      "questId": 2002,
      "prePerformCfg": ""
    },
    {
      "id": 4131529,
      "activeMode": "PLAY_MODE_SINGLE",
      "beginCond": [
        {
          "type": "QUEST_COND_ACTIVITY_CLIENT_COND",
          "param": [
            "2002",
            "2002101",
            "1"
          ],
          "param_str": ""
        }
      ],
      "priority": 1,
      "initDialog": 413152901,
      "npcId": [
        2049
      ],
      "performCfg": "",
      "loadType": "TALK_ACTIVITY",
      "questId": 2002,
      "prePerformCfg": ""
    },
    {
      "id": 4131530,
      "activeMode": "PLAY_MODE_SINGLE",
      "beginCond": [
        {
          "type": "QUEST_COND_ACTIVITY_CLIENT_COND",
          "param": [
            "2002",
            "2002101",
            "1"
          ],
          "param_str": ""
        }
      ],
      "priority": 1,
      "initDialog": 413153001,
      "npcId": [
        2049
      ],
      "performCfg": "",
      "loadType": "TALK_ACTIVITY",
      "questId": 2002,
      "prePerformCfg": ""
    },
    {
      "id": 4131531,
      "beginWay": "TALK_BEGIN_MANUAL",
      "activeMode": "PLAY_MODE_SINGLE",
      "beginCond": [
        {
          "type": "QUEST_COND_ACTIVITY_CLIENT_COND",
          "param": [
            "2002",
            "2002101",
            "1"
          ],
          "param_str": ""
        }
      ],
      "priority": 4,
      "initDialog": 413153101,
      "npcId": [
        2056
      ],
      "performCfg": "",
      "loadType": "TALK_ACTIVITY",
      "questId": 2002,
      "prePerformCfg": ""
    },
    {
      "id": 4131532,
      "beginWay": "TALK_BEGIN_MANUAL",
      "activeMode": "PLAY_MODE_SINGLE",
      "beginCond": [
        {
          "type": "QUEST_COND_ACTIVITY_CLIENT_COND",
          "param": [
            "2002",
            "2002101",
            "1"
          ],
          "param_str": ""
        }
      ],
      "priority": 4,
      "nextTalks": [
        1200205
      ],
      "initDialog": 413153201,
      "npcId": [
        2090
      ],
      "performCfg": "",
      "loadType": "TALK_ACTIVITY",
      "questId": 2002,
      "prePerformCfg": ""
    },
    {
      "id": 4131533,
      "activeMode": "PLAY_MODE_SINGLE",
      "beginCondComb": "LOGIC_AND",
      "beginCond": [
        {
          "type": "QUEST_COND_ACTIVITY_CLIENT_COND",
          "param": [
            "2002",
            "2002101",
            "1"
          ],
          "param_str": ""
        },
        {
          "type": "QUEST_COND_ACTIVITY_CLIENT_COND",
          "param": [
            "2002",
            "2002500",
            "0"
          ],
          "param_str": ""
        }
      ],
      "priority": 4,
      "initDialog": 413153301,
      "npcId": [
        2039
      ],
      "performCfg": "",
      "loadType": "TALK_ACTIVITY",
      "questId": 2002,
      "prePerformCfg": ""
    },
    {
      "id": 4131534,
      "activeMode": "PLAY_MODE_SINGLE",
      "beginCondComb": "LOGIC_AND",
      "beginCond": [
        {
          "type": "QUEST_COND_ACTIVITY_CLIENT_COND",
          "param": [
            "2002",
            "2002500",
            "1"
          ],
          "param_str": ""
        },
        {
          "type": "QUEST_COND_ACTIVITY_CLIENT_COND",
          "param": [
            "2002",
            "2002504",
            "0"
          ],
          "param_str": ""
        }
      ],
      "priority": 4,
      "initDialog": 413153401,
      "npcId": [
        2039
      ],
      "performCfg": "",
      "loadType": "TALK_ACTIVITY",
      "questId": 2002,
      "prePerformCfg": ""
    },
    {
      "id": 4131535,
      "activeMode": "PLAY_MODE_SINGLE",
      "beginCondComb": "LOGIC_AND",
      "beginCond": [
        {
          "type": "QUEST_COND_ACTIVITY_CLIENT_COND",
          "param": [
            "2002",
            "2002504",
            "1"
          ],
          "param_str": ""
        },
        {
          "type": "QUEST_COND_ACTIVITY_CLIENT_COND",
          "param": [
            "2002",
            "2002508",
            "0"
          ],
          "param_str": ""
        }
      ],
      "priority": 4,
      "initDialog": 413153501,
      "npcId": [
        2039
      ],
      "performCfg": "",
      "loadType": "TALK_ACTIVITY",
      "questId": 2002,
      "prePerformCfg": ""
    }
  ]
}