{
  "id": 2003,
  "series": 1201,
  "titleTextMapHash": 55039543,
  "descTextMapHash": 2497040806,
  "luaPath": "Actor/Quest/AQ2003",
  "suggestTrackMainQuestList": [
    2004
  ],
  "rewardIdList": [
    102003
  ],
  "chapterId": 1202,
  "subQuests": [
    {
      "subId": 200301,
      "mainId": 2003,
      "order": 2,
      "descTextMapHash": 1691568260,
      "acceptCond": [
        {
          "type": "QUEST_COND_STATE_EQUAL",
          "param": [
            200305,
            3,
            0,
            0,
            0
          ],
          "param_str": ""
        }
      ],
      "finishCond": [
        {
          "type": "QUEST_CONTENT_COMPLETE_TALK",
          "param": [
            200301,
            0
          ],
          "param_str": ""
        }
      ],
      "failCond": [],
      "guide": {
        "type": "QUEST_GUIDE_LOCATION",
        "autoGuide": "QUEST_GUIDE_AUTO_ENABLE",
        "param": [
          "Q2003tuoma"
        ],
        "guideScene": 1060,
        "guideStyle": "QUEST_GUIDE_STYLE_TARGET",
        "guideLayer": "QUEST_GUIDE_LAYER_SCENE"
      },
      "isRewind": true,
      "finishExec": [],
      "failExec": [],
      "beginExec": [],
      "exclusiveNpcList": [
        1033,
        3009,
        3010
      ],
      "exclusiveNpcPriority": 1000
    },
    {
      "subId": 200302,
      "mainId": 2003,
      "order": 3,
      "descTextMapHash": 4241962420,
      "acceptCond": [
        {
          "type": "QUEST_COND_STATE_EQUAL",
          "param": [
            200301,
            3,
            0,
            0,
            0
          ],
          "param_str": ""
        }
      ],
      "finishCond": [
        {
          "type": "QUEST_CONTENT_COMPLETE_TALK",
          "param": [
            200302,
            0
          ],
          "param_str": ""
        }
      ],
      "failCond": [],
      "guide": {
        "type": "QUEST_GUIDE_LOCATION",
        "autoGuide": "QUEST_GUIDE_AUTO_ENABLE",
        "param": [
          "Q200302paimon"
        ],
        "guideScene": 3,
        "guideStyle": "QUEST_GUIDE_STYLE_POINT",
        "guideLayer": "QUEST_GUIDE_LAYER_SCENE"
      },
      "isRewind": true,
      "finishExec": [],
      "failExec": [],
      "beginExec": [],
      "exclusiveNpcList": [
        1033
      ],
      "exclusiveNpcPriority": 1000
    },
    {
      "subId": 200303,
      "mainId": 2003,
      "order": 4,
      "descTextMapHash": 2754217284,
      "acceptCond": [
        {
          "type": "QUEST_COND_STATE_EQUAL",
          "param": [
            99902,
            3,
            0,
            0,
            0
          ],
          "param_str": ""
        }
      ],
      "finishCond": [
        {
          "type": "QUEST_CONTENT_COMPLETE_TALK",
          "param": [
            200303,
            0
          ],
          "param_str": ""
        }
      ],
      "failCond": [],
      "guide": {
        "type": "QUEST_GUIDE_NPC",
        "autoGuide": "QUEST_GUIDE_AUTO_ENABLE",
        "param": [
          "12021"
        ],
        "guideScene": 3,
        "guideStyle": "QUEST_GUIDE_STYLE_TARGET",
        "guideLayer": "QUEST_GUIDE_LAYER_SCENE"
      },
      "isRewind": true,
      "finishExec": [],
      "failExec": [],
      "beginExec": [],
      "exclusiveNpcList": [
        12021
      ],
      "exclusiveNpcPriority": 1000
    },
    {
      "subId": 200304,
      "mainId": 2003,
      "order": 5,
      "descTextMapHash": 2169017924,
      "acceptCond": [
        {
          "type": "QUEST_COND_STATE_EQUAL",
          "param": [
            200302,
            3,
            0,
            0,
            0
          ],
          "param_str": ""
        }
      ],
      "finishCond": [
        {
          "type": "QUEST_CONTENT_COMPLETE_TALK",
          "param": [
            200304,
            0
          ],
          "param_str": ""
        }
      ],
      "failCond": [],
      "guide": {
        "type": "QUEST_GUIDE_LOCATION",
        "autoGuide": "QUEST_GUIDE_AUTO_ENABLE",
        "param": [
          "Q2004tuoma"
        ],
        "guideScene": 1061,
        "guideStyle": "QUEST_GUIDE_STYLE_TARGET",
        "guideLayer": "QUEST_GUIDE_LAYER_SCENE"
      },
      "finishParent": true,
      "isRewind": true,
      "finishExec": [],
      "failExec": [],
      "beginExec": [],
      "exclusiveNpcList": [
        1013
      ],
      "exclusiveNpcPriority": 1000
    },
    {
      "subId": 200305,
      "mainId": 2003,
      "order": 1,
      "descTextMapHash": 104139516,
      "acceptCond": [
        {
          "type": "QUEST_COND_STATE_EQUAL",
          "param": [
            201310,
            3,
            0,
            0,
            0
          ],
          "param_str": ""
        }
      ],
      "finishCond": [
        {
          "type": "QUEST_CONTENT_COMPLETE_TALK",
          "param": [
            200305,
            0
          ],
          "param_str": ""
        }
      ],
      "failCond": [],
      "guide": {
        "type": "QUEST_GUIDE_NPC",
        "autoGuide": "QUEST_GUIDE_AUTO_ENABLE",
        "param": [
          "3010"
        ],
        "guideScene": 3,
        "guideStyle": "QUEST_GUIDE_STYLE_TARGET",
        "guideLayer": "QUEST_GUIDE_LAYER_SCENE"
      },
      "isRewind": true,
      "finishExec": [],
      "failExec": [],
      "beginExec": [],
      "exclusiveNpcList": [
        3010
      ],
      "exclusiveNpcPriority": 1000
    }
  ],
  "talks": [
    {
      "id": 200301,
      "beginWay": "TALK_BEGIN_MANUAL",
      "activeMode": "PLAY_MODE_SINGLE",
      "beginCond": [
        {
          "type": "QUEST_COND_STATE_EQUAL",
          "param": [
            "200301",
            "2"
          ],
          "param_str": ""
        }
      ],
      "priority": 5,
      "initDialog": 20030101,
      "npcId": [
        1005,
        1033
      ],
      "performCfg": "QuestDialogue/AQ/Inazuma1_2003/Q200301",
      "heroTalk": "TALK_HERO_MAIN",
      "questId": 2003,
      "prePerformCfg": ""
    },
    {
      "id": 200302,
      "beginWay": "TALK_BEGIN_MANUAL",
      "activeMode": "PLAY_MODE_SINGLE",
      "beginCond": [
        {
          "type": "QUEST_COND_STATE_EQUAL",
          "param": [
            "200302",
            "2"
          ],
          "param_str": ""
        }
      ],
      "priority": 5,
      "initDialog": 20030201,
      "npcId": [
        1033
      ],
      "performCfg": "QuestDialogue/AQ/Inazuma1_2003/Q200302",
      "heroTalk": "TALK_HERO_MAIN",
      "questId": 2003,
      "prePerformCfg": ""
    },
    {
      "id": 200303,
      "beginWay": "TALK_BEGIN_MANUAL",
      "activeMode": "PLAY_MODE_SINGLE",
      "beginCond": [
        {
          "type": "QUEST_COND_STATE_EQUAL",
          "param": [
            "200303",
            "2"
          ],
          "param_str": ""
        }
      ],
      "priority": 5,
      "initDialog": 20030301,
      "npcId": [
        12021
      ],
      "performCfg": "QuestDialogue/AQ/Inazuma1_2003/Q200303",
      "heroTalk": "TALK_HERO_MAIN",
      "questId": 2003,
      "prePerformCfg": ""
    },
    {
      "id": 200304,
      "beginWay": "TALK_BEGIN_AUTO",
      "activeMode": "PLAY_MODE_SINGLE",
      "beginCond": [
        {
          "type": "QUEST_COND_STATE_EQUAL",
          "param": [
            "200304",
            "2"
          ],
          "param_str": ""
        }
      ],
      "priority": 5,
      "initDialog": 20030401,
      "npcId": [
        1013
      ],
      "performCfg": "QuestDialogue/AQ/Inazuma1_2003/Q200304",
      "heroTalk": "TALK_HERO_MAIN",
      "questId": 2003,
      "prePerformCfg": ""
    },
    {
      "id": 200305,
      "beginWay": "TALK_BEGIN_AUTO",
      "activeMode": "PLAY_MODE_SINGLE",
      "beginCond": [
        {
          "type": "QUEST_COND_STATE_EQUAL",
          "param": [
            "200305",
            "2"
          ],
          "param_str": ""
        }
      ],
      "priority": 5,
      "initDialog": 20030501,
      "npcId": [
        3010,
        1005
      ],
      "performCfg": "QuestDialogue/AQ/Inazuma1_2003/Q200305",
      "heroTalk": "TALK_HERO_MAIN",
      "questId": 2003,
      "prePerformCfg": ""
    },
    {
      "id": 200306,
      "beginWay": "TALK_BEGIN_MANUAL",
      "activeMode": "PLAY_MODE_SINGLE",
      "beginCondComb": "LOGIC_AND",
      "beginCond": [
        {
          "type": "QUEST_COND_STATE_EQUAL",
          "param": [
            "200304",
            "3"
          ],
          "param_str": ""
        }
      ],
      "priority": 5,
      "initDialog": 20030601,
      "npcId": [
        1033
      ],
      "performCfg": "QuestDialogue/AQ/Inazuma1_2003/Q200306",
      "heroTalk": "TALK_HERO_MAIN",
      "questId": 2003,
      "prePerformCfg": "",
      "questIdleTalk": true,
      "lowPriority": true
    },
    {
      "id": 200307,
      "beginWay": "TALK_BEGIN_MANUAL",
      "activeMode": "PLAY_MODE_SINGLE",
      "beginCondComb": "LOGIC_AND",
      "beginCond": [
        {
          "type": "QUEST_COND_STATE_EQUAL",
          "param": [
            "200305",
            "3"
          ],
          "param_str": ""
        },
        {
          "type": "QUEST_COND_STATE_EQUAL",
          "param": [
            "200301",
            "2"
          ],
          "param_str": ""
        }
      ],
      "priority": 5,
      "initDialog": 20030701,
      "npcId": [
        3010
      ],
      "performCfg": "QuestDialogue/AQ/Inazuma1_2003/Q200307",
      "heroTalk": "TALK_HERO_MAIN",
      "questId": 2003,
      "prePerformCfg": ""
    },
    {
      "id": 4141432,
      "activeMode": "PLAY_MODE_SINGLE",
      "beginCondComb": "LOGIC_A_AND_ETCOR",
      "beginCond": [
        {
          "type": "QUEST_COND_ACTIVITY_CLIENT_COND",
          "param": [
            "2003",
            "2003002",
            "1"
          ],
          "param_str": ""
        },
        {
          "type": "QUEST_COND_STATE_EQUAL",
          "param": [
            "4141211",
            "2"
          ],
          "param_str": ""
        },
        {
          "type": "QUEST_COND_QUEST_NOT_RECEIVE",
          "param": [
            "4141211",
            "1"
          ],
          "param_str": ""
        }
      ],
      "priority": 5,
      "initDialog": 414143201,
      "npcId": [
        1607
      ],
      "performCfg": "",
      "loadType": "TALK_ACTIVITY",
      "questId": 2003,
      "prePerformCfg": ""
    },
    {
      "id": 4141433,
      "activeMode": "PLAY_MODE_SINGLE",
      "beginCondComb": "LOGIC_A_AND_ETCOR",
      "beginCond": [
        {
          "type": "QUEST_COND_ACTIVITY_CLIENT_COND",
          "param": [
            "2003",
            "2003002",
            "1"
          ],
          "param_str": ""
        },
        {
          "type": "QUEST_COND_STATE_EQUAL",
          "param": [
            "4141211",
            "2"
          ],
          "param_str": ""
        },
        {
          "type": "QUEST_COND_QUEST_NOT_RECEIVE",
          "param": [
            "4141211",
            "1"
          ],
          "param_str": ""
        }
      ],
      "priority": 5,
      "initDialog": 414143301,
      "npcId": [
        1602
      ],
      "performCfg": "",
      "loadType": "TALK_ACTIVITY",
      "questId": 2003,
      "prePerformCfg": ""
    },
    {
      "id": 4141434,
      "activeMode": "PLAY_MODE_SINGLE",
      "beginCondComb": "LOGIC_A_AND_ETCOR",
      "beginCond": [
        {
          "type": "QUEST_COND_ACTIVITY_CLIENT_COND",
          "param": [
            "2003",
            "2003002",
            "1"
          ],
          "param_str": ""
        },
        {
          "type": "QUEST_COND_STATE_EQUAL",
          "param": [
            "4141211",
            "2"
          ],
          "param_str": ""
        },
        {
          "type": "QUEST_COND_QUEST_NOT_RECEIVE",
          "param": [
            "4141211",
            "1"
          ],
          "param_str": ""
        }
      ],
      "priority": 5,
      "initDialog": 414143401,
      "npcId": [
        1605
      ],
      "performCfg": "",
      "loadType": "TALK_ACTIVITY",
      "questId": 2003,
      "prePerformCfg": ""
    },
    {
      "id": 4141435,
      "activeMode": "PLAY_MODE_SINGLE",
      "beginCond": [
        {
          "type": "QUEST_COND_ACTIVITY_CLIENT_COND",
          "param": [
            "2003",
            "2003000",
            "1"
          ],
          "param_str": ""
        }
      ],
      "priority": 5,
      "initDialog": 414143501,
      "npcId": [
        30047
      ],
      "performCfg": "",
      "loadType": "TALK_ACTIVITY",
      "questId": 2003,
      "prePerformCfg": ""
    },
    {
      "id": 4141436,
      "activeMode": "PLAY_MODE_SINGLE",
      "beginCond": [
        {
          "type": "QUEST_COND_ACTIVITY_CLIENT_COND",
          "param": [
            "2003",
            "2003000",
            "1"
          ],
          "param_str": ""
        }
      ],
      "priority": 5,
      "initDialog": 414143601,
      "npcId": [
        30047
      ],
      "performCfg": "",
      "loadType": "TALK_ACTIVITY",
      "questId": 2003,
      "prePerformCfg": ""
    },
    {
      "id": 4141437,
      "activeMode": "PLAY_MODE_SINGLE",
      "beginCond": [
        {
          "type": "QUEST_COND_ACTIVITY_CLIENT_COND",
          "param": [
            "2003",
            "2003000",
            "1"
          ],
          "param_str": ""
        }
      ],
      "priority": 5,
      "initDialog": 414143701,
      "npcId": [
        30047
      ],
      "performCfg": "",
      "loadType": "TALK_ACTIVITY",
      "questId": 2003,
      "prePerformCfg": ""
    },
    {
      "id": 4141438,
      "beginWay": "TALK_BEGIN_MANUAL",
      "activeMode": "PLAY_MODE_SINGLE",
      "beginCond": [
        {
          "type": "QUEST_COND_ACTIVITY_CLIENT_COND",
          "param": [
            "2003",
            "2003000",
            "1"
          ],
          "param_str": ""
        }
      ],
      "priority": 5,
      "nextTalks": [
        4141437,
        4141436,
        4141435
      ],
      "initDialog": 414143801,
      "npcId": [
        30047
      ],
      "performCfg": "",
      "loadType": "TALK_ACTIVITY",
      "questId": 2003,
      "prePerformCfg": ""
    },
    {
      "id": 4141439,
      "activeMode": "PLAY_MODE_SINGLE",
      "beginCond": [
        {
          "type": "QUEST_COND_ACTIVITY_CLIENT_COND",
          "param": [
            "2003",
            "2003000",
            "1"
          ],
          "param_str": ""
        }
      ],
      "priority": 5,
      "initDialog": 414143901,
      "npcId": [
        30046
      ],
      "performCfg": "",
      "loadType": "TALK_ACTIVITY",
      "questId": 2003,
      "prePerformCfg": ""
    },
    {
      "id": 4141440,
      "activeMode": "PLAY_MODE_SINGLE",
      "beginCond": [
        {
          "type": "QUEST_COND_ACTIVITY_CLIENT_COND",
          "param": [
            "2003",
            "2003000",
            "1"
          ],
          "param_str": ""
        }
      ],
      "priority": 5,
      "initDialog": 414144001,
      "npcId": [
        30046
      ],
      "performCfg": "",
      "loadType": "TALK_ACTIVITY",
      "questId": 2003,
      "prePerformCfg": ""
    },
    {
      "id": 4141441,
      "beginWay": "TALK_BEGIN_MANUAL",
      "activeMode": "PLAY_MODE_SINGLE",
      "beginCond": [
        {
          "type": "QUEST_COND_ACTIVITY_CLIENT_COND",
          "param": [
            "2003",
            "2003000",
            "1"
          ],
          "param_str": ""
        }
      ],
      "priority": 5,
      "nextTalks": [
        4141440,
        4141439
      ],
      "initDialog": 414144101,
      "npcId": [
        30046
      ],
      "performCfg": "",
      "loadType": "TALK_ACTIVITY",
      "questId": 2003,
      "prePerformCfg": ""
    },
    {
      "id": 4141442,
      "beginWay": "TALK_BEGIN_MANUAL",
      "activeMode": "PLAY_MODE_SINGLE",
      "beginCond": [
        {
          "type": "QUEST_COND_ACTIVITY_CLIENT_COND",
          "param": [
            "2003",
            "2003000",
            "1"
          ],
          "param_str": ""
        }
      ],
      "priority": 5,
      "nextTalks": [
        7092601
      ],
      "initDialog": 414144201,
      "npcId": [
        1553
      ],
      "performCfg": "",
      "loadType": "TALK_ACTIVITY",
      "questId": 2003,
      "prePerformCfg": ""
    },
    {
      "id": 4141443,
      "beginWay": "TALK_BEGIN_MANUAL",
      "activeMode": "PLAY_MODE_SINGLE",
      "beginCond": [
        {
          "type": "QUEST_COND_ACTIVITY_CLIENT_COND",
          "param": [
            "2003",
            "2003000",
            "1"
          ],
          "param_str": ""
        }
      ],
      "priority": 5,
      "initDialog": 414144301,
      "npcId": [
        1591
      ],
      "performCfg": "",
      "loadType": "TALK_ACTIVITY",
      "questId": 2003,
      "prePerformCfg": ""
    },
    {
      "id": 4141444,
      "beginWay": "TALK_BEGIN_MANUAL",
      "activeMode": "PLAY_MODE_SINGLE",
      "beginCond": [
        {
          "type": "QUEST_COND_ACTIVITY_CLIENT_COND",
          "param": [
            "2003",
            "2003000",
            "1"
          ],
          "param_str": ""
        }
      ],
      "priority": 5,
      "nextTalks": [
        6158902
      ],
      "initDialog": 414144401,
      "npcId": [
        1589
      ],
      "performCfg": "",
      "loadType": "TALK_ACTIVITY",
      "questId": 2003,
      "prePerformCfg": ""
    },
    {
      "id": 4141445,
      "activeMode": "PLAY_MODE_SINGLE",
      "beginCond": [
        {
          "type": "QUEST_COND_ACTIVITY_CLIENT_COND",
          "param": [
            "2003",
            "2003000",
            "1"
          ],
          "param_str": ""
        }
      ],
      "priority": 5,
      "initDialog": 414144501,
      "npcId": [
        1555
      ],
      "performCfg": "",
      "loadType": "TALK_ACTIVITY",
      "questId": 2003,
      "prePerformCfg": ""
    },
    {
      "id": 4141446,
      "activeMode": "PLAY_MODE_SINGLE",
      "beginCond": [
        {
          "type": "QUEST_COND_ACTIVITY_CLIENT_COND",
          "param": [
            "2003",
            "2003000",
            "1"
          ],
          "param_str": ""
        }
      ],
      "priority": 5,
      "initDialog": 414144601,
      "npcId": [
        1555
      ],
      "performCfg": "",
      "loadType": "TALK_ACTIVITY",
      "questId": 2003,
      "prePerformCfg": ""
    },
    {
      "id": 4141447,
      "activeMode": "PLAY_MODE_SINGLE",
      "beginCond": [
        {
          "type": "QUEST_COND_ACTIVITY_CLIENT_COND",
          "param": [
            "2003",
            "2003000",
            "1"
          ],
          "param_str": ""
        }
      ],
      "priority": 5,
      "initDialog": 414144701,
      "npcId": [
        1555
      ],
      "performCfg": "",
      "loadType": "TALK_ACTIVITY",
      "questId": 2003,
      "prePerformCfg": ""
    },
    {
      "id": 4141448,
      "beginWay": "TALK_BEGIN_MANUAL",
      "activeMode": "PLAY_MODE_SINGLE",
      "beginCond": [
        {
          "type": "QUEST_COND_ACTIVITY_CLIENT_COND",
          "param": [
            "2003",
            "2003000",
            "1"
          ],
          "param_str": ""
        }
      ],
      "priority": 5,
      "nextTalks": [
        4141447,
        4141446,
        6155502,
        4141445
      ],
      "initDialog": 414144801,
      "npcId": [
        1555
      ],
      "performCfg": "",
      "loadType": "TALK_ACTIVITY",
      "questId": 2003,
      "prePerformCfg": ""
    },
    {
      "id": 4141449,
      "beginWay": "TALK_BEGIN_MANUAL",
      "activeMode": "PLAY_MODE_SINGLE",
      "beginCond": [
        {
          "type": "QUEST_COND_ACTIVITY_CLIENT_COND",
          "param": [
            "2003",
            "2003000",
            "1"
          ],
          "param_str": ""
        }
      ],
      "priority": 5,
      "initDialog": 414144901,
      "npcId": [
        1653
      ],
      "performCfg": "",
      "loadType": "TALK_ACTIVITY",
      "questId": 2003,
      "prePerformCfg": ""
    },
    {
      "id": 4141450,
      "beginWay": "TALK_BEGIN_MANUAL",
      "activeMode": "PLAY_MODE_SINGLE",
      "beginCondComb": "LOGIC_AND",
      "beginCond": [
        {
          "type": "QUEST_COND_ACTIVITY_CLIENT_COND",
          "param": [
            "2003",
            "2003000",
            "1"
          ],
          "param_str": ""
        },
        {
          "type": "QUEST_COND_IS_DAYTIME",
          "param": [
            "1"
          ],
          "param_str": ""
        }
      ],
      "priority": 5,
      "nextTalks": [
        6154502
      ],
      "initDialog": 414145001,
      "npcId": [
        1545
      ],
      "performCfg": "",
      "loadType": "TALK_ACTIVITY",
      "questId": 2003,
      "prePerformCfg": ""
    },
    {
      "id": 4141451,
      "activeMode": "PLAY_MODE_SINGLE",
      "beginCond": [
        {
          "type": "QUEST_COND_ACTIVITY_CLIENT_COND",
          "param": [
            "2003",
            "2003000",
            "1"
          ],
          "param_str": ""
        }
      ],
      "priority": 5,
      "initDialog": 414145101,
      "npcId": [
        1539
      ],
      "performCfg": "",
      "loadType": "TALK_ACTIVITY",
      "questId": 2003,
      "prePerformCfg": ""
    },
    {
      "id": 4141452,
      "activeMode": "PLAY_MODE_SINGLE",
      "beginCond": [
        {
          "type": "QUEST_COND_ACTIVITY_CLIENT_COND",
          "param": [
            "2003",
            "2003000",
            "1"
          ],
          "param_str": ""
        }
      ],
      "priority": 5,
      "initDialog": 414145201,
      "npcId": [
        1539
      ],
      "performCfg": "",
      "loadType": "TALK_ACTIVITY",
      "questId": 2003,
      "prePerformCfg": ""
    },
    {
      "id": 4141453,
      "beginWay": "TALK_BEGIN_MANUAL",
      "activeMode": "PLAY_MODE_SINGLE",
      "beginCond": [
        {
          "type": "QUEST_COND_ACTIVITY_CLIENT_COND",
          "param": [
            "2003",
            "2003000",
            "1"
          ],
          "param_str": ""
        }
      ],
      "priority": 5,
      "nextTalks": [
        4141452,
        6153902,
        4141451
      ],
      "initDialog": 414145301,
      "npcId": [
        1539
      ],
      "performCfg": "",
      "loadType": "TALK_ACTIVITY",
      "questId": 2003,
      "prePerformCfg": ""
    },
    {
      "id": 4141454,
      "beginWay": "TALK_BEGIN_MANUAL",
      "activeMode": "PLAY_MODE_SINGLE",
      "beginCond": [
        {
          "type": "QUEST_COND_ACTIVITY_CLIENT_COND",
          "param": [
            "2003",
            "2003000",
            "1"
          ],
          "param_str": ""
        }
      ],
      "priority": 5,
      "nextTalks": [
        6152302
      ],
      "initDialog": 414145401,
      "npcId": [
        1523
      ],
      "performCfg": "",
      "loadType": "TALK_ACTIVITY",
      "questId": 2003,
      "prePerformCfg": ""
    },
    {
      "id": 4141455,
      "beginWay": "TALK_BEGIN_MANUAL",
      "activeMode": "PLAY_MODE_SINGLE",
      "beginCond": [
        {
          "type": "QUEST_COND_ACTIVITY_CLIENT_COND",
          "param": [
            "2003",
            "2003000",
            "1"
          ],
          "param_str": ""
        }
      ],
      "priority": 5,
      "nextTalks": [
        7070101
      ],
      "initDialog": 414145501,
      "npcId": [
        1521
      ],
      "performCfg": "",
      "loadType": "TALK_ACTIVITY",
      "questId": 2003,
      "prePerformCfg": ""
    },
    {
      "id": 4141456,
      "activeMode": "PLAY_MODE_SINGLE",
      "beginCond": [
        {
          "type": "QUEST_COND_ACTIVITY_CLIENT_COND",
          "param": [
            "2003",
            "2003000",
            "1"
          ],
          "param_str": ""
        }
      ],
      "priority": 5,
      "initDialog": 414145601,
      "npcId": [
        1602
      ],
      "performCfg": "",
      "loadType": "TALK_ACTIVITY",
      "questId": 2003,
      "prePerformCfg": ""
    },
    {
      "id": 4141457,
      "activeMode": "PLAY_MODE_SINGLE",
      "beginCond": [
        {
          "type": "QUEST_COND_ACTIVITY_CLIENT_COND",
          "param": [
            "2003",
            "2003000",
            "1"
          ],
          "param_str": ""
        }
      ],
      "priority": 5,
      "initDialog": 414145701,
      "npcId": [
        1602
      ],
      "performCfg": "",
      "loadType": "TALK_ACTIVITY",
      "questId": 2003,
      "prePerformCfg": ""
    },
    {
      "id": 4141458,
      "activeMode": "PLAY_MODE_SINGLE",
      "beginCond": [
        {
          "type": "QUEST_COND_ACTIVITY_CLIENT_COND",
          "param": [
            "2003",
            "2003000",
            "1"
          ],
          "param_str": ""
        }
      ],
      "priority": 5,
      "initDialog": 414145801,
      "npcId": [
        1602
      ],
      "performCfg": "",
      "loadType": "TALK_ACTIVITY",
      "questId": 2003,
      "prePerformCfg": ""
    },
    {
      "id": 4141459,
      "beginWay": "TALK_BEGIN_MANUAL",
      "activeMode": "PLAY_MODE_SINGLE",
      "beginCond": [
        {
          "type": "QUEST_COND_ACTIVITY_CLIENT_COND",
          "param": [
            "2003",
            "2003000",
            "1"
          ],
          "param_str": ""
        }
      ],
      "priority": 4,
      "nextTalks": [
        4141433,
        4141458,
        4141457,
        4141456
      ],
      "initDialog": 414145901,
      "npcId": [
        1602
      ],
      "performCfg": "",
      "loadType": "TALK_ACTIVITY",
      "questId": 2003,
      "prePerformCfg": ""
    },
    {
      "id": 4141460,
      "activeMode": "PLAY_MODE_SINGLE",
      "beginCond": [
        {
          "type": "QUEST_COND_ACTIVITY_CLIENT_COND",
          "param": [
            "2003",
            "2003000",
            "1"
          ],
          "param_str": ""
        }
      ],
      "priority": 5,
      "initDialog": 414146001,
      "npcId": [
        1431
      ],
      "performCfg": "",
      "loadType": "TALK_ACTIVITY",
      "questId": 2003,
      "prePerformCfg": ""
    },
    {
      "id": 4141461,
      "activeMode": "PLAY_MODE_SINGLE",
      "beginCond": [
        {
          "type": "QUEST_COND_ACTIVITY_CLIENT_COND",
          "param": [
            "2003",
            "2003000",
            "1"
          ],
          "param_str": ""
        }
      ],
      "priority": 5,
      "initDialog": 414146101,
      "npcId": [
        1431
      ],
      "performCfg": "",
      "loadType": "TALK_ACTIVITY",
      "questId": 2003,
      "prePerformCfg": ""
    },
    {
      "id": 4141462,
      "beginWay": "TALK_BEGIN_MANUAL",
      "activeMode": "PLAY_MODE_SINGLE",
      "beginCond": [
        {
          "type": "QUEST_COND_ACTIVITY_CLIENT_COND",
          "param": [
            "2003",
            "2003000",
            "1"
          ],
          "param_str": ""
        }
      ],
      "priority": 5,
      "nextTalks": [
        4141461,
        6143107,
        4141460
      ],
      "initDialog": 414146201,
      "npcId": [
        1431
      ],
      "performCfg": "",
      "loadType": "TALK_ACTIVITY",
      "questId": 2003,
      "prePerformCfg": ""
    },
    {
      "id": 4141463,
      "beginWay": "TALK_BEGIN_MANUAL",
      "activeMode": "PLAY_MODE_SINGLE",
      "beginCondComb": "LOGIC_AND",
      "beginCond": [
        {
          "type": "QUEST_COND_ACTIVITY_CLIENT_COND",
          "param": [
            "2003",
            "2003000",
            "1"
          ],
          "param_str": ""
        },
        {
          "type": "QUEST_COND_IS_DAYTIME",
          "param": [
            "0"
          ],
          "param_str": ""
        }
      ],
      "priority": 5,
      "initDialog": 414146301,
      "npcId": [
        1609,
        1610
      ],
      "performCfg": "",
      "loadType": "TALK_ACTIVITY",
      "questId": 2003,
      "prePerformCfg": ""
    },
    {
      "id": 4141464,
      "activeMode": "PLAY_MODE_SINGLE",
      "beginCondComb": "LOGIC_AND",
      "beginCond": [
        {
          "type": "QUEST_COND_ACTIVITY_CLIENT_COND",
          "param": [
            "2003",
            "2003000",
            "1"
          ],
          "param_str": ""
        },
        {
          "type": "QUEST_COND_IS_DAYTIME",
          "param": [
            "1"
          ],
          "param_str": ""
        }
      ],
      "priority": 5,
      "initDialog": 414146401,
      "npcId": [
        1607
      ],
      "performCfg": "",
      "loadType": "TALK_ACTIVITY",
      "questId": 2003,
      "prePerformCfg": ""
    },
    {
      "id": 4141465,
      "activeMode": "PLAY_MODE_SINGLE",
      "beginCondComb": "LOGIC_AND",
      "beginCond": [
        {
          "type": "QUEST_COND_ACTIVITY_CLIENT_COND",
          "param": [
            "2003",
            "2003000",
            "1"
          ],
          "param_str": ""
        },
        {
          "type": "QUEST_COND_IS_DAYTIME",
          "param": [
            "1"
          ],
          "param_str": ""
        }
      ],
      "priority": 5,
      "initDialog": 414146501,
      "npcId": [
        1607
      ],
      "performCfg": "",
      "loadType": "TALK_ACTIVITY",
      "questId": 2003,
      "prePerformCfg": ""
    },
    {
      "id": 4141466,
      "beginWay": "TALK_BEGIN_MANUAL",
      "activeMode": "PLAY_MODE_SINGLE",
      "beginCondComb": "LOGIC_AND",
      "beginCond": [
        {
          "type": "QUEST_COND_ACTIVITY_CLIENT_COND",
          "param": [
            "2003",
            "2003000",
            "1"
          ],
          "param_str": ""
        },
        {
          "type": "QUEST_COND_IS_DAYTIME",
          "param": [
            "1"
          ],
          "param_str": ""
        }
      ],
      "priority": 4,
      "nextTalks": [
        4141432,
        4141465,
        4141464
      ],
      "initDialog": 414146601,
      "npcId": [
        1607
      ],
      "performCfg": "",
      "loadType": "TALK_ACTIVITY",
      "questId": 2003,
      "prePerformCfg": ""
    },
    {
      "id": 4141467,
      "activeMode": "PLAY_MODE_SINGLE",
      "beginCond": [
        {
          "type": "QUEST_COND_ACTIVITY_CLIENT_COND",
          "param": [
            "2003",
            "2003000",
            "1"
          ],
          "param_str": ""
        }
      ],
      "priority": 5,
      "initDialog": 414146701,
      "npcId": [
        1519
      ],
      "performCfg": "",
      "loadType": "TALK_ACTIVITY",
      "questId": 2003,
      "prePerformCfg": ""
    },
    {
      "id": 4141468,
      "activeMode": "PLAY_MODE_SINGLE",
      "beginCond": [
        {
          "type": "QUEST_COND_ACTIVITY_CLIENT_COND",
          "param": [
            "2003",
            "2003000",
            "1"
          ],
          "param_str": ""
        }
      ],
      "priority": 5,
      "initDialog": 414146801,
      "npcId": [
        1519
      ],
      "performCfg": "",
      "loadType": "TALK_ACTIVITY",
      "questId": 2003,
      "prePerformCfg": ""
    },
    {
      "id": 4141469,
      "activeMode": "PLAY_MODE_SINGLE",
      "beginCond": [
        {
          "type": "QUEST_COND_ACTIVITY_CLIENT_COND",
          "param": [
            "2003",
            "2003000",
            "1"
          ],
          "param_str": ""
        }
      ],
      "priority": 5,
      "initDialog": 414146901,
      "npcId": [
        1519
      ],
      "performCfg": "",
      "loadType": "TALK_ACTIVITY",
      "questId": 2003,
      "prePerformCfg": ""
    },
    {
      "id": 4141470,
      "beginWay": "TALK_BEGIN_MANUAL",
      "activeMode": "PLAY_MODE_SINGLE",
      "beginCond": [
        {
          "type": "QUEST_COND_ACTIVITY_CLIENT_COND",
          "param": [
            "2003",
            "2003000",
            "1"
          ],
          "param_str": ""
        }
      ],
      "priority": 5,
      "nextTalks": [
        4141469,
        4141468,
        4141467
      ],
      "initDialog": 414147001,
      "npcId": [
        1519
      ],
      "performCfg": "",
      "loadType": "TALK_ACTIVITY",
      "questId": 2003,
      "prePerformCfg": ""
    },
    {
      "id": 4141471,
      "beginWay": "TALK_BEGIN_MANUAL",
      "activeMode": "PLAY_MODE_SINGLE",
      "beginCond": [
        {
          "type": "QUEST_COND_ACTIVITY_CLIENT_COND",
          "param": [
            "2003",
            "2003000",
            "1"
          ],
          "param_str": ""
        }
      ],
      "priority": 5,
      "nextTalks": [
        6142901,
        6143001
      ],
      "initDialog": 414147101,
      "npcId": [
        1430
      ],
      "performCfg": "",
      "loadType": "TALK_ACTIVITY",
      "questId": 2003,
      "prePerformCfg": ""
    },
    {
      "id": 4141472,
      "beginWay": "TALK_BEGIN_MANUAL",
      "activeMode": "PLAY_MODE_SINGLE",
      "beginCond": [
        {
          "type": "QUEST_COND_ACTIVITY_CLIENT_COND",
          "param": [
            "2003",
            "2003000",
            "1"
          ],
          "param_str": ""
        }
      ],
      "priority": 5,
      "nextTalks": [
        6142901,
        6143001
      ],
      "initDialog": 414147201,
      "npcId": [
        1429
      ],
      "performCfg": "",
      "loadType": "TALK_ACTIVITY",
      "questId": 2003,
      "prePerformCfg": ""
    },
    {
      "id": 4141473,
      "activeMode": "PLAY_MODE_SINGLE",
      "beginCondComb": "LOGIC_AND",
      "beginCond": [
        {
          "type": "QUEST_COND_ACTIVITY_CLIENT_COND",
          "param": [
            "2003",
            "2003000",
            "1"
          ],
          "param_str": ""
        },
        {
          "type": "QUEST_COND_IS_DAYTIME",
          "param": [
            "1"
          ],
          "param_str": ""
        }
      ],
      "priority": 5,
      "initDialog": 414147301,
      "npcId": [
        1409
      ],
      "performCfg": "",
      "loadType": "TALK_ACTIVITY",
      "questId": 2003,
      "prePerformCfg": ""
    },
    {
      "id": 4141474,
      "activeMode": "PLAY_MODE_SINGLE",
      "beginCondComb": "LOGIC_AND",
      "beginCond": [
        {
          "type": "QUEST_COND_ACTIVITY_CLIENT_COND",
          "param": [
            "2003",
            "2003000",
            "1"
          ],
          "param_str": ""
        },
        {
          "type": "QUEST_COND_IS_DAYTIME",
          "param": [
            "1"
          ],
          "param_str": ""
        }
      ],
      "priority": 5,
      "initDialog": 414147401,
      "npcId": [
        1409
      ],
      "performCfg": "",
      "loadType": "TALK_ACTIVITY",
      "questId": 2003,
      "prePerformCfg": ""
    },
    {
      "id": 4141475,
      "activeMode": "PLAY_MODE_SINGLE",
      "beginCondComb": "LOGIC_AND",
      "beginCond": [
        {
          "type": "QUEST_COND_ACTIVITY_CLIENT_COND",
          "param": [
            "2003",
            "2003000",
            "1"
          ],
          "param_str": ""
        },
        {
          "type": "QUEST_COND_IS_DAYTIME",
          "param": [
            "1"
          ],
          "param_str": ""
        }
      ],
      "priority": 5,
      "initDialog": 414147501,
      "npcId": [
        1409
      ],
      "performCfg": "",
      "loadType": "TALK_ACTIVITY",
      "questId": 2003,
      "prePerformCfg": ""
    },
    {
      "id": 4141476,
      "beginWay": "TALK_BEGIN_MANUAL",
      "activeMode": "PLAY_MODE_SINGLE",
      "beginCondComb": "LOGIC_AND",
      "beginCond": [
        {
          "type": "QUEST_COND_ACTIVITY_CLIENT_COND",
          "param": [
            "2003",
            "2003000",
            "1"
          ],
          "param_str": ""
        },
        {
          "type": "QUEST_COND_IS_DAYTIME",
          "param": [
            "1"
          ],
          "param_str": ""
        }
      ],
      "priority": 5,
      "nextTalks": [
        4141475,
        4141474,
        40215,
        4141473
      ],
      "initDialog": 414147601,
      "npcId": [
        1409
      ],
      "performCfg": "",
      "loadType": "TALK_ACTIVITY",
      "questId": 2003,
      "prePerformCfg": ""
    },
    {
      "id": 4141477,
      "activeMode": "PLAY_MODE_SINGLE",
      "beginCond": [
        {
          "type": "QUEST_COND_ACTIVITY_CLIENT_COND",
          "param": [
            "2003",
            "2003000",
            "1"
          ],
          "param_str": ""
        }
      ],
      "priority": 5,
      "initDialog": 414147701,
      "npcId": [
        1439
      ],
      "performCfg": "",
      "loadType": "TALK_ACTIVITY",
      "questId": 2003,
      "prePerformCfg": ""
    },
    {
      "id": 4141478,
      "activeMode": "PLAY_MODE_SINGLE",
      "beginCond": [
        {
          "type": "QUEST_COND_ACTIVITY_CLIENT_COND",
          "param": [
            "2003",
            "2003000",
            "1"
          ],
          "param_str": ""
        }
      ],
      "priority": 5,
      "initDialog": 414147801,
      "npcId": [
        1439
      ],
      "performCfg": "",
      "loadType": "TALK_ACTIVITY",
      "questId": 2003,
      "prePerformCfg": ""
    },
    {
      "id": 4141479,
      "beginWay": "TALK_BEGIN_MANUAL",
      "activeMode": "PLAY_MODE_SINGLE",
      "beginCond": [
        {
          "type": "QUEST_COND_ACTIVITY_CLIENT_COND",
          "param": [
            "2003",
            "2003000",
            "1"
          ],
          "param_str": ""
        }
      ],
      "priority": 5,
      "nextTalks": [
        4141478,
        4141477
      ],
      "initDialog": 414147901,
      "npcId": [
        1439
      ],
      "performCfg": "",
      "loadType": "TALK_ACTIVITY",
      "questId": 2003,
      "prePerformCfg": ""
    },
    {
      "id": 4141480,
      "activeMode": "PLAY_MODE_SINGLE",
      "beginCond": [
        {
          "type": "QUEST_COND_ACTIVITY_CLIENT_COND",
          "param": [
            "2003",
            "2003000",
            "1"
          ],
          "param_str": ""
        }
      ],
      "priority": 5,
      "initDialog": 414148001,
      "npcId": [
        1606
      ],
      "performCfg": "",
      "loadType": "TALK_ACTIVITY",
      "questId": 2003,
      "prePerformCfg": ""
    },
    {
      "id": 4141481,
      "activeMode": "PLAY_MODE_SINGLE",
      "beginCond": [
        {
          "type": "QUEST_COND_ACTIVITY_CLIENT_COND",
          "param": [
            "2003",
            "2003000",
            "1"
          ],
          "param_str": ""
        }
      ],
      "priority": 5,
      "initDialog": 414148101,
      "npcId": [
        1606
      ],
      "performCfg": "",
      "loadType": "TALK_ACTIVITY",
      "questId": 2003,
      "prePerformCfg": ""
    },
    {
      "id": 4141482,
      "beginWay": "TALK_BEGIN_MANUAL",
      "activeMode": "PLAY_MODE_SINGLE",
      "beginCond": [
        {
          "type": "QUEST_COND_ACTIVITY_CLIENT_COND",
          "param": [
            "2003",
            "2003000",
            "1"
          ],
          "param_str": ""
        }
      ],
      "priority": 5,
      "nextTalks": [
        4141481,
        4141480
      ],
      "initDialog": 414148201,
      "npcId": [
        1606
      ],
      "performCfg": "",
      "loadType": "TALK_ACTIVITY",
      "questId": 2003,
      "prePerformCfg": ""
    },
    {
      "id": 4141483,
      "activeMode": "PLAY_MODE_SINGLE",
      "beginCondComb": "LOGIC_AND",
      "beginCond": [
        {
          "type": "QUEST_COND_ACTIVITY_CLIENT_COND",
          "param": [
            "2003",
            "2003000",
            "1"
          ],
          "param_str": ""
        },
        {
          "type": "QUEST_COND_IS_DAYTIME",
          "param": [
            "1"
          ],
          "param_str": ""
        }
      ],
      "priority": 5,
      "initDialog": 414148301,
      "npcId": [
        1603
      ],
      "performCfg": "",
      "loadType": "TALK_ACTIVITY",
      "questId": 2003,
      "prePerformCfg": ""
    },
    {
      "id": 4141484,
      "activeMode": "PLAY_MODE_SINGLE",
      "beginCondComb": "LOGIC_AND",
      "beginCond": [
        {
          "type": "QUEST_COND_ACTIVITY_CLIENT_COND",
          "param": [
            "2003",
            "2003000",
            "1"
          ],
          "param_str": ""
        },
        {
          "type": "QUEST_COND_IS_DAYTIME",
          "param": [
            "1"
          ],
          "param_str": ""
        }
      ],
      "priority": 5,
      "initDialog": 414148401,
      "npcId": [
        1603
      ],
      "performCfg": "",
      "loadType": "TALK_ACTIVITY",
      "questId": 2003,
      "prePerformCfg": ""
    },
    {
      "id": 4141485,
      "beginWay": "TALK_BEGIN_MANUAL",
      "activeMode": "PLAY_MODE_SINGLE",
      "beginCondComb": "LOGIC_AND",
      "beginCond": [
        {
          "type": "QUEST_COND_ACTIVITY_CLIENT_COND",
          "param": [
            "2003",
            "2003000",
            "1"
          ],
          "param_str": ""
        },
        {
          "type": "QUEST_COND_IS_DAYTIME",
          "param": [
            "1"
          ],
          "param_str": ""
        }
      ],
      "priority": 5,
      "nextTalks": [
        4141484,
        4141483
      ],
      "initDialog": 414148501,
      "npcId": [
        1603
      ],
      "performCfg": "",
      "loadType": "TALK_ACTIVITY",
      "questId": 2003,
      "prePerformCfg": ""
    },
    {
      "id": 4141486,
      "beginWay": "TALK_BEGIN_MANUAL",
      "activeMode": "PLAY_MODE_SINGLE",
      "beginCond": [
        {
          "type": "QUEST_COND_ACTIVITY_CLIENT_COND",
          "param": [
            "2003",
            "2003000",
            "1"
          ],
          "param_str": ""
        }
      ],
      "priority": 5,
      "initDialog": 414148601,
      "npcId": [
        1427
      ],
      "performCfg": "",
      "loadType": "TALK_ACTIVITY",
      "questId": 2003,
      "prePerformCfg": ""
    },
    {
      "id": 4141487,
      "activeMode": "PLAY_MODE_SINGLE",
      "beginCond": [
        {
          "type": "QUEST_COND_ACTIVITY_CLIENT_COND",
          "param": [
            "2003",
            "2003000",
            "1"
          ],
          "param_str": ""
        }
      ],
      "priority": 5,
      "initDialog": 414148701,
      "npcId": [
        1425
      ],
      "performCfg": "",
      "loadType": "TALK_ACTIVITY",
      "questId": 2003,
      "prePerformCfg": ""
    },
    {
      "id": 4141488,
      "activeMode": "PLAY_MODE_SINGLE",
      "beginCond": [
        {
          "type": "QUEST_COND_ACTIVITY_CLIENT_COND",
          "param": [
            "2003",
            "2003000",
            "1"
          ],
          "param_str": ""
        }
      ],
      "priority": 5,
      "initDialog": 414148801,
      "npcId": [
        1425
      ],
      "performCfg": "",
      "loadType": "TALK_ACTIVITY",
      "questId": 2003,
      "prePerformCfg": ""
    },
    {
      "id": 4141489,
      "activeMode": "PLAY_MODE_SINGLE",
      "beginCond": [
        {
          "type": "QUEST_COND_ACTIVITY_CLIENT_COND",
          "param": [
            "2003",
            "2003000",
            "1"
          ],
          "param_str": ""
        }
      ],
      "priority": 5,
      "initDialog": 414148901,
      "npcId": [
        1425
      ],
      "performCfg": "",
      "loadType": "TALK_ACTIVITY",
      "questId": 2003,
      "prePerformCfg": ""
    },
    {
      "id": 4141490,
      "beginWay": "TALK_BEGIN_MANUAL",
      "activeMode": "PLAY_MODE_SINGLE",
      "beginCond": [
        {
          "type": "QUEST_COND_ACTIVITY_CLIENT_COND",
          "param": [
            "2003",
            "2003000",
            "1"
          ],
          "param_str": ""
        }
      ],
      "priority": 5,
      "nextTalks": [
        1010061,
        46410,
        2074004,
        2074005,
        2074006,
        2074007,
        7081008,
        7081011,
        7081012,
        4141489,
        4141488,
        41710,
        4141487
      ],
      "initDialog": 414149001,
      "npcId": [
        1425
      ],
      "performCfg": "",
      "loadType": "TALK_ACTIVITY",
      "questId": 2003,
      "prePerformCfg": ""
    },
    {
      "id": 4141491,
      "activeMode": "PLAY_MODE_SINGLE",
      "beginCond": [
        {
          "type": "QUEST_COND_ACTIVITY_CLIENT_COND",
          "param": [
            "2003",
            "2003000",
            "1"
          ],
          "param_str": ""
        }
      ],
      "priority": 5,
      "initDialog": 414149101,
      "npcId": [
        1638
      ],
      "performCfg": "",
      "loadType": "TALK_ACTIVITY",
      "questId": 2003,
      "prePerformCfg": ""
    },
    {
      "id": 4141492,
      "activeMode": "PLAY_MODE_SINGLE",
      "beginCond": [
        {
          "type": "QUEST_COND_ACTIVITY_CLIENT_COND",
          "param": [
            "2003",
            "2003000",
            "1"
          ],
          "param_str": ""
        }
      ],
      "priority": 5,
      "initDialog": 414149201,
      "npcId": [
        1638
      ],
      "performCfg": "",
      "loadType": "TALK_ACTIVITY",
      "questId": 2003,
      "prePerformCfg": ""
    },
    {
      "id": 4141493,
      "activeMode": "PLAY_MODE_SINGLE",
      "beginCond": [
        {
          "type": "QUEST_COND_ACTIVITY_CLIENT_COND",
          "param": [
            "2003",
            "2003000",
            "1"
          ],
          "param_str": ""
        }
      ],
      "priority": 5,
      "initDialog": 414149301,
      "npcId": [
        1638
      ],
      "performCfg": "",
      "loadType": "TALK_ACTIVITY",
      "questId": 2003,
      "prePerformCfg": ""
    },
    {
      "id": 4141494,
      "beginWay": "TALK_BEGIN_MANUAL",
      "activeMode": "PLAY_MODE_SINGLE",
      "beginCond": [
        {
          "type": "QUEST_COND_ACTIVITY_CLIENT_COND",
          "param": [
            "2003",
            "2003000",
            "1"
          ],
          "param_str": ""
        }
      ],
      "priority": 5,
      "nextTalks": [
        4141493,
        4141492,
        4141491
      ],
      "initDialog": 414149401,
      "npcId": [
        1638
      ],
      "performCfg": "",
      "loadType": "TALK_ACTIVITY",
      "questId": 2003,
      "prePerformCfg": ""
    },
    {
      "id": 4141495,
      "activeMode": "PLAY_MODE_SINGLE",
      "beginCondComb": "LOGIC_AND",
      "beginCond": [
        {
          "type": "QUEST_COND_ACTIVITY_CLIENT_COND",
          "param": [
            "2003",
            "2003000",
            "1"
          ],
          "param_str": ""
        },
        {
          "type": "QUEST_COND_IS_DAYTIME",
          "param": [
            "0"
          ],
          "param_str": ""
        }
      ],
      "priority": 1,
      "initDialog": 414149501,
      "npcId": [
        1404
      ],
      "performCfg": "",
      "loadType": "TALK_ACTIVITY",
      "questId": 2003,
      "prePerformCfg": ""
    },
    {
      "id": 4141496,
      "activeMode": "PLAY_MODE_SINGLE",
      "beginCondComb": "LOGIC_AND",
      "beginCond": [
        {
          "type": "QUEST_COND_ACTIVITY_CLIENT_COND",
          "param": [
            "2003",
            "2003000",
            "1"
          ],
          "param_str": ""
        },
        {
          "type": "QUEST_COND_IS_DAYTIME",
          "param": [
            "0"
          ],
          "param_str": ""
        }
      ],
      "priority": 1,
      "initDialog": 414149601,
      "npcId": [
        1404
      ],
      "performCfg": "",
      "loadType": "TALK_ACTIVITY",
      "questId": 2003,
      "prePerformCfg": ""
    },
    {
      "id": 4141497,
      "activeMode": "PLAY_MODE_SINGLE",
      "beginCondComb": "LOGIC_AND",
      "beginCond": [
        {
          "type": "QUEST_COND_ACTIVITY_CLIENT_COND",
          "param": [
            "2003",
            "2003000",
            "1"
          ],
          "param_str": ""
        },
        {
          "type": "QUEST_COND_IS_DAYTIME",
          "param": [
            "0"
          ],
          "param_str": ""
        }
      ],
      "priority": 1,
      "initDialog": 414149701,
      "npcId": [
        1404
      ],
      "performCfg": "",
      "loadType": "TALK_ACTIVITY",
      "questId": 2003,
      "prePerformCfg": ""
    },
    {
      "id": 4141498,
      "beginWay": "TALK_BEGIN_MANUAL",
      "activeMode": "PLAY_MODE_SINGLE",
      "beginCondComb": "LOGIC_AND",
      "beginCond": [
        {
          "type": "QUEST_COND_ACTIVITY_CLIENT_COND",
          "param": [
            "2003",
            "2003000",
            "1"
          ],
          "param_str": ""
        },
        {
          "type": "QUEST_COND_IS_DAYTIME",
          "param": [
            "0"
          ],
          "param_str": ""
        }
      ],
      "priority": 4,
      "nextTalks": [
        4141497,
        4141496,
        4141495
      ],
      "initDialog": 414149801,
      "npcId": [
        1404
      ],
      "performCfg": "",
      "loadType": "TALK_ACTIVITY",
      "questId": 2003,
      "prePerformCfg": ""
    },
    {
      "id": 4141499,
      "beginWay": "TALK_BEGIN_MANUAL",
      "activeMode": "PLAY_MODE_SINGLE",
      "beginCondComb": "LOGIC_AND",
      "beginCond": [
        {
          "type": "QUEST_COND_ACTIVITY_CLIENT_COND",
          "param": [
            "2003",
            "2003000",
            "1"
          ],
          "param_str": ""
        },
        {
          "type": "QUEST_COND_IS_DAYTIME",
          "param": [
            "1"
          ],
          "param_str": ""
        }
      ],
      "priority": 5,
      "initDialog": 414149901,
      "npcId": [
        1401,
        1403
      ],
      "performCfg": "",
      "loadType": "TALK_ACTIVITY",
      "questId": 2003,
      "prePerformCfg": ""
    }
  ]
}