{
  "id": 20049,
  "type": "IQ",
  "titleTextMapHash": 1106223857,
  "descTextMapHash": 2198626967,
  "luaPath": "Actor/Quest/IQ20049",
  "subQuests": [
    {
      "subId": 2004901,
      "mainId": 20049,
      "order": 1,
      "descTextMapHash": 2811948664,
      "acceptCond": [
        {
          "type": "QUEST_COND_DAILY_TASK_START",
          "param": [
            21900,
            0,
            0
          ],
          "param_str": ""
        }
      ],
      "finishCond": [
        {
          "type": "QUEST_CONTENT_COMPLETE_TALK",
          "param": [
            2004901,
            0
          ],
          "param_str": ""
        }
      ],
      "failCond": [],
      "guide": {
        "type": "QUEST_GUIDE_NPC",
        "param": [
          "146101"
        ],
        "guideScene": 1009,
        "guideStyle": "QUEST_GUIDE_STYLE_START",
        "guideLayer": "QUEST_GUIDE_LAYER_UI"
      },
      "isRewind": true,
      "finishExec": [],
      "failExec": [],
      "beginExec": [],
      "exclusiveNpcList": [
        1461,
        1463,
        1403
      ]
    },
    {
      "subId": 2004902,
      "mainId": 20049,
      "order": 2,
      "descTextMapHash": 3504244424,
      "acceptCondComb": "LOGIC_AND",
      "acceptCond": [
        {
          "type": "QUEST_COND_DAILY_TASK_START",
          "param": [
            21900,
            0,
            0
          ],
          "param_str": ""
        },
        {
          "type": "QUEST_COND_STATE_EQUAL",
          "param": [
            2004901,
            3,
            0
          ],
          "param_str": ""
        }
      ],
      "finishCond": [
        {
          "type": "QUEST_CONTENT_COMPLETE_TALK",
          "param": [
            2004902,
            0
          ],
          "param_str": ""
        }
      ],
      "failCond": [],
      "guide": {
        "type": "QUEST_GUIDE_NPC",
        "param": [
          "146301"
        ],
        "guideScene": 3,
        "guideStyle": "QUEST_GUIDE_STYLE_TARGET",
        "guideLayer": "QUEST_GUIDE_LAYER_SCENE"
      },
      "isRewind": true,
      "finishExec": [
        {
          "type": "QUEST_EXEC_REFRESH_GROUP_SUITE",
          "param": [
            "3",
            "133004912,1"
          ],
          "param_str": ""
        }
      ],
      "failExec": [],
      "beginExec": [
        {
          "type": "QUEST_EXEC_REFRESH_GROUP_SUITE",
          "param": [
            "3",
            "133004912,2"
          ],
          "param_str": ""
        }
      ],
      "exclusiveNpcList": [
        1461,
        1463,
        1403
      ]
    },
    {
      "subId": 2004903,
      "mainId": 20049,
      "order": 3,
      "subIdSet": 1,
      "descTextMapHash": 2904464000,
      "acceptCondComb": "LOGIC_AND",
      "acceptCond": [
        {
          "type": "QUEST_COND_DAILY_TASK_START",
          "param": [
            21900,
            0,
            0
          ],
          "param_str": ""
        },
        {
          "type": "QUEST_COND_STATE_EQUAL",
          "param": [
            2004902,
            3,
            0
          ],
          "param_str": ""
        }
      ],
      "finishCond": [
        {
          "type": "QUEST_CONTENT_OBTAIN_ITEM",
          "param": [
            100002,
            0
          ],
          "param_str": "",
          "count": 5
        }
      ],
      "failCond": [],
      "guide": {
        "type": "QUEST_GUIDE_NPC",
        "param": [
          "1403"
        ],
        "guideScene": 3,
        "guideStyle": "QUEST_GUIDE_STYLE_TARGET",
        "guideLayer": "QUEST_GUIDE_LAYER_SCENE"
      },
      "isRewind": true,
      "finishExec": [
        {
          "type": "QUEST_EXEC_DEL_PACK_ITEM",
          "param": [
            "100002",
            "5"
          ],
          "param_str": ""
        }
      ],
      "failExec": [],
      "beginExec": [],
      "exclusiveNpcList": [
        1461,
        1463,
        1403
      ]
    },
    {
      "subId": 2004904,
      "mainId": 20049,
      "order": 4,
      "descTextMapHash": 4051481480,
      "acceptCondComb": "LOGIC_AND",
      "acceptCond": [
        {
          "type": "QUEST_COND_DAILY_TASK_START",
          "param": [
            21900,
            0,
            0
          ],
          "param_str": ""
        },
        {
          "type": "QUEST_COND_STATE_EQUAL",
          "param": [
            2004903,
            3,
            0
          ],
          "param_str": ""
        }
      ],
      "finishCond": [
        {
          "type": "QUEST_CONTENT_COMPLETE_TALK",
          "param": [
            2004906,
            0
          ],
          "param_str": ""
        }
      ],
      "failCond": [],
      "guide": {
        "type": "QUEST_GUIDE_NPC",
        "param": [
          "1403"
        ],
        "guideScene": 3,
        "guideStyle": "QUEST_GUIDE_STYLE_TARGET",
        "guideLayer": "QUEST_GUIDE_LAYER_SCENE"
      },
      "isRewind": true,
      "finishExec": [],
      "failExec": [],
      "beginExec": [],
      "exclusiveNpcList": [
        1461,
        1463,
        1403
      ]
    },
    {
      "subId": 2004905,
      "mainId": 20049,
      "order": 5,
      "descTextMapHash": 2159396736,
      "acceptCondComb": "LOGIC_AND",
      "acceptCond": [
        {
          "type": "QUEST_COND_DAILY_TASK_START",
          "param": [
            21900,
            0,
            0
          ],
          "param_str": ""
        },
        {
          "type": "QUEST_COND_STATE_EQUAL",
          "param": [
            2004904,
            3,
            0
          ],
          "param_str": ""
        }
      ],
      "finishCond": [
        {
          "type": "QUEST_CONTENT_COMPLETE_TALK",
          "param": [
            2004908,
            0
          ],
          "param_str": ""
        }
      ],
      "failCond": [],
      "guide": {
        "type": "QUEST_GUIDE_NPC",
        "param": [
          "146101"
        ],
        "guideScene": 1009,
        "guideStyle": "QUEST_GUIDE_STYLE_FINISH",
        "guideLayer": "QUEST_GUIDE_LAYER_SCENE"
      },
      "finishParent": true,
      "isRewind": true,
      "finishExec": [
        {
          "type": "QUEST_EXEC_NOTIFY_DAILY_TASK",
          "param": [
            "21900"
          ],
          "param_str": ""
        }
      ],
      "failExec": [],
      "beginExec": [],
      "exclusiveNpcList": [
        1461,
        1463,
        1403
      ]
    }
  ],
  "talks": [
    {
      "id": 2004901,
      "beginWay": "TALK_BEGIN_MANUAL",
      "beginCond": [
        {
          "type": "QUEST_COND_STATE_EQUAL",
          "param": [
            "2004901",
            "2"
          ],
          "param_str": ""
        }
      ],
      "priority": 6,
      "initDialog": 200490101,
      "npcId": [
        146101
      ],
      "performCfg": "",
      "questId": 20049,
      "prePerformCfg": ""
    },
    {
      "id": 2004902,
      "beginWay": "TALK_BEGIN_MANUAL",
      "beginCondComb": "LOGIC_AND",
      "beginCond": [
        {
          "type": "QUEST_COND_STATE_EQUAL",
          "param": [
            "2004901",
            "3"
          ],
          "param_str": ""
        },
        {
          "type": "QUEST_COND_STATE_EQUAL",
          "param": [
            "2004902",
            "2"
          ],
          "param_str": ""
        }
      ],
      "priority": 6,
      "initDialog": 200490201,
      "npcId": [
        146301
      ],
      "performCfg": "",
      "questId": 20049,
      "prePerformCfg": ""
    },
    {
      "id": 2004903,
      "beginWay": "TALK_BEGIN_MANUAL",
      "beginCondComb": "LOGIC_AND",
      "beginCond": [
        {
          "type": "QUEST_COND_STATE_EQUAL",
          "param": [
            "2004902",
            "3"
          ],
          "param_str": ""
        },
        {
          "type": "QUEST_COND_STATE_EQUAL",
          "param": [
            "2004903",
            "2"
          ],
          "param_str": ""
        }
      ],
      "priority": 6,
      "initDialog": 200490301,
      "npcId": [
        1403
      ],
      "performCfg": "",
      "questId": 20049,
      "prePerformCfg": ""
    },
    {
      "id": 2004904,
      "beginWay": "TALK_BEGIN_MANUAL",
      "beginCondComb": "LOGIC_AND",
      "beginCond": [
        {
          "type": "QUEST_COND_STATE_EQUAL",
          "param": [
            "2004902",
            "3"
          ],
          "param_str": ""
        },
        {
          "type": "QUEST_COND_STATE_EQUAL",
          "param": [
            "2004903",
            "2"
          ],
          "param_str": ""
        }
      ],
      "priority": 6,
      "initDialog": 200490401,
      "npcId": [
        146301
      ],
      "performCfg": "",
      "questId": 20049,
      "prePerformCfg": ""
    },
    {
      "id": 2004905,
      "beginCondComb": "LOGIC_AND",
      "beginCond": [
        {
          "type": "QUEST_COND_STATE_EQUAL",
          "param": [
            "2004902",
            "3"
          ],
          "param_str": ""
        },
        {
          "type": "QUEST_COND_STATE_EQUAL",
          "param": [
            "2004903",
            "2"
          ],
          "param_str": ""
        }
      ],
      "priority": 6,
      "initDialog": 200490501,
      "npcId": [
        1005
      ],
      "performCfg": "",
      "questId": 20049,
      "prePerformCfg": ""
    },
    {
      "id": 2004906,
      "beginWay": "TALK_BEGIN_MANUAL",
      "beginCondComb": "LOGIC_AND",
      "beginCond": [
        {
          "type": "QUEST_COND_STATE_EQUAL",
          "param": [
            "2004903",
            "3"
          ],
          "param_str": ""
        },
        {
          "type": "QUEST_COND_STATE_EQUAL",
          "param": [
            "2004904",
            "2"
          ],
          "param_str": ""
        }
      ],
      "priority": 6,
      "initDialog": 200490601,
      "npcId": [
        1403
      ],
      "performCfg": "",
      "questId": 20049,
      "prePerformCfg": ""
    },
    {
      "id": 2004907,
      "beginCondComb": "LOGIC_AND",
      "beginCond": [
        {
          "type": "QUEST_COND_STATE_EQUAL",
          "param": [
            "2004904",
            "3"
          ],
          "param_str": ""
        },
        {
          "type": "QUEST_COND_STATE_EQUAL",
          "param": [
            "2004905",
            "2"
          ],
          "param_str": ""
        }
      ],
      "priority": 6,
      "initDialog": 200490701,
      "npcId": [
        1005
      ],
      "performCfg": "",
      "questId": 20049,
      "prePerformCfg": ""
    },
    {
      "id": 2004908,
      "beginWay": "TALK_BEGIN_MANUAL",
      "beginCondComb": "LOGIC_AND",
      "beginCond": [
        {
          "type": "QUEST_COND_STATE_EQUAL",
          "param": [
            "2004904",
            "3"
          ],
          "param_str": ""
        },
        {
          "type": "QUEST_COND_STATE_EQUAL",
          "param": [
            "2004905",
            "2"
          ],
          "param_str": ""
        }
      ],
      "priority": 6,
      "initDialog": 200490801,
      "npcId": [
        146101
      ],
      "performCfg": "",
      "questId": 20049,
      "prePerformCfg": ""
    }
  ]
}