{
  "id": 20517,
  "type": "IQ",
  "titleTextMapHash": 2565392439,
  "descTextMapHash": 2235514758,
  "luaPath": "Actor/Quest/IQ20517",
  "rewardIdList": [
    0,
    500140
  ],
  "subQuests": [
    {
      "subId": 2051701,
      "mainId": 20517,
      "order": 1,
      "descTextMapHash": 2844533356,
      "acceptCond": [
        {
          "type": "QUEST_COND_DAILY_TASK_START",
          "param": [
            24900,
            0,
            0,
            0,
            0
          ],
          "param_str": ""
        }
      ],
      "finishCondComb": "LOGIC_OR",
      "finishCond": [
        {
          "type": "QUEST_CONTENT_COMPLETE_TALK",
          "param": [
            2051711,
            0
          ],
          "param_str": ""
        },
        {
          "type": "QUEST_CONTENT_COMPLETE_TALK",
          "param": [
            2051712,
            0
          ],
          "param_str": ""
        },
        {
          "type": "QUEST_CONTENT_COMPLETE_TALK",
          "param": [
            2051713,
            0
          ],
          "param_str": ""
        },
        {
          "type": "QUEST_CONTENT_COMPLETE_TALK",
          "param": [
            2051740,
            0
          ],
          "param_str": ""
        }
      ],
      "failCond": [],
      "guide": {
        "type": "QUEST_GUIDE_NPC",
        "param": [
          "160001"
        ],
        "guideScene": 1008,
        "guideStyle": "QUEST_GUIDE_STYLE_START",
        "guideLayer": "QUEST_GUIDE_LAYER_SCENE"
      },
      "isRewind": true,
      "finishExec": [],
      "failExec": [],
      "beginExec": [
        {
          "type": "QUEST_EXEC_SET_DAILY_TASK_VAR",
          "param": [
            "24900",
            "3",
            "0"
          ],
          "param_str": ""
        }
      ],
      "exclusiveNpcList": [
        160001,
        1599,
        1600
      ],
      "exclusiveNpcPriority": 1100
    },
    {
      "subId": 2051702,
      "mainId": 20517,
      "order": 2,
      "descTextMapHash": 2512999452,
      "acceptCondComb": "LOGIC_AND",
      "acceptCond": [
        {
          "type": "QUEST_COND_DAILY_TASK_START",
          "param": [
            24900,
            0,
            0,
            0,
            0
          ],
          "param_str": ""
        },
        {
          "type": "QUEST_COND_STATE_EQUAL",
          "param": [
            2051708,
            3,
            0,
            0,
            0
          ],
          "param_str": ""
        }
      ],
      "finishCondComb": "LOGIC_OR",
      "finishCond": [
        {
          "type": "QUEST_CONTENT_COMPLETE_TALK",
          "param": [
            2051707,
            0
          ],
          "param_str": ""
        },
        {
          "type": "QUEST_CONTENT_COMPLETE_TALK",
          "param": [
            2051708,
            0
          ],
          "param_str": ""
        }
      ],
      "failCond": [],
      "guide": {
        "type": "QUEST_GUIDE_NPC",
        "param": [
          "1435"
        ],
        "guideScene": 3,
        "guideStyle": "QUEST_GUIDE_STYLE_TARGET",
        "guideLayer": "QUEST_GUIDE_LAYER_SCENE"
      },
      "isRewind": true,
      "finishExec": [],
      "failExec": [],
      "beginExec": [],
      "exclusiveNpcList": [
        160001,
        1435,
        1599,
        1600
      ],
      "exclusiveNpcPriority": 1100
    },
    {
      "subId": 2051703,
      "mainId": 20517,
      "order": 3,
      "descTextMapHash": 1238350148,
      "showType": "QUEST_HIDDEN",
      "acceptCondComb": "LOGIC_AND",
      "acceptCond": [
        {
          "type": "QUEST_COND_DAILY_TASK_START",
          "param": [
            24900,
            0,
            0,
            0,
            0
          ],
          "param_str": ""
        },
        {
          "type": "QUEST_COND_STATE_EQUAL",
          "param": [
            2051701,
            3,
            0,
            0,
            0
          ],
          "param_str": ""
        }
      ],
      "finishCond": [
        {
          "type": "QUEST_CONTENT_COMPLETE_TALK",
          "param": [
            2051708,
            0
          ],
          "param_str": ""
        }
      ],
      "failCond": [],
      "guide": {
        "param": [],
        "guideScene": 3
      },
      "showGuide": "QUEST_GUIDE_ITEM_DISABLE",
      "isRewind": true,
      "finishExec": [
        {
          "type": "QUEST_EXEC_DEL_PACK_ITEM",
          "param": [
            "202",
            "900"
          ],
          "param_str": ""
        }
      ],
      "failExec": [],
      "beginExec": [],
      "exclusiveNpcList": [
        160001,
        1435,
        1599,
        1600
      ],
      "exclusiveNpcPriority": 1100
    },
    {
      "subId": 2051704,
      "mainId": 20517,
      "order": 4,
      "descTextMapHash": 1946556644,
      "acceptCondComb": "LOGIC_AND",
      "acceptCond": [
        {
          "type": "QUEST_COND_DAILY_TASK_START",
          "param": [
            24900,
            0,
            0,
            0,
            0
          ],
          "param_str": ""
        },
        {
          "type": "QUEST_COND_STATE_EQUAL",
          "param": [
            2051703,
            3,
            0,
            0,
            0
          ],
          "param_str": ""
        },
        {
          "type": "QUEST_COND_PACK_HAVE_ITEM",
          "param": [
            100473,
            1,
            0,
            0,
            0
          ],
          "param_str": ""
        }
      ],
      "finishCond": [
        {
          "type": "QUEST_CONTENT_COMPLETE_TALK",
          "param": [
            2051704,
            0
          ],
          "param_str": ""
        }
      ],
      "failCond": [],
      "guide": {
        "type": "QUEST_GUIDE_NPC",
        "param": [
          "160001"
        ],
        "guideScene": 1008,
        "guideStyle": "QUEST_GUIDE_STYLE_TARGET",
        "guideLayer": "QUEST_GUIDE_LAYER_SCENE"
      },
      "finishParent": true,
      "isRewind": true,
      "finishExec": [
        {
          "type": "QUEST_EXEC_NOTIFY_DAILY_TASK",
          "param": [
            "24900"
          ],
          "param_str": ""
        },
        {
          "type": "QUEST_EXEC_INC_DAILY_TASK_VAR",
          "param": [
            "24900",
            "1"
          ],
          "param_str": ""
        },
        {
          "type": "QUEST_EXEC_DEL_ALL_SPECIFIC_PACK_ITEM",
          "param": [
            "100473"
          ],
          "param_str": ""
        }
      ],
      "failExec": [],
      "beginExec": [],
      "exclusiveNpcList": [
        160001,
        1435,
        1599,
        1600
      ],
      "exclusiveNpcPriority": 1100
    },
    {
      "subId": 2051705,
      "mainId": 20517,
      "order": 5,
      "descTextMapHash": 4010090764,
      "acceptCondComb": "LOGIC_AND",
      "acceptCond": [
        {
          "type": "QUEST_COND_DAILY_TASK_START",
          "param": [
            24900,
            0,
            0,
            0,
            0
          ],
          "param_str": ""
        },
        {
          "type": "QUEST_COND_STATE_EQUAL",
          "param": [
            2051707,
            3,
            0,
            0,
            0
          ],
          "param_str": ""
        }
      ],
      "finishCond": [
        {
          "type": "QUEST_CONTENT_FINISH_ITEM_GIVING",
          "param": [
            2051705,
            0
          ],
          "param_str": ""
        }
      ],
      "failCond": [],
      "guide": {
        "type": "QUEST_GUIDE_NPC",
        "param": [
          "1435"
        ],
        "guideScene": 3,
        "guideStyle": "QUEST_GUIDE_STYLE_TARGET",
        "guideLayer": "QUEST_GUIDE_LAYER_SCENE"
      },
      "isRewind": true,
      "finishExec": [],
      "failExec": [],
      "beginExec": [
        {
          "type": "QUEST_EXEC_ACTIVE_ITEM_GIVING",
          "param": [
            "2051705"
          ],
          "param_str": ""
        }
      ],
      "exclusiveNpcList": [
        160001,
        1435,
        1599,
        1600
      ],
      "exclusiveNpcPriority": 1100
    },
    {
      "subId": 2051706,
      "mainId": 20517,
      "order": 6,
      "descTextMapHash": 3412348324,
      "acceptCondComb": "LOGIC_AND",
      "acceptCond": [
        {
          "type": "QUEST_COND_DAILY_TASK_START",
          "param": [
            24900,
            0,
            0,
            0,
            0
          ],
          "param_str": ""
        },
        {
          "type": "QUEST_COND_STATE_EQUAL",
          "param": [
            2051705,
            3,
            0,
            0,
            0
          ],
          "param_str": ""
        },
        {
          "type": "QUEST_COND_PACK_HAVE_ITEM",
          "param": [
            100473,
            1,
            0,
            0,
            0
          ],
          "param_str": ""
        }
      ],
      "finishCond": [
        {
          "type": "QUEST_CONTENT_COMPLETE_TALK",
          "param": [
            2051705,
            0
          ],
          "param_str": ""
        }
      ],
      "failCond": [],
      "guide": {
        "type": "QUEST_GUIDE_NPC",
        "param": [
          "160001"
        ],
        "guideScene": 1008,
        "guideStyle": "QUEST_GUIDE_STYLE_TARGET",
        "guideLayer": "QUEST_GUIDE_LAYER_SCENE"
      },
      "finishParent": true,
      "isRewind": true,
      "finishExec": [
        {
          "type": "QUEST_EXEC_NOTIFY_DAILY_TASK",
          "param": [
            "24900"
          ],
          "param_str": ""
        },
        {
          "type": "QUEST_EXEC_DEL_ALL_SPECIFIC_PACK_ITEM",
          "param": [
            "100473"
          ],
          "param_str": ""
        },
        {
          "type": "QUEST_EXEC_INC_DAILY_TASK_VAR",
          "param": [
            "24900",
            "1"
          ],
          "param_str": ""
        }
      ],
      "failExec": [],
      "beginExec": [],
      "exclusiveNpcList": [
        160001,
        1435,
        1599,
        1600
      ],
      "exclusiveNpcPriority": 1100
    },
    {
      "subId": 2051707,
      "mainId": 20517,
      "order": 8,
      "descTextMapHash": 1735944804,
      "showType": "QUEST_HIDDEN",
      "acceptCondComb": "LOGIC_AND",
      "acceptCond": [
        {
          "type": "QUEST_COND_DAILY_TASK_START",
          "param": [
            24900,
            0,
            0,
            0,
            0
          ],
          "param_str": ""
        },
        {
          "type": "QUEST_COND_STATE_EQUAL",
          "param": [
            2051701,
            3,
            0,
            0,
            0
          ],
          "param_str": ""
        }
      ],
      "finishCond": [
        {
          "type": "QUEST_CONTENT_COMPLETE_TALK",
          "param": [
            2051707,
            0
          ],
          "param_str": ""
        }
      ],
      "failCond": [],
      "guide": {
        "param": [],
        "guideScene": 3
      },
      "showGuide": "QUEST_GUIDE_ITEM_DISABLE",
      "isRewind": true,
      "finishExec": [],
      "failExec": [],
      "beginExec": [],
      "exclusiveNpcList": [
        160001,
        1435,
        1599,
        1600
      ],
      "exclusiveNpcPriority": 1100
    },
    {
      "subId": 2051708,
      "mainId": 20517,
      "order": 9,
      "descTextMapHash": 3296756972,
      "showType": "QUEST_HIDDEN",
      "acceptCondComb": "LOGIC_AND",
      "acceptCond": [
        {
          "type": "QUEST_COND_DAILY_TASK_START",
          "param": [
            24900,
            0,
            0,
            0,
            0
          ],
          "param_str": ""
        }
      ],
      "finishCond": [
        {
          "type": "QUEST_CONTENT_COMPLETE_TALK",
          "param": [
            2051711,
            0
          ],
          "param_str": ""
        }
      ],
      "failCond": [],
      "guide": {
        "param": [],
        "guideScene": 3
      },
      "showGuide": "QUEST_GUIDE_ITEM_DISABLE",
      "finishExec": [],
      "failExec": [],
      "beginExec": [],
      "exclusiveNpcList": [
        160001,
        1599,
        1600
      ],
      "exclusiveNpcPriority": 1100
    },
    {
      "subId": 2051709,
      "mainId": 20517,
      "order": 10,
      "descTextMapHash": 3137554012,
      "showType": "QUEST_HIDDEN",
      "acceptCondComb": "LOGIC_AND",
      "acceptCond": [
        {
          "type": "QUEST_COND_DAILY_TASK_START",
          "param": [
            24900,
            0,
            0,
            0,
            0
          ],
          "param_str": ""
        },
        {
          "type": "QUEST_COND_DAILY_TASK_VAR_GT",
          "param": [
            24900,
            1,
            0,
            0,
            0
          ],
          "param_str": ""
        }
      ],
      "finishCond": [
        {
          "type": "QUEST_CONTENT_COMPLETE_TALK",
          "param": [
            2051712,
            0
          ],
          "param_str": ""
        }
      ],
      "failCond": [],
      "guide": {
        "param": [],
        "guideScene": 3
      },
      "showGuide": "QUEST_GUIDE_ITEM_DISABLE",
      "finishExec": [],
      "failExec": [],
      "beginExec": [],
      "exclusiveNpcList": [
        160001,
        1599,
        1600
      ],
      "exclusiveNpcPriority": 1100
    },
    {
      "subId": 2051710,
      "mainId": 20517,
      "order": 11,
      "descTextMapHash": 2036116396,
      "showType": "QUEST_HIDDEN",
      "acceptCondComb": "LOGIC_AND",
      "acceptCond": [
        {
          "type": "QUEST_COND_DAILY_TASK_START",
          "param": [
            24900,
            0,
            0,
            0,
            0
          ],
          "param_str": ""
        },
        {
          "type": "QUEST_COND_DAILY_TASK_VAR_GT",
          "param": [
            24900,
            1,
            1,
            0,
            0
          ],
          "param_str": ""
        }
      ],
      "finishCond": [
        {
          "type": "QUEST_CONTENT_COMPLETE_TALK",
          "param": [
            2051713,
            0
          ],
          "param_str": ""
        }
      ],
      "failCond": [],
      "guide": {
        "param": [],
        "guideScene": 3
      },
      "showGuide": "QUEST_GUIDE_ITEM_DISABLE",
      "finishExec": [],
      "failExec": [],
      "beginExec": [],
      "exclusiveNpcList": [
        160001,
        1599,
        1600
      ],
      "exclusiveNpcPriority": 1100
    },
    {
      "subId": 2051711,
      "mainId": 20517,
      "order": 12,
      "descTextMapHash": 1745989908,
      "acceptCondComb": "LOGIC_AND",
      "acceptCond": [
        {
          "type": "QUEST_COND_DAILY_TASK_START",
          "param": [
            24900,
            0,
            0,
            0,
            0
          ],
          "param_str": ""
        },
        {
          "type": "QUEST_COND_STATE_EQUAL",
          "param": [
            2051710,
            3,
            0,
            0,
            0
          ],
          "param_str": ""
        }
      ],
      "finishCond": [
        {
          "type": "QUEST_CONTENT_COMPLETE_TALK",
          "param": [
            2051714,
            0
          ],
          "param_str": ""
        }
      ],
      "failCond": [],
      "guide": {
        "type": "QUEST_GUIDE_NPC",
        "param": [
          "1419"
        ],
        "guideScene": 3,
        "guideStyle": "QUEST_GUIDE_STYLE_TARGET",
        "guideLayer": "QUEST_GUIDE_LAYER_SCENE"
      },
      "isRewind": true,
      "finishExec": [],
      "failExec": [],
      "beginExec": [],
      "exclusiveNpcList": [
        1419,
        1455,
        160001,
        1599,
        1600
      ],
      "exclusiveNpcPriority": 1100
    },
    {
      "subId": 2051712,
      "mainId": 20517,
      "order": 13,
      "descTextMapHash": 1487661020,
      "acceptCondComb": "LOGIC_AND",
      "acceptCond": [
        {
          "type": "QUEST_COND_DAILY_TASK_START",
          "param": [
            24900,
            0,
            0,
            0,
            0
          ],
          "param_str": ""
        },
        {
          "type": "QUEST_COND_STATE_EQUAL",
          "param": [
            2051711,
            3,
            0,
            0,
            0
          ],
          "param_str": ""
        },
        {
          "type": "QUEST_COND_PACK_HAVE_ITEM",
          "param": [
            100506,
            1,
            0,
            0,
            0
          ],
          "param_str": ""
        }
      ],
      "finishCond": [
        {
          "type": "QUEST_CONTENT_COMPLETE_TALK",
          "param": [
            2051715,
            0
          ],
          "param_str": ""
        }
      ],
      "failCond": [
        {
          "type": "QUEST_CONTENT_NOT_FINISH_PLOT",
          "param": [
            2051712,
            0
          ],
          "param_str": ""
        }
      ],
      "guide": {
        "type": "QUEST_GUIDE_NPC",
        "param": [
          "1455"
        ],
        "guideScene": 3,
        "guideStyle": "QUEST_GUIDE_STYLE_TARGET",
        "guideLayer": "QUEST_GUIDE_LAYER_SCENE"
      },
      "isRewind": true,
      "finishExec": [
        {
          "type": "QUEST_EXEC_DEL_ALL_SPECIFIC_PACK_ITEM",
          "param": [
            "100506"
          ],
          "param_str": ""
        }
      ],
      "failExec": [
        {
          "type": "QUEST_EXEC_DEL_ALL_SPECIFIC_PACK_ITEM",
          "param": [
            "100506"
          ],
          "param_str": ""
        }
      ],
      "beginExec": [],
      "exclusiveNpcList": [
        1419,
        1455,
        160001,
        1599,
        1600
      ],
      "exclusiveNpcPriority": 1100
    },
    {
      "subId": 2051713,
      "mainId": 20517,
      "order": 15,
      "descTextMapHash": 342508596,
      "acceptCondComb": "LOGIC_AND",
      "acceptCond": [
        {
          "type": "QUEST_COND_DAILY_TASK_START",
          "param": [
            24900,
            0,
            0,
            0,
            0
          ],
          "param_str": ""
        },
        {
          "type": "QUEST_COND_STATE_EQUAL",
          "param": [
            2051712,
            3,
            0,
            0,
            0
          ],
          "param_str": ""
        }
      ],
      "finishCond": [
        {
          "type": "QUEST_CONTENT_COMPLETE_TALK",
          "param": [
            2051716,
            0
          ],
          "param_str": ""
        }
      ],
      "failCond": [],
      "guide": {
        "type": "QUEST_GUIDE_NPC",
        "param": [
          "1419"
        ],
        "guideScene": 3,
        "guideStyle": "QUEST_GUIDE_STYLE_TARGET",
        "guideLayer": "QUEST_GUIDE_LAYER_SCENE"
      },
      "isRewind": true,
      "finishExec": [],
      "failExec": [],
      "beginExec": [],
      "exclusiveNpcList": [
        1419,
        1455,
        160001,
        1599,
        1600
      ],
      "exclusiveNpcPriority": 1100
    },
    {
      "subId": 2051714,
      "mainId": 20517,
      "order": 16,
      "descTextMapHash": 680989324,
      "acceptCondComb": "LOGIC_AND",
      "acceptCond": [
        {
          "type": "QUEST_COND_DAILY_TASK_START",
          "param": [
            24900,
            0,
            0,
            0,
            0
          ],
          "param_str": ""
        },
        {
          "type": "QUEST_COND_STATE_EQUAL",
          "param": [
            2051713,
            3,
            0,
            0,
            0
          ],
          "param_str": ""
        },
        {
          "type": "QUEST_COND_PACK_HAVE_ITEM",
          "param": [
            100475,
            1,
            0,
            0,
            0
          ],
          "param_str": ""
        }
      ],
      "finishCond": [
        {
          "type": "QUEST_CONTENT_COMPLETE_TALK",
          "param": [
            2051717,
            0
          ],
          "param_str": ""
        }
      ],
      "failCond": [],
      "guide": {
        "type": "QUEST_GUIDE_NPC",
        "param": [
          "160001"
        ],
        "guideScene": 1008,
        "guideStyle": "QUEST_GUIDE_STYLE_TARGET",
        "guideLayer": "QUEST_GUIDE_LAYER_SCENE"
      },
      "finishParent": true,
      "isRewind": true,
      "finishExec": [
        {
          "type": "QUEST_EXEC_NOTIFY_DAILY_TASK",
          "param": [
            "24900"
          ],
          "param_str": ""
        },
        {
          "type": "QUEST_EXEC_DEL_ALL_SPECIFIC_PACK_ITEM",
          "param": [
            "100475"
          ],
          "param_str": ""
        },
        {
          "type": "QUEST_EXEC_INC_DAILY_TASK_VAR",
          "param": [
            "24900",
            "1",
            "1"
          ],
          "param_str": ""
        }
      ],
      "failExec": [],
      "beginExec": [],
      "exclusiveNpcList": [
        1419,
        1455,
        160001,
        1599,
        1600
      ],
      "exclusiveNpcPriority": 1100
    },
    {
      "subId": 2051715,
      "mainId": 20517,
      "order": 17,
      "descTextMapHash": 591918108,
      "acceptCondComb": "LOGIC_AND",
      "acceptCond": [
        {
          "type": "QUEST_COND_DAILY_TASK_START",
          "param": [
            24900,
            0,
            0,
            0,
            0
          ],
          "param_str": ""
        },
        {
          "type": "QUEST_COND_STATE_EQUAL",
          "param": [
            2051709,
            3,
            0,
            0,
            0
          ],
          "param_str": ""
        }
      ],
      "finishCond": [
        {
          "type": "QUEST_CONTENT_COMPLETE_TALK",
          "param": [
            2051720,
            0
          ],
          "param_str": ""
        }
      ],
      "failCond": [],
      "guide": {
        "type": "QUEST_GUIDE_NPC",
        "param": [
          "1403"
        ],
        "guideScene": 3,
        "guideStyle": "QUEST_GUIDE_STYLE_TARGET",
        "guideLayer": "QUEST_GUIDE_LAYER_SCENE"
      },
      "isRewind": true,
      "finishExec": [],
      "failExec": [],
      "beginExec": [],
      "exclusiveNpcList": [
        1403,
        160001,
        1599,
        1600
      ],
      "exclusiveNpcPriority": 1100
    },
    {
      "subId": 2051716,
      "mainId": 20517,
      "order": 18,
      "descTextMapHash": 3251868676,
      "acceptCondComb": "LOGIC_AND",
      "acceptCond": [
        {
          "type": "QUEST_COND_DAILY_TASK_START",
          "param": [
            24900,
            0,
            0,
            0,
            0
          ],
          "param_str": ""
        },
        {
          "type": "QUEST_COND_STATE_EQUAL",
          "param": [
            2051715,
            3,
            0,
            0,
            0
          ],
          "param_str": ""
        }
      ],
      "finishCond": [
        {
          "type": "QUEST_CONTENT_LUA_NOTIFY",
          "param": [
            0,
            0
          ],
          "param_str": "13300290302",
          "count": 1
        }
      ],
      "failCond": [],
      "guide": {
        "type": "QUEST_GUIDE_LOCATION",
        "param": [
          "Q20517_Cargo_InitPos",
          "30"
        ],
        "guideScene": 3,
        "guideStyle": "QUEST_GUIDE_STYLE_TARGET",
        "guideLayer": "QUEST_GUIDE_LAYER_SCENE"
      },
      "isRewind": true,
      "finishExec": [],
      "failExec": [],
      "beginExec": [
        {
          "type": "QUEST_EXEC_REFRESH_GROUP_SUITE",
          "param": [
            "3",
            "133002903,2"
          ],
          "param_str": ""
        }
      ],
      "exclusiveNpcList": [
        1403,
        160001,
        1599,
        1600
      ],
      "exclusiveNpcPriority": 1100
    },
    {
      "subId": 2051717,
      "mainId": 20517,
      "order": 19,
      "descTextMapHash": 4155801108,
      "acceptCondComb": "LOGIC_AND",
      "acceptCond": [
        {
          "type": "QUEST_COND_DAILY_TASK_START",
          "param": [
            24900,
            0,
            0,
            0,
            0
          ],
          "param_str": ""
        },
        {
          "type": "QUEST_COND_STATE_EQUAL",
          "param": [
            2051716,
            3,
            0,
            0,
            0
          ],
          "param_str": ""
        }
      ],
      "finishCond": [
        {
          "type": "QUEST_CONTENT_LUA_NOTIFY",
          "param": [
            0,
            0
          ],
          "param_str": "13300290401",
          "count": 1
        }
      ],
      "failCond": [
        {
          "type": "QUEST_CONTENT_LUA_NOTIFY",
          "param": [
            0,
            0
          ],
          "param_str": "13300290301",
          "count": 1
        }
      ],
      "guide": {
        "type": "QUEST_GUIDE_LOCATION",
        "param": [
          "Q20517_Cargo_InitPos",
          "5"
        ],
        "guideScene": 3,
        "guideStyle": "QUEST_GUIDE_STYLE_TARGET",
        "guideLayer": "QUEST_GUIDE_LAYER_SCENE"
      },
      "isRewind": true,
      "finishExec": [],
      "failExec": [
        {
          "type": "QUEST_EXEC_REFRESH_GROUP_SUITE",
          "param": [
            "3",
            "133002904,1"
          ],
          "param_str": ""
        }
      ],
      "beginExec": [
        {
          "type": "QUEST_EXEC_REFRESH_GROUP_SUITE",
          "param": [
            "3",
            "133002904,2"
          ],
          "param_str": ""
        },
        {
          "type": "QUEST_EXEC_NOTIFY_GROUP_LUA",
          "param": [
            "3",
            "133002903"
          ],
          "param_str": ""
        }
      ],
      "exclusiveNpcList": [
        1403,
        160001,
        1599,
        1600
      ],
      "exclusiveNpcPriority": 1100
    },
    {
      "subId": 2051718,
      "mainId": 20517,
      "order": 20,
      "descTextMapHash": 2314726948,
      "acceptCondComb": "LOGIC_AND",
      "acceptCond": [
        {
          "type": "QUEST_COND_DAILY_TASK_START",
          "param": [
            24900,
            0,
            0,
            0,
            0
          ],
          "param_str": ""
        },
        {
          "type": "QUEST_COND_STATE_EQUAL",
          "param": [
            2051717,
            3,
            0,
            0,
            0
          ],
          "param_str": ""
        }
      ],
      "finishCond": [
        {
          "type": "QUEST_CONTENT_COMPLETE_TALK",
          "param": [
            2051721,
            0
          ],
          "param_str": ""
        }
      ],
      "failCond": [],
      "guide": {
        "type": "QUEST_GUIDE_NPC",
        "param": [
          "1403"
        ],
        "guideScene": 3,
        "guideStyle": "QUEST_GUIDE_STYLE_TARGET",
        "guideLayer": "QUEST_GUIDE_LAYER_SCENE"
      },
      "isRewind": true,
      "finishExec": [],
      "failExec": [],
      "beginExec": [],
      "exclusiveNpcList": [
        1403,
        160001,
        1599,
        1600
      ],
      "exclusiveNpcPriority": 1100
    },
    {
      "subId": 2051719,
      "mainId": 20517,
      "order": 21,
      "descTextMapHash": 1337506516,
      "acceptCondComb": "LOGIC_AND",
      "acceptCond": [
        {
          "type": "QUEST_COND_DAILY_TASK_START",
          "param": [
            24900,
            0,
            0,
            0,
            0
          ],
          "param_str": ""
        },
        {
          "type": "QUEST_COND_STATE_EQUAL",
          "param": [
            2051718,
            3,
            0,
            0,
            0
          ],
          "param_str": ""
        },
        {
          "type": "QUEST_COND_PACK_HAVE_ITEM",
          "param": [
            100474,
            1,
            0,
            0,
            0
          ],
          "param_str": ""
        }
      ],
      "finishCond": [
        {
          "type": "QUEST_CONTENT_COMPLETE_TALK",
          "param": [
            2051722,
            0
          ],
          "param_str": ""
        }
      ],
      "failCond": [],
      "guide": {
        "type": "QUEST_GUIDE_NPC",
        "param": [
          "160001"
        ],
        "guideScene": 1008,
        "guideStyle": "QUEST_GUIDE_STYLE_TARGET",
        "guideLayer": "QUEST_GUIDE_LAYER_SCENE"
      },
      "finishParent": true,
      "isRewind": true,
      "finishExec": [
        {
          "type": "QUEST_EXEC_NOTIFY_DAILY_TASK",
          "param": [
            "24900"
          ],
          "param_str": ""
        },
        {
          "type": "QUEST_EXEC_DEL_ALL_SPECIFIC_PACK_ITEM",
          "param": [
            "100474"
          ],
          "param_str": ""
        },
        {
          "type": "QUEST_EXEC_INC_DAILY_TASK_VAR",
          "param": [
            "24900",
            "1"
          ],
          "param_str": ""
        }
      ],
      "failExec": [],
      "beginExec": [],
      "exclusiveNpcList": [
        160001,
        1403,
        1599,
        1600
      ],
      "exclusiveNpcPriority": 1100
    },
    {
      "subId": 2051720,
      "mainId": 20517,
      "order": 22,
      "descTextMapHash": 4138778380,
      "acceptCondComb": "LOGIC_AND",
      "acceptCond": [
        {
          "type": "QUEST_COND_DAILY_TASK_START",
          "param": [
            24900,
            0,
            0,
            0,
            0
          ],
          "param_str": ""
        },
        {
          "type": "QUEST_COND_STATE_EQUAL",
          "param": [
            2051717,
            4,
            0,
            0,
            0
          ],
          "param_str": ""
        }
      ],
      "finishCond": [
        {
          "type": "QUEST_CONTENT_COMPLETE_TALK",
          "param": [
            2051727,
            0
          ],
          "param_str": ""
        }
      ],
      "failCond": [],
      "guide": {
        "type": "QUEST_GUIDE_NPC",
        "param": [
          "1403"
        ],
        "guideScene": 3,
        "guideStyle": "QUEST_GUIDE_STYLE_TARGET",
        "guideLayer": "QUEST_GUIDE_LAYER_SCENE"
      },
      "isRewind": true,
      "finishExec": [],
      "failExec": [],
      "beginExec": [],
      "exclusiveNpcList": [
        1403,
        160001,
        1599,
        1600
      ],
      "exclusiveNpcPriority": 1100
    },
    {
      "subId": 2051721,
      "mainId": 20517,
      "order": 23,
      "descTextMapHash": 885066516,
      "acceptCondComb": "LOGIC_AND",
      "acceptCond": [
        {
          "type": "QUEST_COND_DAILY_TASK_START",
          "param": [
            24900,
            0,
            0,
            0,
            0
          ],
          "param_str": ""
        },
        {
          "type": "QUEST_COND_STATE_EQUAL",
          "param": [
            2051720,
            3,
            0,
            0,
            0
          ],
          "param_str": ""
        }
      ],
      "finishCond": [
        {
          "type": "QUEST_CONTENT_OBTAIN_ITEM",
          "param": [
            100524,
            0
          ],
          "param_str": ""
        }
      ],
      "failCond": [],
      "guide": {
        "type": "QUEST_GUIDE_LOCATION",
        "param": [
          "Q20517_Wood",
          "10"
        ],
        "guideScene": 3,
        "guideStyle": "QUEST_GUIDE_STYLE_TARGET",
        "guideLayer": "QUEST_GUIDE_LAYER_SCENE"
      },
      "isRewind": true,
      "finishExec": [],
      "failExec": [],
      "beginExec": [
        {
          "type": "QUEST_EXEC_REFRESH_GROUP_SUITE",
          "param": [
            "3",
            "133004918,2"
          ],
          "param_str": ""
        }
      ],
      "exclusiveNpcList": [
        1403,
        160001,
        1599,
        1600
      ],
      "exclusiveNpcPriority": 1100
    },
    {
      "subId": 2051722,
      "mainId": 20517,
      "order": 24,
      "descTextMapHash": 3923022500,
      "acceptCondComb": "LOGIC_AND",
      "acceptCond": [
        {
          "type": "QUEST_COND_DAILY_TASK_START",
          "param": [
            24900,
            0,
            0,
            0,
            0
          ],
          "param_str": ""
        },
        {
          "type": "QUEST_COND_STATE_EQUAL",
          "param": [
            2051721,
            3,
            0,
            0,
            0
          ],
          "param_str": ""
        },
        {
          "type": "QUEST_COND_PACK_HAVE_ITEM",
          "param": [
            100524,
            1,
            0,
            0,
            0
          ],
          "param_str": ""
        }
      ],
      "finishCond": [
        {
          "type": "QUEST_CONTENT_COMPLETE_TALK",
          "param": [
            2051728,
            0
          ],
          "param_str": ""
        }
      ],
      "failCond": [],
      "guide": {
        "type": "QUEST_GUIDE_NPC",
        "param": [
          "1403"
        ],
        "guideScene": 3,
        "guideStyle": "QUEST_GUIDE_STYLE_TARGET",
        "guideLayer": "QUEST_GUIDE_LAYER_SCENE"
      },
      "isRewind": true,
      "finishExec": [
        {
          "type": "QUEST_EXEC_DEL_ALL_SPECIFIC_PACK_ITEM",
          "param": [
            "100524"
          ],
          "param_str": ""
        }
      ],
      "failExec": [],
      "beginExec": [],
      "exclusiveNpcList": [
        1403,
        160001,
        1599,
        1600
      ],
      "exclusiveNpcPriority": 1100
    },
    {
      "subId": 2051723,
      "mainId": 20517,
      "order": 25,
      "descTextMapHash": 3333653188,
      "acceptCondComb": "LOGIC_AND",
      "acceptCond": [
        {
          "type": "QUEST_COND_DAILY_TASK_START",
          "param": [
            24900,
            0,
            0,
            0,
            0
          ],
          "param_str": ""
        },
        {
          "type": "QUEST_COND_STATE_EQUAL",
          "param": [
            2051722,
            3,
            0,
            0,
            0
          ],
          "param_str": ""
        },
        {
          "type": "QUEST_COND_PACK_HAVE_ITEM",
          "param": [
            100474,
            1,
            0,
            0,
            0
          ],
          "param_str": ""
        }
      ],
      "finishCond": [
        {
          "type": "QUEST_CONTENT_COMPLETE_TALK",
          "param": [
            2051731,
            0
          ],
          "param_str": ""
        }
      ],
      "failCond": [],
      "guide": {
        "type": "QUEST_GUIDE_NPC",
        "param": [
          "160001"
        ],
        "guideScene": 1008,
        "guideStyle": "QUEST_GUIDE_STYLE_TARGET",
        "guideLayer": "QUEST_GUIDE_LAYER_SCENE"
      },
      "finishParent": true,
      "isRewind": true,
      "finishExec": [
        {
          "type": "QUEST_EXEC_NOTIFY_DAILY_TASK",
          "param": [
            "24900"
          ],
          "param_str": ""
        },
        {
          "type": "QUEST_EXEC_DEL_ALL_SPECIFIC_PACK_ITEM",
          "param": [
            "100474"
          ],
          "param_str": ""
        },
        {
          "type": "QUEST_EXEC_INC_DAILY_TASK_VAR",
          "param": [
            "24900",
            "1"
          ],
          "param_str": ""
        }
      ],
      "failExec": [],
      "beginExec": [],
      "exclusiveNpcList": [
        160001,
        1403,
        1599,
        1600
      ],
      "exclusiveNpcPriority": 1100
    },
    {
      "subId": 2051730,
      "mainId": 20517,
      "order": 26,
      "descTextMapHash": 1145658628,
      "showType": "QUEST_HIDDEN",
      "acceptCondComb": "LOGIC_AND",
      "acceptCond": [
        {
          "type": "QUEST_COND_DAILY_TASK_START",
          "param": [
            24900,
            0,
            0,
            0,
            0
          ],
          "param_str": ""
        },
        {
          "type": "QUEST_COND_DAILY_TASK_VAR_GT",
          "param": [
            24900,
            1,
            2,
            0,
            0
          ],
          "param_str": ""
        },
        {
          "type": "QUEST_COND_DAILY_TASK_VAR_LT",
          "param": [
            24900,
            2,
            1,
            0,
            0
          ],
          "param_str": ""
        }
      ],
      "finishCond": [
        {
          "type": "QUEST_CONTENT_COMPLETE_TALK",
          "param": [
            2051740,
            0
          ],
          "param_str": ""
        }
      ],
      "failCond": [],
      "guide": {
        "param": [],
        "guideScene": 3
      },
      "showGuide": "QUEST_GUIDE_ITEM_DISABLE",
      "finishExec": [],
      "failExec": [],
      "beginExec": [],
      "exclusiveNpcList": [
        160001,
        1599,
        1600
      ],
      "exclusiveNpcPriority": 1100
    },
    {
      "subId": 2051731,
      "mainId": 20517,
      "order": 27,
      "descTextMapHash": 1700820636,
      "acceptCondComb": "LOGIC_AND",
      "acceptCond": [
        {
          "type": "QUEST_COND_DAILY_TASK_START",
          "param": [
            24900,
            0,
            0,
            0,
            0
          ],
          "param_str": ""
        },
        {
          "type": "QUEST_COND_STATE_EQUAL",
          "param": [
            2051730,
            3,
            0,
            0,
            0
          ],
          "param_str": ""
        }
      ],
      "finishCond": [
        {
          "type": "QUEST_CONTENT_COMPLETE_TALK",
          "param": [
            2051741,
            0
          ],
          "param_str": ""
        }
      ],
      "failCond": [],
      "guide": {
        "type": "QUEST_GUIDE_NPC",
        "param": [
          "1525"
        ],
        "guideScene": 3,
        "guideStyle": "QUEST_GUIDE_STYLE_TARGET",
        "guideLayer": "QUEST_GUIDE_LAYER_SCENE"
      },
      "isRewind": true,
      "finishExec": [],
      "failExec": [],
      "beginExec": [
        {
          "type": "QUEST_EXEC_SET_DAILY_TASK_VAR",
          "param": [
            "24900",
            "3",
            "1"
          ],
          "param_str": ""
        }
      ],
      "exclusiveNpcList": [
        160001,
        1473,
        1525,
        1599,
        1600
      ],
      "exclusiveNpcPriority": 1100
    },
    {
      "subId": 2051732,
      "mainId": 20517,
      "order": 28,
      "descTextMapHash": 2671125356,
      "acceptCondComb": "LOGIC_AND",
      "acceptCond": [
        {
          "type": "QUEST_COND_DAILY_TASK_START",
          "param": [
            24900,
            0,
            0,
            0,
            0
          ],
          "param_str": ""
        },
        {
          "type": "QUEST_COND_STATE_EQUAL",
          "param": [
            2051731,
            3,
            0,
            0,
            0
          ],
          "param_str": ""
        },
        {
          "type": "QUEST_COND_PACK_HAVE_ITEM",
          "param": [
            100510,
            0,
            0,
            0,
            0
          ],
          "param_str": ""
        }
      ],
      "finishCond": [
        {
          "type": "QUEST_CONTENT_COMPLETE_TALK",
          "param": [
            2051742,
            0
          ],
          "param_str": ""
        }
      ],
      "failCond": [],
      "guide": {
        "type": "QUEST_GUIDE_NPC",
        "param": [
          "160001"
        ],
        "guideScene": 1008,
        "guideStyle": "QUEST_GUIDE_STYLE_TARGET",
        "guideLayer": "QUEST_GUIDE_LAYER_SCENE"
      },
      "isRewind": true,
      "finishExec": [
        {
          "type": "QUEST_EXEC_DEL_ALL_SPECIFIC_PACK_ITEM",
          "param": [
            "100510"
          ],
          "param_str": ""
        }
      ],
      "failExec": [],
      "beginExec": [
        {
          "type": "QUEST_EXEC_SET_DAILY_TASK_VAR",
          "param": [
            "24900",
            "3",
            "2"
          ],
          "param_str": ""
        }
      ],
      "exclusiveNpcList": [
        160001,
        1473,
        1525,
        1599,
        1600
      ],
      "exclusiveNpcPriority": 1100
    },
    {
      "subId": 2051733,
      "mainId": 20517,
      "order": 30,
      "descTextMapHash": 3204595724,
      "acceptCondComb": "LOGIC_AND",
      "acceptCond": [
        {
          "type": "QUEST_COND_DAILY_TASK_START",
          "param": [
            24900,
            0,
            0,
            0,
            0
          ],
          "param_str": ""
        },
        {
          "type": "QUEST_COND_STATE_EQUAL",
          "param": [
            2051740,
            3,
            0,
            0,
            0
          ],
          "param_str": ""
        }
      ],
      "finishCond": [
        {
          "type": "QUEST_CONTENT_COMPLETE_TALK",
          "param": [
            2051743,
            0
          ],
          "param_str": ""
        }
      ],
      "failCond": [],
      "guide": {
        "type": "QUEST_GUIDE_NPC",
        "param": [
          "160001"
        ],
        "guideScene": 3,
        "guideStyle": "QUEST_GUIDE_STYLE_TARGET",
        "guideLayer": "QUEST_GUIDE_LAYER_SCENE"
      },
      "finishExec": [],
      "failExec": [],
      "beginExec": [
        {
          "type": "QUEST_EXEC_SET_DAILY_TASK_VAR",
          "param": [
            "24900",
            "3",
            "3"
          ],
          "param_str": ""
        }
      ],
      "exclusiveNpcList": [
        160001,
        1473,
        1525,
        1599,
        1600
      ],
      "exclusiveNpcPriority": 1100
    },
    {
      "subId": 2051734,
      "mainId": 20517,
      "order": 32,
      "descTextMapHash": 4140327940,
      "acceptCondComb": "LOGIC_AND",
      "acceptCond": [
        {
          "type": "QUEST_COND_DAILY_TASK_START",
          "param": [
            24900,
            0,
            0,
            0,
            0
          ],
          "param_str": ""
        },
        {
          "type": "QUEST_COND_STATE_EQUAL",
          "param": [
            2051733,
            3,
            0,
            0,
            0
          ],
          "param_str": ""
        }
      ],
      "finishCond": [
        {
          "type": "QUEST_CONTENT_COMPLETE_TALK",
          "param": [
            2051744,
            0
          ],
          "param_str": ""
        }
      ],
      "failCond": [],
      "guide": {
        "type": "QUEST_GUIDE_NPC",
        "param": [
          "1525"
        ],
        "guideScene": 3,
        "guideStyle": "QUEST_GUIDE_STYLE_TARGET",
        "guideLayer": "QUEST_GUIDE_LAYER_SCENE"
      },
      "isRewind": true,
      "finishExec": [],
      "failExec": [],
      "beginExec": [
        {
          "type": "QUEST_EXEC_SET_DAILY_TASK_VAR",
          "param": [
            "24900",
            "3",
            "4"
          ],
          "param_str": ""
        }
      ],
      "exclusiveNpcList": [
        160001,
        1473,
        1525,
        1599,
        1600
      ],
      "exclusiveNpcPriority": 1100
    },
    {
      "subId": 2051735,
      "mainId": 20517,
      "order": 33,
      "descTextMapHash": 1916226012,
      "acceptCondComb": "LOGIC_AND",
      "acceptCond": [
        {
          "type": "QUEST_COND_DAILY_TASK_START",
          "param": [
            24900,
            0,
            0,
            0,
            0
          ],
          "param_str": ""
        },
        {
          "type": "QUEST_COND_STATE_EQUAL",
          "param": [
            2051734,
            3,
            0,
            0,
            0
          ],
          "param_str": ""
        }
      ],
      "finishCond": [
        {
          "type": "QUEST_CONTENT_COMPLETE_TALK",
          "param": [
            2051747,
            0
          ],
          "param_str": ""
        }
      ],
      "failCond": [],
      "guide": {
        "type": "QUEST_GUIDE_LOCATION",
        "param": [
          "Q20517_DaoBaoTuan",
          "40"
        ],
        "guideScene": 3,
        "guideStyle": "QUEST_GUIDE_STYLE_TARGET",
        "guideLayer": "QUEST_GUIDE_LAYER_SCENE"
      },
      "isRewind": true,
      "finishExec": [],
      "failExec": [],
      "beginExec": [
        {
          "type": "QUEST_EXEC_SET_DAILY_TASK_VAR",
          "param": [
            "24900",
            "3",
            "5"
          ],
          "param_str": ""
        }
      ],
      "exclusiveNpcList": [
        160001,
        1473,
        1525,
        1599,
        1600
      ],
      "exclusiveNpcPriority": 1100
    },
    {
      "subId": 2051736,
      "mainId": 20517,
      "order": 34,
      "descTextMapHash": 1974828596,
      "acceptCondComb": "LOGIC_AND",
      "acceptCond": [
        {
          "type": "QUEST_COND_DAILY_TASK_START",
          "param": [
            24900,
            0,
            0,
            0,
            0
          ],
          "param_str": ""
        },
        {
          "type": "QUEST_COND_STATE_EQUAL",
          "param": [
            2051735,
            3,
            0,
            0,
            0
          ],
          "param_str": ""
        }
      ],
      "finishCond": [
        {
          "type": "QUEST_CONTENT_LUA_NOTIFY",
          "param": [
            0,
            0
          ],
          "param_str": "1330039111",
          "count": 1
        }
      ],
      "failCond": [],
      "guide": {
        "type": "QUEST_GUIDE_LOCATION",
        "param": [
          "Q20517_DaoBaoTuan",
          "20"
        ],
        "guideScene": 3,
        "guideStyle": "QUEST_GUIDE_STYLE_TARGET",
        "guideLayer": "QUEST_GUIDE_LAYER_SCENE"
      },
      "isRewind": true,
      "finishExec": [],
      "failExec": [],
      "beginExec": [
        {
          "type": "QUEST_EXEC_REFRESH_GROUP_SUITE",
          "param": [
            "3",
            "133003911,2"
          ],
          "param_str": ""
        },
        {
          "type": "QUEST_EXEC_SET_DAILY_TASK_VAR",
          "param": [
            "24900",
            "3",
            "6"
          ],
          "param_str": ""
        }
      ],
      "exclusiveNpcList": [
        160001,
        1473,
        1525,
        1599,
        1600
      ],
      "exclusiveNpcPriority": 1100
    },
    {
      "subId": 2051737,
      "mainId": 20517,
      "order": 35,
      "descTextMapHash": 403160004,
      "acceptCondComb": "LOGIC_AND",
      "acceptCond": [
        {
          "type": "QUEST_COND_DAILY_TASK_START",
          "param": [
            24900,
            0,
            0,
            0,
            0
          ],
          "param_str": ""
        },
        {
          "type": "QUEST_COND_STATE_EQUAL",
          "param": [
            2051736,
            3,
            0,
            0,
            0
          ],
          "param_str": ""
        }
      ],
      "finishCond": [
        {
          "type": "QUEST_CONTENT_COMPLETE_TALK",
          "param": [
            2051745,
            0
          ],
          "param_str": ""
        }
      ],
      "failCond": [],
      "guide": {
        "type": "QUEST_GUIDE_NPC",
        "param": [
          "1473"
        ],
        "guideScene": 3,
        "guideStyle": "QUEST_GUIDE_STYLE_TARGET",
        "guideLayer": "QUEST_GUIDE_LAYER_SCENE"
      },
      "isRewind": true,
      "finishExec": [],
      "failExec": [],
      "beginExec": [
        {
          "type": "QUEST_EXEC_SET_DAILY_TASK_VAR",
          "param": [
            "24900",
            "3",
            "7"
          ],
          "param_str": ""
        }
      ],
      "exclusiveNpcList": [
        160001,
        1473,
        1525,
        1599,
        1600
      ],
      "exclusiveNpcPriority": 1100
    },
    {
      "subId": 2051738,
      "mainId": 20517,
      "order": 37,
      "descTextMapHash": 2829589948,
      "acceptCondComb": "LOGIC_AND",
      "acceptCond": [
        {
          "type": "QUEST_COND_DAILY_TASK_START",
          "param": [
            24900,
            0,
            0,
            0,
            0
          ],
          "param_str": ""
        },
        {
          "type": "QUEST_COND_STATE_EQUAL",
          "param": [
            2051742,
            3,
            0,
            0,
            0
          ],
          "param_str": ""
        }
      ],
      "finishCond": [
        {
          "type": "QUEST_CONTENT_COMPLETE_TALK",
          "param": [
            2051746,
            0
          ],
          "param_str": ""
        }
      ],
      "failCond": [],
      "guide": {
        "type": "QUEST_GUIDE_NPC",
        "param": [
          "160001"
        ],
        "guideScene": 1008,
        "guideStyle": "QUEST_GUIDE_STYLE_TARGET",
        "guideLayer": "QUEST_GUIDE_LAYER_SCENE"
      },
      "finishParent": true,
      "isRewind": true,
      "finishExec": [
        {
          "type": "QUEST_EXEC_NOTIFY_DAILY_TASK",
          "param": [
            "24900"
          ],
          "param_str": ""
        },
        {
          "type": "QUEST_EXEC_INC_DAILY_TASK_VAR",
          "param": [
            "24900",
            "2"
          ],
          "param_str": ""
        },
        {
          "type": "QUEST_EXEC_UPDATE_PARENT_QUEST_REWARD_INDEX",
          "param": [
            "1"
          ],
          "param_str": ""
        }
      ],
      "failExec": [],
      "beginExec": [
        {
          "type": "QUEST_EXEC_SET_DAILY_TASK_VAR",
          "param": [
            "24900",
            "3",
            "9"
          ],
          "param_str": ""
        }
      ],
      "exclusiveNpcList": [
        160001,
        1473,
        1525,
        1599,
        1600
      ],
      "exclusiveNpcPriority": 1100
    },
    {
      "subId": 2051739,
      "mainId": 20517,
      "order": 14,
      "descTextMapHash": 3669469532,
      "acceptCondComb": "LOGIC_AND",
      "acceptCond": [
        {
          "type": "QUEST_COND_DAILY_TASK_START",
          "param": [
            24900,
            0,
            0,
            0,
            0
          ],
          "param_str": ""
        },
        {
          "type": "QUEST_COND_STATE_EQUAL",
          "param": [
            2051712,
            4,
            0,
            0,
            0
          ],
          "param_str": ""
        }
      ],
      "finishCond": [
        {
          "type": "QUEST_CONTENT_COMPLETE_TALK",
          "param": [
            2051732,
            0
          ],
          "param_str": ""
        }
      ],
      "failCond": [],
      "guide": {
        "type": "QUEST_GUIDE_NPC",
        "param": [
          "1419"
        ],
        "guideScene": 3,
        "guideStyle": "QUEST_GUIDE_STYLE_TARGET",
        "guideLayer": "QUEST_GUIDE_LAYER_SCENE"
      },
      "isRewind": true,
      "finishExec": [
        {
          "type": "QUEST_EXEC_ROLLBACK_QUEST",
          "param": [
            "2051712"
          ],
          "param_str": ""
        }
      ],
      "failExec": [],
      "beginExec": [],
      "exclusiveNpcList": [
        1419,
        1455,
        160001,
        1599,
        1600
      ],
      "exclusiveNpcPriority": 1100
    },
    {
      "subId": 2051740,
      "mainId": 20517,
      "order": 29,
      "descTextMapHash": 3274540,
      "acceptCondComb": "LOGIC_AND",
      "acceptCond": [
        {
          "type": "QUEST_COND_DAILY_TASK_START",
          "param": [
            24900,
            0,
            0,
            0,
            0
          ],
          "param_str": ""
        },
        {
          "type": "QUEST_COND_STATE_EQUAL",
          "param": [
            2051732,
            3,
            0,
            0,
            0
          ],
          "param_str": ""
        }
      ],
      "finishCond": [
        {
          "type": "QUEST_CONTENT_COMPLETE_TALK",
          "param": [
            2051748,
            0
          ],
          "param_str": ""
        }
      ],
      "failCond": [],
      "guide": {
        "param": []
      },
      "showGuide": "QUEST_GUIDE_ITEM_DISABLE",
      "finishExec": [],
      "failExec": [],
      "beginExec": [],
      "exclusiveNpcList": [
        160001,
        1473,
        1525,
        1599,
        1600
      ],
      "exclusiveNpcPriority": 1100
    },
    {
      "subId": 2051741,
      "mainId": 20517,
      "order": 31,
      "descTextMapHash": 1747255052,
      "acceptCondComb": "LOGIC_AND",
      "acceptCond": [
        {
          "type": "QUEST_COND_DAILY_TASK_START",
          "param": [
            24900,
            0,
            0,
            0,
            0
          ],
          "param_str": ""
        },
        {
          "type": "QUEST_COND_STATE_EQUAL",
          "param": [
            99902,
            3,
            0,
            0,
            0
          ],
          "param_str": ""
        }
      ],
      "finishCond": [
        {
          "type": "QUEST_CONTENT_COMPLETE_TALK",
          "param": [
            2051749,
            0
          ],
          "param_str": ""
        }
      ],
      "failCond": [],
      "guide": {
        "param": []
      },
      "showGuide": "QUEST_GUIDE_ITEM_DISABLE",
      "finishExec": [],
      "failExec": [],
      "beginExec": [],
      "exclusiveNpcList": [
        160001,
        1473,
        1525,
        1599,
        1600
      ],
      "exclusiveNpcPriority": 1100
    },
    {
      "subId": 2051742,
      "mainId": 20517,
      "order": 36,
      "descTextMapHash": 3842827908,
      "acceptCondComb": "LOGIC_AND",
      "acceptCond": [
        {
          "type": "QUEST_COND_DAILY_TASK_START",
          "param": [
            24900,
            0,
            0,
            0,
            0
          ],
          "param_str": ""
        },
        {
          "type": "QUEST_COND_STATE_EQUAL",
          "param": [
            2051737,
            3,
            0,
            0,
            0
          ],
          "param_str": ""
        }
      ],
      "finishCond": [
        {
          "type": "QUEST_CONTENT_QUEST_VAR_EQUAL",
          "param": [
            4,
            1
          ],
          "param_str": ""
        }
      ],
      "failCond": [],
      "guide": {
        "type": "QUEST_GUIDE_NPC",
        "param": [
          "160001"
        ],
        "guideScene": 1008,
        "guideStyle": "QUEST_GUIDE_STYLE_TARGET",
        "guideLayer": "QUEST_GUIDE_LAYER_SCENE"
      },
      "isRewind": true,
      "finishExec": [],
      "failExec": [],
      "beginExec": [
        {
          "type": "QUEST_EXEC_SET_DAILY_TASK_VAR",
          "param": [
            "24900",
            "3",
            "8"
          ],
          "param_str": ""
        }
      ],
      "exclusiveNpcList": [
        160001,
        1473,
        1525,
        1599,
        1600
      ],
      "exclusiveNpcPriority": 1100
    },
    {
      "subId": 2051743,
      "mainId": 20517,
      "order": 7,
      "descTextMapHash": 4255658108,
      "showType": "QUEST_HIDDEN",
      "acceptCondComb": "LOGIC_AND",
      "acceptCond": [
        {
          "type": "QUEST_COND_DAILY_TASK_START",
          "param": [
            24900,
            0,
            0,
            0,
            0
          ],
          "param_str": ""
        },
        {
          "type": "QUEST_COND_STATE_EQUAL",
          "param": [
            2051705,
            3,
            0,
            0,
            0
          ],
          "param_str": ""
        }
      ],
      "finishCond": [
        {
          "type": "QUEST_CONTENT_COMPLETE_TALK",
          "param": [
            2051736,
            0
          ],
          "param_str": ""
        }
      ],
      "failCond": [],
      "guide": {
        "param": [],
        "guideScene": 3
      },
      "showGuide": "QUEST_GUIDE_ITEM_DISABLE",
      "isRewind": true,
      "finishExec": [],
      "failExec": [],
      "beginExec": [],
      "exclusiveNpcList": [
        160001,
        1435,
        1599,
        1600
      ],
      "exclusiveNpcPriority": 1100
    }
  ],
  "talks": [
    {
      "id": 2051701,
      "beginWay": "TALK_BEGIN_MANUAL",
      "beginCond": [
        {
          "type": "QUEST_COND_STATE_EQUAL",
          "param": [
            "2051701",
            "2"
          ],
          "param_str": ""
        }
      ],
      "priority": 5,
      "nextTalks": [
        2051711,
        2051712,
        2051713,
        2051740
      ],
      "initDialog": 205170101,
      "npcId": [
        160001
      ],
      "performCfg": "",
      "questId": 20517,
      "prePerformCfg": ""
    },
    {
      "id": 2051702,
      "beginCond": [
        {
          "type": "QUEST_COND_STATE_EQUAL",
          "param": [
            "2051702",
            "2"
          ],
          "param_str": ""
        }
      ],
      "priority": 5,
      "nextTalks": [
        2051706,
        2051707
      ],
      "initDialog": 205170201,
      "npcId": [
        1435
      ],
      "performCfg": "",
      "questId": 20517,
      "dontBlockDaily": true,
      "prePerformCfg": ""
    },
    {
      "id": 2051703,
      "beginWay": "TALK_BEGIN_MANUAL",
      "beginCondComb": "LOGIC_OR",
      "beginCond": [
        {
          "type": "QUEST_COND_STATE_EQUAL",
          "param": [
            "2051702",
            "2"
          ],
          "param_str": ""
        },
        {
          "type": "QUEST_COND_STATE_EQUAL",
          "param": [
            "2051705",
            "2"
          ],
          "param_str": ""
        }
      ],
      "priority": 5,
      "initDialog": 205170301,
      "npcId": [
        160001
      ],
      "performCfg": "",
      "questId": 20517,
      "prePerformCfg": ""
    },
    {
      "id": 2051704,
      "beginWay": "TALK_BEGIN_MANUAL",
      "beginCond": [
        {
          "type": "QUEST_COND_STATE_EQUAL",
          "param": [
            "2051704",
            "2"
          ],
          "param_str": ""
        }
      ],
      "priority": 5,
      "initDialog": 205170401,
      "npcId": [
        160001
      ],
      "performCfg": "",
      "questId": 20517,
      "prePerformCfg": ""
    },
    {
      "id": 2051705,
      "beginWay": "TALK_BEGIN_MANUAL",
      "beginCond": [
        {
          "type": "QUEST_COND_STATE_EQUAL",
          "param": [
            "2051706",
            "2"
          ],
          "param_str": ""
        }
      ],
      "priority": 5,
      "initDialog": 205170501,
      "npcId": [
        160001
      ],
      "performCfg": "",
      "questId": 20517,
      "prePerformCfg": ""
    },
    {
      "id": 2051706,
      "priority": 5,
      "nextTalks": [
        2051708,
        2051709
      ],
      "initDialog": 205170601,
      "npcId": [
        1435
      ],
      "performCfg": "",
      "questId": 20517,
      "prePerformCfg": ""
    },
    {
      "id": 2051707,
      "priority": 5,
      "initDialog": 205170701,
      "npcId": [
        1435
      ],
      "performCfg": "",
      "questId": 20517,
      "prePerformCfg": ""
    },
    {
      "id": 2051708,
      "beginCond": [
        {
          "type": "QUEST_COND_PACK_HAVE_ITEM",
          "param": [
            "202",
            "900"
          ],
          "param_str": ""
        }
      ],
      "priority": 5,
      "initDialog": 205170801,
      "npcId": [
        1435
      ],
      "performCfg": "",
      "questId": 20517,
      "prePerformCfg": ""
    },
    {
      "id": 2051709,
      "beginCond": [
        {
          "type": "QUEST_COND_ITEM_NUM_LESS_THAN",
          "param": [
            "202",
            "900"
          ],
          "param_str": ""
        }
      ],
      "priority": 5,
      "initDialog": 205170901,
      "npcId": [
        1435
      ],
      "performCfg": "",
      "questId": 20517,
      "prePerformCfg": ""
    },
    {
      "id": 2051710,
      "beginCondComb": "LOGIC_AND",
      "beginCond": [
        {
          "type": "QUEST_COND_STATE_EQUAL",
          "param": [
            "2051705",
            "2"
          ],
          "param_str": ""
        },
        {
          "type": "QUEST_COND_ITEM_GIVING_ACTIVED",
          "param": [
            "2051705"
          ],
          "param_str": ""
        }
      ],
      "priority": 5,
      "initDialog": 205171001,
      "npcId": [
        1435
      ],
      "performCfg": "",
      "questId": 20517,
      "dontBlockDaily": true,
      "prePerformCfg": ""
    },
    {
      "id": 2051711,
      "beginCond": [
        {
          "type": "QUEST_COND_STATE_EQUAL",
          "param": [
            "2051708",
            "2"
          ],
          "param_str": ""
        }
      ],
      "priority": 5,
      "initDialog": 205171101,
      "npcId": [
        160001
      ],
      "performCfg": "",
      "questId": 20517,
      "prePerformCfg": ""
    },
    {
      "id": 2051712,
      "beginCond": [
        {
          "type": "QUEST_COND_STATE_EQUAL",
          "param": [
            "2051709",
            "2"
          ],
          "param_str": ""
        }
      ],
      "priority": 5,
      "initDialog": 205171201,
      "npcId": [
        160001
      ],
      "performCfg": "",
      "questId": 20517,
      "prePerformCfg": ""
    },
    {
      "id": 2051713,
      "beginCond": [
        {
          "type": "QUEST_COND_STATE_EQUAL",
          "param": [
            "2051710",
            "2"
          ],
          "param_str": ""
        }
      ],
      "priority": 5,
      "initDialog": 205171301,
      "npcId": [
        160001
      ],
      "performCfg": "",
      "questId": 20517,
      "prePerformCfg": ""
    },
    {
      "id": 2051714,
      "beginCond": [
        {
          "type": "QUEST_COND_STATE_EQUAL",
          "param": [
            "2051711",
            "2"
          ],
          "param_str": ""
        }
      ],
      "priority": 5,
      "initDialog": 205171401,
      "npcId": [
        1419
      ],
      "performCfg": "",
      "questId": 20517,
      "dontBlockDaily": true,
      "prePerformCfg": ""
    },
    {
      "id": 2051715,
      "beginWay": "TALK_BEGIN_MANUAL",
      "beginCond": [
        {
          "type": "QUEST_COND_STATE_EQUAL",
          "param": [
            "2051712",
            "2"
          ],
          "param_str": ""
        }
      ],
      "priority": 5,
      "initDialog": 205171501,
      "npcId": [
        1455
      ],
      "performCfg": "",
      "questId": 20517,
      "prePerformCfg": ""
    },
    {
      "id": 2051716,
      "beginCond": [
        {
          "type": "QUEST_COND_STATE_EQUAL",
          "param": [
            "2051713",
            "2"
          ],
          "param_str": ""
        }
      ],
      "priority": 5,
      "initDialog": 205171601,
      "npcId": [
        1419
      ],
      "performCfg": "",
      "questId": 20517,
      "dontBlockDaily": true,
      "prePerformCfg": ""
    },
    {
      "id": 2051717,
      "beginWay": "TALK_BEGIN_MANUAL",
      "beginCond": [
        {
          "type": "QUEST_COND_STATE_EQUAL",
          "param": [
            "2051714",
            "2"
          ],
          "param_str": ""
        }
      ],
      "priority": 5,
      "initDialog": 205171701,
      "npcId": [
        160001
      ],
      "performCfg": "",
      "questId": 20517,
      "prePerformCfg": ""
    },
    {
      "id": 2051718,
      "beginWay": "TALK_BEGIN_MANUAL",
      "beginCondComb": "LOGIC_OR",
      "beginCond": [
        {
          "type": "QUEST_COND_STATE_EQUAL",
          "param": [
            "2051711",
            "2"
          ],
          "param_str": ""
        },
        {
          "type": "QUEST_COND_STATE_EQUAL",
          "param": [
            "2051712",
            "2"
          ],
          "param_str": ""
        },
        {
          "type": "QUEST_COND_STATE_EQUAL",
          "param": [
            "2051713",
            "2"
          ],
          "param_str": ""
        }
      ],
      "priority": 5,
      "initDialog": 205171801,
      "npcId": [
        160001
      ],
      "performCfg": "",
      "questId": 20517,
      "prePerformCfg": ""
    },
    {
      "id": 2051719,
      "beginWay": "TALK_BEGIN_MANUAL",
      "beginCondComb": "LOGIC_OR",
      "beginCond": [
        {
          "type": "QUEST_COND_STATE_EQUAL",
          "param": [
            "2051713",
            "2"
          ],
          "param_str": ""
        },
        {
          "type": "QUEST_COND_STATE_EQUAL",
          "param": [
            "2051714",
            "2"
          ],
          "param_str": ""
        }
      ],
      "priority": 5,
      "initDialog": 205171901,
      "npcId": [
        1455
      ],
      "performCfg": "",
      "questId": 20517,
      "prePerformCfg": ""
    },
    {
      "id": 2051720,
      "beginWay": "TALK_BEGIN_MANUAL",
      "beginCond": [
        {
          "type": "QUEST_COND_STATE_EQUAL",
          "param": [
            "2051715",
            "2"
          ],
          "param_str": ""
        }
      ],
      "priority": 5,
      "initDialog": 205172001,
      "npcId": [
        1403
      ],
      "performCfg": "",
      "questId": 20517,
      "prePerformCfg": ""
    },
    {
      "id": 2051721,
      "beginWay": "TALK_BEGIN_MANUAL",
      "beginCondComb": "LOGIC_OR",
      "beginCond": [
        {
          "type": "QUEST_COND_STATE_EQUAL",
          "param": [
            "2051718",
            "2"
          ],
          "param_str": ""
        }
      ],
      "priority": 5,
      "initDialog": 205172101,
      "npcId": [
        1403
      ],
      "performCfg": "",
      "questId": 20517,
      "prePerformCfg": ""
    },
    {
      "id": 2051722,
      "beginWay": "TALK_BEGIN_MANUAL",
      "beginCond": [
        {
          "type": "QUEST_COND_STATE_EQUAL",
          "param": [
            "2051719",
            "2"
          ],
          "param_str": ""
        }
      ],
      "priority": 5,
      "initDialog": 205172201,
      "npcId": [
        160001
      ],
      "performCfg": "",
      "questId": 20517,
      "prePerformCfg": ""
    },
    {
      "id": 2051723,
      "beginWay": "TALK_BEGIN_MANUAL",
      "beginCondComb": "LOGIC_OR",
      "beginCond": [
        {
          "type": "QUEST_COND_STATE_EQUAL",
          "param": [
            "2051715",
            "2"
          ],
          "param_str": ""
        },
        {
          "type": "QUEST_COND_STATE_EQUAL",
          "param": [
            "2051716",
            "2"
          ],
          "param_str": ""
        },
        {
          "type": "QUEST_COND_STATE_EQUAL",
          "param": [
            "2051717",
            "2"
          ],
          "param_str": ""
        }
      ],
      "priority": 5,
      "initDialog": 205172301,
      "npcId": [
        160001
      ],
      "performCfg": "",
      "questId": 20517,
      "prePerformCfg": ""
    },
    {
      "id": 2051724,
      "beginWay": "TALK_BEGIN_MANUAL",
      "beginCond": [
        {
          "type": "QUEST_COND_STATE_EQUAL",
          "param": [
            "2051718",
            "2"
          ],
          "param_str": ""
        }
      ],
      "priority": 5,
      "initDialog": 205172401,
      "npcId": [
        160001
      ],
      "performCfg": "",
      "questId": 20517,
      "prePerformCfg": ""
    },
    {
      "id": 2051725,
      "beginWay": "TALK_BEGIN_MANUAL",
      "beginCondComb": "LOGIC_OR",
      "beginCond": [
        {
          "type": "QUEST_COND_STATE_EQUAL",
          "param": [
            "2051716",
            "2"
          ],
          "param_str": ""
        },
        {
          "type": "QUEST_COND_STATE_EQUAL",
          "param": [
            "2051717",
            "2"
          ],
          "param_str": ""
        }
      ],
      "priority": 5,
      "initDialog": 205172501,
      "npcId": [
        1403
      ],
      "performCfg": "",
      "questId": 20517,
      "prePerformCfg": ""
    },
    {
      "id": 2051726,
      "beginWay": "TALK_BEGIN_MANUAL",
      "beginCond": [
        {
          "type": "QUEST_COND_STATE_EQUAL",
          "param": [
            "2051719",
            "2"
          ],
          "param_str": ""
        }
      ],
      "priority": 5,
      "initDialog": 205172601,
      "npcId": [
        1403
      ],
      "performCfg": "",
      "questId": 20517,
      "prePerformCfg": ""
    },
    {
      "id": 2051727,
      "beginWay": "TALK_BEGIN_MANUAL",
      "beginCond": [
        {
          "type": "QUEST_COND_STATE_EQUAL",
          "param": [
            "2051720",
            "2"
          ],
          "param_str": ""
        }
      ],
      "priority": 5,
      "initDialog": 205172701,
      "npcId": [
        1403
      ],
      "performCfg": "",
      "questId": 20517,
      "prePerformCfg": ""
    },
    {
      "id": 2051728,
      "beginWay": "TALK_BEGIN_MANUAL",
      "beginCond": [
        {
          "type": "QUEST_COND_STATE_EQUAL",
          "param": [
            "2051722",
            "2"
          ],
          "param_str": ""
        }
      ],
      "priority": 5,
      "initDialog": 205172801,
      "npcId": [
        1403
      ],
      "performCfg": "",
      "questId": 20517,
      "prePerformCfg": ""
    },
    {
      "id": 2051729,
      "beginWay": "TALK_BEGIN_MANUAL",
      "beginCond": [
        {
          "type": "QUEST_COND_STATE_EQUAL",
          "param": [
            "2051721",
            "2"
          ],
          "param_str": ""
        }
      ],
      "priority": 5,
      "initDialog": 205172901,
      "npcId": [
        1403
      ],
      "performCfg": "",
      "questId": 20517,
      "prePerformCfg": ""
    },
    {
      "id": 2051730,
      "beginWay": "TALK_BEGIN_MANUAL",
      "beginCond": [
        {
          "type": "QUEST_COND_STATE_EQUAL",
          "param": [
            "2051723",
            "2"
          ],
          "param_str": ""
        }
      ],
      "priority": 5,
      "initDialog": 205173001,
      "npcId": [
        1403
      ],
      "performCfg": "",
      "questId": 20517,
      "prePerformCfg": ""
    },
    {
      "id": 2051731,
      "beginWay": "TALK_BEGIN_MANUAL",
      "beginCond": [
        {
          "type": "QUEST_COND_STATE_EQUAL",
          "param": [
            "2051723",
            "2"
          ],
          "param_str": ""
        }
      ],
      "priority": 5,
      "initDialog": 205173101,
      "npcId": [
        160001
      ],
      "performCfg": "",
      "questId": 20517,
      "prePerformCfg": ""
    },
    {
      "id": 2051732,
      "beginCond": [
        {
          "type": "QUEST_COND_STATE_EQUAL",
          "param": [
            "2051739",
            "2"
          ],
          "param_str": ""
        }
      ],
      "priority": 5,
      "initDialog": 205173201,
      "npcId": [
        1419
      ],
      "performCfg": "",
      "questId": 20517,
      "dontBlockDaily": true,
      "prePerformCfg": ""
    },
    {
      "id": 2051733,
      "beginWay": "TALK_BEGIN_MANUAL",
      "beginCond": [
        {
          "type": "QUEST_COND_STATE_EQUAL",
          "param": [
            "2051739",
            "2"
          ],
          "param_str": ""
        }
      ],
      "priority": 5,
      "initDialog": 205173301,
      "npcId": [
        1455
      ],
      "performCfg": "",
      "questId": 20517,
      "prePerformCfg": ""
    },
    {
      "id": 2051734,
      "beginWay": "TALK_BEGIN_MANUAL",
      "beginCondComb": "LOGIC_OR",
      "beginCond": [
        {
          "type": "QUEST_COND_STATE_EQUAL",
          "param": [
            "2051720",
            "2"
          ],
          "param_str": ""
        },
        {
          "type": "QUEST_COND_STATE_EQUAL",
          "param": [
            "2051721",
            "2"
          ],
          "param_str": ""
        },
        {
          "type": "QUEST_COND_STATE_EQUAL",
          "param": [
            "2051722",
            "2"
          ],
          "param_str": ""
        }
      ],
      "priority": 5,
      "initDialog": 205173401,
      "npcId": [
        160001
      ],
      "performCfg": "",
      "questId": 20517,
      "prePerformCfg": ""
    },
    {
      "id": 2051735,
      "beginCond": [
        {
          "type": "QUEST_COND_STATE_EQUAL",
          "param": [
            "2051714",
            "2"
          ],
          "param_str": ""
        }
      ],
      "priority": 5,
      "initDialog": 205173501,
      "npcId": [
        1419
      ],
      "performCfg": "",
      "questId": 20517,
      "dontBlockDaily": true,
      "prePerformCfg": ""
    },
    {
      "id": 2051736,
      "beginWay": "TALK_BEGIN_MANUAL",
      "beginCond": [
        {
          "type": "QUEST_COND_STATE_EQUAL",
          "param": [
            "2051743",
            "2"
          ],
          "param_str": ""
        }
      ],
      "priority": 5,
      "initDialog": 205173601,
      "npcId": [
        1435
      ],
      "performCfg": "",
      "questId": 20517,
      "prePerformCfg": ""
    },
    {
      "id": 2051740,
      "beginCond": [
        {
          "type": "QUEST_COND_STATE_EQUAL",
          "param": [
            "2051730",
            "2"
          ],
          "param_str": ""
        }
      ],
      "priority": 5,
      "initDialog": 205174001,
      "npcId": [
        160001
      ],
      "performCfg": "",
      "questId": 20517,
      "prePerformCfg": ""
    },
    {
      "id": 2051741,
      "beginWay": "TALK_BEGIN_MANUAL",
      "beginCond": [
        {
          "type": "QUEST_COND_STATE_EQUAL",
          "param": [
            "2051731",
            "2"
          ],
          "param_str": ""
        }
      ],
      "priority": 5,
      "initDialog": 205174101,
      "npcId": [
        1525
      ],
      "performCfg": "",
      "heroTalk": "TALK_HERO_MAIN",
      "questId": 20517,
      "prePerformCfg": ""
    },
    {
      "id": 2051742,
      "beginWay": "TALK_BEGIN_MANUAL",
      "beginCond": [
        {
          "type": "QUEST_COND_STATE_EQUAL",
          "param": [
            "2051732",
            "2"
          ],
          "param_str": ""
        }
      ],
      "priority": 5,
      "nextTalks": [
        2051748
      ],
      "initDialog": 205174201,
      "npcId": [
        160001
      ],
      "performCfg": "",
      "heroTalk": "TALK_HERO_MAIN",
      "questId": 20517,
      "prePerformCfg": ""
    },
    {
      "id": 2051743,
      "beginWay": "TALK_BEGIN_MANUAL",
      "beginCond": [
        {
          "type": "QUEST_COND_STATE_EQUAL",
          "param": [
            "2051733",
            "2"
          ],
          "param_str": ""
        }
      ],
      "priority": 5,
      "nextTalks": [
        2051749
      ],
      "initDialog": 205174301,
      "npcId": [
        160001,
        1005
      ],
      "performCfg": "QuestDialogue/IQ/Sealamp_20101/Q2051743",
      "heroTalk": "TALK_HERO_MAIN",
      "questId": 20517,
      "prePerformCfg": ""
    },
    {
      "id": 2051744,
      "beginWay": "TALK_BEGIN_MANUAL",
      "beginCond": [
        {
          "type": "QUEST_COND_STATE_EQUAL",
          "param": [
            "2051734",
            "2"
          ],
          "param_str": ""
        }
      ],
      "priority": 5,
      "initDialog": 205174401,
      "npcId": [
        1525
      ],
      "performCfg": "",
      "heroTalk": "TALK_HERO_MAIN",
      "questId": 20517,
      "prePerformCfg": ""
    },
    {
      "id": 2051745,
      "beginWay": "TALK_BEGIN_MANUAL",
      "beginCond": [
        {
          "type": "QUEST_COND_STATE_EQUAL",
          "param": [
            "2051737",
            "2"
          ],
          "param_str": ""
        }
      ],
      "priority": 5,
      "initDialog": 205174501,
      "npcId": [
        1473
      ],
      "performCfg": "",
      "heroTalk": "TALK_HERO_MAIN",
      "questId": 20517,
      "prePerformCfg": ""
    },
    {
      "id": 2051746,
      "beginWay": "TALK_BEGIN_MANUAL",
      "beginCond": [
        {
          "type": "QUEST_COND_STATE_EQUAL",
          "param": [
            "2051738",
            "2"
          ],
          "param_str": ""
        }
      ],
      "priority": 5,
      "initDialog": 205174601,
      "npcId": [
        160001
      ],
      "performCfg": "",
      "heroTalk": "TALK_HERO_MAIN",
      "questId": 20517,
      "prePerformCfg": ""
    },
    {
      "id": 2051747,
      "beginWay": "TALK_BEGIN_AUTO",
      "activeMode": "PLAY_MODE_SINGLE",
      "beginCond": [
        {
          "type": "QUEST_COND_STATE_EQUAL",
          "param": [
            "2051735",
            "2"
          ],
          "param_str": ""
        }
      ],
      "priority": 5,
      "initDialog": 205174701,
      "npcId": [
        20141,
        1473,
        1005
      ],
      "performCfg": "QuestDialogue/IQ/Sealamp_20101/Q2051747",
      "heroTalk": "TALK_HERO_MAIN",
      "questId": 20517,
      "prePerformCfg": ""
    },
    {
      "id": 2051748,
      "beginWay": "TALK_BEGIN_AUTO",
      "beginCondComb": "LOGIC_AND",
      "beginCond": [
        {
          "type": "QUEST_COND_STATE_EQUAL",
          "param": [
            "2051740",
            "2"
          ],
          "param_str": ""
        }
      ],
      "priority": 5,
      "initDialog": 205174801,
      "npcId": [
        1005
      ],
      "performCfg": "",
      "heroTalk": "TALK_HERO_MAIN",
      "questId": 20517,
      "prePerformCfg": ""
    },
    {
      "id": 2051749,
      "beginWay": "TALK_BEGIN_AUTO",
      "beginCondComb": "LOGIC_AND",
      "beginCond": [
        {
          "type": "QUEST_COND_STATE_EQUAL",
          "param": [
            "99902",
            "3"
          ],
          "param_str": ""
        }
      ],
      "priority": 5,
      "initDialog": 205174901,
      "npcId": [
        1005
      ],
      "performCfg": "",
      "heroTalk": "TALK_HERO_MAIN",
      "questId": 20517,
      "prePerformCfg": ""
    },
    {
      "id": 2051792,
      "beginWay": "TALK_BEGIN_MANUAL",
      "beginCondComb": "LOGIC_AND",
      "beginCond": [
        {
          "type": "QUEST_COND_DAILY_TASK_VAR_EQ",
          "param": [
            "24900",
            "3",
            "1"
          ],
          "param_str": ""
        },
        {
          "type": "QUEST_COND_STATE_EQUAL",
          "param": [
            "2051731",
            "2"
          ],
          "param_str": ""
        }
      ],
      "priority": 5,
      "initDialog": 205179201,
      "npcId": [
        160001
      ],
      "performCfg": "",
      "heroTalk": "TALK_HERO_MAIN",
      "questId": 20517,
      "prePerformCfg": ""
    },
    {
      "id": 2051793,
      "beginWay": "TALK_BEGIN_MANUAL",
      "beginCondComb": "LOGIC_AND",
      "beginCond": [
        {
          "type": "QUEST_COND_DAILY_TASK_VAR_EQ",
          "param": [
            "24900",
            "3",
            "9"
          ],
          "param_str": ""
        }
      ],
      "priority": 5,
      "initDialog": 205179301,
      "npcId": [
        1525
      ],
      "performCfg": "",
      "heroTalk": "TALK_HERO_MAIN",
      "questId": 20517,
      "prePerformCfg": ""
    },
    {
      "id": 2051794,
      "beginWay": "TALK_BEGIN_MANUAL",
      "beginCondComb": "LOGIC_AND",
      "beginCond": [
        {
          "type": "QUEST_COND_DAILY_TASK_VAR_EQ",
          "param": [
            "24900",
            "3",
            "9"
          ],
          "param_str": ""
        }
      ],
      "priority": 5,
      "initDialog": 205179401,
      "npcId": [
        1473
      ],
      "performCfg": "",
      "heroTalk": "TALK_HERO_MAIN",
      "questId": 20517,
      "prePerformCfg": ""
    },
    {
      "id": 2051795,
      "beginWay": "TALK_BEGIN_MANUAL",
      "beginCondComb": "LOGIC_AND",
      "beginCond": [
        {
          "type": "QUEST_COND_DAILY_TASK_VAR_EQ",
          "param": [
            "24900",
            "3",
            "8"
          ],
          "param_str": ""
        }
      ],
      "priority": 5,
      "initDialog": 205179501,
      "npcId": [
        1473
      ],
      "performCfg": "",
      "heroTalk": "TALK_HERO_MAIN",
      "questId": 20517,
      "prePerformCfg": ""
    },
    {
      "id": 2051796,
      "beginWay": "TALK_BEGIN_MANUAL",
      "beginCondComb": "LOGIC_AND",
      "beginCond": [
        {
          "type": "QUEST_COND_DAILY_TASK_VAR_EQ",
          "param": [
            "24900",
            "3",
            "5"
          ],
          "param_str": ""
        }
      ],
      "priority": 5,
      "initDialog": 205179601,
      "npcId": [
        1525
      ],
      "performCfg": "",
      "heroTalk": "TALK_HERO_MAIN",
      "questId": 20517,
      "prePerformCfg": ""
    },
    {
      "id": 2051797,
      "beginWay": "TALK_BEGIN_MANUAL",
      "beginCondComb": "LOGIC_AND",
      "beginCond": [
        {
          "type": "QUEST_COND_DAILY_TASK_VAR_LT",
          "param": [
            "24900",
            "3",
            "8"
          ],
          "param_str": ""
        },
        {
          "type": "QUEST_COND_DAILY_TASK_VAR_GT",
          "param": [
            "24900",
            "3",
            "3"
          ],
          "param_str": ""
        }
      ],
      "priority": 5,
      "initDialog": 205179701,
      "npcId": [
        160001
      ],
      "performCfg": "",
      "heroTalk": "TALK_HERO_MAIN",
      "questId": 20517,
      "prePerformCfg": ""
    },
    {
      "id": 2051798,
      "beginWay": "TALK_BEGIN_MANUAL",
      "beginCondComb": "LOGIC_OR",
      "beginCond": [
        {
          "type": "QUEST_COND_DAILY_TASK_VAR_EQ",
          "param": [
            "24900",
            "3",
            "2"
          ],
          "param_str": ""
        },
        {
          "type": "QUEST_COND_DAILY_TASK_VAR_EQ",
          "param": [
            "24900",
            "3",
            "1"
          ],
          "param_str": ""
        }
      ],
      "priority": 5,
      "initDialog": 205179801,
      "npcId": [
        1473
      ],
      "performCfg": "",
      "heroTalk": "TALK_HERO_MAIN",
      "questId": 20517,
      "prePerformCfg": ""
    },
    {
      "id": 2051799,
      "beginWay": "TALK_BEGIN_MANUAL",
      "beginCondComb": "LOGIC_OR",
      "beginCond": [
        {
          "type": "QUEST_COND_DAILY_TASK_VAR_EQ",
          "param": [
            "24900",
            "3",
            "2"
          ],
          "param_str": ""
        },
        {
          "type": "QUEST_COND_DAILY_TASK_VAR_EQ",
          "param": [
            "24900",
            "3",
            "3"
          ],
          "param_str": ""
        }
      ],
      "priority": 5,
      "initDialog": 205179901,
      "npcId": [
        1525
      ],
      "performCfg": "",
      "heroTalk": "TALK_HERO_MAIN",
      "questId": 20517,
      "prePerformCfg": ""
    }
  ]
}