{
  "id": 21029,
  "type": "IQ",
  "titleTextMapHash": 3619823455,
  "descTextMapHash": 2072680374,
  "luaPath": "Actor/Quest/IQ21029",
  "subQuests": [
    {
      "subId": 2102901,
      "mainId": 21029,
      "order": 1,
      "descTextMapHash": 3114680036,
      "acceptCond": [
        {
          "type": "QUEST_COND_DAILY_TASK_START",
          "param": [
            29801,
            0,
            0,
            0,
            0
          ],
          "param_str": ""
        }
      ],
      "finishCond": [
        {
          "type": "QUEST_CONTENT_FINISH_PLOT",
          "param": [
            2102901,
            0
          ],
          "param_str": ""
        }
      ],
      "failCond": [],
      "guide": {
        "type": "QUEST_GUIDE_NPC",
        "param": [
          "2031"
        ],
        "guideScene": 3,
        "guideStyle": "QUEST_GUIDE_STYLE_START",
        "guideLayer": "QUEST_GUIDE_LAYER_SCENE"
      },
      "isRewind": true,
      "finishExec": [
        {
          "type": "QUEST_EXEC_RANDOM_QUEST_VAR",
          "param": [
            "1",
            "1",
            "4"
          ],
          "param_str": ""
        }
      ],
      "failExec": [],
      "beginExec": [],
      "exclusiveNpcList": [
        2031,
        2030,
        2074
      ],
      "exclusiveNpcPriority": 1100
    },
    {
      "subId": 2102902,
      "mainId": 21029,
      "order": 2,
      "descTextMapHash": 3265982876,
      "acceptCondComb": "LOGIC_AND",
      "acceptCond": [
        {
          "type": "QUEST_COND_STATE_EQUAL",
          "param": [
            2102901,
            3,
            0,
            0,
            0
          ],
          "param_str": ""
        },
        {
          "type": "QUEST_COND_DAILY_TASK_START",
          "param": [
            29801,
            0,
            0,
            0,
            0
          ],
          "param_str": ""
        },
        {
          "type": "QUEST_COND_QUEST_VAR_EQUAL",
          "param": [
            1,
            1,
            0,
            0,
            0
          ],
          "param_str": ""
        }
      ],
      "finishCond": [
        {
          "type": "QUEST_CONTENT_COMPLETE_TALK",
          "param": [
            2102909,
            0
          ],
          "param_str": ""
        }
      ],
      "failCond": [],
      "guide": {
        "type": "QUEST_GUIDE_NPC",
        "param": [
          "2031"
        ],
        "guideScene": 3,
        "guideStyle": "QUEST_GUIDE_STYLE_START",
        "guideLayer": "QUEST_GUIDE_LAYER_SCENE"
      },
      "isRewind": true,
      "finishExec": [],
      "failExec": [],
      "beginExec": [],
      "exclusiveNpcList": [
        2031,
        2030,
        2074
      ],
      "exclusiveNpcPriority": 1100
    },
    {
      "subId": 2102903,
      "mainId": 21029,
      "order": 3,
      "descTextMapHash": 3387241644,
      "acceptCondComb": "LOGIC_AND",
      "acceptCond": [
        {
          "type": "QUEST_COND_STATE_EQUAL",
          "param": [
            2102901,
            3,
            0,
            0,
            0
          ],
          "param_str": ""
        },
        {
          "type": "QUEST_COND_DAILY_TASK_START",
          "param": [
            29801,
            0,
            0,
            0,
            0
          ],
          "param_str": ""
        },
        {
          "type": "QUEST_COND_QUEST_VAR_EQUAL",
          "param": [
            1,
            2,
            0,
            0,
            0
          ],
          "param_str": ""
        }
      ],
      "finishCond": [
        {
          "type": "QUEST_CONTENT_COMPLETE_TALK",
          "param": [
            2102909,
            0
          ],
          "param_str": ""
        }
      ],
      "failCond": [],
      "guide": {
        "type": "QUEST_GUIDE_NPC",
        "param": [
          "2031"
        ],
        "guideScene": 3,
        "guideStyle": "QUEST_GUIDE_STYLE_START",
        "guideLayer": "QUEST_GUIDE_LAYER_SCENE"
      },
      "isRewind": true,
      "finishExec": [],
      "failExec": [],
      "beginExec": [],
      "exclusiveNpcList": [
        2031,
        2030,
        2074
      ],
      "exclusiveNpcPriority": 1100
    },
    {
      "subId": 2102904,
      "mainId": 21029,
      "order": 4,
      "descTextMapHash": 2374103884,
      "acceptCondComb": "LOGIC_AND",
      "acceptCond": [
        {
          "type": "QUEST_COND_STATE_EQUAL",
          "param": [
            2102901,
            3,
            0,
            0,
            0
          ],
          "param_str": ""
        },
        {
          "type": "QUEST_COND_DAILY_TASK_START",
          "param": [
            29801,
            0,
            0,
            0,
            0
          ],
          "param_str": ""
        },
        {
          "type": "QUEST_COND_QUEST_VAR_EQUAL",
          "param": [
            1,
            3,
            0,
            0,
            0
          ],
          "param_str": ""
        }
      ],
      "finishCond": [
        {
          "type": "QUEST_CONTENT_COMPLETE_TALK",
          "param": [
            2102909,
            0
          ],
          "param_str": ""
        }
      ],
      "failCond": [],
      "guide": {
        "type": "QUEST_GUIDE_NPC",
        "param": [
          "2031"
        ],
        "guideScene": 3,
        "guideStyle": "QUEST_GUIDE_STYLE_START",
        "guideLayer": "QUEST_GUIDE_LAYER_SCENE"
      },
      "isRewind": true,
      "finishExec": [],
      "failExec": [],
      "beginExec": [],
      "exclusiveNpcList": [
        2031,
        2030,
        2074
      ],
      "exclusiveNpcPriority": 1100
    },
    {
      "subId": 2102905,
      "mainId": 21029,
      "order": 5,
      "descTextMapHash": 3983466956,
      "acceptCondComb": "LOGIC_A_AND_B_AND_ETCOR",
      "acceptCond": [
        {
          "type": "QUEST_COND_DAILY_TASK_START",
          "param": [
            29801,
            0,
            0,
            0,
            0
          ],
          "param_str": ""
        },
        {
          "type": "QUEST_COND_QUEST_VAR_EQUAL",
          "param": [
            2,
            1,
            0,
            0,
            0
          ],
          "param_str": ""
        },
        {
          "type": "QUEST_COND_STATE_EQUAL",
          "param": [
            2102902,
            3,
            0,
            0,
            0
          ],
          "param_str": ""
        },
        {
          "type": "QUEST_COND_STATE_EQUAL",
          "param": [
            2102903,
            3,
            0,
            0,
            0
          ],
          "param_str": ""
        },
        {
          "type": "QUEST_COND_STATE_EQUAL",
          "param": [
            2102904,
            3,
            0,
            0,
            0
          ],
          "param_str": ""
        }
      ],
      "finishCond": [
        {
          "type": "QUEST_CONTENT_FINISH_ITEM_GIVING",
          "param": [
            2102901,
            0
          ],
          "param_str": ""
        }
      ],
      "failCond": [],
      "guide": {
        "type": "QUEST_GUIDE_NPC",
        "param": [
          "2031"
        ],
        "guideScene": 3,
        "guideStyle": "QUEST_GUIDE_STYLE_TARGET",
        "guideLayer": "QUEST_GUIDE_LAYER_SCENE"
      },
      "isRewind": true,
      "finishExec": [],
      "failExec": [],
      "beginExec": [
        {
          "type": "QUEST_EXEC_ACTIVE_ITEM_GIVING",
          "param": [
            "2102901"
          ],
          "param_str": ""
        }
      ],
      "exclusiveNpcList": [
        2031,
        2030,
        2074
      ],
      "exclusiveNpcPriority": 1100
    },
    {
      "subId": 2102906,
      "mainId": 21029,
      "order": 6,
      "descTextMapHash": 3249346900,
      "acceptCondComb": "LOGIC_A_AND_B_AND_ETCOR",
      "acceptCond": [
        {
          "type": "QUEST_COND_DAILY_TASK_START",
          "param": [
            29801,
            0,
            0,
            0,
            0
          ],
          "param_str": ""
        },
        {
          "type": "QUEST_COND_QUEST_VAR_EQUAL",
          "param": [
            2,
            2,
            0,
            0,
            0
          ],
          "param_str": ""
        },
        {
          "type": "QUEST_COND_STATE_EQUAL",
          "param": [
            2102902,
            3,
            0,
            0,
            0
          ],
          "param_str": ""
        },
        {
          "type": "QUEST_COND_STATE_EQUAL",
          "param": [
            2102903,
            3,
            0,
            0,
            0
          ],
          "param_str": ""
        },
        {
          "type": "QUEST_COND_STATE_EQUAL",
          "param": [
            2102904,
            3,
            0,
            0,
            0
          ],
          "param_str": ""
        }
      ],
      "finishCond": [
        {
          "type": "QUEST_CONTENT_FINISH_ITEM_GIVING",
          "param": [
            2102902,
            0
          ],
          "param_str": ""
        }
      ],
      "failCond": [],
      "guide": {
        "type": "QUEST_GUIDE_NPC",
        "param": [
          "2031"
        ],
        "guideScene": 3,
        "guideStyle": "QUEST_GUIDE_STYLE_TARGET",
        "guideLayer": "QUEST_GUIDE_LAYER_SCENE"
      },
      "isRewind": true,
      "finishExec": [],
      "failExec": [],
      "beginExec": [
        {
          "type": "QUEST_EXEC_ACTIVE_ITEM_GIVING",
          "param": [
            "2102902"
          ],
          "param_str": ""
        }
      ],
      "exclusiveNpcList": [
        2031,
        2030,
        2074
      ],
      "exclusiveNpcPriority": 1100
    },
    {
      "subId": 2102907,
      "mainId": 21029,
      "order": 7,
      "descTextMapHash": 4017271564,
      "acceptCondComb": "LOGIC_A_AND_B_AND_ETCOR",
      "acceptCond": [
        {
          "type": "QUEST_COND_DAILY_TASK_START",
          "param": [
            29801,
            0,
            0,
            0,
            0
          ],
          "param_str": ""
        },
        {
          "type": "QUEST_COND_QUEST_VAR_EQUAL",
          "param": [
            2,
            3,
            0,
            0,
            0
          ],
          "param_str": ""
        },
        {
          "type": "QUEST_COND_STATE_EQUAL",
          "param": [
            2102902,
            3,
            0,
            0,
            0
          ],
          "param_str": ""
        },
        {
          "type": "QUEST_COND_STATE_EQUAL",
          "param": [
            2102903,
            3,
            0,
            0,
            0
          ],
          "param_str": ""
        },
        {
          "type": "QUEST_COND_STATE_EQUAL",
          "param": [
            2102904,
            3,
            0,
            0,
            0
          ],
          "param_str": ""
        }
      ],
      "finishCond": [
        {
          "type": "QUEST_CONTENT_FINISH_ITEM_GIVING",
          "param": [
            2102903,
            0
          ],
          "param_str": ""
        }
      ],
      "failCond": [],
      "guide": {
        "type": "QUEST_GUIDE_NPC",
        "param": [
          "2031"
        ],
        "guideScene": 3,
        "guideStyle": "QUEST_GUIDE_STYLE_TARGET",
        "guideLayer": "QUEST_GUIDE_LAYER_SCENE"
      },
      "isRewind": true,
      "finishExec": [],
      "failExec": [],
      "beginExec": [
        {
          "type": "QUEST_EXEC_ACTIVE_ITEM_GIVING",
          "param": [
            "2102903"
          ],
          "param_str": ""
        }
      ],
      "exclusiveNpcList": [
        2031,
        2030,
        2074
      ],
      "exclusiveNpcPriority": 1100
    },
    {
      "subId": 2102908,
      "mainId": 21029,
      "order": 8,
      "descTextMapHash": 3910802644,
      "acceptCondComb": "LOGIC_AND",
      "acceptCond": [
        {
          "type": "QUEST_COND_DAILY_TASK_START",
          "param": [
            29801,
            0,
            0,
            0,
            0
          ],
          "param_str": ""
        },
        {
          "type": "QUEST_COND_STATE_EQUAL",
          "param": [
            2102905,
            3,
            0,
            0,
            0
          ],
          "param_str": ""
        }
      ],
      "finishCond": [
        {
          "type": "QUEST_CONTENT_COMPLETE_TALK",
          "param": [
            2102911,
            0
          ],
          "param_str": ""
        }
      ],
      "failCond": [],
      "guide": {
        "type": "QUEST_GUIDE_NPC",
        "param": [
          "2031"
        ],
        "guideScene": 3,
        "guideStyle": "QUEST_GUIDE_STYLE_TARGET",
        "guideLayer": "QUEST_GUIDE_LAYER_SCENE"
      },
      "finishParent": true,
      "isRewind": true,
      "finishExec": [
        {
          "type": "QUEST_EXEC_NOTIFY_DAILY_TASK",
          "param": [
            "29801"
          ],
          "param_str": ""
        }
      ],
      "failExec": [],
      "beginExec": [],
      "exclusiveNpcList": [
        2031,
        2030,
        2074
      ],
      "exclusiveNpcPriority": 1100
    },
    {
      "subId": 2102909,
      "mainId": 21029,
      "order": 9,
      "descTextMapHash": 2204786588,
      "acceptCondComb": "LOGIC_AND",
      "acceptCond": [
        {
          "type": "QUEST_COND_DAILY_TASK_START",
          "param": [
            29801,
            0,
            0,
            0,
            0
          ],
          "param_str": ""
        },
        {
          "type": "QUEST_COND_STATE_EQUAL",
          "param": [
            2102906,
            3,
            0,
            0,
            0
          ],
          "param_str": ""
        }
      ],
      "finishCond": [
        {
          "type": "QUEST_CONTENT_COMPLETE_TALK",
          "param": [
            2102912,
            0
          ],
          "param_str": ""
        }
      ],
      "failCond": [],
      "guide": {
        "type": "QUEST_GUIDE_NPC",
        "param": [
          "2031"
        ],
        "guideScene": 3,
        "guideStyle": "QUEST_GUIDE_STYLE_TARGET",
        "guideLayer": "QUEST_GUIDE_LAYER_SCENE"
      },
      "finishParent": true,
      "isRewind": true,
      "finishExec": [
        {
          "type": "QUEST_EXEC_NOTIFY_DAILY_TASK",
          "param": [
            "29801"
          ],
          "param_str": ""
        }
      ],
      "failExec": [],
      "beginExec": [],
      "exclusiveNpcList": [
        2031,
        2030,
        2074
      ],
      "exclusiveNpcPriority": 1100
    },
    {
      "subId": 2102910,
      "mainId": 21029,
      "order": 10,
      "descTextMapHash": 3073212836,
      "acceptCondComb": "LOGIC_AND",
      "acceptCond": [
        {
          "type": "QUEST_COND_DAILY_TASK_START",
          "param": [
            29801,
            0,
            0,
            0,
            0
          ],
          "param_str": ""
        },
        {
          "type": "QUEST_COND_STATE_EQUAL",
          "param": [
            2102907,
            3,
            0,
            0,
            0
          ],
          "param_str": ""
        }
      ],
      "finishCond": [
        {
          "type": "QUEST_CONTENT_COMPLETE_TALK",
          "param": [
            2102913,
            0
          ],
          "param_str": ""
        }
      ],
      "failCond": [],
      "guide": {
        "type": "QUEST_GUIDE_NPC",
        "param": [
          "2031"
        ],
        "guideScene": 3,
        "guideStyle": "QUEST_GUIDE_STYLE_TARGET",
        "guideLayer": "QUEST_GUIDE_LAYER_SCENE"
      },
      "finishParent": true,
      "isRewind": true,
      "finishExec": [
        {
          "type": "QUEST_EXEC_NOTIFY_DAILY_TASK",
          "param": [
            "29801"
          ],
          "param_str": ""
        }
      ],
      "failExec": [],
      "beginExec": [],
      "exclusiveNpcList": [
        2031,
        2030,
        2074
      ],
      "exclusiveNpcPriority": 1100
    }
  ],
  "talks": [
    {
      "id": 2102901,
      "beginWay": "TALK_BEGIN_MANUAL",
      "activeMode": "PLAY_MODE_HOST",
      "beginCond": [
        {
          "type": "QUEST_COND_STATE_EQUAL",
          "param": [
            "2102902",
            "2"
          ],
          "param_str": ""
        }
      ],
      "priority": 5,
      "nextTalks": [
        2102904,
        2102907,
        2102908
      ],
      "initDialog": 210290101,
      "npcId": [
        2031
      ],
      "performCfg": "",
      "heroTalk": "TALK_HERO_MAIN",
      "questId": 21029,
      "prePerformCfg": ""
    },
    {
      "id": 2102902,
      "beginWay": "TALK_BEGIN_MANUAL",
      "activeMode": "PLAY_MODE_HOST",
      "beginCond": [
        {
          "type": "QUEST_COND_STATE_EQUAL",
          "param": [
            "2102903",
            "2"
          ],
          "param_str": ""
        }
      ],
      "priority": 5,
      "nextTalks": [
        2102904,
        2102907,
        2102908
      ],
      "initDialog": 210290201,
      "npcId": [
        2031
      ],
      "performCfg": "",
      "heroTalk": "TALK_HERO_MAIN",
      "questId": 21029,
      "prePerformCfg": ""
    },
    {
      "id": 2102903,
      "beginWay": "TALK_BEGIN_MANUAL",
      "activeMode": "PLAY_MODE_HOST",
      "beginCond": [
        {
          "type": "QUEST_COND_STATE_EQUAL",
          "param": [
            "2102904",
            "2"
          ],
          "param_str": ""
        }
      ],
      "priority": 5,
      "nextTalks": [
        2102904,
        2102907,
        2102908
      ],
      "initDialog": 210290301,
      "npcId": [
        2031
      ],
      "performCfg": "",
      "heroTalk": "TALK_HERO_MAIN",
      "questId": 21029,
      "prePerformCfg": ""
    },
    {
      "id": 2102904,
      "activeMode": "PLAY_MODE_HOST",
      "priority": 5,
      "nextTalks": [
        2102909
      ],
      "initDialog": 210290401,
      "npcId": [
        1005
      ],
      "performCfg": "",
      "heroTalk": "TALK_HERO_MAIN",
      "questId": 21029,
      "prePerformCfg": "",
      "finishExec": [
        {
          "type": "TALK_EXEC_SET_QUEST_VAR",
          "param": [
            "2",
            "1",
            "21029"
          ],
          "param_str": ""
        }
      ]
    },
    {
      "id": 2102907,
      "activeMode": "PLAY_MODE_HOST",
      "priority": 5,
      "nextTalks": [
        2102909
      ],
      "initDialog": 210290701,
      "npcId": [
        1005
      ],
      "performCfg": "",
      "heroTalk": "TALK_HERO_MAIN",
      "questId": 21029,
      "prePerformCfg": "",
      "finishExec": [
        {
          "type": "TALK_EXEC_SET_QUEST_VAR",
          "param": [
            "2",
            "2",
            "21029"
          ],
          "param_str": ""
        }
      ]
    },
    {
      "id": 2102908,
      "activeMode": "PLAY_MODE_HOST",
      "priority": 5,
      "nextTalks": [
        2102909
      ],
      "initDialog": 210290801,
      "npcId": [
        1005,
        2031
      ],
      "performCfg": "",
      "heroTalk": "TALK_HERO_MAIN",
      "questId": 21029,
      "prePerformCfg": "",
      "finishExec": [
        {
          "type": "TALK_EXEC_SET_QUEST_VAR",
          "param": [
            "2",
            "3",
            "21029"
          ],
          "param_str": ""
        }
      ]
    },
    {
      "id": 2102909,
      "activeMode": "PLAY_MODE_HOST",
      "priority": 5,
      "initDialog": 210290901,
      "npcId": [
        2031
      ],
      "performCfg": "",
      "heroTalk": "TALK_HERO_MAIN",
      "questId": 21029,
      "prePerformCfg": ""
    },
    {
      "id": 2102910,
      "beginWay": "TALK_BEGIN_MANUAL",
      "activeMode": "PLAY_MODE_HOST",
      "beginCondComb": "LOGIC_AND",
      "beginCond": [
        {
          "type": "QUEST_COND_ITEM_GIVING_ACTIVED",
          "param": [
            "2102901"
          ],
          "param_str": ""
        },
        {
          "type": "QUEST_COND_STATE_EQUAL",
          "param": [
            "2102905",
            "2"
          ],
          "param_str": ""
        }
      ],
      "priority": 5,
      "initDialog": 210291001,
      "npcId": [
        2031
      ],
      "performCfg": "",
      "heroTalk": "TALK_HERO_MAIN",
      "questId": 21029,
      "prePerformCfg": ""
    },
    {
      "id": 2102911,
      "beginWay": "TALK_BEGIN_MANUAL",
      "activeMode": "PLAY_MODE_HOST",
      "beginCond": [
        {
          "type": "QUEST_COND_STATE_EQUAL",
          "param": [
            "2102908",
            "2"
          ],
          "param_str": ""
        }
      ],
      "priority": 5,
      "initDialog": 210291101,
      "npcId": [
        2031,
        1005
      ],
      "performCfg": "QuestDialogue/IQ/Liyue_21029/Q2102911",
      "heroTalk": "TALK_HERO_MAIN",
      "questId": 21029,
      "prePerformCfg": ""
    },
    {
      "id": 2102912,
      "beginWay": "TALK_BEGIN_MANUAL",
      "activeMode": "PLAY_MODE_HOST",
      "beginCond": [
        {
          "type": "QUEST_COND_STATE_EQUAL",
          "param": [
            "2102909",
            "2"
          ],
          "param_str": ""
        }
      ],
      "priority": 5,
      "initDialog": 210291201,
      "npcId": [
        2031,
        1005
      ],
      "performCfg": "QuestDialogue/IQ/Liyue_21029/Q2102912",
      "heroTalk": "TALK_HERO_MAIN",
      "questId": 21029,
      "prePerformCfg": ""
    },
    {
      "id": 2102913,
      "beginWay": "TALK_BEGIN_MANUAL",
      "activeMode": "PLAY_MODE_HOST",
      "beginCond": [
        {
          "type": "QUEST_COND_STATE_EQUAL",
          "param": [
            "2102910",
            "2"
          ],
          "param_str": ""
        }
      ],
      "priority": 5,
      "initDialog": 210291301,
      "npcId": [
        2031,
        1005
      ],
      "performCfg": "QuestDialogue/IQ/Liyue_21029/Q2102913",
      "heroTalk": "TALK_HERO_MAIN",
      "questId": 21029,
      "prePerformCfg": ""
    },
    {
      "id": 2102915,
      "beginWay": "TALK_BEGIN_MANUAL",
      "activeMode": "PLAY_MODE_HOST",
      "beginCondComb": "LOGIC_AND",
      "beginCond": [
        {
          "type": "QUEST_COND_ITEM_GIVING_ACTIVED",
          "param": [
            "2102902"
          ],
          "param_str": ""
        },
        {
          "type": "QUEST_COND_STATE_EQUAL",
          "param": [
            "2102906",
            "2"
          ],
          "param_str": ""
        }
      ],
      "priority": 5,
      "initDialog": 210291001,
      "npcId": [
        2031
      ],
      "performCfg": "",
      "heroTalk": "TALK_HERO_MAIN",
      "questId": 21029,
      "prePerformCfg": ""
    },
    {
      "id": 2102916,
      "beginWay": "TALK_BEGIN_MANUAL",
      "activeMode": "PLAY_MODE_HOST",
      "beginCondComb": "LOGIC_AND",
      "beginCond": [
        {
          "type": "QUEST_COND_STATE_EQUAL",
          "param": [
            "2102907",
            "2"
          ],
          "param_str": ""
        },
        {
          "type": "QUEST_COND_ITEM_GIVING_ACTIVED",
          "param": [
            "2102903"
          ],
          "param_str": ""
        }
      ],
      "priority": 5,
      "initDialog": 210291001,
      "npcId": [
        2031
      ],
      "performCfg": "",
      "heroTalk": "TALK_HERO_MAIN",
      "questId": 21029,
      "prePerformCfg": ""
    }
  ]
}