{
  "id": 22302,
  "type": "IQ",
  "titleTextMapHash": 3129989865,
  "descTextMapHash": 2287374607,
  "luaPath": "Actor/Quest/IQ22302",
  "subQuests": [
    {
      "subId": 2230201,
      "mainId": 22302,
      "order": 1,
      "descTextMapHash": 137486470,
      "acceptCond": [
        {
          "type": "QUEST_COND_DAILY_TASK_START",
          "param": [
            25700,
            0,
            0
          ],
          "param_str": ""
        }
      ],
      "finishCond": [
        {
          "type": "QUEST_CONTENT_COMPLETE_TALK",
          "param": [
            2230201,
            0
          ],
          "param_str": ""
        }
      ],
      "failCond": [],
      "guide": {
        "type": "QUEST_GUIDE_NPC",
        "param": [
          "1624"
        ],
        "guideScene": 3,
        "guideStyle": "QUEST_GUIDE_STYLE_START",
        "guideLayer": "QUEST_GUIDE_LAYER_UI"
      },
      "isRewind": true,
      "finishExec": [],
      "failExec": [],
      "beginExec": [
        {
          "type": "QUEST_EXEC_DEL_ALL_SPECIFIC_PACK_ITEM",
          "param": [
            "100386,100387"
          ],
          "param_str": ""
        }
      ],
      "exclusiveNpcList": [
        1624,
        1627
      ]
    },
    {
      "subId": 2230202,
      "mainId": 22302,
      "order": 2,
      "descTextMapHash": 4122045102,
      "acceptCondComb": "LOGIC_AND",
      "acceptCond": [
        {
          "type": "QUEST_COND_DAILY_TASK_START",
          "param": [
            25700,
            0,
            0
          ],
          "param_str": ""
        },
        {
          "type": "QUEST_COND_STATE_EQUAL",
          "param": [
            2230201,
            3,
            0
          ],
          "param_str": ""
        }
      ],
      "finishCond": [
        {
          "type": "QUEST_CONTENT_TRIGGER_FIRE",
          "param": [
            1165,
            0
          ],
          "param_str": ""
        }
      ],
      "failCond": [],
      "guide": {
        "type": "QUEST_GUIDE_LOCATION",
        "param": [
          "Q22302FYSH"
        ],
        "guideScene": 3,
        "guideStyle": "QUEST_GUIDE_STYLE_POINT",
        "guideLayer": "QUEST_GUIDE_LAYER_SCENE"
      },
      "isRewind": true,
      "finishExec": [],
      "failExec": [],
      "beginExec": [],
      "exclusiveNpcList": [
        1624,
        1627
      ]
    },
    {
      "subId": 2230204,
      "mainId": 22302,
      "order": 3,
      "descTextMapHash": 4128942926,
      "showType": "QUEST_HIDDEN",
      "acceptCondComb": "LOGIC_AND",
      "acceptCond": [
        {
          "type": "QUEST_COND_DAILY_TASK_START",
          "param": [
            25700,
            0,
            0
          ],
          "param_str": ""
        },
        {
          "type": "QUEST_COND_STATE_EQUAL",
          "param": [
            2230202,
            3,
            0
          ],
          "param_str": ""
        }
      ],
      "finishCond": [
        {
          "type": "QUEST_CONTENT_COMPLETE_TALK",
          "param": [
            2230205,
            0
          ],
          "param_str": ""
        }
      ],
      "failCond": [
        {
          "type": "QUEST_CONTENT_COMPLETE_TALK",
          "param": [
            2230206,
            0
          ],
          "param_str": ""
        }
      ],
      "guide": {
        "param": []
      },
      "isRewind": true,
      "finishExec": [
        {
          "type": "QUEST_EXEC_DEL_ALL_SPECIFIC_PACK_ITEM",
          "param": [
            "100386"
          ],
          "param_str": ""
        }
      ],
      "failExec": [],
      "beginExec": []
    },
    {
      "subId": 2230203,
      "mainId": 22302,
      "order": 4,
      "descTextMapHash": 3707062838,
      "acceptCondComb": "LOGIC_AND",
      "acceptCond": [
        {
          "type": "QUEST_COND_DAILY_TASK_START",
          "param": [
            25700,
            0,
            0
          ],
          "param_str": ""
        },
        {
          "type": "QUEST_COND_STATE_EQUAL",
          "param": [
            2230202,
            3,
            0
          ],
          "param_str": ""
        }
      ],
      "finishCond": [
        {
          "type": "QUEST_CONTENT_COMPLETE_TALK",
          "param": [
            2230203,
            0
          ],
          "param_str": ""
        }
      ],
      "failCond": [],
      "guide": {
        "type": "QUEST_GUIDE_NPC",
        "param": [
          "1627"
        ],
        "guideScene": 3,
        "guideStyle": "QUEST_GUIDE_STYLE_FINISH",
        "guideLayer": "QUEST_GUIDE_LAYER_SCENE"
      },
      "finishParent": true,
      "isRewind": true,
      "finishExec": [
        {
          "type": "QUEST_EXEC_DEL_ALL_SPECIFIC_PACK_ITEM",
          "param": [
            "100386,100387"
          ],
          "param_str": ""
        },
        {
          "type": "QUEST_EXEC_NOTIFY_DAILY_TASK",
          "param": [
            "25700"
          ],
          "param_str": ""
        }
      ],
      "failExec": [],
      "beginExec": [],
      "exclusiveNpcList": [
        1624,
        1627
      ]
    }
  ],
  "talks": [
    {
      "id": 2230201,
      "beginWay": "TALK_BEGIN_MANUAL",
      "beginCond": [
        {
          "type": "QUEST_COND_STATE_EQUAL",
          "param": [
            "2230201",
            "2"
          ],
          "param_str": ""
        }
      ],
      "priority": 5,
      "initDialog": 223020101,
      "npcId": [
        1624
      ],
      "performCfg": "",
      "questId": 22302,
      "prePerformCfg": ""
    },
    {
      "id": 2230202,
      "beginWay": "TALK_BEGIN_MANUAL",
      "beginCond": [
        {
          "type": "QUEST_COND_STATE_EQUAL",
          "param": [
            "2230204",
            "2"
          ],
          "param_str": ""
        },
        {
          "type": "QUEST_COND_STATE_EQUAL",
          "param": [
            "2230202",
            "3"
          ],
          "param_str": ""
        }
      ],
      "priority": 5,
      "nextTalks": [
        2230205,
        2230206
      ],
      "initDialog": 223020201,
      "npcId": [
        1005
      ],
      "performCfg": "",
      "questId": 22302,
      "prePerformCfg": ""
    },
    {
      "id": 2230203,
      "beginWay": "TALK_BEGIN_MANUAL",
      "beginCondComb": "LOGIC_A_AND_ETCOR",
      "beginCond": [
        {
          "type": "QUEST_COND_STATE_EQUAL",
          "param": [
            "2230203",
            "2"
          ],
          "param_str": ""
        },
        {
          "type": "QUEST_COND_PACK_HAVE_ITEM",
          "param": [
            "100386",
            "1"
          ],
          "param_str": ""
        },
        {
          "type": "QUEST_COND_PACK_HAVE_ITEM",
          "param": [
            "100387",
            "1"
          ],
          "param_str": ""
        }
      ],
      "priority": 5,
      "initDialog": 223020301,
      "npcId": [
        1627
      ],
      "performCfg": "",
      "questId": 22302,
      "prePerformCfg": ""
    },
    {
      "id": 2230204,
      "beginWay": "TALK_BEGIN_MANUAL",
      "beginCondComb": "LOGIC_AND",
      "beginCond": [
        {
          "type": "QUEST_COND_STATE_EQUAL",
          "param": [
            "2230201",
            "3"
          ],
          "param_str": ""
        },
        {
          "type": "QUEST_COND_DAILY_TASK_IN_PROGRESS",
          "param": [
            "25700"
          ],
          "param_str": ""
        }
      ],
      "priority": 5,
      "initDialog": 223020401,
      "npcId": [
        1624
      ],
      "performCfg": "",
      "questId": 22302,
      "prePerformCfg": ""
    },
    {
      "id": 2230205,
      "priority": 5,
      "initDialog": 223020501,
      "npcId": [
        1005
      ],
      "performCfg": "",
      "questId": 22302,
      "prePerformCfg": ""
    },
    {
      "id": 2230206,
      "priority": 5,
      "initDialog": 223020601,
      "npcId": [
        1005
      ],
      "performCfg": "",
      "questId": 22302,
      "prePerformCfg": ""
    }
  ]
}