{
  "id": 23004,
  "type": "IQ",
  "titleTextMapHash": 18737543,
  "descTextMapHash": 3668398190,
  "luaPath": "Actor/Quest/IQ23004",
  "rewardIdList": [
    500160,
    500161,
    500162,
    0
  ],
  "subQuests": [
    {
      "mainId": 23004,
      "subId": 2300401,
      "order": 1,
      "descTextMapHash": 1276820900,
      "acceptCond": [
        {
          "type": "QUEST_COND_UNKNOWN",
          "param": [
            0,
            0
          ]
        }
      ],
      "finishCond": [],
      "failCond": [],
      "guide": {
        "type": "QUEST_GUIDE_NPC",
        "param": [
          "4171"
        ],
        "guideScene": 3,
        "guideStyle": "QUEST_GUIDE_STYLE_TARGET",
        "guideLayer": "QUEST_GUIDE_LAYER_SCENE"
      },
      "finishExec": [],
      "failExec": [],
      "beginExec": []
    },
    {
      "mainId": 23004,
      "subId": 2300402,
      "order": 2,
      "descTextMapHash": 1781923780,
      "acceptCond": [
        {
          "type": "QUEST_COND_UNKNOWN",
          "param": [
            0,
            0
          ]
        }
      ],
      "finishCond": [],
      "failCond": [],
      "guide": {
        "type": "QUEST_GUIDE_LOCATION",
        "param": [
          "Q2300402_guide",
          "25"
        ],
        "guideScene": 3
      },
      "finishExec": [],
      "failExec": [],
      "beginExec": []
    },
    {
      "mainId": 23004,
      "subId": 2300403,
      "order": 4,
      "descTextMapHash": 2225829692,
      "acceptCond": [
        {
          "type": "QUEST_COND_UNKNOWN",
          "param": [
            0,
            0
          ]
        }
      ],
      "finishCond": [],
      "failCond": [],
      "guide": {
        "type": "QUEST_GUIDE_LOCATION",
        "param": [
          "Q2300402_guide",
          "25"
        ],
        "guideScene": 3
      },
      "finishExec": [],
      "failExec": [],
      "beginExec": []
    },
    {
      "mainId": 23004,
      "subId": 2300404,
      "order": 5,
      "descTextMapHash": 2044519364,
      "acceptCond": [
        {
          "type": "QUEST_COND_UNKNOWN",
          "param": [
            0,
            0
          ]
        }
      ],
      "finishCond": [],
      "failCond": [],
      "guide": {
        "type": "QUEST_GUIDE_LOCATION",
        "param": [
          "Q2300402_guide",
          "25"
        ],
        "guideScene": 3
      },
      "finishExec": [],
      "failExec": [],
      "beginExec": []
    },
    {
      "mainId": 23004,
      "subId": 2300406,
      "order": 7,
      "descTextMapHash": 2097639524,
      "acceptCond": [
        {
          "type": "QUEST_COND_UNKNOWN",
          "param": [
            0,
            0
          ]
        }
      ],
      "finishCond": [],
      "failCond": [],
      "guide": {
        "type": "QUEST_GUIDE_LOCATION",
        "param": [
          "Q2300405_guide",
          "15"
        ],
        "guideScene": 3
      },
      "finishExec": [],
      "failExec": [],
      "beginExec": []
    },
    {
      "mainId": 23004,
      "subId": 2300407,
      "order": 8,
      "descTextMapHash": 3651228188,
      "acceptCond": [
        {
          "type": "QUEST_COND_UNKNOWN",
          "param": [
            0,
            0
          ]
        }
      ],
      "finishCond": [],
      "failCond": [],
      "guide": {
        "type": "QUEST_GUIDE_LOCATION",
        "param": [
          "Q2300407_guide",
          "25"
        ],
        "guideScene": 3
      },
      "finishExec": [],
      "failExec": [],
      "beginExec": []
    },
    {
      "mainId": 23004,
      "subId": 2300408,
      "order": 9,
      "descTextMapHash": 2076712612,
      "acceptCond": [
        {
          "type": "QUEST_COND_UNKNOWN",
          "param": [
            0,
            0
          ]
        }
      ],
      "finishCond": [],
      "failCond": [],
      "guide": {
        "type": "QUEST_GUIDE_LOCATION",
        "param": [
          "Q2300407_guide",
          "25"
        ],
        "guideScene": 3
      },
      "finishExec": [],
      "failExec": [],
      "beginExec": []
    },
    {
      "mainId": 23004,
      "subId": 2300409,
      "order": 10,
      "descTextMapHash": 3349506812,
      "acceptCond": [
        {
          "type": "QUEST_COND_UNKNOWN",
          "param": [
            0,
            0
          ]
        }
      ],
      "finishCond": [],
      "failCond": [],
      "guide": {
        "type": "QUEST_GUIDE_LOCATION",
        "param": [
          "Q2300409_guide",
          "20"
        ],
        "guideScene": 3
      },
      "finishExec": [],
      "failExec": [],
      "beginExec": []
    },
    {
      "mainId": 23004,
      "subId": 2300410,
      "order": 12,
      "descTextMapHash": 3720826076,
      "acceptCond": [
        {
          "type": "QUEST_COND_UNKNOWN",
          "param": [
            0,
            0
          ]
        }
      ],
      "finishCond": [],
      "failCond": [],
      "guide": {
        "type": "QUEST_GUIDE_LOCATION",
        "param": [
          "Q2300409_guide",
          "20"
        ],
        "guideScene": 3
      },
      "finishExec": [],
      "failExec": [],
      "beginExec": []
    },
    {
      "mainId": 23004,
      "subId": 2300411,
      "order": 13,
      "descTextMapHash": 1260237404,
      "acceptCond": [
        {
          "type": "QUEST_COND_UNKNOWN",
          "param": [
            0,
            0
          ]
        }
      ],
      "finishCond": [],
      "failCond": [],
      "guide": {
        "type": "QUEST_GUIDE_LOCATION",
        "param": [
          "Q2300411_guide",
          "25"
        ],
        "guideScene": 3
      },
      "finishExec": [],
      "failExec": [],
      "beginExec": []
    },
    {
      "mainId": 23004,
      "subId": 2300412,
      "order": 14,
      "descTextMapHash": 2124336908,
      "acceptCond": [
        {
          "type": "QUEST_COND_UNKNOWN",
          "param": [
            0,
            0
          ]
        }
      ],
      "finishCond": [],
      "failCond": [],
      "guide": {
        "type": "QUEST_GUIDE_LOCATION",
        "param": [
          "Q2300411_guide",
          "25"
        ],
        "guideScene": 3
      },
      "finishExec": [],
      "failExec": [],
      "beginExec": []
    },
    {
      "mainId": 23004,
      "subId": 2300413,
      "order": 15,
      "descTextMapHash": 785667084,
      "acceptCond": [
        {
          "type": "QUEST_COND_UNKNOWN",
          "param": [
            0,
            0
          ]
        }
      ],
      "finishCond": [],
      "failCond": [],
      "guide": {
        "type": "QUEST_GUIDE_NPC",
        "param": [
          "4171"
        ],
        "guideScene": 3,
        "guideStyle": "QUEST_GUIDE_STYLE_TARGET",
        "guideLayer": "QUEST_GUIDE_LAYER_SCENE"
      },
      "finishExec": [],
      "failExec": [],
      "beginExec": []
    },
    {
      "mainId": 23004,
      "subId": 2300414,
      "order": 6,
      "descTextMapHash": 3133165572,
      "acceptCond": [
        {
          "type": "QUEST_COND_UNKNOWN",
          "param": [
            0,
            0
          ]
        }
      ],
      "finishCond": [],
      "failCond": [],
      "guide": {
        "type": "QUEST_GUIDE_LOCATION",
        "param": [
          "Q2300405_guide",
          "30"
        ]
      },
      "finishExec": [],
      "failExec": [],
      "beginExec": []
    },
    {
      "mainId": 23004,
      "subId": 2300416,
      "order": 16,
      "descTextMapHash": 1080478932,
      "acceptCond": [
        {
          "type": "QUEST_COND_UNKNOWN",
          "param": [
            0,
            0
          ]
        }
      ],
      "finishCond": [],
      "failCond": [],
      "guide": {
        "type": "QUEST_GUIDE_NPC",
        "param": [
          "4171"
        ],
        "guideScene": 3,
        "guideStyle": "QUEST_GUIDE_STYLE_TARGET",
        "guideLayer": "QUEST_GUIDE_LAYER_SCENE"
      },
      "finishExec": [],
      "failExec": [],
      "beginExec": []
    },
    {
      "mainId": 23004,
      "subId": 2300417,
      "order": 17,
      "showType": "QUEST_HIDDEN",
      "descTextMapHash": 547313212,
      "acceptCond": [
        {
          "type": "QUEST_COND_UNKNOWN",
          "param": [
            0,
            0
          ]
        }
      ],
      "finishCond": [],
      "failCond": [],
      "guide": {},
      "finishExec": [],
      "failExec": [],
      "beginExec": []
    },
    {
      "mainId": 23004,
      "subId": 2300418,
      "order": 18,
      "showType": "QUEST_HIDDEN",
      "descTextMapHash": 3560934252,
      "acceptCond": [
        {
          "type": "QUEST_COND_UNKNOWN",
          "param": [
            0,
            0
          ]
        }
      ],
      "finishCond": [],
      "failCond": [],
      "guide": {},
      "finishExec": [],
      "failExec": [],
      "beginExec": []
    },
    {
      "mainId": 23004,
      "subId": 2300419,
      "order": 19,
      "descTextMapHash": 1218642988,
      "acceptCond": [
        {
          "type": "QUEST_COND_UNKNOWN",
          "param": [
            0,
            0
          ]
        }
      ],
      "finishCond": [],
      "failCond": [],
      "guide": {
        "type": "QUEST_GUIDE_NPC",
        "param": [
          "4171"
        ],
        "guideScene": 3,
        "guideStyle": "QUEST_GUIDE_STYLE_TARGET",
        "guideLayer": "QUEST_GUIDE_LAYER_SCENE"
      },
      "finishExec": [],
      "failExec": [],
      "beginExec": []
    },
    {
      "mainId": 23004,
      "subId": 2300420,
      "order": 20,
      "descTextMapHash": 874023724,
      "acceptCond": [
        {
          "type": "QUEST_COND_UNKNOWN",
          "param": [
            0,
            0
          ]
        }
      ],
      "finishCond": [],
      "failCond": [],
      "guide": {
        "type": "QUEST_GUIDE_NPC",
        "param": [
          "4171"
        ],
        "guideScene": 3,
        "guideStyle": "QUEST_GUIDE_STYLE_TARGET",
        "guideLayer": "QUEST_GUIDE_LAYER_SCENE"
      },
      "finishExec": [],
      "failExec": [],
      "beginExec": []
    },
    {
      "mainId": 23004,
      "subId": 2300421,
      "order": 21,
      "showType": "QUEST_HIDDEN",
      "descTextMapHash": 3632004572,
      "acceptCond": [
        {
          "type": "QUEST_COND_UNKNOWN",
          "param": [
            0,
            0
          ]
        }
      ],
      "finishCond": [],
      "failCond": [],
      "guide": {},
      "finishExec": [],
      "failExec": [],
      "beginExec": []
    },
    {
      "mainId": 23004,
      "subId": 2300422,
      "order": 22,
      "showType": "QUEST_HIDDEN",
      "descTextMapHash": 3269224156,
      "acceptCond": [
        {
          "type": "QUEST_COND_UNKNOWN",
          "param": [
            0,
            0
          ]
        }
      ],
      "finishCond": [],
      "failCond": [],
      "guide": {},
      "finishExec": [],
      "failExec": [],
      "beginExec": []
    },
    {
      "mainId": 23004,
      "subId": 2300423,
      "order": 23,
      "descTextMapHash": 4046720612,
      "acceptCond": [
        {
          "type": "QUEST_COND_UNKNOWN",
          "param": [
            0,
            0
          ]
        }
      ],
      "finishCond": [],
      "failCond": [],
      "guide": {
        "type": "QUEST_GUIDE_NPC",
        "param": [
          "4171"
        ],
        "guideScene": 3,
        "guideStyle": "QUEST_GUIDE_STYLE_TARGET",
        "guideLayer": "QUEST_GUIDE_LAYER_SCENE"
      },
      "finishExec": [],
      "failExec": [],
      "beginExec": []
    },
    {
      "mainId": 23004,
      "subId": 2300424,
      "order": 24,
      "descTextMapHash": 3507534116,
      "acceptCond": [
        {
          "type": "QUEST_COND_UNKNOWN",
          "param": [
            0,
            0
          ]
        }
      ],
      "finishCond": [],
      "failCond": [],
      "guide": {
        "type": "QUEST_GUIDE_NPC",
        "param": [
          "4171"
        ],
        "guideScene": 3,
        "guideStyle": "QUEST_GUIDE_STYLE_TARGET",
        "guideLayer": "QUEST_GUIDE_LAYER_SCENE"
      },
      "finishExec": [],
      "failExec": [],
      "beginExec": []
    },
    {
      "mainId": 23004,
      "subId": 2300425,
      "order": 25,
      "showType": "QUEST_HIDDEN",
      "descTextMapHash": 196749724,
      "acceptCond": [
        {
          "type": "QUEST_COND_UNKNOWN",
          "param": [
            0,
            0
          ]
        }
      ],
      "finishCond": [],
      "failCond": [],
      "guide": {},
      "finishExec": [],
      "failExec": [],
      "beginExec": []
    },
    {
      "mainId": 23004,
      "subId": 2300426,
      "order": 26,
      "showType": "QUEST_HIDDEN",
      "descTextMapHash": 1209964596,
      "acceptCond": [
        {
          "type": "QUEST_COND_UNKNOWN",
          "param": [
            0,
            0
          ]
        }
      ],
      "finishCond": [],
      "failCond": [],
      "guide": {},
      "finishExec": [],
      "failExec": [],
      "beginExec": []
    },
    {
      "mainId": 23004,
      "subId": 2300427,
      "order": 27,
      "descTextMapHash": 3841353252,
      "acceptCond": [
        {
          "type": "QUEST_COND_UNKNOWN",
          "param": [
            0,
            0
          ]
        }
      ],
      "finishCond": [],
      "failCond": [],
      "guide": {
        "type": "QUEST_GUIDE_NPC",
        "param": [
          "4171"
        ],
        "guideScene": 3,
        "guideStyle": "QUEST_GUIDE_STYLE_TARGET",
        "guideLayer": "QUEST_GUIDE_LAYER_SCENE"
      },
      "finishExec": [],
      "failExec": [],
      "beginExec": []
    },
    {
      "mainId": 23004,
      "subId": 2300428,
      "order": 28,
      "descTextMapHash": 1586626220,
      "acceptCond": [
        {
          "type": "QUEST_COND_UNKNOWN",
          "param": [
            0,
            0
          ]
        }
      ],
      "finishCond": [],
      "failCond": [],
      "guide": {
        "type": "QUEST_GUIDE_NPC",
        "param": [
          "4171"
        ],
        "guideScene": 3,
        "guideStyle": "QUEST_GUIDE_STYLE_TARGET",
        "guideLayer": "QUEST_GUIDE_LAYER_SCENE"
      },
      "finishExec": [],
      "failExec": [],
      "beginExec": []
    },
    {
      "mainId": 23004,
      "subId": 2300429,
      "order": 29,
      "descTextMapHash": 1761608452,
      "acceptCond": [
        {
          "type": "QUEST_COND_UNKNOWN",
          "param": [
            0,
            0
          ]
        }
      ],
      "finishCond": [],
      "failCond": [],
      "guide": {
        "type": "QUEST_GUIDE_NPC",
        "param": [
          "4171"
        ],
        "guideScene": 3,
        "guideStyle": "QUEST_GUIDE_STYLE_TARGET",
        "guideLayer": "QUEST_GUIDE_LAYER_SCENE"
      },
      "finishExec": [],
      "failExec": [],
      "beginExec": []
    },
    {
      "mainId": 23004,
      "subId": 2300430,
      "order": 30,
      "descTextMapHash": 1180746284,
      "acceptCond": [
        {
          "type": "QUEST_COND_UNKNOWN",
          "param": [
            0,
            0
          ]
        }
      ],
      "finishCond": [],
      "failCond": [],
      "guide": {},
      "finishExec": [],
      "failExec": [],
      "beginExec": []
    }
  ],
  "talks": [
    {
      "id": 2300401,
      "beginWay": "TALK_BEGIN_MANUAL",
      "beginCond": [
        {
          "type": "QUEST_COND_STATE_EQUAL",
          "param": [
            "2300401",
            "2"
          ],
          "param_str": ""
        }
      ],
      "priority": 5,
      "nextTalks": [
        2300411,
        2300412
      ],
      "initDialog": 230040101,
      "npcId": [
        4171
      ],
      "performCfg": "QuestDialogue/IQ/Xumi_23004/Q2300401",
      "heroTalk": "TALK_HERO_MAIN",
      "questId": 23004,
      "prePerformCfg": "",
      "talkMarkType": "TALK_MARK_COMMON"
    },
    {
      "id": 2300402,
      "beginWay": "TALK_BEGIN_MANUAL",
      "beginCondComb": "LOGIC_A_AND_ETCOR",
      "beginCond": [
        {
          "type": "QUEST_COND_STATE_EQUAL",
          "param": [
            "2300401",
            "3"
          ],
          "param_str": ""
        },
        {
          "type": "QUEST_COND_STATE_EQUAL",
          "param": [
            "2300402",
            "2"
          ],
          "param_str": ""
        },
        {
          "type": "QUEST_COND_STATE_EQUAL",
          "param": [
            "2300414",
            "2"
          ],
          "param_str": ""
        },
        {
          "type": "QUEST_COND_STATE_EQUAL",
          "param": [
            "2300407",
            "2"
          ],
          "param_str": ""
        },
        {
          "type": "QUEST_COND_STATE_EQUAL",
          "param": [
            "2300409",
            "2"
          ],
          "param_str": ""
        },
        {
          "type": "QUEST_COND_STATE_EQUAL",
          "param": [
            "2300411",
            "2"
          ],
          "param_str": ""
        }
      ],
      "priority": 5,
      "initDialog": 230040201,
      "npcId": [
        4171
      ],
      "performCfg": "",
      "heroTalk": "TALK_HERO_MAIN",
      "questId": 23004,
      "prePerformCfg": ""
    },
    {
      "id": 2300404,
      "beginWay": "TALK_BEGIN_MANUAL",
      "beginCondComb": "LOGIC_AND",
      "beginCond": [
        {
          "type": "QUEST_COND_STATE_EQUAL",
          "param": [
            "2300413",
            "2"
          ],
          "param_str": ""
        },
        {
          "type": "QUEST_COND_ITEM_GIVING_ACTIVED",
          "param": [
            "2300413"
          ],
          "param_str": ""
        }
      ],
      "priority": 5,
      "initDialog": 230040401,
      "npcId": [
        4171
      ],
      "performCfg": "QuestDialogue/IQ/Xumi_23004/Q2300404",
      "heroTalk": "TALK_HERO_MAIN",
      "questId": 23004,
      "prePerformCfg": ""
    },
    {
      "id": 2300405,
      "beginWay": "TALK_BEGIN_AUTO",
      "beginCondComb": "LOGIC_A_AND_ETCOR",
      "beginCond": [
        {
          "type": "QUEST_COND_QUEST_VAR_EQUAL",
          "param": [
            "0",
            "0",
            "23004"
          ],
          "param_str": ""
        },
        {
          "type": "QUEST_COND_STATE_EQUAL",
          "param": [
            "2300416",
            "2"
          ],
          "param_str": ""
        },
        {
          "type": "QUEST_COND_STATE_EQUAL",
          "param": [
            "2300430",
            "2"
          ],
          "param_str": ""
        }
      ],
      "priority": 5,
      "nextTalks": [
        2300419
      ],
      "initDialog": 230040501,
      "npcId": [
        4171
      ],
      "performCfg": "QuestDialogue/IQ/Xumi_23004/Q2300405",
      "heroTalk": "TALK_HERO_MAIN",
      "questId": 23004,
      "prePerformCfg": ""
    },
    {
      "id": 2300406,
      "beginWay": "TALK_BEGIN_AUTO",
      "beginCondComb": "LOGIC_A_AND_ETCOR",
      "beginCond": [
        {
          "type": "QUEST_COND_QUEST_VAR_EQUAL",
          "param": [
            "0",
            "1",
            "23004"
          ],
          "param_str": ""
        },
        {
          "type": "QUEST_COND_STATE_EQUAL",
          "param": [
            "2300416",
            "2"
          ],
          "param_str": ""
        },
        {
          "type": "QUEST_COND_STATE_EQUAL",
          "param": [
            "2300430",
            "2"
          ],
          "param_str": ""
        }
      ],
      "priority": 5,
      "nextTalks": [
        2300421
      ],
      "initDialog": 230040601,
      "npcId": [
        4171
      ],
      "performCfg": "QuestDialogue/IQ/Xumi_23004/Q2300406",
      "heroTalk": "TALK_HERO_MAIN",
      "questId": 23004,
      "prePerformCfg": ""
    },
    {
      "id": 2300407,
      "beginWay": "TALK_BEGIN_AUTO",
      "beginCondComb": "LOGIC_A_AND_ETCOR",
      "beginCond": [
        {
          "type": "QUEST_COND_QUEST_VAR_EQUAL",
          "param": [
            "0",
            "2",
            "23004"
          ],
          "param_str": ""
        },
        {
          "type": "QUEST_COND_STATE_EQUAL",
          "param": [
            "2300416",
            "2"
          ],
          "param_str": ""
        },
        {
          "type": "QUEST_COND_STATE_EQUAL",
          "param": [
            "2300430",
            "2"
          ],
          "param_str": ""
        }
      ],
      "priority": 5,
      "nextTalks": [
        2300423
      ],
      "initDialog": 230040701,
      "npcId": [
        4171
      ],
      "performCfg": "QuestDialogue/IQ/Xumi_23004/Q2300407",
      "heroTalk": "TALK_HERO_MAIN",
      "questId": 23004,
      "prePerformCfg": ""
    },
    {
      "id": 2300408,
      "beginWay": "TALK_BEGIN_AUTO",
      "beginCondComb": "LOGIC_A_AND_ETCOR",
      "beginCond": [
        {
          "type": "QUEST_COND_QUEST_VAR_EQUAL",
          "param": [
            "0",
            "3",
            "23004"
          ],
          "param_str": ""
        },
        {
          "type": "QUEST_COND_STATE_EQUAL",
          "param": [
            "2300416",
            "2"
          ],
          "param_str": ""
        },
        {
          "type": "QUEST_COND_STATE_EQUAL",
          "param": [
            "2300430",
            "2"
          ],
          "param_str": ""
        }
      ],
      "priority": 5,
      "initDialog": 230040801,
      "npcId": [
        4171
      ],
      "performCfg": "QuestDialogue/IQ/Xumi_23004/Q2300408",
      "heroTalk": "TALK_HERO_MAIN",
      "questId": 23004,
      "prePerformCfg": ""
    },
    {
      "id": 2300409,
      "beginWay": "TALK_BEGIN_AUTO",
      "beginCondComb": "LOGIC_A_AND_ETCOR",
      "beginCond": [
        {
          "type": "QUEST_COND_QUEST_VAR_EQUAL",
          "param": [
            "0",
            "4",
            "23004"
          ],
          "param_str": ""
        },
        {
          "type": "QUEST_COND_STATE_EQUAL",
          "param": [
            "2300416",
            "2"
          ],
          "param_str": ""
        },
        {
          "type": "QUEST_COND_STATE_EQUAL",
          "param": [
            "2300430",
            "2"
          ],
          "param_str": ""
        }
      ],
      "priority": 5,
      "initDialog": 230040901,
      "npcId": [
        4171
      ],
      "performCfg": "QuestDialogue/IQ/Xumi_23004/Q2300409",
      "heroTalk": "TALK_HERO_MAIN",
      "questId": 23004,
      "prePerformCfg": ""
    },
    {
      "id": 2300410,
      "beginWay": "TALK_BEGIN_MANUAL",
      "beginCondComb": "LOGIC_AND",
      "beginCond": [
        {
          "type": "QUEST_COND_STATE_EQUAL",
          "param": [
            "2300429",
            "2"
          ],
          "param_str": ""
        },
        {
          "type": "QUEST_COND_ITEM_GIVING_ACTIVED",
          "param": [
            "2300429"
          ],
          "param_str": ""
        }
      ],
      "priority": 5,
      "initDialog": 230041001,
      "npcId": [
        4171
      ],
      "performCfg": "QuestDialogue/IQ/Xumi_23004/Q2300410",
      "heroTalk": "TALK_HERO_MAIN",
      "questId": 23004,
      "prePerformCfg": ""
    },
    {
      "id": 2300411,
      "beginCondComb": "LOGIC_A_AND_ETCOR",
      "beginCond": [
        {
          "type": "QUEST_COND_STATE_EQUAL",
          "param": [
            "2300401",
            "2"
          ],
          "param_str": ""
        },
        {
          "type": "QUEST_COND_STATE_NOT_EQUAL",
          "param": [
            "101507",
            "3"
          ],
          "param_str": ""
        },
        {
          "type": "QUEST_COND_QUEST_NOT_RECEIVE",
          "param": [
            "101507",
            "1"
          ],
          "param_str": ""
        }
      ],
      "priority": 5,
      "initDialog": 230041101,
      "npcId": [
        4171
      ],
      "performCfg": "QuestDialogue/IQ/Xumi_23004/Q2300411",
      "heroTalk": "TALK_HERO_MAIN",
      "questId": 23004,
      "prePerformCfg": ""
    },
    {
      "id": 2300412,
      "beginCondComb": "LOGIC_AND",
      "beginCond": [
        {
          "type": "QUEST_COND_STATE_EQUAL",
          "param": [
            "2300401",
            "2"
          ],
          "param_str": ""
        },
        {
          "type": "QUEST_COND_STATE_EQUAL",
          "param": [
            "101507",
            "3"
          ],
          "param_str": ""
        }
      ],
      "priority": 5,
      "initDialog": 230041201,
      "npcId": [
        4171
      ],
      "performCfg": "QuestDialogue/IQ/Xumi_23004/Q2300412",
      "heroTalk": "TALK_HERO_MAIN",
      "questId": 23004,
      "prePerformCfg": ""
    },
    {
      "id": 2300419,
      "beginWay": "TALK_BEGIN_MANUAL",
      "beginCondComb": "LOGIC_AND",
      "beginCond": [
        {
          "type": "QUEST_COND_STATE_EQUAL",
          "param": [
            "2300419",
            "2"
          ],
          "param_str": ""
        },
        {
          "type": "QUEST_COND_ITEM_GIVING_ACTIVED",
          "param": [
            "2300419"
          ],
          "param_str": ""
        }
      ],
      "priority": 5,
      "initDialog": 230041901,
      "npcId": [
        4171
      ],
      "performCfg": "QuestDialogue/IQ/Xumi_23004/Q2300419",
      "heroTalk": "TALK_HERO_MAIN",
      "questId": 23004,
      "prePerformCfg": ""
    },
    {
      "id": 2300420,
      "beginWay": "TALK_BEGIN_AUTO",
      "beginCond": [
        {
          "type": "QUEST_COND_STATE_EQUAL",
          "param": [
            "2300420",
            "2"
          ],
          "param_str": ""
        }
      ],
      "priority": 5,
      "initDialog": 230042001,
      "npcId": [
        4171
      ],
      "performCfg": "QuestDialogue/IQ/Xumi_23004/Q2300420",
      "heroTalk": "TALK_HERO_MAIN",
      "questId": 23004,
      "prePerformCfg": ""
    },
    {
      "id": 2300421,
      "beginWay": "TALK_BEGIN_MANUAL",
      "beginCondComb": "LOGIC_AND",
      "beginCond": [
        {
          "type": "QUEST_COND_STATE_EQUAL",
          "param": [
            "2300423",
            "2"
          ],
          "param_str": ""
        },
        {
          "type": "QUEST_COND_ITEM_GIVING_ACTIVED",
          "param": [
            "2300423"
          ],
          "param_str": ""
        }
      ],
      "priority": 5,
      "initDialog": 230042101,
      "npcId": [
        4171
      ],
      "performCfg": "QuestDialogue/IQ/Xumi_23004/Q2300421",
      "heroTalk": "TALK_HERO_MAIN",
      "questId": 23004,
      "prePerformCfg": ""
    },
    {
      "id": 2300422,
      "beginWay": "TALK_BEGIN_AUTO",
      "beginCond": [
        {
          "type": "QUEST_COND_STATE_EQUAL",
          "param": [
            "2300424",
            "2"
          ],
          "param_str": ""
        }
      ],
      "priority": 5,
      "initDialog": 230042201,
      "npcId": [
        4171
      ],
      "performCfg": "QuestDialogue/IQ/Xumi_23004/Q2300422",
      "heroTalk": "TALK_HERO_MAIN",
      "questId": 23004,
      "prePerformCfg": ""
    },
    {
      "id": 2300423,
      "beginWay": "TALK_BEGIN_MANUAL",
      "beginCondComb": "LOGIC_AND",
      "beginCond": [
        {
          "type": "QUEST_COND_STATE_EQUAL",
          "param": [
            "2300427",
            "2"
          ],
          "param_str": ""
        },
        {
          "type": "QUEST_COND_ITEM_GIVING_ACTIVED",
          "param": [
            "2300427"
          ],
          "param_str": ""
        }
      ],
      "priority": 5,
      "initDialog": 230042301,
      "npcId": [
        4171
      ],
      "performCfg": "QuestDialogue/IQ/Xumi_23004/Q2300423",
      "heroTalk": "TALK_HERO_MAIN",
      "questId": 23004,
      "prePerformCfg": ""
    },
    {
      "id": 2300424,
      "beginWay": "TALK_BEGIN_AUTO",
      "beginCond": [
        {
          "type": "QUEST_COND_STATE_EQUAL",
          "param": [
            "2300428",
            "2"
          ],
          "param_str": ""
        }
      ],
      "priority": 5,
      "initDialog": 230042401,
      "npcId": [
        4171
      ],
      "performCfg": "QuestDialogue/IQ/Xumi_23004/Q2300424",
      "heroTalk": "TALK_HERO_MAIN",
      "questId": 23004,
      "prePerformCfg": ""
    }
  ]
}