{
  "id": 3002,
  "series": 1301,
  "titleTextMapHash": 1127903943,
  "descTextMapHash": 4029662134,
  "luaPath": "Actor/Quest/AQ3002",
  "suggestTrackMainQuestList": [
    3003
  ],
  "rewardIdList": [
    103002
  ],
  "chapterId": 1301,
  "subQuests": [
    {
      "mainId": 3002,
      "subId": 300201,
      "order": 1,
      "descTextMapHash": 4211580156,
      "acceptCond": [
        {
          "type": "QUEST_COND_UNKNOWN",
          "param": [
            0,
            0
          ]
        }
      ],
      "finishCond": [],
      "failCond": [],
      "guide": {
        "type": "QUEST_GUIDE_LOCATION",
        "autoGuide": "QUEST_GUIDE_AUTO_ENABLE",
        "param": [
          "Q300201_guide"
        ],
        "guideScene": 3,
        "guideStyle": "QUEST_GUIDE_STYLE_POINT",
        "guideLayer": "QUEST_GUIDE_LAYER_SCENE"
      },
      "finishExec": [],
      "failExec": [],
      "beginExec": []
    },
    {
      "mainId": 3002,
      "subId": 300202,
      "order": 2,
      "descTextMapHash": 241983796,
      "acceptCond": [
        {
          "type": "QUEST_COND_UNKNOWN",
          "param": [
            0,
            0
          ]
        }
      ],
      "finishCond": [],
      "failCond": [],
      "guide": {
        "type": "QUEST_GUIDE_LOCATION",
        "autoGuide": "QUEST_GUIDE_AUTO_ENABLE",
        "param": [
          "Q300202_N1050"
        ],
        "guideScene": 3,
        "guideStyle": "QUEST_GUIDE_STYLE_POINT",
        "guideLayer": "QUEST_GUIDE_LAYER_SCENE"
      },
      "finishExec": [],
      "failExec": [],
      "beginExec": []
    },
    {
      "mainId": 3002,
      "subId": 300203,
      "order": 3,
      "descTextMapHash": 1099171412,
      "acceptCond": [
        {
          "type": "QUEST_COND_UNKNOWN",
          "param": [
            0,
            0
          ]
        }
      ],
      "finishCond": [],
      "failCond": [],
      "guide": {
        "type": "QUEST_GUIDE_LOCATION",
        "autoGuide": "QUEST_GUIDE_AUTO_ENABLE",
        "param": [
          "Q300202_N1050"
        ],
        "guideScene": 3,
        "guideStyle": "QUEST_GUIDE_STYLE_POINT",
        "guideLayer": "QUEST_GUIDE_LAYER_SCENE"
      },
      "finishExec": [],
      "failExec": [],
      "beginExec": []
    },
    {
      "mainId": 3002,
      "subId": 300204,
      "order": 4,
      "descTextMapHash": 232344044,
      "acceptCond": [
        {
          "type": "QUEST_COND_UNKNOWN",
          "param": [
            0,
            0
          ]
        }
      ],
      "finishCond": [],
      "failCond": [],
      "guide": {
        "type": "QUEST_GUIDE_LOCATION",
        "param": [
          "Q300204_N1050"
        ],
        "guideScene": 3,
        "guideStyle": "QUEST_GUIDE_STYLE_POINT",
        "guideLayer": "QUEST_GUIDE_LAYER_SCENE"
      },
      "finishExec": [],
      "failExec": [],
      "beginExec": []
    },
    {
      "mainId": 3002,
      "subId": 300205,
      "order": 5,
      "descTextMapHash": 422560084,
      "acceptCond": [
        {
          "type": "QUEST_COND_UNKNOWN",
          "param": [
            0,
            0
          ]
        }
      ],
      "finishCond": [],
      "failCond": [],
      "guide": {
        "type": "QUEST_GUIDE_LOCATION",
        "autoGuide": "QUEST_GUIDE_AUTO_ENABLE",
        "param": [
          "Q300205_guide",
          "30"
        ],
        "guideScene": 3,
        "guideLayer": "QUEST_GUIDE_LAYER_SCENE"
      },
      "finishExec": [],
      "failExec": [],
      "beginExec": []
    },
    {
      "mainId": 3002,
      "subId": 300206,
      "order": 6,
      "descTextMapHash": 152990708,
      "acceptCond": [
        {
          "type": "QUEST_COND_UNKNOWN",
          "param": [
            0,
            0
          ]
        }
      ],
      "finishCond": [],
      "failCond": [],
      "guide": {
        "type": "QUEST_GUIDE_LOCATION",
        "autoGuide": "QUEST_GUIDE_AUTO_ENABLE",
        "param": [
          "Q300206_N1050"
        ],
        "guideScene": 3,
        "guideStyle": "QUEST_GUIDE_STYLE_POINT",
        "guideLayer": "QUEST_GUIDE_LAYER_SCENE"
      },
      "finishExec": [],
      "failExec": [],
      "beginExec": []
    },
    {
      "mainId": 3002,
      "subId": 300207,
      "order": 7,
      "descTextMapHash": 225008492,
      "acceptCond": [
        {
          "type": "QUEST_COND_UNKNOWN",
          "param": [
            0,
            0
          ]
        }
      ],
      "finishCond": [],
      "failCond": [],
      "guide": {
        "type": "QUEST_GUIDE_NPC",
        "autoGuide": "QUEST_GUIDE_AUTO_ENABLE",
        "param": [
          "4301"
        ],
        "guideScene": 3,
        "guideStyle": "QUEST_GUIDE_STYLE_TARGET",
        "guideLayer": "QUEST_GUIDE_LAYER_SCENE"
      },
      "finishExec": [],
      "failExec": [],
      "beginExec": []
    },
    {
      "mainId": 3002,
      "subId": 300208,
      "order": 8,
      "descTextMapHash": 2107799316,
      "acceptCond": [
        {
          "type": "QUEST_COND_UNKNOWN",
          "param": [
            0,
            0
          ]
        }
      ],
      "finishCond": [],
      "failCond": [],
      "guide": {
        "type": "QUEST_GUIDE_LOCATION",
        "autoGuide": "QUEST_GUIDE_AUTO_ENABLE",
        "param": [
          "Q300208_guide"
        ],
        "guideScene": 3,
        "guideStyle": "QUEST_GUIDE_STYLE_POINT",
        "guideLayer": "QUEST_GUIDE_LAYER_SCENE"
      },
      "finishExec": [],
      "failExec": [],
      "beginExec": []
    },
    {
      "mainId": 3002,
      "subId": 300209,
      "order": 10,
      "descTextMapHash": 3755337004,
      "acceptCond": [
        {
          "type": "QUEST_COND_UNKNOWN",
          "param": [
            0,
            0
          ]
        }
      ],
      "finishCond": [],
      "failCond": [],
      "guide": {
        "type": "QUEST_GUIDE_LOCATION",
        "autoGuide": "QUEST_GUIDE_AUTO_ENABLE",
        "param": [
          "Q300209_guide",
          "30"
        ],
        "guideScene": 3,
        "guideLayer": "QUEST_GUIDE_LAYER_SCENE"
      },
      "finishExec": [],
      "failExec": [],
      "beginExec": []
    },
    {
      "mainId": 3002,
      "subId": 300210,
      "order": 11,
      "descTextMapHash": 1620799588,
      "acceptCond": [
        {
          "type": "QUEST_COND_UNKNOWN",
          "param": [
            0,
            0
          ]
        }
      ],
      "finishCond": [],
      "failCond": [],
      "guide": {
        "type": "QUEST_GUIDE_NPC",
        "autoGuide": "QUEST_GUIDE_AUTO_ENABLE",
        "param": [
          "1050"
        ],
        "guideScene": 3,
        "guideStyle": "QUEST_GUIDE_STYLE_POINT",
        "guideLayer": "QUEST_GUIDE_LAYER_SCENE"
      },
      "finishExec": [],
      "failExec": [],
      "beginExec": []
    },
    {
      "mainId": 3002,
      "subId": 300211,
      "order": 12,
      "descTextMapHash": 3471624380,
      "acceptCond": [
        {
          "type": "QUEST_COND_UNKNOWN",
          "param": [
            0,
            0
          ]
        }
      ],
      "finishCond": [],
      "failCond": [],
      "guide": {
        "type": "QUEST_GUIDE_LOCATION",
        "autoGuide": "QUEST_GUIDE_AUTO_ENABLE",
        "param": [
          "Q300211_guide"
        ],
        "guideScene": 3,
        "guideStyle": "QUEST_GUIDE_STYLE_POINT",
        "guideLayer": "QUEST_GUIDE_LAYER_SCENE"
      },
      "finishExec": [],
      "failExec": [],
      "beginExec": []
    },
    {
      "mainId": 3002,
      "subId": 300212,
      "order": 13,
      "descTextMapHash": 2057431948,
      "acceptCond": [
        {
          "type": "QUEST_COND_UNKNOWN",
          "param": [
            0,
            0
          ]
        }
      ],
      "finishCond": [],
      "failCond": [],
      "guide": {
        "type": "QUEST_GUIDE_LOCATION",
        "autoGuide": "QUEST_GUIDE_AUTO_ENABLE",
        "param": [
          "Q300212_guide"
        ],
        "guideScene": 3,
        "guideStyle": "QUEST_GUIDE_STYLE_POINT",
        "guideLayer": "QUEST_GUIDE_LAYER_SCENE"
      },
      "finishExec": [],
      "failExec": [],
      "beginExec": []
    },
    {
      "mainId": 3002,
      "subId": 300213,
      "order": 9,
      "showType": "QUEST_HIDDEN",
      "descTextMapHash": 1060806396,
      "acceptCond": [
        {
          "type": "QUEST_COND_UNKNOWN",
          "param": [
            0,
            0
          ]
        }
      ],
      "finishCond": [],
      "failCond": [],
      "guide": {
        "guideScene": 3
      },
      "finishExec": [],
      "failExec": [],
      "beginExec": []
    }
  ],
  "talks": [
    {
      "id": 300201,
      "beginWay": "TALK_BEGIN_MANUAL",
      "activeMode": "PLAY_MODE_SINGLE",
      "beginCond": [
        {
          "type": "QUEST_COND_STATE_EQUAL",
          "param": [
            "300201",
            "2"
          ],
          "param_str": ""
        }
      ],
      "priority": 5,
      "initDialog": 30020101,
      "npcId": [
        1050
      ],
      "performCfg": "QuestDialogue/AQ/Sumeru1_3002/Q300201",
      "heroTalk": "TALK_HERO_MAIN",
      "questId": 3002,
      "prePerformCfg": "",
      "enableCameraDisplacement": true,
      "lockGameTime": true
    },
    {
      "id": 300202,
      "beginWay": "TALK_BEGIN_MANUAL",
      "activeMode": "PLAY_MODE_SINGLE",
      "beginCond": [
        {
          "type": "QUEST_COND_STATE_EQUAL",
          "param": [
            "300203",
            "2"
          ],
          "param_str": ""
        }
      ],
      "priority": 5,
      "initDialog": 30020201,
      "npcId": [
        1050
      ],
      "performCfg": "QuestDialogue/AQ/Sumeru1_3002/Q300202",
      "heroTalk": "TALK_HERO_MAIN",
      "questId": 3002,
      "prePerformCfg": "",
      "enableCameraDisplacement": true,
      "lockGameTime": true
    },
    {
      "id": 300203,
      "beginWay": "TALK_BEGIN_MANUAL",
      "activeMode": "PLAY_MODE_SINGLE",
      "beginCond": [
        {
          "type": "QUEST_COND_STATE_EQUAL",
          "param": [
            "300204",
            "2"
          ],
          "param_str": ""
        }
      ],
      "priority": 5,
      "initDialog": 30020301,
      "npcId": [
        1050
      ],
      "performCfg": "QuestDialogue/AQ/Sumeru1_3002/Q300203",
      "heroTalk": "TALK_HERO_MAIN",
      "questId": 3002,
      "prePerformCfg": "",
      "enableCameraDisplacement": true,
      "lockGameTime": true
    },
    {
      "id": 300204,
      "beginWay": "TALK_BEGIN_MANUAL",
      "activeMode": "PLAY_MODE_SINGLE",
      "beginCond": [
        {
          "type": "QUEST_COND_STATE_EQUAL",
          "param": [
            "300206",
            "2"
          ],
          "param_str": ""
        }
      ],
      "priority": 5,
      "initDialog": 30020401,
      "npcId": [
        1050
      ],
      "performCfg": "QuestDialogue/AQ/Sumeru1_3002/Q300204",
      "heroTalk": "TALK_HERO_MAIN",
      "questId": 3002,
      "prePerformCfg": ""
    },
    {
      "id": 300205,
      "beginWay": "TALK_BEGIN_MANUAL",
      "activeMode": "PLAY_MODE_SINGLE",
      "beginCond": [
        {
          "type": "QUEST_COND_STATE_EQUAL",
          "param": [
            "300207",
            "2"
          ],
          "param_str": ""
        }
      ],
      "priority": 5,
      "nextTalks": [
        300206,
        300207
      ],
      "initDialog": 30020501,
      "npcId": [
        4301
      ],
      "performCfg": "QuestDialogue/AQ/Sumeru1_3002/Q300205",
      "heroTalk": "TALK_HERO_MAIN",
      "questId": 3002,
      "prePerformCfg": ""
    },
    {
      "id": 300206,
      "activeMode": "PLAY_MODE_SINGLE",
      "beginCondComb": "LOGIC_AND",
      "beginCond": [
        {
          "type": "QUEST_COND_STATE_EQUAL",
          "param": [
            "300207",
            "2"
          ],
          "param_str": ""
        },
        {
          "type": "QUEST_COND_QUEST_GLOBAL_VAR_EQUAL",
          "param": [
            "300209",
            "0"
          ],
          "param_str": ""
        }
      ],
      "priority": 5,
      "initDialog": 30020601,
      "npcId": [
        1050
      ],
      "performCfg": "QuestDialogue/AQ/Sumeru1_3002/Q300206",
      "heroTalk": "TALK_HERO_MAIN",
      "questId": 3002,
      "prePerformCfg": ""
    },
    {
      "id": 300207,
      "activeMode": "PLAY_MODE_SINGLE",
      "beginCondComb": "LOGIC_AND",
      "beginCond": [
        {
          "type": "QUEST_COND_STATE_EQUAL",
          "param": [
            "300207",
            "2"
          ],
          "param_str": ""
        },
        {
          "type": "QUEST_COND_QUEST_GLOBAL_VAR_EQUAL",
          "param": [
            "300209",
            "1"
          ],
          "param_str": ""
        }
      ],
      "priority": 5,
      "initDialog": 30020701,
      "npcId": [
        1050
      ],
      "performCfg": "QuestDialogue/AQ/Sumeru1_3002/Q300207",
      "heroTalk": "TALK_HERO_MAIN",
      "questId": 3002,
      "prePerformCfg": ""
    },
    {
      "id": 300208,
      "beginWay": "TALK_BEGIN_MANUAL",
      "activeMode": "PLAY_MODE_SINGLE",
      "beginCondComb": "LOGIC_AND",
      "beginCond": [
        {
          "type": "QUEST_COND_STATE_EQUAL",
          "param": [
            "300208",
            "2"
          ],
          "param_str": ""
        },
        {
          "type": "QUEST_COND_QUEST_GLOBAL_VAR_EQUAL",
          "param": [
            "300209",
            "0"
          ],
          "param_str": ""
        }
      ],
      "priority": 5,
      "initDialog": 30020801,
      "npcId": [
        1050
      ],
      "performCfg": "QuestDialogue/AQ/Sumeru1_3002/Q300208",
      "heroTalk": "TALK_HERO_MAIN",
      "questId": 3002,
      "prePerformCfg": ""
    },
    {
      "id": 300209,
      "beginWay": "TALK_BEGIN_MANUAL",
      "activeMode": "PLAY_MODE_SINGLE",
      "beginCondComb": "LOGIC_AND",
      "beginCond": [
        {
          "type": "QUEST_COND_STATE_EQUAL",
          "param": [
            "300208",
            "2"
          ],
          "param_str": ""
        },
        {
          "type": "QUEST_COND_QUEST_GLOBAL_VAR_EQUAL",
          "param": [
            "300209",
            "1"
          ],
          "param_str": ""
        }
      ],
      "priority": 5,
      "initDialog": 30020901,
      "npcId": [
        1050
      ],
      "performCfg": "QuestDialogue/AQ/Sumeru1_3002/Q300209",
      "heroTalk": "TALK_HERO_MAIN",
      "questId": 3002,
      "prePerformCfg": ""
    },
    {
      "id": 300210,
      "beginWay": "TALK_BEGIN_MANUAL",
      "activeMode": "PLAY_MODE_SINGLE",
      "beginCond": [
        {
          "type": "QUEST_COND_STATE_EQUAL",
          "param": [
            "300210",
            "2"
          ],
          "param_str": ""
        }
      ],
      "priority": 5,
      "initDialog": 30021001,
      "npcId": [
        1050
      ],
      "performCfg": "QuestDialogue/AQ/Sumeru1_3002/Q300210",
      "heroTalk": "TALK_HERO_MAIN",
      "questId": 3002,
      "prePerformCfg": ""
    },
    {
      "id": 300211,
      "beginWay": "TALK_BEGIN_MANUAL",
      "activeMode": "PLAY_MODE_SINGLE",
      "beginCond": [
        {
          "type": "QUEST_COND_STATE_EQUAL",
          "param": [
            "300211",
            "2"
          ],
          "param_str": ""
        }
      ],
      "priority": 5,
      "initDialog": 30021101,
      "npcId": [
        4301
      ],
      "performCfg": "QuestDialogue/AQ/Sumeru1_3002/Q300211",
      "heroTalk": "TALK_HERO_MAIN",
      "questId": 3002,
      "prePerformCfg": ""
    },
    {
      "id": 300251,
      "beginWay": "TALK_BEGIN_MANUAL",
      "activeMode": "PLAY_MODE_SINGLE",
      "beginCond": [
        {
          "type": "QUEST_COND_STATE_EQUAL",
          "param": [
            "300212",
            "2"
          ],
          "param_str": ""
        }
      ],
      "priority": 5,
      "initDialog": 30025101,
      "npcId": [
        1050
      ],
      "performCfg": "QuestDialogue/AQ/Sumeru1_3002/Q300251",
      "heroTalk": "TALK_HERO_MAIN",
      "questId": 3002,
      "prePerformCfg": ""
    },
    {
      "id": 300252,
      "beginWay": "TALK_BEGIN_MANUAL",
      "activeMode": "PLAY_MODE_SINGLE",
      "beginCondComb": "LOGIC_A_AND_ETCOR",
      "beginCond": [
        {
          "type": "QUEST_COND_STATE_EQUAL",
          "param": [
            "300201",
            "3"
          ],
          "param_str": ""
        },
        {
          "type": "QUEST_COND_QUEST_NOT_RECEIVE",
          "param": [
            "300212",
            "1"
          ],
          "param_str": ""
        },
        {
          "type": "QUEST_COND_STATE_EQUAL",
          "param": [
            "300212",
            "1"
          ],
          "param_str": ""
        },
        {
          "type": "QUEST_COND_STATE_EQUAL",
          "param": [
            "300212",
            "2"
          ],
          "param_str": ""
        }
      ],
      "priority": 5,
      "initDialog": 30025201,
      "npcId": [
        1051
      ],
      "performCfg": "QuestDialogue/AQ/Sumeru1_3002/Q300252",
      "heroTalk": "TALK_HERO_MAIN",
      "questId": 3002,
      "prePerformCfg": "",
      "lowPriority": true
    }
  ]
}