{
  "id": 3004,
  "series": 1301,
  "titleTextMapHash": 1639422863,
  "descTextMapHash": 52690310,
  "luaPath": "Actor/Quest/AQ3004",
  "suggestTrackMainQuestList": [
    3005
  ],
  "rewardIdList": [
    103004
  ],
  "chapterId": 1301,
  "subQuests": [
    {
      "mainId": 3004,
      "subId": 300401,
      "order": 1,
      "descTextMapHash": 1132605044,
      "acceptCond": [
        {
          "type": "QUEST_COND_UNKNOWN",
          "param": [
            0,
            0
          ]
        }
      ],
      "finishCond": [],
      "failCond": [],
      "guide": {
        "type": "QUEST_GUIDE_LOCATION",
        "autoGuide": "QUEST_GUIDE_AUTO_ENABLE",
        "param": [
          "Q300401_guide"
        ],
        "guideScene": 3,
        "guideStyle": "QUEST_GUIDE_STYLE_POINT",
        "guideLayer": "QUEST_GUIDE_LAYER_SCENE"
      },
      "finishExec": [],
      "failExec": [],
      "beginExec": []
    },
    {
      "mainId": 3004,
      "subId": 300402,
      "order": 3,
      "descTextMapHash": 3767972084,
      "acceptCond": [
        {
          "type": "QUEST_COND_UNKNOWN",
          "param": [
            0,
            0
          ]
        }
      ],
      "finishCond": [],
      "failCond": [],
      "guide": {
        "type": "QUEST_GUIDE_LOCATION",
        "autoGuide": "QUEST_GUIDE_AUTO_ENABLE",
        "param": [
          "Q300402_guide"
        ],
        "guideScene": 3,
        "guideStyle": "QUEST_GUIDE_STYLE_POINT",
        "guideLayer": "QUEST_GUIDE_LAYER_SCENE"
      },
      "finishExec": [],
      "failExec": [],
      "beginExec": []
    },
    {
      "mainId": 3004,
      "subId": 300403,
      "order": 4,
      "descTextMapHash": 2917540588,
      "acceptCond": [
        {
          "type": "QUEST_COND_UNKNOWN",
          "param": [
            0,
            0
          ]
        }
      ],
      "finishCond": [],
      "failCond": [],
      "guide": {
        "type": "QUEST_GUIDE_LOCATION",
        "autoGuide": "QUEST_GUIDE_AUTO_ENABLE",
        "param": [
          "Q300403_guide"
        ],
        "guideScene": 3,
        "guideStyle": "QUEST_GUIDE_STYLE_POINT",
        "guideLayer": "QUEST_GUIDE_LAYER_SCENE"
      },
      "finishExec": [],
      "failExec": [],
      "beginExec": []
    },
    {
      "mainId": 3004,
      "subId": 300404,
      "order": 5,
      "descTextMapHash": 4249003332,
      "acceptCond": [
        {
          "type": "QUEST_COND_UNKNOWN",
          "param": [
            0,
            0
          ]
        }
      ],
      "finishCond": [],
      "failCond": [],
      "guide": {
        "type": "QUEST_GUIDE_LOCATION",
        "autoGuide": "QUEST_GUIDE_AUTO_ENABLE",
        "param": [
          "Q300404_N4314",
          "15"
        ],
        "guideScene": 3,
        "guideStyle": "QUEST_GUIDE_STYLE_TARGET",
        "guideLayer": "QUEST_GUIDE_LAYER_SCENE"
      },
      "finishExec": [],
      "failExec": [],
      "beginExec": []
    },
    {
      "mainId": 3004,
      "subId": 300405,
      "order": 6,
      "descTextMapHash": 4124681092,
      "acceptCond": [
        {
          "type": "QUEST_COND_UNKNOWN",
          "param": [
            0,
            0
          ]
        }
      ],
      "finishCond": [],
      "failCond": [],
      "guide": {
        "type": "QUEST_GUIDE_LOCATION",
        "autoGuide": "QUEST_GUIDE_AUTO_ENABLE",
        "param": [
          "Q300405_guide"
        ],
        "guideScene": 3,
        "guideStyle": "QUEST_GUIDE_STYLE_POINT",
        "guideLayer": "QUEST_GUIDE_LAYER_SCENE"
      },
      "finishExec": [],
      "failExec": [],
      "beginExec": []
    },
    {
      "mainId": 3004,
      "subId": 300406,
      "order": 7,
      "descTextMapHash": 1699696756,
      "acceptCond": [
        {
          "type": "QUEST_COND_UNKNOWN",
          "param": [
            0,
            0
          ]
        }
      ],
      "finishCond": [],
      "failCond": [],
      "guide": {
        "type": "QUEST_GUIDE_NPC",
        "autoGuide": "QUEST_GUIDE_AUTO_ENABLE",
        "param": [
          "12565"
        ],
        "guideScene": 3,
        "guideStyle": "QUEST_GUIDE_STYLE_TARGET",
        "guideLayer": "QUEST_GUIDE_LAYER_SCENE"
      },
      "finishExec": [],
      "failExec": [],
      "beginExec": []
    },
    {
      "mainId": 3004,
      "subId": 300407,
      "order": 8,
      "descTextMapHash": 3474459604,
      "acceptCond": [
        {
          "type": "QUEST_COND_UNKNOWN",
          "param": [
            0,
            0
          ]
        }
      ],
      "finishCond": [],
      "failCond": [],
      "guide": {
        "type": "QUEST_GUIDE_NPC",
        "autoGuide": "QUEST_GUIDE_AUTO_ENABLE",
        "param": [
          "12555"
        ],
        "guideScene": 3,
        "guideStyle": "QUEST_GUIDE_STYLE_TARGET",
        "guideLayer": "QUEST_GUIDE_LAYER_SCENE"
      },
      "finishExec": [],
      "failExec": [],
      "beginExec": []
    },
    {
      "mainId": 3004,
      "subId": 300408,
      "order": 9,
      "descTextMapHash": 2416593228,
      "acceptCond": [
        {
          "type": "QUEST_COND_UNKNOWN",
          "param": [
            0,
            0
          ]
        }
      ],
      "finishCond": [],
      "failCond": [],
      "guide": {
        "type": "QUEST_GUIDE_LOCATION",
        "autoGuide": "QUEST_GUIDE_AUTO_ENABLE",
        "param": [
          "Q300408_guide"
        ],
        "guideScene": 1072,
        "guideStyle": "QUEST_GUIDE_STYLE_POINT",
        "guideLayer": "QUEST_GUIDE_LAYER_SCENE"
      },
      "finishExec": [],
      "failExec": [],
      "beginExec": []
    },
    {
      "mainId": 3004,
      "subId": 300409,
      "order": 10,
      "descTextMapHash": 2833611100,
      "acceptCond": [
        {
          "type": "QUEST_COND_UNKNOWN",
          "param": [
            0,
            0
          ]
        }
      ],
      "finishCond": [],
      "failCond": [],
      "guide": {
        "type": "QUEST_GUIDE_LOCATION",
        "autoGuide": "QUEST_GUIDE_AUTO_ENABLE",
        "param": [
          "Q300409_guide"
        ],
        "guideScene": 1072,
        "guideStyle": "QUEST_GUIDE_STYLE_POINT",
        "guideLayer": "QUEST_GUIDE_LAYER_SCENE"
      },
      "finishExec": [],
      "failExec": [],
      "beginExec": []
    },
    {
      "mainId": 3004,
      "subId": 300410,
      "order": 12,
      "descTextMapHash": 3648670060,
      "acceptCond": [
        {
          "type": "QUEST_COND_UNKNOWN",
          "param": [
            0,
            0
          ]
        }
      ],
      "finishCond": [],
      "failCond": [],
      "guide": {
        "type": "QUEST_GUIDE_LOCATION",
        "autoGuide": "QUEST_GUIDE_AUTO_ENABLE",
        "param": [
          "Q300410_guide"
        ],
        "guideScene": 3,
        "guideStyle": "QUEST_GUIDE_STYLE_POINT",
        "guideLayer": "QUEST_GUIDE_LAYER_SCENE"
      },
      "finishExec": [],
      "failExec": [],
      "beginExec": []
    },
    {
      "mainId": 3004,
      "subId": 300411,
      "order": 13,
      "descTextMapHash": 1502314636,
      "acceptCond": [
        {
          "type": "QUEST_COND_UNKNOWN",
          "param": [
            0,
            0
          ]
        }
      ],
      "finishCond": [],
      "failCond": [],
      "guide": {
        "type": "QUEST_GUIDE_LOCATION",
        "autoGuide": "QUEST_GUIDE_AUTO_ENABLE",
        "param": [
          "Q300411_guide"
        ],
        "guideScene": 3,
        "guideStyle": "QUEST_GUIDE_STYLE_POINT",
        "guideLayer": "QUEST_GUIDE_LAYER_SCENE"
      },
      "finishExec": [],
      "failExec": [],
      "beginExec": []
    },
    {
      "mainId": 3004,
      "subId": 300412,
      "order": 14,
      "descTextMapHash": 2163462636,
      "acceptCond": [
        {
          "type": "QUEST_COND_UNKNOWN",
          "param": [
            0,
            0
          ]
        }
      ],
      "finishCond": [],
      "failCond": [],
      "guide": {
        "type": "QUEST_GUIDE_NPC",
        "autoGuide": "QUEST_GUIDE_AUTO_ENABLE",
        "param": [
          "12555"
        ],
        "guideScene": 3,
        "guideStyle": "QUEST_GUIDE_STYLE_TARGET",
        "guideLayer": "QUEST_GUIDE_LAYER_SCENE"
      },
      "finishExec": [],
      "failExec": [],
      "beginExec": []
    },
    {
      "mainId": 3004,
      "subId": 300413,
      "order": 15,
      "descTextMapHash": 1543425252,
      "acceptCond": [
        {
          "type": "QUEST_COND_UNKNOWN",
          "param": [
            0,
            0
          ]
        }
      ],
      "finishCond": [],
      "failCond": [],
      "guide": {
        "type": "QUEST_GUIDE_NPC",
        "autoGuide": "QUEST_GUIDE_AUTO_ENABLE",
        "param": [
          "1052"
        ],
        "guideScene": 3,
        "guideStyle": "QUEST_GUIDE_STYLE_TARGET",
        "guideLayer": "QUEST_GUIDE_LAYER_SCENE"
      },
      "finishExec": [],
      "failExec": [],
      "beginExec": []
    },
    {
      "mainId": 3004,
      "subId": 300414,
      "order": 16,
      "descTextMapHash": 3346637068,
      "acceptCond": [
        {
          "type": "QUEST_COND_UNKNOWN",
          "param": [
            0,
            0
          ]
        }
      ],
      "finishCond": [],
      "failCond": [],
      "guide": {
        "type": "QUEST_GUIDE_NPC",
        "autoGuide": "QUEST_GUIDE_AUTO_ENABLE",
        "param": [
          "4315"
        ],
        "guideScene": 3,
        "guideStyle": "QUEST_GUIDE_STYLE_TARGET",
        "guideLayer": "QUEST_GUIDE_LAYER_SCENE"
      },
      "finishExec": [],
      "failExec": [],
      "beginExec": []
    },
    {
      "mainId": 3004,
      "subId": 300415,
      "order": 17,
      "descTextMapHash": 3213804844,
      "acceptCond": [
        {
          "type": "QUEST_COND_UNKNOWN",
          "param": [
            0,
            0
          ]
        }
      ],
      "finishCond": [],
      "failCond": [],
      "guide": {
        "type": "QUEST_GUIDE_NPC",
        "autoGuide": "QUEST_GUIDE_AUTO_ENABLE",
        "param": [
          "4316"
        ],
        "guideScene": 3,
        "guideStyle": "QUEST_GUIDE_STYLE_TARGET",
        "guideLayer": "QUEST_GUIDE_LAYER_SCENE"
      },
      "finishExec": [],
      "failExec": [],
      "beginExec": []
    },
    {
      "mainId": 3004,
      "subId": 300416,
      "order": 18,
      "descTextMapHash": 1966733716,
      "acceptCond": [
        {
          "type": "QUEST_COND_UNKNOWN",
          "param": [
            0,
            0
          ]
        }
      ],
      "finishCond": [],
      "failCond": [],
      "guide": {
        "type": "QUEST_GUIDE_NPC",
        "autoGuide": "QUEST_GUIDE_AUTO_ENABLE",
        "param": [
          "4059"
        ],
        "guideScene": 3,
        "guideStyle": "QUEST_GUIDE_STYLE_TARGET",
        "guideLayer": "QUEST_GUIDE_LAYER_SCENE"
      },
      "finishExec": [],
      "failExec": [],
      "beginExec": []
    },
    {
      "mainId": 3004,
      "subId": 300417,
      "order": 19,
      "showType": "QUEST_HIDDEN",
      "descTextMapHash": 380019092,
      "acceptCond": [
        {
          "type": "QUEST_COND_UNKNOWN",
          "param": [
            0,
            0
          ]
        }
      ],
      "finishCond": [],
      "failCond": [],
      "guide": {
        "guideScene": 3
      },
      "finishExec": [],
      "failExec": [],
      "beginExec": []
    },
    {
      "mainId": 3004,
      "subId": 300418,
      "order": 20,
      "showType": "QUEST_HIDDEN",
      "descTextMapHash": 3706205044,
      "acceptCond": [
        {
          "type": "QUEST_COND_UNKNOWN",
          "param": [
            0,
            0
          ]
        }
      ],
      "finishCond": [],
      "failCond": [],
      "guide": {
        "guideScene": 3
      },
      "finishExec": [],
      "failExec": [],
      "beginExec": []
    },
    {
      "mainId": 3004,
      "subId": 300419,
      "order": 21,
      "descTextMapHash": 1587009484,
      "acceptCond": [
        {
          "type": "QUEST_COND_UNKNOWN",
          "param": [
            0,
            0
          ]
        }
      ],
      "finishCond": [],
      "failCond": [],
      "guide": {
        "type": "QUEST_GUIDE_NPC",
        "autoGuide": "QUEST_GUIDE_AUTO_ENABLE",
        "param": [
          "12913"
        ],
        "guideScene": 3,
        "guideStyle": "QUEST_GUIDE_STYLE_TARGET",
        "guideLayer": "QUEST_GUIDE_LAYER_SCENE"
      },
      "finishExec": [],
      "failExec": [],
      "beginExec": []
    },
    {
      "mainId": 3004,
      "subId": 300420,
      "order": 22,
      "descTextMapHash": 2322062252,
      "acceptCond": [
        {
          "type": "QUEST_COND_UNKNOWN",
          "param": [
            0,
            0
          ]
        }
      ],
      "finishCond": [],
      "failCond": [],
      "guide": {
        "type": "QUEST_GUIDE_LOCATION",
        "autoGuide": "QUEST_GUIDE_AUTO_ENABLE",
        "param": [
          "Q300420_guide"
        ],
        "guideScene": 3,
        "guideStyle": "QUEST_GUIDE_STYLE_POINT",
        "guideLayer": "QUEST_GUIDE_LAYER_SCENE"
      },
      "finishExec": [],
      "failExec": [],
      "beginExec": []
    },
    {
      "mainId": 3004,
      "subId": 300421,
      "order": 11,
      "showType": "QUEST_HIDDEN",
      "descTextMapHash": 2970181860,
      "acceptCond": [
        {
          "type": "QUEST_COND_UNKNOWN",
          "param": [
            0,
            0
          ]
        }
      ],
      "finishCond": [],
      "failCond": [],
      "guide": {
        "guideScene": 1072,
        "guideLayer": "QUEST_GUIDE_LAYER_SCENE"
      },
      "finishExec": [],
      "failExec": [],
      "beginExec": []
    },
    {
      "mainId": 3004,
      "subId": 300422,
      "order": 2,
      "showType": "QUEST_HIDDEN",
      "descTextMapHash": 149904428,
      "acceptCond": [
        {
          "type": "QUEST_COND_UNKNOWN",
          "param": [
            0,
            0
          ]
        }
      ],
      "finishCond": [],
      "failCond": [],
      "guide": {
        "guideScene": 3
      },
      "finishExec": [],
      "failExec": [],
      "beginExec": []
    }
  ],
  "talks": [
    {
      "id": 300401,
      "beginWay": "TALK_BEGIN_MANUAL",
      "activeMode": "PLAY_MODE_SINGLE",
      "beginCond": [
        {
          "type": "QUEST_COND_STATE_EQUAL",
          "param": [
            "300401",
            "2"
          ],
          "param_str": ""
        }
      ],
      "priority": 5,
      "nextTalks": [
        300419,
        300420,
        300421
      ],
      "initDialog": 30040101,
      "npcId": [
        4313
      ],
      "performCfg": "QuestDialogue/AQ/Sumeru1_3004/Q300401",
      "heroTalk": "TALK_HERO_MAIN",
      "questId": 3004,
      "prePerformCfg": ""
    },
    {
      "id": 300402,
      "beginWay": "TALK_BEGIN_MANUAL",
      "activeMode": "PLAY_MODE_SINGLE",
      "beginCond": [
        {
          "type": "QUEST_COND_STATE_EQUAL",
          "param": [
            "300402",
            "2"
          ],
          "param_str": ""
        }
      ],
      "priority": 5,
      "initDialog": 30040201,
      "npcId": [
        12562
      ],
      "performCfg": "QuestDialogue/AQ/Sumeru1_3004/Q300402",
      "heroTalk": "TALK_HERO_MAIN",
      "questId": 3004,
      "prePerformCfg": ""
    },
    {
      "id": 300403,
      "beginWay": "TALK_BEGIN_MANUAL",
      "activeMode": "PLAY_MODE_SINGLE",
      "beginCond": [
        {
          "type": "QUEST_COND_STATE_EQUAL",
          "param": [
            "300403",
            "2"
          ],
          "param_str": ""
        }
      ],
      "priority": 5,
      "initDialog": 30040301,
      "npcId": [
        4019
      ],
      "performCfg": "QuestDialogue/AQ/Sumeru1_3004/Q300403",
      "heroTalk": "TALK_HERO_MAIN",
      "questId": 3004,
      "prePerformCfg": ""
    },
    {
      "id": 300404,
      "beginWay": "TALK_BEGIN_MANUAL",
      "activeMode": "PLAY_MODE_SINGLE",
      "beginCond": [
        {
          "type": "QUEST_COND_STATE_EQUAL",
          "param": [
            "300404",
            "2"
          ],
          "param_str": ""
        }
      ],
      "priority": 5,
      "initDialog": 30040401,
      "npcId": [
        4314
      ],
      "performCfg": "QuestDialogue/AQ/Sumeru1_3004/Q300404",
      "heroTalk": "TALK_HERO_MAIN",
      "questId": 3004,
      "prePerformCfg": ""
    },
    {
      "id": 300405,
      "beginWay": "TALK_BEGIN_MANUAL",
      "activeMode": "PLAY_MODE_SINGLE",
      "beginCond": [
        {
          "type": "QUEST_COND_STATE_EQUAL",
          "param": [
            "300406",
            "2"
          ],
          "param_str": ""
        }
      ],
      "priority": 5,
      "initDialog": 30040501,
      "npcId": [
        12565
      ],
      "performCfg": "QuestDialogue/AQ/Sumeru1_3004/Q300405",
      "heroTalk": "TALK_HERO_MAIN",
      "questId": 3004,
      "prePerformCfg": ""
    },
    {
      "id": 300406,
      "beginWay": "TALK_BEGIN_MANUAL",
      "activeMode": "PLAY_MODE_SINGLE",
      "beginCond": [
        {
          "type": "QUEST_COND_STATE_EQUAL",
          "param": [
            "300407",
            "2"
          ],
          "param_str": ""
        }
      ],
      "priority": 5,
      "initDialog": 30040601,
      "npcId": [
        12555
      ],
      "performCfg": "QuestDialogue/AQ/Sumeru1_3004/Q300406",
      "heroTalk": "TALK_HERO_MAIN",
      "questId": 3004,
      "prePerformCfg": ""
    },
    {
      "id": 300407,
      "beginWay": "TALK_BEGIN_MANUAL",
      "activeMode": "PLAY_MODE_SINGLE",
      "beginCond": [
        {
          "type": "QUEST_COND_STATE_EQUAL",
          "param": [
            "300408",
            "2"
          ],
          "param_str": ""
        }
      ],
      "priority": 5,
      "initDialog": 30040701,
      "npcId": [
        12555
      ],
      "performCfg": "QuestDialogue/AQ/Sumeru1_3004/Q300407",
      "heroTalk": "TALK_HERO_MAIN",
      "questId": 3004,
      "prePerformCfg": ""
    },
    {
      "id": 300408,
      "beginWay": "TALK_BEGIN_MANUAL",
      "activeMode": "PLAY_MODE_SINGLE",
      "beginCond": [
        {
          "type": "QUEST_COND_STATE_EQUAL",
          "param": [
            "300409",
            "2"
          ],
          "param_str": ""
        }
      ],
      "priority": 5,
      "initDialog": 30040801,
      "npcId": [
        12555
      ],
      "performCfg": "QuestDialogue/AQ/Sumeru1_3004/Q300408",
      "heroTalk": "TALK_HERO_MAIN",
      "questId": 3004,
      "prePerformCfg": ""
    },
    {
      "id": 300409,
      "beginWay": "TALK_BEGIN_MANUAL",
      "activeMode": "PLAY_MODE_SINGLE",
      "beginCond": [
        {
          "type": "QUEST_COND_STATE_EQUAL",
          "param": [
            "300410",
            "2"
          ],
          "param_str": ""
        }
      ],
      "priority": 5,
      "initDialog": 30040901,
      "npcId": [
        12555
      ],
      "performCfg": "QuestDialogue/AQ/Sumeru1_3004/Q300409",
      "heroTalk": "TALK_HERO_MAIN",
      "questId": 3004,
      "prePerformCfg": ""
    },
    {
      "id": 300410,
      "beginWay": "TALK_BEGIN_MANUAL",
      "activeMode": "PLAY_MODE_SINGLE",
      "beginCond": [
        {
          "type": "QUEST_COND_STATE_EQUAL",
          "param": [
            "300411",
            "2"
          ],
          "param_str": ""
        }
      ],
      "priority": 5,
      "initDialog": 30041001,
      "npcId": [
        1054
      ],
      "performCfg": "QuestDialogue/AQ/Sumeru1_3004/Q300410",
      "heroTalk": "TALK_HERO_MAIN",
      "questId": 3004,
      "prePerformCfg": ""
    },
    {
      "id": 300411,
      "beginWay": "TALK_BEGIN_MANUAL",
      "activeMode": "PLAY_MODE_SINGLE",
      "beginCond": [
        {
          "type": "QUEST_COND_STATE_EQUAL",
          "param": [
            "300418",
            "2"
          ],
          "param_str": ""
        }
      ],
      "priority": 5,
      "initDialog": 30041101,
      "npcId": [
        12555,
        1054
      ],
      "performCfg": "QuestDialogue/AQ/Sumeru1_3004/Q300411",
      "heroTalk": "TALK_HERO_MAIN",
      "questId": 3004,
      "prePerformCfg": ""
    },
    {
      "id": 300412,
      "beginWay": "TALK_BEGIN_MANUAL",
      "activeMode": "PLAY_MODE_SINGLE",
      "beginCond": [
        {
          "type": "QUEST_COND_STATE_EQUAL",
          "param": [
            "300418",
            "2"
          ],
          "param_str": ""
        }
      ],
      "priority": 5,
      "initDialog": 30041201,
      "npcId": [
        1052
      ],
      "performCfg": "QuestDialogue/AQ/Sumeru1_3004/Q300412",
      "heroTalk": "TALK_HERO_MAIN",
      "questId": 3004,
      "prePerformCfg": ""
    },
    {
      "id": 300413,
      "beginWay": "TALK_BEGIN_MANUAL",
      "activeMode": "PLAY_MODE_SINGLE",
      "beginCond": [
        {
          "type": "QUEST_COND_STATE_EQUAL",
          "param": [
            "300418",
            "2"
          ],
          "param_str": ""
        }
      ],
      "priority": 5,
      "initDialog": 30041301,
      "npcId": [
        4315
      ],
      "performCfg": "QuestDialogue/AQ/Sumeru1_3004/Q300413",
      "heroTalk": "TALK_HERO_MAIN",
      "questId": 3004,
      "prePerformCfg": ""
    },
    {
      "id": 300414,
      "beginWay": "TALK_BEGIN_MANUAL",
      "activeMode": "PLAY_MODE_SINGLE",
      "beginCond": [
        {
          "type": "QUEST_COND_STATE_EQUAL",
          "param": [
            "300418",
            "2"
          ],
          "param_str": ""
        }
      ],
      "priority": 5,
      "initDialog": 30041401,
      "npcId": [
        4316
      ],
      "performCfg": "QuestDialogue/AQ/Sumeru1_3004/Q300414",
      "heroTalk": "TALK_HERO_MAIN",
      "questId": 3004,
      "prePerformCfg": ""
    },
    {
      "id": 300415,
      "beginWay": "TALK_BEGIN_MANUAL",
      "activeMode": "PLAY_MODE_SINGLE",
      "beginCond": [
        {
          "type": "QUEST_COND_STATE_EQUAL",
          "param": [
            "300418",
            "2"
          ],
          "param_str": ""
        }
      ],
      "priority": 5,
      "initDialog": 30041501,
      "npcId": [
        4059
      ],
      "performCfg": "QuestDialogue/AQ/Sumeru1_3004/Q300415",
      "heroTalk": "TALK_HERO_MAIN",
      "questId": 3004,
      "prePerformCfg": ""
    },
    {
      "id": 300416,
      "beginWay": "TALK_BEGIN_MANUAL",
      "activeMode": "PLAY_MODE_SINGLE",
      "beginCond": [
        {
          "type": "QUEST_COND_STATE_EQUAL",
          "param": [
            "300419",
            "2"
          ],
          "param_str": ""
        }
      ],
      "priority": 5,
      "initDialog": 30041601,
      "npcId": [
        12913
      ],
      "performCfg": "QuestDialogue/AQ/Sumeru1_3004/Q300416",
      "heroTalk": "TALK_HERO_MAIN",
      "questId": 3004,
      "prePerformCfg": ""
    },
    {
      "id": 300417,
      "beginWay": "TALK_BEGIN_MANUAL",
      "activeMode": "PLAY_MODE_SINGLE",
      "beginCond": [
        {
          "type": "QUEST_COND_STATE_EQUAL",
          "param": [
            "300420",
            "2"
          ],
          "param_str": ""
        }
      ],
      "priority": 5,
      "initDialog": 30041701,
      "npcId": [
        1052
      ],
      "performCfg": "QuestDialogue/AQ/Sumeru1_3004/Q300417",
      "heroTalk": "TALK_HERO_MAIN",
      "questId": 3004,
      "prePerformCfg": ""
    },
    {
      "id": 300418,
      "beginWay": "TALK_BEGIN_MANUAL",
      "activeMode": "PLAY_MODE_SINGLE",
      "beginCond": [
        {
          "type": "QUEST_COND_STATE_EQUAL",
          "param": [
            "300405",
            "2"
          ],
          "param_str": ""
        }
      ],
      "priority": 5,
      "initDialog": 30041802,
      "npcId": [
        12555
      ],
      "performCfg": "QuestDialogue/AQ/Sumeru1_3004/Q300418",
      "heroTalk": "TALK_HERO_MAIN",
      "questId": 3004,
      "prePerformCfg": ""
    },
    {
      "id": 300419,
      "activeMode": "PLAY_MODE_SINGLE",
      "beginCondComb": "LOGIC_AND",
      "beginCond": [
        {
          "type": "QUEST_COND_STATE_EQUAL",
          "param": [
            "300401",
            "2"
          ],
          "param_str": ""
        },
        {
          "type": "QUEST_COND_QUEST_VAR_EQUAL",
          "param": [
            "1",
            "0",
            "3004"
          ],
          "param_str": ""
        }
      ],
      "priority": 5,
      "nextTalks": [
        300420,
        300421,
        300422
      ],
      "initDialog": 30041901,
      "npcId": [
        4313
      ],
      "performCfg": "QuestDialogue/AQ/Sumeru1_3004/Q300419",
      "heroTalk": "TALK_HERO_MAIN",
      "questId": 3004,
      "prePerformCfg": "",
      "finishExec": [
        {
          "type": "TALK_EXEC_INC_QUEST_VAR",
          "param": [
            "1",
            "1",
            "3004"
          ],
          "param_str": ""
        }
      ]
    },
    {
      "id": 300420,
      "activeMode": "PLAY_MODE_SINGLE",
      "beginCondComb": "LOGIC_AND",
      "beginCond": [
        {
          "type": "QUEST_COND_STATE_EQUAL",
          "param": [
            "300401",
            "2"
          ],
          "param_str": ""
        },
        {
          "type": "QUEST_COND_QUEST_VAR_EQUAL",
          "param": [
            "2",
            "0",
            "3004"
          ],
          "param_str": ""
        }
      ],
      "priority": 5,
      "nextTalks": [
        300419,
        300421,
        300422
      ],
      "initDialog": 30042001,
      "npcId": [
        4313
      ],
      "performCfg": "QuestDialogue/AQ/Sumeru1_3004/Q300420",
      "heroTalk": "TALK_HERO_MAIN",
      "questId": 3004,
      "prePerformCfg": "",
      "finishExec": [
        {
          "type": "TALK_EXEC_SET_QUEST_VAR",
          "param": [
            "2",
            "1",
            "3004"
          ],
          "param_str": ""
        }
      ]
    },
    {
      "id": 300421,
      "activeMode": "PLAY_MODE_SINGLE",
      "beginCondComb": "LOGIC_AND",
      "beginCond": [
        {
          "type": "QUEST_COND_STATE_EQUAL",
          "param": [
            "300401",
            "2"
          ],
          "param_str": ""
        },
        {
          "type": "QUEST_COND_QUEST_VAR_EQUAL",
          "param": [
            "3",
            "0",
            "3004"
          ],
          "param_str": ""
        }
      ],
      "priority": 5,
      "nextTalks": [
        300419,
        300420,
        300422
      ],
      "initDialog": 30042101,
      "npcId": [
        4313
      ],
      "performCfg": "QuestDialogue/AQ/Sumeru1_3004/Q300421",
      "heroTalk": "TALK_HERO_MAIN",
      "questId": 3004,
      "prePerformCfg": "",
      "finishExec": [
        {
          "type": "TALK_EXEC_SET_QUEST_VAR",
          "param": [
            "3",
            "1",
            "3004"
          ],
          "param_str": ""
        }
      ]
    },
    {
      "id": 300422,
      "activeMode": "PLAY_MODE_SINGLE",
      "beginCondComb": "LOGIC_AND",
      "beginCond": [
        {
          "type": "QUEST_COND_STATE_EQUAL",
          "param": [
            "300401",
            "2"
          ],
          "param_str": ""
        },
        {
          "type": "QUEST_COND_QUEST_VAR_EQUAL",
          "param": [
            "1",
            "1",
            "3004"
          ],
          "param_str": ""
        },
        {
          "type": "QUEST_COND_QUEST_VAR_EQUAL",
          "param": [
            "2",
            "1",
            "3004"
          ],
          "param_str": ""
        },
        {
          "type": "QUEST_COND_QUEST_VAR_EQUAL",
          "param": [
            "3",
            "1",
            "3004"
          ],
          "param_str": ""
        }
      ],
      "priority": 5,
      "initDialog": 30042201,
      "npcId": [
        4313
      ],
      "performCfg": "QuestDialogue/AQ/Sumeru1_3004/Q300422",
      "heroTalk": "TALK_HERO_MAIN",
      "questId": 3004,
      "prePerformCfg": ""
    },
    {
      "id": 300451,
      "beginWay": "TALK_BEGIN_MANUAL",
      "activeMode": "PLAY_MODE_SINGLE",
      "beginCondComb": "LOGIC_AND",
      "beginCond": [
        {
          "type": "QUEST_COND_STATE_EQUAL",
          "param": [
            "300402",
            "3"
          ],
          "param_str": ""
        },
        {
          "type": "QUEST_COND_QUEST_NOT_RECEIVE",
          "param": [
            "300420",
            "1"
          ],
          "param_str": ""
        }
      ],
      "priority": 5,
      "initDialog": 30045101,
      "npcId": [
        12562
      ],
      "performCfg": "QuestDialogue/AQ/Sumeru1_3004/Q300451",
      "heroTalk": "TALK_HERO_MAIN",
      "questId": 3004,
      "prePerformCfg": "",
      "lowPriority": true
    },
    {
      "id": 300452,
      "beginWay": "TALK_BEGIN_MANUAL",
      "activeMode": "PLAY_MODE_SINGLE",
      "beginCondComb": "LOGIC_OR",
      "beginCond": [
        {
          "type": "QUEST_COND_STATE_EQUAL",
          "param": [
            "300407",
            "2"
          ],
          "param_str": ""
        },
        {
          "type": "QUEST_COND_STATE_EQUAL",
          "param": [
            "300408",
            "2"
          ],
          "param_str": ""
        },
        {
          "type": "QUEST_COND_STATE_EQUAL",
          "param": [
            "300409",
            "2"
          ],
          "param_str": ""
        }
      ],
      "priority": 5,
      "initDialog": 30045201,
      "npcId": [
        12565,
        12566
      ],
      "performCfg": "QuestDialogue/AQ/Sumeru1_3004/Q300452",
      "heroTalk": "TALK_HERO_MAIN",
      "questId": 3004,
      "prePerformCfg": ""
    },
    {
      "id": 300453,
      "beginWay": "TALK_BEGIN_MANUAL",
      "activeMode": "PLAY_MODE_SINGLE",
      "beginCondComb": "LOGIC_OR",
      "beginCond": [
        {
          "type": "QUEST_COND_STATE_EQUAL",
          "param": [
            "300408",
            "2"
          ],
          "param_str": ""
        },
        {
          "type": "QUEST_COND_STATE_EQUAL",
          "param": [
            "300409",
            "2"
          ],
          "param_str": ""
        }
      ],
      "priority": 5,
      "initDialog": 30045301,
      "npcId": [
        12567,
        4098
      ],
      "performCfg": "QuestDialogue/AQ/Sumeru1_3004/Q300453",
      "heroTalk": "TALK_HERO_MAIN",
      "questId": 3004,
      "prePerformCfg": ""
    },
    {
      "id": 300471,
      "beginWay": "TALK_BEGIN_MANUAL",
      "activeMode": "PLAY_MODE_SINGLE",
      "beginCond": [
        {
          "type": "QUEST_COND_STATE_EQUAL",
          "param": [
            "300401",
            "2"
          ],
          "param_str": ""
        }
      ],
      "priority": 5,
      "initDialog": 30047101,
      "npcId": [
        1051
      ],
      "performCfg": "QuestDialogue/AQ/Sumeru1_3004/Q300471",
      "heroTalk": "TALK_HERO_MAIN",
      "questId": 3004,
      "prePerformCfg": ""
    }
  ]
}