{
  "id": 3026,
  "series": 1305,
  "titleTextMapHash": 4095802087,
  "descTextMapHash": 1780094846,
  "luaPath": "Actor/Quest/AQ3026",
  "rewardIdList": [
    103026
  ],
  "chapterId": 1305,
  "subQuests": [
    {
      "mainId": 3026,
      "subId": 302601,
      "order": 2,
      "showType": "QUEST_HIDDEN",
      "descTextMapHash": 4027024932,
      "acceptCond": [
        {
          "type": "QUEST_COND_UNKNOWN",
          "param": [
            0,
            0
          ]
        }
      ],
      "finishCond": [],
      "failCond": [],
      "guide": {
        "guideScene": 3,
        "guideStyle": "QUEST_GUIDE_STYLE_TARGET",
        "guideLayer": "QUEST_GUIDE_LAYER_SCENE"
      },
      "finishExec": [],
      "failExec": [],
      "beginExec": []
    },
    {
      "mainId": 3026,
      "subId": 302602,
      "order": 1,
      "descTextMapHash": 4230730852,
      "acceptCond": [
        {
          "type": "QUEST_COND_UNKNOWN",
          "param": [
            0,
            0
          ]
        }
      ],
      "finishCond": [],
      "failCond": [],
      "guide": {
        "type": "QUEST_GUIDE_NPC",
        "param": [
          "1051"
        ],
        "guideScene": 3,
        "guideStyle": "QUEST_GUIDE_STYLE_TARGET",
        "guideLayer": "QUEST_GUIDE_LAYER_SCENE"
      },
      "finishExec": [],
      "failExec": [],
      "beginExec": []
    },
    {
      "mainId": 3026,
      "subId": 302603,
      "order": 4,
      "descTextMapHash": 4121029204,
      "acceptCond": [
        {
          "type": "QUEST_COND_UNKNOWN",
          "param": [
            0,
            0
          ]
        }
      ],
      "finishCond": [],
      "failCond": [],
      "guide": {
        "type": "QUEST_GUIDE_NPC",
        "param": [
          "4060"
        ],
        "guideScene": 3,
        "guideStyle": "QUEST_GUIDE_STYLE_TARGET",
        "guideLayer": "QUEST_GUIDE_LAYER_SCENE"
      },
      "finishExec": [],
      "failExec": [],
      "beginExec": []
    },
    {
      "mainId": 3026,
      "subId": 302604,
      "order": 6,
      "descTextMapHash": 2952929492,
      "acceptCond": [
        {
          "type": "QUEST_COND_UNKNOWN",
          "param": [
            0,
            0
          ]
        }
      ],
      "finishCond": [],
      "failCond": [],
      "guide": {
        "type": "QUEST_GUIDE_NPC",
        "param": [
          "1053"
        ],
        "guideScene": 1073,
        "guideStyle": "QUEST_GUIDE_STYLE_TARGET",
        "guideLayer": "QUEST_GUIDE_LAYER_SCENE"
      },
      "finishExec": [],
      "failExec": [],
      "beginExec": []
    },
    {
      "mainId": 3026,
      "subId": 302605,
      "order": 9,
      "descTextMapHash": 3470905636,
      "acceptCond": [
        {
          "type": "QUEST_COND_UNKNOWN",
          "param": [
            0,
            0
          ]
        }
      ],
      "finishCond": [],
      "failCond": [],
      "guide": {
        "type": "QUEST_GUIDE_LOCATION",
        "param": [
          "Q302605_guide"
        ],
        "guideScene": 3,
        "guideStyle": "QUEST_GUIDE_STYLE_POINT",
        "guideLayer": "QUEST_GUIDE_LAYER_SCENE"
      },
      "finishExec": [],
      "failExec": [],
      "beginExec": []
    },
    {
      "mainId": 3026,
      "subId": 302606,
      "order": 10,
      "descTextMapHash": 379089724,
      "acceptCond": [
        {
          "type": "QUEST_COND_UNKNOWN",
          "param": [
            0,
            0
          ]
        }
      ],
      "finishCond": [],
      "failCond": [],
      "guide": {
        "type": "QUEST_GUIDE_NPC",
        "param": [
          "1058"
        ],
        "guideScene": 3,
        "guideStyle": "QUEST_GUIDE_STYLE_TARGET",
        "guideLayer": "QUEST_GUIDE_LAYER_SCENE"
      },
      "finishExec": [],
      "failExec": [],
      "beginExec": []
    },
    {
      "mainId": 3026,
      "subId": 302607,
      "order": 11,
      "descTextMapHash": 1707661868,
      "acceptCond": [
        {
          "type": "QUEST_COND_UNKNOWN",
          "param": [
            0,
            0
          ]
        }
      ],
      "finishCond": [],
      "failCond": [],
      "guide": {
        "guideScene": 3
      },
      "finishExec": [],
      "failExec": [],
      "beginExec": []
    },
    {
      "mainId": 3026,
      "subId": 302608,
      "order": 12,
      "descTextMapHash": 4212732348,
      "acceptCond": [
        {
          "type": "QUEST_COND_UNKNOWN",
          "param": [
            0,
            0
          ]
        }
      ],
      "finishCond": [],
      "failCond": [],
      "guide": {
        "type": "QUEST_GUIDE_NPC",
        "param": [
          "1054"
        ],
        "guideScene": 3,
        "guideStyle": "QUEST_GUIDE_STYLE_TARGET",
        "guideLayer": "QUEST_GUIDE_LAYER_SCENE"
      },
      "finishExec": [],
      "failExec": [],
      "beginExec": []
    },
    {
      "mainId": 3026,
      "subId": 302611,
      "order": 13,
      "descTextMapHash": 4264210308,
      "acceptCond": [
        {
          "type": "QUEST_COND_UNKNOWN",
          "param": [
            0,
            0
          ]
        }
      ],
      "finishCond": [],
      "failCond": [],
      "guide": {
        "type": "QUEST_GUIDE_NPC",
        "param": [
          "1052"
        ],
        "guideScene": 3,
        "guideStyle": "QUEST_GUIDE_STYLE_TARGET",
        "guideLayer": "QUEST_GUIDE_LAYER_SCENE"
      },
      "finishExec": [],
      "failExec": [],
      "beginExec": []
    },
    {
      "mainId": 3026,
      "subId": 302612,
      "order": 14,
      "descTextMapHash": 272256252,
      "acceptCond": [
        {
          "type": "QUEST_COND_UNKNOWN",
          "param": [
            0,
            0
          ]
        }
      ],
      "finishCond": [],
      "failCond": [],
      "guide": {
        "type": "QUEST_GUIDE_NPC",
        "param": [
          "1053"
        ],
        "guideScene": 3,
        "guideStyle": "QUEST_GUIDE_STYLE_TARGET",
        "guideLayer": "QUEST_GUIDE_LAYER_SCENE"
      },
      "finishExec": [],
      "failExec": [],
      "beginExec": []
    },
    {
      "mainId": 3026,
      "subId": 302613,
      "order": 15,
      "descTextMapHash": 2982319948,
      "acceptCond": [
        {
          "type": "QUEST_COND_UNKNOWN",
          "param": [
            0,
            0
          ]
        }
      ],
      "finishCond": [],
      "failCond": [],
      "guide": {
        "type": "QUEST_GUIDE_NPC",
        "param": [
          "1054"
        ],
        "guideScene": 3,
        "guideStyle": "QUEST_GUIDE_STYLE_TARGET",
        "guideLayer": "QUEST_GUIDE_LAYER_SCENE"
      },
      "finishExec": [],
      "failExec": [],
      "beginExec": []
    },
    {
      "mainId": 3026,
      "subId": 302614,
      "order": 16,
      "descTextMapHash": 1618846628,
      "acceptCond": [
        {
          "type": "QUEST_COND_UNKNOWN",
          "param": [
            0,
            0
          ]
        }
      ],
      "finishCond": [],
      "failCond": [],
      "guide": {
        "type": "QUEST_GUIDE_NPC",
        "param": [
          "1058"
        ],
        "guideScene": 3,
        "guideStyle": "QUEST_GUIDE_STYLE_TARGET",
        "guideLayer": "QUEST_GUIDE_LAYER_SCENE"
      },
      "finishExec": [],
      "failExec": [],
      "beginExec": []
    },
    {
      "mainId": 3026,
      "subId": 302615,
      "order": 17,
      "descTextMapHash": 112623612,
      "acceptCond": [
        {
          "type": "QUEST_COND_UNKNOWN",
          "param": [
            0,
            0
          ]
        }
      ],
      "finishCond": [],
      "failCond": [],
      "guide": {
        "type": "QUEST_GUIDE_LOCATION",
        "param": [
          "T302615_N1005",
          "0"
        ],
        "guideScene": 3,
        "guideStyle": "QUEST_GUIDE_STYLE_TARGET",
        "guideLayer": "QUEST_GUIDE_LAYER_SCENE"
      },
      "finishExec": [],
      "failExec": [],
      "beginExec": []
    },
    {
      "mainId": 3026,
      "subId": 302616,
      "order": 18,
      "descTextMapHash": 3612691980,
      "acceptCond": [
        {
          "type": "QUEST_COND_UNKNOWN",
          "param": [
            0,
            0
          ]
        }
      ],
      "finishCond": [],
      "failCond": [],
      "guide": {
        "type": "QUEST_GUIDE_LOCATION",
        "param": [
          "Q302616_T302616_N1005",
          "0"
        ],
        "guideScene": 3,
        "guideStyle": "QUEST_GUIDE_STYLE_POINT",
        "guideLayer": "QUEST_GUIDE_LAYER_SCENE"
      },
      "finishExec": [],
      "failExec": [],
      "beginExec": []
    },
    {
      "mainId": 3026,
      "subId": 302617,
      "order": 19,
      "descTextMapHash": 3673732436,
      "acceptCond": [
        {
          "type": "QUEST_COND_UNKNOWN",
          "param": [
            0,
            0
          ]
        }
      ],
      "finishCond": [],
      "failCond": [],
      "guide": {
        "type": "QUEST_GUIDE_NPC",
        "param": [
          "1056"
        ],
        "guideScene": 1075,
        "guideStyle": "QUEST_GUIDE_STYLE_TARGET",
        "guideLayer": "QUEST_GUIDE_LAYER_SCENE"
      },
      "finishExec": [],
      "failExec": [],
      "beginExec": []
    },
    {
      "mainId": 3026,
      "subId": 302618,
      "order": 3,
      "descTextMapHash": 79238188,
      "acceptCond": [
        {
          "type": "QUEST_COND_UNKNOWN",
          "param": [
            0,
            0
          ]
        }
      ],
      "finishCond": [],
      "failCond": [],
      "guide": {
        "type": "QUEST_GUIDE_NPC",
        "param": [
          "1050"
        ],
        "guideScene": 3,
        "guideStyle": "QUEST_GUIDE_STYLE_TARGET",
        "guideLayer": "QUEST_GUIDE_LAYER_SCENE"
      },
      "finishExec": [],
      "failExec": [],
      "beginExec": []
    },
    {
      "mainId": 3026,
      "subId": 302619,
      "order": 5,
      "descTextMapHash": 3002250404,
      "acceptCond": [
        {
          "type": "QUEST_COND_UNKNOWN",
          "param": [
            0,
            0
          ]
        }
      ],
      "finishCond": [],
      "failCond": [],
      "guide": {
        "type": "QUEST_GUIDE_NPC",
        "param": [
          "12805"
        ],
        "guideScene": 3,
        "guideStyle": "QUEST_GUIDE_STYLE_TARGET",
        "guideLayer": "QUEST_GUIDE_LAYER_SCENE"
      },
      "finishExec": [],
      "failExec": [],
      "beginExec": []
    },
    {
      "mainId": 3026,
      "subId": 302620,
      "order": 7,
      "descTextMapHash": 2680803388,
      "acceptCond": [
        {
          "type": "QUEST_COND_UNKNOWN",
          "param": [
            0,
            0
          ]
        }
      ],
      "finishCond": [],
      "failCond": [],
      "guide": {
        "type": "QUEST_GUIDE_NPC",
        "param": [
          "1053"
        ],
        "guideScene": 1073,
        "guideStyle": "QUEST_GUIDE_STYLE_TARGET",
        "guideLayer": "QUEST_GUIDE_LAYER_SCENE"
      },
      "finishExec": [],
      "failExec": [],
      "beginExec": []
    },
    {
      "mainId": 3026,
      "subId": 302621,
      "order": 8,
      "showType": "QUEST_HIDDEN",
      "descTextMapHash": 570496964,
      "acceptCond": [
        {
          "type": "QUEST_COND_UNKNOWN",
          "param": [
            0,
            0
          ]
        }
      ],
      "finishCond": [],
      "failCond": [],
      "guide": {},
      "finishExec": [],
      "failExec": [],
      "beginExec": []
    }
  ],
  "talks": [
    {
      "id": 302602,
      "beginWay": "TALK_BEGIN_MANUAL",
      "activeMode": "PLAY_MODE_SINGLE",
      "beginCond": [
        {
          "type": "QUEST_COND_STATE_EQUAL",
          "param": [
            "302602",
            "2"
          ],
          "param_str": ""
        }
      ],
      "priority": 5,
      "initDialog": 30260201,
      "npcId": [
        1051
      ],
      "performCfg": "QuestDialogue/AQ/Sumeru3_3026/Q302602",
      "heroTalk": "TALK_HERO_MAIN",
      "questId": 3026,
      "prePerformCfg": "",
      "lockGameTime": true
    },
    {
      "id": 302603,
      "beginWay": "TALK_BEGIN_MANUAL",
      "activeMode": "PLAY_MODE_SINGLE",
      "beginCond": [
        {
          "type": "QUEST_COND_STATE_EQUAL",
          "param": [
            "302603",
            "2"
          ],
          "param_str": ""
        }
      ],
      "priority": 8,
      "initDialog": 30260301,
      "npcId": [
        4060,
        4057
      ],
      "performCfg": "QuestDialogue/AQ/Sumeru3_3026/Q302603",
      "heroTalk": "TALK_HERO_MAIN",
      "questId": 3026,
      "prePerformCfg": "",
      "lockGameTime": true
    },
    {
      "id": 302604,
      "beginWay": "TALK_BEGIN_MANUAL",
      "activeMode": "PLAY_MODE_SINGLE",
      "beginCond": [
        {
          "type": "QUEST_COND_STATE_EQUAL",
          "param": [
            "302604",
            "2"
          ],
          "param_str": ""
        }
      ],
      "priority": 5,
      "initDialog": 30260401,
      "npcId": [
        1064,
        1053
      ],
      "performCfg": "QuestDialogue/AQ/Sumeru3_3026/Q302604",
      "heroTalk": "TALK_HERO_MAIN",
      "questId": 3026,
      "prePerformCfg": "",
      "lockGameTime": true
    },
    {
      "id": 302605,
      "beginWay": "TALK_BEGIN_MANUAL",
      "activeMode": "PLAY_MODE_SINGLE",
      "beginCond": [
        {
          "type": "QUEST_COND_STATE_EQUAL",
          "param": [
            "302605",
            "2"
          ],
          "param_str": ""
        }
      ],
      "priority": 5,
      "initDialog": 30260501,
      "npcId": [
        1052
      ],
      "performCfg": "QuestDialogue/AQ/Sumeru3_3026/Q302605",
      "heroTalk": "TALK_HERO_MAIN",
      "questId": 3026,
      "prePerformCfg": "",
      "lockGameTime": true
    },
    {
      "id": 302606,
      "beginWay": "TALK_BEGIN_MANUAL",
      "activeMode": "PLAY_MODE_SINGLE",
      "beginCond": [
        {
          "type": "QUEST_COND_STATE_EQUAL",
          "param": [
            "302606",
            "2"
          ],
          "param_str": ""
        }
      ],
      "priority": 5,
      "initDialog": 30260601,
      "npcId": [
        1058,
        12709,
        12659
      ],
      "performCfg": "QuestDialogue/AQ/Sumeru3_3026/Q302606",
      "heroTalk": "TALK_HERO_MAIN",
      "questId": 3026,
      "prePerformCfg": "",
      "lockGameTime": true
    },
    {
      "id": 302607,
      "beginWay": "TALK_BEGIN_MANUAL",
      "activeMode": "PLAY_MODE_SINGLE",
      "beginCondComb": "LOGIC_AND",
      "beginCond": [
        {
          "type": "QUEST_COND_STATE_EQUAL",
          "param": [
            "302603",
            "3"
          ],
          "param_str": ""
        },
        {
          "type": "QUEST_COND_QUEST_NOT_RECEIVE",
          "param": [
            "302608",
            "1"
          ],
          "param_str": ""
        }
      ],
      "priority": 5,
      "initDialog": 30260701,
      "npcId": [
        4057,
        4060,
        1054
      ],
      "performCfg": "QuestDialogue/AQ/Sumeru3_3026/Q302607",
      "heroTalk": "TALK_HERO_MAIN",
      "questId": 3026,
      "prePerformCfg": "",
      "lowPriority": true
    },
    {
      "id": 302608,
      "beginWay": "TALK_BEGIN_MANUAL",
      "activeMode": "PLAY_MODE_SINGLE",
      "beginCond": [
        {
          "type": "QUEST_COND_STATE_EQUAL",
          "param": [
            "302608",
            "2"
          ],
          "param_str": ""
        }
      ],
      "priority": 5,
      "initDialog": 30260801,
      "npcId": [
        1058,
        1054,
        1052,
        13013,
        1053
      ],
      "performCfg": "QuestDialogue/AQ/Sumeru3_3026/Q302608",
      "heroTalk": "TALK_HERO_MAIN",
      "questId": 3026,
      "prePerformCfg": "",
      "lockGameTime": true
    },
    {
      "id": 302609,
      "beginWay": "TALK_BEGIN_MANUAL",
      "activeMode": "PLAY_MODE_SINGLE",
      "beginCondComb": "LOGIC_AND",
      "beginCond": [
        {
          "type": "QUEST_COND_STATE_EQUAL",
          "param": [
            "302602",
            "3"
          ],
          "param_str": ""
        },
        {
          "type": "QUEST_COND_QUEST_NOT_RECEIVE",
          "param": [
            "302608",
            "1"
          ],
          "param_str": ""
        }
      ],
      "priority": 5,
      "initDialog": 30260901,
      "npcId": [
        1051
      ],
      "performCfg": "QuestDialogue/AQ/Sumeru3_3026/Q302609",
      "heroTalk": "TALK_HERO_MAIN",
      "questId": 3026,
      "prePerformCfg": "",
      "lowPriority": true
    },
    {
      "id": 302610,
      "beginWay": "TALK_BEGIN_MANUAL",
      "activeMode": "PLAY_MODE_SINGLE",
      "beginCondComb": "LOGIC_AND",
      "beginCond": [
        {
          "type": "QUEST_COND_STATE_EQUAL",
          "param": [
            "302618",
            "3"
          ],
          "param_str": ""
        },
        {
          "type": "QUEST_COND_QUEST_NOT_RECEIVE",
          "param": [
            "302608",
            "1"
          ],
          "param_str": ""
        }
      ],
      "priority": 5,
      "initDialog": 30261001,
      "npcId": [
        1050
      ],
      "performCfg": "QuestDialogue/AQ/Sumeru3_3026/Q302610",
      "heroTalk": "TALK_HERO_MAIN",
      "questId": 3026,
      "prePerformCfg": "",
      "lowPriority": true
    },
    {
      "id": 302611,
      "beginWay": "TALK_BEGIN_MANUAL",
      "activeMode": "PLAY_MODE_SINGLE",
      "beginCondComb": "LOGIC_AND",
      "beginCond": [
        {
          "type": "QUEST_COND_STATE_EQUAL",
          "param": [
            "302608",
            "3"
          ],
          "param_str": ""
        },
        {
          "type": "QUEST_COND_QUEST_NOT_RECEIVE",
          "param": [
            "302615",
            "1"
          ],
          "param_str": ""
        }
      ],
      "priority": 5,
      "initDialog": 30261101,
      "npcId": [
        1052,
        13013
      ],
      "performCfg": "QuestDialogue/AQ/Sumeru3_3026/Q302611",
      "heroTalk": "TALK_HERO_MAIN",
      "questId": 3026,
      "prePerformCfg": "",
      "lockGameTime": true
    },
    {
      "id": 302612,
      "beginWay": "TALK_BEGIN_MANUAL",
      "activeMode": "PLAY_MODE_SINGLE",
      "beginCondComb": "LOGIC_AND",
      "beginCond": [
        {
          "type": "QUEST_COND_STATE_EQUAL",
          "param": [
            "302608",
            "3"
          ],
          "param_str": ""
        },
        {
          "type": "QUEST_COND_QUEST_NOT_RECEIVE",
          "param": [
            "302615",
            "1"
          ],
          "param_str": ""
        }
      ],
      "priority": 5,
      "initDialog": 30261201,
      "npcId": [
        1053
      ],
      "performCfg": "QuestDialogue/AQ/Sumeru3_3026/Q302612",
      "heroTalk": "TALK_HERO_MAIN",
      "questId": 3026,
      "prePerformCfg": "",
      "lockGameTime": true
    },
    {
      "id": 302613,
      "beginWay": "TALK_BEGIN_MANUAL",
      "activeMode": "PLAY_MODE_SINGLE",
      "beginCondComb": "LOGIC_AND",
      "beginCond": [
        {
          "type": "QUEST_COND_STATE_EQUAL",
          "param": [
            "302608",
            "3"
          ],
          "param_str": ""
        },
        {
          "type": "QUEST_COND_QUEST_NOT_RECEIVE",
          "param": [
            "302615",
            "1"
          ],
          "param_str": ""
        }
      ],
      "priority": 5,
      "initDialog": 30261301,
      "npcId": [
        1054
      ],
      "performCfg": "QuestDialogue/AQ/Sumeru3_3026/Q302613",
      "heroTalk": "TALK_HERO_MAIN",
      "questId": 3026,
      "prePerformCfg": "",
      "lockGameTime": true
    },
    {
      "id": 302614,
      "beginWay": "TALK_BEGIN_MANUAL",
      "activeMode": "PLAY_MODE_SINGLE",
      "beginCondComb": "LOGIC_AND",
      "beginCond": [
        {
          "type": "QUEST_COND_STATE_EQUAL",
          "param": [
            "302608",
            "3"
          ],
          "param_str": ""
        },
        {
          "type": "QUEST_COND_QUEST_NOT_RECEIVE",
          "param": [
            "302615",
            "1"
          ],
          "param_str": ""
        }
      ],
      "priority": 5,
      "initDialog": 30261401,
      "npcId": [
        1058
      ],
      "performCfg": "QuestDialogue/AQ/Sumeru3_3026/Q302614",
      "heroTalk": "TALK_HERO_MAIN",
      "questId": 3026,
      "prePerformCfg": "",
      "lockGameTime": true
    },
    {
      "id": 302615,
      "beginWay": "TALK_BEGIN_MANUAL",
      "activeMode": "PLAY_MODE_SINGLE",
      "beginCond": [
        {
          "type": "QUEST_COND_STATE_EQUAL",
          "param": [
            "302615",
            "2"
          ],
          "param_str": ""
        }
      ],
      "priority": 5,
      "initDialog": 30261501,
      "npcId": [
        1056,
        1052,
        1053,
        1054,
        13013,
        1058
      ],
      "performCfg": "QuestDialogue/AQ/Sumeru3_3026/Q302615",
      "heroTalk": "TALK_HERO_MAIN",
      "questId": 3026,
      "prePerformCfg": "",
      "lockGameTime": true
    },
    {
      "id": 302616,
      "beginWay": "TALK_BEGIN_MANUAL",
      "activeMode": "PLAY_MODE_SINGLE",
      "beginCond": [
        {
          "type": "QUEST_COND_STATE_EQUAL",
          "param": [
            "302616",
            "2"
          ],
          "param_str": ""
        }
      ],
      "priority": 5,
      "initDialog": 30261601,
      "npcId": [
        1005
      ],
      "performCfg": "QuestDialogue/AQ/Sumeru3_3026/Q302616",
      "heroTalk": "TALK_HERO_MAIN",
      "questId": 3026,
      "prePerformCfg": "",
      "lockGameTime": true
    },
    {
      "id": 302617,
      "beginWay": "TALK_BEGIN_MANUAL",
      "activeMode": "PLAY_MODE_SINGLE",
      "beginCond": [
        {
          "type": "QUEST_COND_STATE_EQUAL",
          "param": [
            "302617",
            "2"
          ],
          "param_str": ""
        }
      ],
      "priority": 5,
      "initDialog": 30261701,
      "npcId": [
        1056
      ],
      "performCfg": "QuestDialogue/AQ/Sumeru3_3026/Q302617",
      "heroTalk": "TALK_HERO_MAIN",
      "questId": 3026,
      "prePerformCfg": "",
      "lockGameTime": true
    },
    {
      "id": 302618,
      "beginWay": "TALK_BEGIN_MANUAL",
      "activeMode": "PLAY_MODE_SINGLE",
      "beginCond": [
        {
          "type": "QUEST_COND_STATE_EQUAL",
          "param": [
            "302618",
            "2"
          ],
          "param_str": ""
        }
      ],
      "priority": 5,
      "initDialog": 30261801,
      "npcId": [
        1050
      ],
      "performCfg": "QuestDialogue/AQ/Sumeru3_3026/Q302618",
      "heroTalk": "TALK_HERO_MAIN",
      "questId": 3026,
      "prePerformCfg": "",
      "lockGameTime": true
    },
    {
      "id": 302619,
      "beginWay": "TALK_BEGIN_MANUAL",
      "activeMode": "PLAY_MODE_SINGLE",
      "beginCond": [
        {
          "type": "QUEST_COND_STATE_EQUAL",
          "param": [
            "302619",
            "2"
          ],
          "param_str": ""
        }
      ],
      "priority": 5,
      "initDialog": 30261901,
      "npcId": [
        12805
      ],
      "performCfg": "QuestDialogue/AQ/Sumeru3_3026/Q302619",
      "heroTalk": "TALK_HERO_MAIN",
      "questId": 3026,
      "prePerformCfg": "",
      "lockGameTime": true
    },
    {
      "id": 302620,
      "beginWay": "TALK_BEGIN_MANUAL",
      "activeMode": "PLAY_MODE_SINGLE",
      "beginCond": [
        {
          "type": "QUEST_COND_STATE_EQUAL",
          "param": [
            "302620",
            "2"
          ],
          "param_str": ""
        }
      ],
      "priority": 5,
      "initDialog": 30262001,
      "npcId": [
        1053
      ],
      "performCfg": "QuestDialogue/AQ/Sumeru3_3026/Q302620",
      "heroTalk": "TALK_HERO_MAIN",
      "questId": 3026,
      "prePerformCfg": "",
      "lockGameTime": true
    },
    {
      "id": 302621,
      "beginWay": "TALK_BEGIN_MANUAL",
      "activeMode": "PLAY_MODE_SINGLE",
      "beginCondComb": "LOGIC_AND",
      "beginCond": [
        {
          "type": "QUEST_COND_STATE_EQUAL",
          "param": [
            "302620",
            "3"
          ],
          "param_str": ""
        },
        {
          "type": "QUEST_COND_STATE_EQUAL",
          "param": [
            "302621",
            "2"
          ],
          "param_str": ""
        }
      ],
      "priority": 5,
      "initDialog": 30262101,
      "npcId": [
        1053
      ],
      "performCfg": "QuestDialogue/AQ/Sumeru3_3026/Q302621",
      "heroTalk": "TALK_HERO_MAIN",
      "questId": 3026,
      "prePerformCfg": "",
      "lowPriority": true
    },
    {
      "id": 302622,
      "beginWay": "TALK_BEGIN_MANUAL",
      "activeMode": "PLAY_MODE_SINGLE",
      "beginCondComb": "LOGIC_AND",
      "beginCond": [
        {
          "type": "QUEST_COND_STATE_EQUAL",
          "param": [
            "302621",
            "3"
          ],
          "param_str": ""
        },
        {
          "type": "QUEST_COND_QUEST_NOT_RECEIVE",
          "param": [
            "302608",
            "1"
          ],
          "param_str": ""
        }
      ],
      "priority": 5,
      "initDialog": 30262201,
      "npcId": [
        1064,
        1053
      ],
      "performCfg": "QuestDialogue/AQ/Sumeru3_3026/Q302622",
      "heroTalk": "TALK_HERO_MAIN",
      "questId": 3026,
      "prePerformCfg": "",
      "lowPriority": true
    },
    {
      "id": 302623,
      "beginWay": "TALK_BEGIN_MANUAL",
      "activeMode": "PLAY_MODE_SINGLE",
      "beginCondComb": "LOGIC_AND",
      "beginCond": [
        {
          "type": "QUEST_COND_STATE_EQUAL",
          "param": [
            "302605",
            "3"
          ],
          "param_str": ""
        },
        {
          "type": "QUEST_COND_QUEST_NOT_RECEIVE",
          "param": [
            "302608",
            "1"
          ],
          "param_str": ""
        }
      ],
      "priority": 5,
      "initDialog": 30262301,
      "npcId": [
        13013,
        1052
      ],
      "performCfg": "QuestDialogue/AQ/Sumeru3_3026/Q302623",
      "heroTalk": "TALK_HERO_MAIN",
      "questId": 3026,
      "prePerformCfg": "",
      "lowPriority": true
    },
    {
      "id": 302624,
      "beginWay": "TALK_BEGIN_MANUAL",
      "activeMode": "PLAY_MODE_SINGLE",
      "beginCond": [
        {
          "type": "QUEST_COND_STATE_EQUAL",
          "param": [
            "302607",
            "2"
          ],
          "param_str": ""
        }
      ],
      "priority": 5,
      "initDialog": 30262401,
      "npcId": [
        12709,
        12659,
        1058
      ],
      "performCfg": "QuestDialogue/AQ/Sumeru3_3026/Q302624",
      "heroTalk": "TALK_HERO_MAIN",
      "questId": 3026,
      "prePerformCfg": "",
      "lowPriority": true
    },
    {
      "id": 302625,
      "beginWay": "TALK_BEGIN_MANUAL",
      "activeMode": "PLAY_MODE_SINGLE",
      "beginCondComb": "LOGIC_OR",
      "beginCond": [
        {
          "type": "QUEST_COND_STATE_EQUAL",
          "param": [
            "302606",
            "2"
          ],
          "param_str": ""
        },
        {
          "type": "QUEST_COND_STATE_EQUAL",
          "param": [
            "302607",
            "2"
          ],
          "param_str": ""
        }
      ],
      "priority": 5,
      "initDialog": 30262501,
      "npcId": [
        1059
      ],
      "performCfg": "QuestDialogue/AQ/Sumeru3_3026/Q302625",
      "heroTalk": "TALK_HERO_MAIN",
      "questId": 3026,
      "prePerformCfg": "",
      "lowPriority": true
    },
    {
      "id": 302626,
      "beginWay": "TALK_BEGIN_MANUAL",
      "activeMode": "PLAY_MODE_SINGLE",
      "beginCondComb": "LOGIC_AND",
      "beginCond": [
        {
          "type": "QUEST_COND_STATE_EQUAL",
          "param": [
            "302608",
            "3"
          ],
          "param_str": ""
        },
        {
          "type": "QUEST_COND_QUEST_NOT_RECEIVE",
          "param": [
            "302615",
            "1"
          ],
          "param_str": ""
        }
      ],
      "priority": 5,
      "initDialog": 30262601,
      "npcId": [
        4060
      ],
      "performCfg": "",
      "heroTalk": "TALK_HERO_MAIN",
      "questId": 3026,
      "prePerformCfg": "",
      "lowPriority": true
    }
  ]
}