{
  "id": 3031,
  "series": 3029,
  "titleTextMapHash": 3384287647,
  "descTextMapHash": 2750732918,
  "luaPath": "Actor/Quest/AQ3031",
  "suggestTrackMainQuestList": [
    3032
  ],
  "rewardIdList": [
    103031
  ],
  "chapterId": 1307,
  "subQuests": [
    {
      "mainId": 3031,
      "subId": 303101,
      "order": 2,
      "descTextMapHash": 1015187788,
      "acceptCond": [
        {
          "type": "QUEST_COND_UNKNOWN",
          "param": [
            0,
            0
          ]
        }
      ],
      "finishCond": [],
      "failCond": [],
      "guide": {
        "type": "QUEST_GUIDE_NPC",
        "param": [
          "1056"
        ],
        "guideScene": 1075,
        "guideStyle": "QUEST_GUIDE_STYLE_TARGET",
        "guideLayer": "QUEST_GUIDE_LAYER_SCENE"
      },
      "finishExec": [],
      "failExec": [],
      "beginExec": []
    },
    {
      "mainId": 3031,
      "subId": 303102,
      "order": 5,
      "descTextMapHash": 1633161980,
      "acceptCond": [
        {
          "type": "QUEST_COND_UNKNOWN",
          "param": [
            0,
            0
          ]
        }
      ],
      "finishCond": [],
      "failCond": [],
      "guide": {
        "type": "QUEST_GUIDE_LOCATION",
        "param": [
          "Q303102_guide",
          "25"
        ],
        "guideScene": 3,
        "guideStyle": "QUEST_GUIDE_STYLE_POINT",
        "guideLayer": "QUEST_GUIDE_LAYER_SCENE"
      },
      "finishExec": [],
      "failExec": [],
      "beginExec": []
    },
    {
      "mainId": 3031,
      "subId": 303103,
      "order": 8,
      "descTextMapHash": 3244616588,
      "acceptCond": [
        {
          "type": "QUEST_COND_UNKNOWN",
          "param": [
            0,
            0
          ]
        }
      ],
      "finishCond": [],
      "failCond": [],
      "guide": {
        "type": "QUEST_GUIDE_NPC",
        "param": [
          "1056"
        ],
        "guideScene": 1075,
        "guideStyle": "QUEST_GUIDE_STYLE_TARGET",
        "guideLayer": "QUEST_GUIDE_LAYER_SCENE"
      },
      "finishExec": [],
      "failExec": [],
      "beginExec": []
    },
    {
      "mainId": 3031,
      "subId": 303104,
      "order": 9,
      "descTextMapHash": 2623568532,
      "acceptCond": [
        {
          "type": "QUEST_COND_UNKNOWN",
          "param": [
            0,
            0
          ]
        }
      ],
      "finishCond": [],
      "failCond": [],
      "guide": {
        "type": "QUEST_GUIDE_NPC",
        "param": [
          "1056"
        ],
        "guideScene": 1075,
        "guideStyle": "QUEST_GUIDE_STYLE_TARGET",
        "guideLayer": "QUEST_GUIDE_LAYER_SCENE"
      },
      "finishExec": [],
      "failExec": [],
      "beginExec": []
    },
    {
      "mainId": 3031,
      "subId": 303105,
      "order": 15,
      "descTextMapHash": 1933984892,
      "acceptCond": [
        {
          "type": "QUEST_COND_UNKNOWN",
          "param": [
            0,
            0
          ]
        }
      ],
      "finishCond": [],
      "failCond": [],
      "guide": {},
      "finishExec": [],
      "failExec": [],
      "beginExec": []
    },
    {
      "mainId": 3031,
      "subId": 303106,
      "order": 19,
      "descTextMapHash": 2302579756,
      "acceptCond": [
        {
          "type": "QUEST_COND_UNKNOWN",
          "param": [
            0,
            0
          ]
        }
      ],
      "finishCond": [],
      "failCond": [],
      "guide": {},
      "finishExec": [],
      "failExec": [],
      "beginExec": []
    },
    {
      "mainId": 3031,
      "subId": 303107,
      "order": 22,
      "descTextMapHash": 3654436276,
      "acceptCond": [
        {
          "type": "QUEST_COND_UNKNOWN",
          "param": [
            0,
            0
          ]
        }
      ],
      "finishCond": [],
      "failCond": [],
      "guide": {},
      "finishExec": [],
      "failExec": [],
      "beginExec": []
    },
    {
      "mainId": 3031,
      "subId": 303108,
      "order": 24,
      "descTextMapHash": 2176912236,
      "acceptCond": [
        {
          "type": "QUEST_COND_UNKNOWN",
          "param": [
            0,
            0
          ]
        }
      ],
      "finishCond": [],
      "failCond": [],
      "guide": {},
      "finishExec": [],
      "failExec": [],
      "beginExec": []
    },
    {
      "mainId": 3031,
      "subId": 303109,
      "order": 26,
      "descTextMapHash": 3118491548,
      "acceptCond": [
        {
          "type": "QUEST_COND_UNKNOWN",
          "param": [
            0,
            0
          ]
        }
      ],
      "finishCond": [],
      "failCond": [],
      "guide": {},
      "finishExec": [],
      "failExec": [],
      "beginExec": []
    },
    {
      "mainId": 3031,
      "subId": 303110,
      "order": 27,
      "descTextMapHash": 4087405588,
      "acceptCond": [
        {
          "type": "QUEST_COND_UNKNOWN",
          "param": [
            0,
            0
          ]
        }
      ],
      "finishCond": [],
      "failCond": [],
      "guide": {},
      "finishExec": [],
      "failExec": [],
      "beginExec": []
    },
    {
      "mainId": 3031,
      "subId": 303111,
      "order": 11,
      "descTextMapHash": 3253743244,
      "acceptCond": [
        {
          "type": "QUEST_COND_UNKNOWN",
          "param": [
            0,
            0
          ]
        }
      ],
      "finishCond": [],
      "failCond": [],
      "guide": {},
      "finishExec": [],
      "failExec": [],
      "beginExec": []
    },
    {
      "mainId": 3031,
      "subId": 303112,
      "order": 10,
      "descTextMapHash": 2268964140,
      "acceptCond": [
        {
          "type": "QUEST_COND_UNKNOWN",
          "param": [
            0,
            0
          ]
        }
      ],
      "finishCond": [],
      "failCond": [],
      "guide": {
        "type": "QUEST_GUIDE_LOCATION",
        "param": [
          "Q303112_guide"
        ],
        "guideScene": 1075,
        "guideStyle": "QUEST_GUIDE_STYLE_TARGET",
        "guideLayer": "QUEST_GUIDE_LAYER_SCENE"
      },
      "finishExec": [],
      "failExec": [],
      "beginExec": []
    },
    {
      "mainId": 3031,
      "subId": 303113,
      "order": 18,
      "descTextMapHash": 1031950772,
      "acceptCond": [
        {
          "type": "QUEST_COND_UNKNOWN",
          "param": [
            0,
            0
          ]
        }
      ],
      "finishCond": [],
      "failCond": [],
      "guide": {},
      "finishExec": [],
      "failExec": [],
      "beginExec": []
    },
    {
      "mainId": 3031,
      "subId": 303114,
      "order": 21,
      "descTextMapHash": 504474788,
      "acceptCond": [
        {
          "type": "QUEST_COND_UNKNOWN",
          "param": [
            0,
            0
          ]
        }
      ],
      "finishCond": [],
      "failCond": [],
      "guide": {},
      "finishExec": [],
      "failExec": [],
      "beginExec": []
    },
    {
      "mainId": 3031,
      "subId": 303115,
      "order": 1,
      "descTextMapHash": 4000316892,
      "acceptCond": [
        {
          "type": "QUEST_COND_UNKNOWN",
          "param": [
            0,
            0
          ]
        }
      ],
      "finishCond": [],
      "failCond": [],
      "guide": {
        "type": "QUEST_GUIDE_LOCATION",
        "param": [
          "Q303115_guide",
          "20"
        ],
        "guideScene": 3,
        "guideStyle": "QUEST_GUIDE_STYLE_POINT",
        "guideLayer": "QUEST_GUIDE_LAYER_SCENE"
      },
      "finishExec": [],
      "failExec": [],
      "beginExec": []
    },
    {
      "mainId": 3031,
      "subId": 303116,
      "order": 3,
      "descTextMapHash": 3002168844,
      "acceptCond": [
        {
          "type": "QUEST_COND_UNKNOWN",
          "param": [
            0,
            0
          ]
        }
      ],
      "finishCond": [],
      "failCond": [],
      "guide": {
        "type": "QUEST_GUIDE_NPC",
        "param": [
          "1056"
        ],
        "guideScene": 1075,
        "guideStyle": "QUEST_GUIDE_STYLE_TARGET",
        "guideLayer": "QUEST_GUIDE_LAYER_SCENE"
      },
      "finishExec": [],
      "failExec": [],
      "beginExec": []
    },
    {
      "mainId": 3031,
      "subId": 303117,
      "order": 12,
      "descTextMapHash": 487452740,
      "acceptCond": [
        {
          "type": "QUEST_COND_UNKNOWN",
          "param": [
            0,
            0
          ]
        }
      ],
      "finishCond": [],
      "failCond": [],
      "guide": {},
      "finishExec": [],
      "failExec": [],
      "beginExec": []
    },
    {
      "mainId": 3031,
      "subId": 303118,
      "order": 13,
      "descTextMapHash": 21080700,
      "acceptCond": [
        {
          "type": "QUEST_COND_UNKNOWN",
          "param": [
            0,
            0
          ]
        }
      ],
      "finishCond": [],
      "failCond": [],
      "guide": {},
      "finishExec": [],
      "failExec": [],
      "beginExec": []
    },
    {
      "mainId": 3031,
      "subId": 303119,
      "order": 14,
      "descTextMapHash": 1537902468,
      "acceptCond": [
        {
          "type": "QUEST_COND_UNKNOWN",
          "param": [
            0,
            0
          ]
        }
      ],
      "finishCond": [],
      "failCond": [],
      "guide": {},
      "finishExec": [],
      "failExec": [],
      "beginExec": []
    },
    {
      "mainId": 3031,
      "subId": 303120,
      "order": 16,
      "descTextMapHash": 1512919916,
      "acceptCond": [
        {
          "type": "QUEST_COND_UNKNOWN",
          "param": [
            0,
            0
          ]
        }
      ],
      "finishCond": [],
      "failCond": [],
      "guide": {},
      "finishExec": [],
      "failExec": [],
      "beginExec": []
    },
    {
      "mainId": 3031,
      "subId": 303121,
      "order": 17,
      "descTextMapHash": 1737738692,
      "acceptCond": [
        {
          "type": "QUEST_COND_UNKNOWN",
          "param": [
            0,
            0
          ]
        }
      ],
      "finishCond": [],
      "failCond": [],
      "guide": {},
      "finishExec": [],
      "failExec": [],
      "beginExec": []
    },
    {
      "mainId": 3031,
      "subId": 303122,
      "order": 20,
      "descTextMapHash": 2018139956,
      "acceptCond": [
        {
          "type": "QUEST_COND_UNKNOWN",
          "param": [
            0,
            0
          ]
        }
      ],
      "finishCond": [],
      "failCond": [],
      "guide": {},
      "finishExec": [],
      "failExec": [],
      "beginExec": []
    },
    {
      "mainId": 3031,
      "subId": 303123,
      "order": 6,
      "descTextMapHash": 1731887804,
      "acceptCond": [
        {
          "type": "QUEST_COND_UNKNOWN",
          "param": [
            0,
            0
          ]
        }
      ],
      "finishCond": [],
      "failCond": [],
      "guide": {
        "type": "QUEST_GUIDE_LOCATION",
        "param": [
          "Q303123_guide",
          "24"
        ],
        "guideScene": 3,
        "guideStyle": "QUEST_GUIDE_STYLE_POINT",
        "guideLayer": "QUEST_GUIDE_LAYER_SCENE"
      },
      "finishExec": [],
      "failExec": [],
      "beginExec": []
    },
    {
      "mainId": 3031,
      "subId": 303124,
      "order": 7,
      "descTextMapHash": 2897674684,
      "acceptCond": [
        {
          "type": "QUEST_COND_UNKNOWN",
          "param": [
            0,
            0
          ]
        }
      ],
      "finishCond": [],
      "failCond": [],
      "guide": {
        "type": "QUEST_GUIDE_NPC",
        "param": [
          "12931"
        ],
        "guideScene": 3,
        "guideStyle": "QUEST_GUIDE_STYLE_TARGET",
        "guideLayer": "QUEST_GUIDE_LAYER_SCENE"
      },
      "finishExec": [],
      "failExec": [],
      "beginExec": []
    },
    {
      "mainId": 3031,
      "subId": 303125,
      "order": 4,
      "showType": "QUEST_HIDDEN",
      "descTextMapHash": 3364525844,
      "acceptCond": [
        {
          "type": "QUEST_COND_UNKNOWN",
          "param": [
            0,
            0
          ]
        }
      ],
      "finishCond": [],
      "failCond": [],
      "guide": {},
      "finishExec": [],
      "failExec": [],
      "beginExec": []
    },
    {
      "mainId": 3031,
      "subId": 303126,
      "order": 25,
      "showType": "QUEST_HIDDEN",
      "acceptCond": [
        {
          "type": "QUEST_COND_UNKNOWN",
          "param": [
            0,
            0
          ]
        }
      ],
      "finishCond": [],
      "failCond": [],
      "guide": {},
      "finishExec": [],
      "failExec": [],
      "beginExec": []
    },
    {
      "mainId": 3031,
      "subId": 303127,
      "order": 23,
      "descTextMapHash": 2018927740,
      "acceptCond": [
        {
          "type": "QUEST_COND_UNKNOWN",
          "param": [
            0,
            0
          ]
        }
      ],
      "finishCond": [],
      "failCond": [],
      "guide": {},
      "finishExec": [],
      "failExec": [],
      "beginExec": []
    }
  ],
  "talks": [
    {
      "id": 303101,
      "beginWay": "TALK_BEGIN_MANUAL",
      "activeMode": "PLAY_MODE_SINGLE",
      "beginCond": [
        {
          "type": "QUEST_COND_STATE_EQUAL",
          "param": [
            "303101",
            "2"
          ],
          "param_str": ""
        }
      ],
      "priority": 5,
      "initDialog": 30310101,
      "npcId": [
        1056
      ],
      "performCfg": "QuestDialogue/AQ/Sumeru4_3031/Q303101",
      "heroTalk": "TALK_HERO_MAIN",
      "questId": 3031,
      "prePerformCfg": ""
    },
    {
      "id": 303102,
      "beginWay": "TALK_BEGIN_MANUAL",
      "activeMode": "PLAY_MODE_SINGLE",
      "beginCond": [
        {
          "type": "QUEST_COND_STATE_EQUAL",
          "param": [
            "303102",
            "2"
          ],
          "param_str": ""
        }
      ],
      "priority": 5,
      "initDialog": 30310201,
      "npcId": [
        12947,
        12931
      ],
      "performCfg": "QuestDialogue/AQ/Sumeru4_3031/Q303102",
      "heroTalk": "TALK_HERO_MAIN",
      "questId": 3031,
      "prePerformCfg": ""
    },
    {
      "id": 303103,
      "beginWay": "TALK_BEGIN_MANUAL",
      "activeMode": "PLAY_MODE_SINGLE",
      "beginCond": [
        {
          "type": "QUEST_COND_STATE_EQUAL",
          "param": [
            "303111",
            "2"
          ],
          "param_str": ""
        }
      ],
      "priority": 5,
      "initDialog": 30310301,
      "npcId": [
        1056,
        12947,
        12994,
        10013
      ],
      "performCfg": "QuestDialogue/AQ/Sumeru4_3031/Q303103",
      "heroTalk": "TALK_HERO_MAIN",
      "questId": 3031,
      "prePerformCfg": ""
    },
    {
      "id": 303104,
      "beginWay": "TALK_BEGIN_MANUAL",
      "activeMode": "PLAY_MODE_SINGLE",
      "beginCond": [
        {
          "type": "QUEST_COND_STATE_EQUAL",
          "param": [
            "303104",
            "2"
          ],
          "param_str": ""
        }
      ],
      "priority": 5,
      "initDialog": 30310401,
      "npcId": [
        1056,
        12947
      ],
      "performCfg": "QuestDialogue/AQ/Sumeru4_3031/Q303104",
      "heroTalk": "TALK_HERO_MAIN",
      "questId": 3031,
      "prePerformCfg": ""
    },
    {
      "id": 303105,
      "beginWay": "TALK_BEGIN_MANUAL",
      "activeMode": "PLAY_MODE_SINGLE",
      "beginCond": [
        {
          "type": "QUEST_COND_STATE_EQUAL",
          "param": [
            "303105",
            "2"
          ],
          "param_str": ""
        }
      ],
      "priority": 5,
      "initDialog": 30310501,
      "npcId": [
        12947,
        1056,
        10013,
        1017
      ],
      "performCfg": "QuestDialogue/AQ/Sumeru4_3031/Q303105",
      "heroTalk": "TALK_HERO_MAIN",
      "questId": 3031,
      "prePerformCfg": ""
    },
    {
      "id": 303106,
      "beginWay": "TALK_BEGIN_MANUAL",
      "activeMode": "PLAY_MODE_SINGLE",
      "beginCond": [
        {
          "type": "QUEST_COND_STATE_EQUAL",
          "param": [
            "303106",
            "2"
          ],
          "param_str": ""
        }
      ],
      "priority": 5,
      "initDialog": 30310601,
      "npcId": [
        12998,
        12695,
        10013,
        12660,
        12947,
        1056
      ],
      "performCfg": "QuestDialogue/AQ/Sumeru4_3031/Q303106",
      "heroTalk": "TALK_HERO_MAIN",
      "questId": 3031,
      "prePerformCfg": ""
    },
    {
      "id": 303107,
      "beginWay": "TALK_BEGIN_MANUAL",
      "activeMode": "PLAY_MODE_SINGLE",
      "beginCond": [
        {
          "type": "QUEST_COND_STATE_EQUAL",
          "param": [
            "303107",
            "2"
          ],
          "param_str": ""
        }
      ],
      "priority": 5,
      "initDialog": 30310701,
      "npcId": [
        12947,
        1056
      ],
      "performCfg": "QuestDialogue/AQ/Sumeru4_3031/Q303107",
      "heroTalk": "TALK_HERO_MAIN",
      "questId": 3031,
      "prePerformCfg": ""
    },
    {
      "id": 303109,
      "beginWay": "TALK_BEGIN_MANUAL",
      "activeMode": "PLAY_MODE_SINGLE",
      "beginCond": [
        {
          "type": "QUEST_COND_STATE_EQUAL",
          "param": [
            "303109",
            "2"
          ],
          "param_str": ""
        }
      ],
      "priority": 5,
      "initDialog": 30310901,
      "npcId": [
        13023,
        1065,
        1056
      ],
      "performCfg": "QuestDialogue/AQ/Sumeru4_3031/Q303109",
      "heroTalk": "TALK_HERO_MAIN",
      "questId": 3031,
      "prePerformCfg": ""
    },
    {
      "id": 303115,
      "beginWay": "TALK_BEGIN_MANUAL",
      "activeMode": "PLAY_MODE_SINGLE",
      "beginCond": [
        {
          "type": "QUEST_COND_STATE_EQUAL",
          "param": [
            "303115",
            "2"
          ],
          "param_str": ""
        }
      ],
      "priority": 5,
      "initDialog": 30311501,
      "npcId": [
        12991,
        12992
      ],
      "performCfg": "QuestDialogue/AQ/Sumeru4_3031/Q303115",
      "heroTalk": "TALK_HERO_MAIN",
      "questId": 3031,
      "prePerformCfg": ""
    },
    {
      "id": 303116,
      "beginWay": "TALK_BEGIN_MANUAL",
      "activeMode": "PLAY_MODE_SINGLE",
      "beginCond": [
        {
          "type": "QUEST_COND_STATE_EQUAL",
          "param": [
            "303116",
            "2"
          ],
          "param_str": ""
        }
      ],
      "priority": 5,
      "initDialog": 30311601,
      "npcId": [
        1056
      ],
      "performCfg": "QuestDialogue/AQ/Sumeru4_3031/Q303116",
      "heroTalk": "TALK_HERO_MAIN",
      "questId": 3031,
      "prePerformCfg": "",
      "lockGameTime": true
    },
    {
      "id": 303117,
      "beginWay": "TALK_BEGIN_MANUAL",
      "activeMode": "PLAY_MODE_SINGLE",
      "beginCond": [
        {
          "type": "QUEST_COND_STATE_EQUAL",
          "param": [
            "303123",
            "2"
          ],
          "param_str": ""
        }
      ],
      "priority": 5,
      "initDialog": 30311701,
      "npcId": [
        12931
      ],
      "performCfg": "QuestDialogue/AQ/Sumeru4_3031/Q303117",
      "heroTalk": "TALK_HERO_MAIN",
      "questId": 3031,
      "prePerformCfg": ""
    },
    {
      "id": 303118,
      "beginWay": "TALK_BEGIN_MANUAL",
      "activeMode": "PLAY_MODE_SINGLE",
      "beginCond": [
        {
          "type": "QUEST_COND_STATE_EQUAL",
          "param": [
            "303118",
            "2"
          ],
          "param_str": ""
        }
      ],
      "priority": 5,
      "initDialog": 30311801,
      "npcId": [
        12997,
        10013,
        1056,
        12947
      ],
      "performCfg": "QuestDialogue/AQ/Sumeru4_3031/Q303118",
      "heroTalk": "TALK_HERO_MAIN",
      "questId": 3031,
      "prePerformCfg": ""
    },
    {
      "id": 303119,
      "beginWay": "TALK_BEGIN_MANUAL",
      "activeMode": "PLAY_MODE_SINGLE",
      "beginCond": [
        {
          "type": "QUEST_COND_STATE_EQUAL",
          "param": [
            "303101",
            "2"
          ],
          "param_str": ""
        }
      ],
      "priority": 5,
      "initDialog": 30311901,
      "npcId": [
        12992,
        12991
      ],
      "performCfg": "QuestDialogue/AQ/Sumeru4_3031/Q303119",
      "heroTalk": "TALK_HERO_MAIN",
      "questId": 3031,
      "prePerformCfg": ""
    },
    {
      "id": 303120,
      "beginWay": "TALK_BEGIN_MANUAL",
      "activeMode": "PLAY_MODE_SINGLE",
      "beginCondComb": "LOGIC_OR",
      "beginCond": [
        {
          "type": "QUEST_COND_STATE_EQUAL",
          "param": [
            "303102",
            "2"
          ],
          "param_str": ""
        },
        {
          "type": "QUEST_COND_STATE_EQUAL",
          "param": [
            "303123",
            "2"
          ],
          "param_str": ""
        },
        {
          "type": "QUEST_COND_STATE_EQUAL",
          "param": [
            "303124",
            "2"
          ],
          "param_str": ""
        }
      ],
      "priority": 5,
      "initDialog": 30312001,
      "npcId": [
        1056
      ],
      "performCfg": "QuestDialogue/AQ/Sumeru4_3031/Q303120",
      "heroTalk": "TALK_HERO_MAIN",
      "questId": 3031,
      "prePerformCfg": ""
    },
    {
      "id": 303121,
      "beginWay": "TALK_BEGIN_MANUAL",
      "activeMode": "PLAY_MODE_SINGLE",
      "beginCond": [
        {
          "type": "QUEST_COND_STATE_EQUAL",
          "param": [
            "303112",
            "2"
          ],
          "param_str": ""
        }
      ],
      "priority": 5,
      "initDialog": 30312101,
      "npcId": [
        1056
      ],
      "performCfg": "QuestDialogue/AQ/Sumeru4_3031/Q303121",
      "heroTalk": "TALK_HERO_MAIN",
      "questId": 3031,
      "prePerformCfg": ""
    },
    {
      "id": 303122,
      "beginWay": "TALK_BEGIN_MANUAL",
      "activeMode": "PLAY_MODE_SINGLE",
      "beginCond": [
        {
          "type": "QUEST_COND_STATE_EQUAL",
          "param": [
            "303112",
            "2"
          ],
          "param_str": ""
        }
      ],
      "priority": 5,
      "initDialog": 30312201,
      "npcId": [
        12947
      ],
      "performCfg": "QuestDialogue/AQ/Sumeru4_3031/Q303122",
      "heroTalk": "TALK_HERO_MAIN",
      "questId": 3031,
      "prePerformCfg": ""
    },
    {
      "id": 303123,
      "beginWay": "TALK_BEGIN_MANUAL",
      "activeMode": "PLAY_MODE_SINGLE",
      "beginCond": [
        {
          "type": "QUEST_COND_STATE_EQUAL",
          "param": [
            "303123",
            "2"
          ],
          "param_str": ""
        }
      ],
      "priority": 5,
      "initDialog": 30312301,
      "npcId": [
        12947
      ],
      "performCfg": "QuestDialogue/AQ/Sumeru4_3031/Q303123",
      "heroTalk": "TALK_HERO_MAIN",
      "questId": 3031,
      "prePerformCfg": ""
    },
    {
      "id": 303124,
      "beginWay": "TALK_BEGIN_MANUAL",
      "activeMode": "PLAY_MODE_SINGLE",
      "beginCond": [
        {
          "type": "QUEST_COND_STATE_EQUAL",
          "param": [
            "303124",
            "2"
          ],
          "param_str": ""
        }
      ],
      "priority": 5,
      "initDialog": 30312401,
      "npcId": [
        12931
      ],
      "performCfg": "QuestDialogue/AQ/Sumeru4_3031/Q303124",
      "heroTalk": "TALK_HERO_MAIN",
      "questId": 3031,
      "prePerformCfg": ""
    },
    {
      "id": 303127,
      "beginWay": "TALK_BEGIN_MANUAL",
      "activeMode": "PLAY_MODE_SINGLE",
      "beginCond": [
        {
          "type": "QUEST_COND_STATE_EQUAL",
          "param": [
            "303103",
            "2"
          ],
          "param_str": ""
        }
      ],
      "priority": 5,
      "initDialog": 30312701,
      "npcId": [
        12931
      ],
      "performCfg": "QuestDialogue/AQ/Sumeru4_3031/Q303127",
      "heroTalk": "TALK_HERO_MAIN",
      "questId": 3031,
      "prePerformCfg": ""
    }
  ]
}