{
  "id": 363,
  "series": 1001,
  "titleTextMapHash": 411236993,
  "descTextMapHash": 1606009503,
  "luaPath": "",
  "showType": "QUEST_HIDDEN",
  "chapterId": 1001,
  "subQuests": [
    {
      "subId": 36301,
      "mainId": 363,
      "order": 1,
      "descTextMapHash": 4180969575,
      "showType": "QUEST_HIDDEN",
      "acceptCond": [
        {
          "type": "QUEST_COND_STATE_EQUAL",
          "param": [
            35202,
            3,
            0
          ],
          "param_str": ""
        }
      ],
      "finishCond": [
        {
          "type": "QUEST_CONTENT_COMPLETE_TALK",
          "param": [
            35328,
            0
          ],
          "param_str": ""
        }
      ],
      "failCond": [],
      "guide": {
        "param": []
      },
      "finishParent": true,
      "finishExec": [],
      "failExec": [],
      "beginExec": []
    }
  ]
}