{
  "id": 40000,
  "type": "WQ",
  "titleTextMapHash": 402382367,
  "descTextMapHash": 218433030,
  "luaPath": "Actor/Quest/EQ40000",
  "subQuests": [
    {
      "subId": 4000001,
      "mainId": 40000,
      "order": 1,
      "descTextMapHash": 1271153492,
      "showType": "QUEST_HIDDEN",
      "acceptCond": [
        {
          "type": "QUEST_COND_ACTIVITY_COND",
          "param": [
            2002108,
            1,
            0,
            0,
            0
          ],
          "param_str": ""
        }
      ],
      "finishCond": [
        {
          "type": "QUEST_CONTENT_FINISH_PLOT",
          "param": [
            4000001,
            0
          ],
          "param_str": ""
        }
      ],
      "failCond": [],
      "guide": {
        "param": []
      },
      "finishExec": [],
      "failExec": [],
      "beginExec": [
        {
          "type": "QUEST_EXEC_LOCK_POINT",
          "param": [
            "3",
            "260"
          ],
          "param_str": ""
        }
      ]
    },
    {
      "subId": 4000002,
      "mainId": 40000,
      "order": 2,
      "descTextMapHash": 2025242228,
      "acceptCond": [
        {
          "type": "QUEST_COND_STATE_EQUAL",
          "param": [
            4000001,
            3,
            0,
            0,
            0
          ],
          "param_str": ""
        }
      ],
      "finishCondComb": "LOGIC_OR",
      "finishCond": [
        {
          "type": "QUEST_CONTENT_COMPLETE_TALK",
          "param": [
            4000002,
            0
          ],
          "param_str": ""
        },
        {
          "type": "QUEST_CONTENT_FINISH_PLOT",
          "param": [
            4000002,
            0
          ],
          "param_str": ""
        },
        {
          "type": "QUEST_CONTENT_ENTER_DUNGEON",
          "param": [
            7000,
            260
          ],
          "param_str": ""
        }
      ],
      "failCond": [],
      "guide": {
        "type": "QUEST_GUIDE_NPC",
        "param": [
          "30043"
        ],
        "guideScene": 3,
        "guideStyle": "QUEST_GUIDE_STYLE_TARGET"
      },
      "isRewind": true,
      "finishExec": [],
      "failExec": [],
      "beginExec": []
    },
    {
      "subId": 4000003,
      "mainId": 40000,
      "order": 3,
      "descTextMapHash": 3143857628,
      "acceptCond": [
        {
          "type": "QUEST_COND_STATE_EQUAL",
          "param": [
            4000002,
            3,
            0,
            0,
            0
          ],
          "param_str": ""
        }
      ],
      "finishCond": [
        {
          "type": "QUEST_CONTENT_FINISH_DUNGEON",
          "param": [
            7000,
            0
          ],
          "param_str": ""
        }
      ],
      "failCond": [],
      "guide": {
        "type": "QUEST_GUIDE_NPC",
        "param": [
          "30043"
        ],
        "guideScene": 3,
        "guideStyle": "QUEST_GUIDE_STYLE_TARGET"
      },
      "finishParent": true,
      "isRewind": true,
      "finishExec": [],
      "failExec": [],
      "beginExec": []
    }
  ],
  "talks": [
    {
      "id": 4000002,
      "beginWay": "TALK_BEGIN_MANUAL",
      "activeMode": "PLAY_MODE_SINGLE",
      "beginCond": [
        {
          "type": "QUEST_COND_STATE_EQUAL",
          "param": [
            "4000002",
            "2"
          ],
          "param_str": ""
        }
      ],
      "priority": 5,
      "initDialog": 400000201,
      "npcId": [
        30043
      ],
      "performCfg": "QuestDialogue/EQ/Sealamp2_41314/Q4000001",
      "questId": 40000,
      "prePerformCfg": ""
    },
    {
      "id": 4000003,
      "beginWay": "TALK_BEGIN_MANUAL",
      "activeMode": "PLAY_MODE_SINGLE",
      "beginCond": [
        {
          "type": "QUEST_COND_STATE_EQUAL",
          "param": [
            "4000003",
            "2"
          ],
          "param_str": ""
        }
      ],
      "priority": 5,
      "initDialog": 400000213,
      "npcId": [
        30043
      ],
      "performCfg": "QuestDialogue/EQ/Sealamp2_41314/Q4000002",
      "questId": 40000,
      "prePerformCfg": ""
    }
  ]
}