{
  "id": 40018,
  "type": "EQ",
  "series": 10033,
  "titleTextMapHash": 1079376983,
  "descTextMapHash": 2509353982,
  "luaPath": "Actor/Quest/EQ40018",
  "showType": "QUEST_HIDDEN",
  "subQuests": [
    {
      "subId": 4001801,
      "mainId": 40018,
      "order": 1,
      "descTextMapHash": 4084147860,
      "showType": "QUEST_HIDDEN",
      "acceptCondComb": "LOGIC_AND",
      "acceptCond": [
        {
          "type": "QUEST_COND_ACTIVITY_COND",
          "param": [
            2005003,
            1,
            0,
            0,
            0
          ],
          "param_str": ""
        },
        {
          "type": "QUEST_COND_STATE_EQUAL",
          "param": [
            99902,
            3,
            0,
            0,
            0
          ],
          "param_str": ""
        }
      ],
      "finishCond": [
        {
          "type": "QUEST_CONTENT_GAME_TIME_TICK",
          "param": [
            0,
            0
          ],
          "param_str": "0,24"
        }
      ],
      "failCond": [],
      "guide": {
        "param": []
      },
      "finishParent": true,
      "isRewind": true,
      "finishExec": [],
      "failExec": [],
      "beginExec": []
    }
  ]
}