{
  "id": 40027,
  "type": "EQ",
  "series": 10046,
  "titleTextMapHash": 3384128975,
  "descTextMapHash": 145190390,
  "luaPath": "Actor/Quest/EQ40027",
  "suggestTrackMainQuestList": [
    40028
  ],
  "rewardIdList": [
    140027
  ],
  "chapterId": 10046,
  "subQuests": [
    {
      "subId": 4002701,
      "mainId": 40027,
      "order": 1,
      "descTextMapHash": 1655572492,
      "acceptCond": [
        {
          "type": "QUEST_COND_ACTIVITY_COND",
          "param": [
            2009003,
            1,
            0,
            0,
            0
          ],
          "param_str": ""
        }
      ],
      "finishCond": [
        {
          "type": "QUEST_CONTENT_COMPLETE_TALK",
          "param": [
            4002701,
            0
          ],
          "param_str": ""
        }
      ],
      "failCond": [],
      "guide": {
        "type": "QUEST_GUIDE_NPC",
        "param": [
          "1018"
        ],
        "guideScene": 3
      },
      "isRewind": true,
      "finishExec": [],
      "failExec": [],
      "beginExec": [],
      "exclusiveNpcList": [
        1018
      ],
      "exclusiveNpcPriority": 1050
    },
    {
      "subId": 4002702,
      "mainId": 40027,
      "order": 2,
      "descTextMapHash": 2655403436,
      "acceptCond": [
        {
          "type": "QUEST_COND_STATE_EQUAL",
          "param": [
            4002701,
            3,
            0,
            0,
            0
          ],
          "param_str": ""
        }
      ],
      "finishCond": [
        {
          "type": "QUEST_CONTENT_FINISH_PLOT",
          "param": [
            4002702,
            0
          ],
          "param_str": ""
        }
      ],
      "failCond": [],
      "guide": {
        "type": "QUEST_GUIDE_LOCATION",
        "autoGuide": "QUEST_GUIDE_AUTO_ENABLE",
        "param": [
          "Q40027_quest_monster01",
          "30"
        ],
        "guideScene": 3,
        "guideStyle": "QUEST_GUIDE_STYLE_POINT",
        "guideLayer": "QUEST_GUIDE_LAYER_SCENE"
      },
      "isRewind": true,
      "finishExec": [],
      "failExec": [],
      "beginExec": [
        {
          "type": "QUEST_EXEC_REGISTER_DYNAMIC_GROUP",
          "param": [
            "3",
            "133002055"
          ],
          "param_str": ""
        }
      ]
    },
    {
      "subId": 4002703,
      "mainId": 40027,
      "order": 6,
      "descTextMapHash": 1476974508,
      "showType": "QUEST_HIDDEN",
      "acceptCond": [
        {
          "type": "QUEST_COND_STATE_EQUAL",
          "param": [
            4002704,
            3,
            0,
            0,
            0
          ],
          "param_str": ""
        }
      ],
      "finishCond": [
        {
          "type": "QUEST_CONTENT_FINISH_PLOT",
          "param": [
            4002703,
            0
          ],
          "param_str": ""
        }
      ],
      "failCond": [],
      "guide": {
        "param": [],
        "guideScene": 3,
        "guideStyle": "QUEST_GUIDE_STYLE_POINT",
        "guideLayer": "QUEST_GUIDE_LAYER_SCENE"
      },
      "showGuide": "QUEST_GUIDE_ITEM_DISABLE",
      "failParentShow": "QUEST_HIDDEN",
      "finishExec": [
        {
          "type": "QUEST_EXEC_REGISTER_DYNAMIC_GROUP",
          "param": [
            "3",
            "133002056"
          ],
          "param_str": ""
        }
      ],
      "failExec": [],
      "beginExec": [
        {
          "type": "QUEST_EXEC_UNREGISTER_DYNAMIC_GROUP",
          "param": [
            "133002056"
          ],
          "param_str": ""
        }
      ],
      "exclusiveNpcList": [
        1018,
        1002,
        1029,
        1024
      ],
      "exclusiveNpcPriority": 1050
    },
    {
      "subId": 4002704,
      "mainId": 40027,
      "order": 3,
      "descTextMapHash": 1277610356,
      "acceptCond": [
        {
          "type": "QUEST_COND_STATE_EQUAL",
          "param": [
            4002702,
            3,
            0,
            0,
            0
          ],
          "param_str": ""
        }
      ],
      "finishCond": [
        {
          "type": "QUEST_CONTENT_COMPLETE_TALK",
          "param": [
            4002702,
            0
          ],
          "param_str": ""
        }
      ],
      "failCond": [],
      "guide": {
        "type": "QUEST_GUIDE_LOCATION",
        "autoGuide": "QUEST_GUIDE_AUTO_ENABLE",
        "param": [
          "Q4002704_guide",
          "0"
        ],
        "guideScene": 3,
        "guideStyle": "QUEST_GUIDE_STYLE_POINT",
        "guideLayer": "QUEST_GUIDE_LAYER_SCENE"
      },
      "isRewind": true,
      "finishExec": [
        {
          "type": "QUEST_EXEC_UNREGISTER_DYNAMIC_GROUP",
          "param": [
            "133002055"
          ],
          "param_str": ""
        }
      ],
      "failExec": [],
      "beginExec": [
        {
          "type": "QUEST_EXEC_REGISTER_DYNAMIC_GROUP",
          "param": [
            "3",
            "133002055"
          ],
          "param_str": ""
        }
      ],
      "exclusiveNpcList": [
        1018,
        1002,
        1029,
        1024
      ],
      "exclusiveNpcPriority": 1050
    },
    {
      "subId": 4002705,
      "mainId": 40027,
      "order": 5,
      "descTextMapHash": 947521388,
      "acceptCond": [
        {
          "type": "QUEST_COND_STATE_EQUAL",
          "param": [
            4002704,
            3,
            0,
            0,
            0
          ],
          "param_str": ""
        }
      ],
      "finishCond": [
        {
          "type": "QUEST_CONTENT_COMPLETE_TALK",
          "param": [
            4002703,
            0
          ],
          "param_str": ""
        }
      ],
      "failCond": [],
      "guide": {
        "type": "QUEST_GUIDE_LOCATION",
        "param": [
          "Q40027_quest_home01",
          "0"
        ],
        "guideScene": 3,
        "guideStyle": "QUEST_GUIDE_STYLE_POINT"
      },
      "isRewind": true,
      "finishExec": [],
      "failExec": [],
      "beginExec": [],
      "exclusiveNpcList": [
        1018,
        1002,
        1029,
        1024
      ],
      "exclusiveNpcPriority": 1050
    },
    {
      "subId": 4002706,
      "mainId": 40027,
      "order": 7,
      "descTextMapHash": 2286767660,
      "acceptCond": [
        {
          "type": "QUEST_COND_STATE_EQUAL",
          "param": [
            4002705,
            3,
            0,
            0,
            0
          ],
          "param_str": ""
        }
      ],
      "finishCondComb": "LOGIC_OR",
      "finishCond": [
        {
          "type": "QUEST_CONTENT_GAME_TIME_TICK",
          "param": [
            0,
            0
          ],
          "param_str": "0,6"
        },
        {
          "type": "QUEST_CONTENT_GAME_TIME_TICK",
          "param": [
            0,
            0
          ],
          "param_str": "18,24"
        },
        {
          "type": "QUEST_CONTENT_GAME_TIME_TICK",
          "param": [
            1,
            0
          ],
          "param_str": "0,6"
        }
      ],
      "failCond": [],
      "guide": {
        "param": [],
        "guideScene": 3
      },
      "showGuide": "QUEST_GUIDE_ITEM_DISABLE",
      "isRewind": true,
      "finishExec": [],
      "failExec": [],
      "beginExec": [
        {
          "type": "QUEST_EXEC_REGISTER_DYNAMIC_GROUP",
          "param": [
            "3",
            "133002056"
          ],
          "param_str": ""
        },
        {
          "type": "QUEST_EXEC_REFRESH_GROUP_SUITE",
          "param": [
            "3",
            "133002927,5"
          ],
          "param_str": ""
        }
      ],
      "exclusiveNpcList": [
        1018,
        1002,
        1029,
        1024
      ],
      "exclusiveNpcPriority": 1050
    },
    {
      "subId": 4002707,
      "mainId": 40027,
      "order": 8,
      "descTextMapHash": 3319083028,
      "acceptCond": [
        {
          "type": "QUEST_COND_STATE_EQUAL",
          "param": [
            4002706,
            3,
            0,
            0,
            0
          ],
          "param_str": ""
        }
      ],
      "finishCond": [
        {
          "type": "QUEST_CONTENT_COMPLETE_TALK",
          "param": [
            4002715,
            0
          ],
          "param_str": ""
        }
      ],
      "failCondComb": "LOGIC_OR",
      "failCond": [
        {
          "type": "QUEST_CONTENT_GAME_TIME_TICK",
          "param": [
            2,
            0
          ],
          "param_str": "6,18"
        },
        {
          "type": "QUEST_CONTENT_GAME_TIME_TICK",
          "param": [
            1,
            0
          ],
          "param_str": "6,18"
        }
      ],
      "guide": {
        "type": "QUEST_GUIDE_NPC",
        "param": [
          "1018"
        ],
        "guideScene": 3
      },
      "isRewind": true,
      "finishExec": [],
      "failExec": [
        {
          "type": "QUEST_EXEC_ROLLBACK_QUEST",
          "param": [
            "4002706"
          ],
          "param_str": ""
        }
      ],
      "beginExec": [
        {
          "type": "QUEST_EXEC_REFRESH_GROUP_SUITE",
          "param": [
            "3",
            "133002927,5"
          ],
          "param_str": ""
        },
        {
          "type": "QUEST_EXEC_REGISTER_DYNAMIC_GROUP",
          "param": [
            "3",
            "133002056"
          ],
          "param_str": ""
        }
      ],
      "exclusiveNpcList": [
        1018,
        1002,
        1029,
        1024
      ],
      "exclusiveNpcPriority": 1050
    },
    {
      "subId": 4002708,
      "mainId": 40027,
      "order": 9,
      "descTextMapHash": 1832542084,
      "acceptCond": [
        {
          "type": "QUEST_COND_STATE_EQUAL",
          "param": [
            4002707,
            3,
            0,
            0,
            0
          ],
          "param_str": ""
        }
      ],
      "finishCond": [
        {
          "type": "QUEST_CONTENT_LUA_NOTIFY",
          "param": [
            0,
            0
          ],
          "param_str": "4002708",
          "count": 1
        }
      ],
      "failCondComb": "LOGIC_OR",
      "failCond": [
        {
          "type": "QUEST_CONTENT_NOT_FINISH_PLOT",
          "param": [
            4002708,
            0
          ],
          "param_str": ""
        },
        {
          "type": "QUEST_CONTENT_ANY_MANUAL_TRANSPORT",
          "param": [
            0,
            0
          ],
          "param_str": ""
        }
      ],
      "guide": {
        "type": "QUEST_GUIDE_LOCATION",
        "param": [
          "Q4002708_guide",
          "0"
        ],
        "guideScene": 3,
        "guideLayer": "QUEST_GUIDE_LAYER_SCENE"
      },
      "finishExec": [],
      "failExec": [
        {
          "type": "QUEST_EXEC_ROLLBACK_QUEST",
          "param": [
            "4002707"
          ],
          "param_str": ""
        },
        {
          "type": "QUEST_EXEC_SET_IS_GAME_TIME_LOCKED",
          "param": [
            "0"
          ],
          "param_str": ""
        }
      ],
      "beginExec": [
        {
          "type": "QUEST_EXEC_REGISTER_DYNAMIC_GROUP",
          "param": [
            "3",
            "133002056"
          ],
          "param_str": ""
        },
        {
          "type": "QUEST_EXEC_SET_IS_GAME_TIME_LOCKED",
          "param": [
            "1"
          ],
          "param_str": ""
        }
      ],
      "exclusiveNpcList": [
        1018,
        1002,
        1029,
        1024
      ],
      "exclusiveNpcPriority": 1050
    },
    {
      "subId": 4002709,
      "mainId": 40027,
      "order": 11,
      "descTextMapHash": 2633349796,
      "acceptCond": [
        {
          "type": "QUEST_COND_STATE_EQUAL",
          "param": [
            4002708,
            3,
            0,
            0,
            0
          ],
          "param_str": ""
        }
      ],
      "finishCond": [
        {
          "type": "QUEST_CONTENT_COMPLETE_TALK",
          "param": [
            4002704,
            0
          ],
          "param_str": ""
        }
      ],
      "failCondComb": "LOGIC_OR",
      "failCond": [
        {
          "type": "QUEST_CONTENT_NOT_FINISH_PLOT",
          "param": [
            4002709,
            0
          ],
          "param_str": ""
        },
        {
          "type": "QUEST_CONTENT_ANY_MANUAL_TRANSPORT",
          "param": [
            0,
            0
          ],
          "param_str": ""
        }
      ],
      "guide": {
        "type": "QUEST_GUIDE_NPC",
        "param": [
          "1018"
        ],
        "guideScene": 3
      },
      "isRewind": true,
      "finishExec": [
        {
          "type": "QUEST_EXEC_SET_IS_GAME_TIME_LOCKED",
          "param": [
            "1"
          ],
          "param_str": ""
        }
      ],
      "failExec": [
        {
          "type": "QUEST_EXEC_ROLLBACK_QUEST",
          "param": [
            "4002707"
          ],
          "param_str": ""
        },
        {
          "type": "QUEST_EXEC_SET_IS_GAME_TIME_LOCKED",
          "param": [
            "0"
          ],
          "param_str": ""
        }
      ],
      "beginExec": [
        {
          "type": "QUEST_EXEC_REGISTER_DYNAMIC_GROUP",
          "param": [
            "3",
            "133002056"
          ],
          "param_str": ""
        },
        {
          "type": "QUEST_EXEC_REFRESH_GROUP_SUITE",
          "param": [
            "3",
            "133002927,5;133002056,2"
          ],
          "param_str": ""
        }
      ],
      "exclusiveNpcList": [
        1018,
        1002,
        1029,
        1024
      ],
      "exclusiveNpcPriority": 1050
    },
    {
      "subId": 4002710,
      "mainId": 40027,
      "order": 12,
      "descTextMapHash": 146702476,
      "acceptCond": [
        {
          "type": "QUEST_COND_STATE_EQUAL",
          "param": [
            4002709,
            3,
            0,
            0,
            0
          ],
          "param_str": ""
        }
      ],
      "finishCond": [
        {
          "type": "QUEST_CONTENT_COMPLETE_TALK",
          "param": [
            4002705,
            0
          ],
          "param_str": ""
        }
      ],
      "failCondComb": "LOGIC_OR",
      "failCond": [
        {
          "type": "QUEST_CONTENT_NOT_FINISH_PLOT",
          "param": [
            4002710,
            0
          ],
          "param_str": ""
        },
        {
          "type": "QUEST_CONTENT_ANY_MANUAL_TRANSPORT",
          "param": [
            0,
            0
          ],
          "param_str": ""
        }
      ],
      "guide": {
        "type": "QUEST_GUIDE_LOCATION",
        "param": [
          "Q40027_player_pre"
        ],
        "guideScene": 3,
        "guideStyle": "QUEST_GUIDE_STYLE_POINT"
      },
      "isRewind": true,
      "finishExec": [
        {
          "type": "QUEST_EXEC_SET_IS_GAME_TIME_LOCKED",
          "param": [
            "1"
          ],
          "param_str": ""
        }
      ],
      "failExec": [
        {
          "type": "QUEST_EXEC_ROLLBACK_QUEST",
          "param": [
            "4002707"
          ],
          "param_str": ""
        },
        {
          "type": "QUEST_EXEC_SET_IS_GAME_TIME_LOCKED",
          "param": [
            "0"
          ],
          "param_str": ""
        }
      ],
      "beginExec": [
        {
          "type": "QUEST_EXEC_REGISTER_DYNAMIC_GROUP",
          "param": [
            "3",
            "133002056"
          ],
          "param_str": ""
        },
        {
          "type": "QUEST_EXEC_REFRESH_GROUP_SUITE",
          "param": [
            "3",
            "133002056,2"
          ],
          "param_str": ""
        },
        {
          "type": "QUEST_EXEC_REGISTER_DYNAMIC_GROUP",
          "param": [
            "3",
            "133002109"
          ],
          "param_str": ""
        }
      ],
      "exclusiveNpcList": [
        1018,
        1024
      ],
      "exclusiveNpcPriority": 1050
    },
    {
      "subId": 4002711,
      "mainId": 40027,
      "order": 13,
      "descTextMapHash": 323599884,
      "acceptCond": [
        {
          "type": "QUEST_COND_STATE_EQUAL",
          "param": [
            4002710,
            3,
            0,
            0,
            0
          ],
          "param_str": ""
        }
      ],
      "finishCond": [
        {
          "type": "QUEST_CONTENT_COMPLETE_TALK",
          "param": [
            4002706,
            0
          ],
          "param_str": ""
        }
      ],
      "failCondComb": "LOGIC_OR",
      "failCond": [
        {
          "type": "QUEST_CONTENT_NOT_FINISH_PLOT",
          "param": [
            4002711,
            0
          ],
          "param_str": ""
        },
        {
          "type": "QUEST_CONTENT_ANY_MANUAL_TRANSPORT",
          "param": [
            0,
            0
          ],
          "param_str": ""
        }
      ],
      "guide": {
        "type": "QUEST_GUIDE_LOCATION",
        "autoGuide": "QUEST_GUIDE_AUTO_ENABLE",
        "param": [
          "Q4002711_guide",
          "0"
        ],
        "guideScene": 3,
        "guideLayer": "QUEST_GUIDE_LAYER_SCENE"
      },
      "finishParent": true,
      "isRewind": true,
      "finishExec": [
        {
          "type": "QUEST_EXEC_REFRESH_GROUP_SUITE",
          "param": [
            "3",
            "133002927,1;133002928,3"
          ],
          "param_str": ""
        },
        {
          "type": "QUEST_EXEC_SET_IS_GAME_TIME_LOCKED",
          "param": [
            "0"
          ],
          "param_str": ""
        },
        {
          "type": "QUEST_EXEC_SET_GAME_TIME",
          "param": [
            "8"
          ],
          "param_str": ""
        },
        {
          "type": "QUEST_EXEC_UNREGISTER_DYNAMIC_GROUP",
          "param": [
            "133002109"
          ],
          "param_str": ""
        },
        {
          "type": "QUEST_EXEC_UNREGISTER_DYNAMIC_GROUP",
          "param": [
            "133002056"
          ],
          "param_str": ""
        }
      ],
      "failExec": [
        {
          "type": "QUEST_EXEC_ROLLBACK_QUEST",
          "param": [
            "4002707"
          ],
          "param_str": ""
        },
        {
          "type": "QUEST_EXEC_SET_IS_GAME_TIME_LOCKED",
          "param": [
            "0"
          ],
          "param_str": ""
        }
      ],
      "beginExec": [
        {
          "type": "QUEST_EXEC_REFRESH_GROUP_SUITE",
          "param": [
            "3",
            "133002927,5"
          ],
          "param_str": ""
        },
        {
          "type": "QUEST_EXEC_REGISTER_DYNAMIC_GROUP",
          "param": [
            "3",
            "133002056"
          ],
          "param_str": ""
        },
        {
          "type": "QUEST_EXEC_REFRESH_GROUP_SUITE",
          "param": [
            "3",
            "133002056,2"
          ],
          "param_str": ""
        },
        {
          "type": "QUEST_EXEC_REGISTER_DYNAMIC_GROUP",
          "param": [
            "3",
            "133002109"
          ],
          "param_str": ""
        }
      ],
      "exclusiveNpcList": [
        1018,
        1024,
        12256
      ],
      "exclusiveNpcPriority": 1050
    },
    {
      "subId": 4002712,
      "mainId": 40027,
      "order": 15,
      "descTextMapHash": 2793803524,
      "showType": "QUEST_HIDDEN",
      "acceptCond": [
        {
          "type": "QUEST_COND_STATE_EQUAL",
          "param": [
            99902,
            3,
            0,
            0,
            0
          ],
          "param_str": ""
        }
      ],
      "finishCond": [
        {
          "type": "QUEST_CONTENT_FINISH_PLOT",
          "param": [
            4002712,
            0
          ],
          "param_str": ""
        }
      ],
      "failCond": [
        {
          "type": "QUEST_CONTENT_QUEST_STATE_EQUAL",
          "param": [
            4002718,
            3
          ],
          "param_str": ""
        }
      ],
      "guide": {
        "param": []
      },
      "failParentShow": "QUEST_HIDDEN",
      "finishExec": [],
      "failExec": [],
      "beginExec": []
    },
    {
      "subId": 4002713,
      "mainId": 40027,
      "order": 15,
      "descTextMapHash": 4158636612,
      "showType": "QUEST_HIDDEN",
      "acceptCond": [
        {
          "type": "QUEST_COND_STATE_EQUAL",
          "param": [
            99902,
            3,
            0,
            0,
            0
          ],
          "param_str": ""
        }
      ],
      "finishCond": [
        {
          "type": "QUEST_CONTENT_FINISH_PLOT",
          "param": [
            4002713,
            0
          ],
          "param_str": ""
        }
      ],
      "failCond": [
        {
          "type": "QUEST_CONTENT_QUEST_STATE_EQUAL",
          "param": [
            4002718,
            3
          ],
          "param_str": ""
        }
      ],
      "guide": {
        "param": []
      },
      "failParentShow": "QUEST_HIDDEN",
      "finishExec": [],
      "failExec": [],
      "beginExec": []
    },
    {
      "subId": 4002714,
      "mainId": 40027,
      "order": 15,
      "descTextMapHash": 1775285764,
      "showType": "QUEST_HIDDEN",
      "acceptCond": [
        {
          "type": "QUEST_COND_STATE_EQUAL",
          "param": [
            99902,
            3,
            0,
            0,
            0
          ],
          "param_str": ""
        }
      ],
      "finishCond": [
        {
          "type": "QUEST_CONTENT_FINISH_PLOT",
          "param": [
            4002714,
            0
          ],
          "param_str": ""
        }
      ],
      "failCond": [
        {
          "type": "QUEST_CONTENT_QUEST_STATE_EQUAL",
          "param": [
            4002718,
            3
          ],
          "param_str": ""
        }
      ],
      "guide": {
        "param": []
      },
      "failParentShow": "QUEST_HIDDEN",
      "finishExec": [],
      "failExec": [],
      "beginExec": []
    },
    {
      "subId": 4002715,
      "mainId": 40027,
      "order": 15,
      "descTextMapHash": 3546586828,
      "showType": "QUEST_HIDDEN",
      "acceptCond": [
        {
          "type": "QUEST_COND_STATE_EQUAL",
          "param": [
            99902,
            3,
            0,
            0,
            0
          ],
          "param_str": ""
        }
      ],
      "finishCond": [
        {
          "type": "QUEST_CONTENT_FINISH_PLOT",
          "param": [
            4002715,
            0
          ],
          "param_str": ""
        }
      ],
      "failCond": [
        {
          "type": "QUEST_CONTENT_QUEST_STATE_EQUAL",
          "param": [
            4002718,
            3
          ],
          "param_str": ""
        }
      ],
      "guide": {
        "param": []
      },
      "failParentShow": "QUEST_HIDDEN",
      "finishExec": [],
      "failExec": [],
      "beginExec": []
    },
    {
      "subId": 4002716,
      "mainId": 40027,
      "order": 15,
      "descTextMapHash": 2830750524,
      "showType": "QUEST_HIDDEN",
      "acceptCond": [
        {
          "type": "QUEST_COND_STATE_EQUAL",
          "param": [
            99902,
            3,
            0,
            0,
            0
          ],
          "param_str": ""
        }
      ],
      "finishCond": [
        {
          "type": "QUEST_CONTENT_FINISH_PLOT",
          "param": [
            4002716,
            0
          ],
          "param_str": ""
        }
      ],
      "failCond": [
        {
          "type": "QUEST_CONTENT_QUEST_STATE_EQUAL",
          "param": [
            4002718,
            3
          ],
          "param_str": ""
        }
      ],
      "guide": {
        "param": []
      },
      "failParentShow": "QUEST_HIDDEN",
      "finishExec": [],
      "failExec": [],
      "beginExec": []
    },
    {
      "subId": 4002717,
      "mainId": 40027,
      "order": 15,
      "descTextMapHash": 1530521332,
      "showType": "QUEST_HIDDEN",
      "acceptCond": [
        {
          "type": "QUEST_COND_STATE_EQUAL",
          "param": [
            99902,
            3,
            0,
            0,
            0
          ],
          "param_str": ""
        }
      ],
      "finishCond": [
        {
          "type": "QUEST_CONTENT_FINISH_PLOT",
          "param": [
            4002717,
            0
          ],
          "param_str": ""
        }
      ],
      "failCond": [
        {
          "type": "QUEST_CONTENT_QUEST_STATE_EQUAL",
          "param": [
            4002718,
            3
          ],
          "param_str": ""
        }
      ],
      "guide": {
        "param": []
      },
      "failParentShow": "QUEST_HIDDEN",
      "finishExec": [],
      "failExec": [],
      "beginExec": []
    },
    {
      "subId": 4002718,
      "mainId": 40027,
      "order": 15,
      "descTextMapHash": 1498655836,
      "showType": "QUEST_HIDDEN",
      "acceptCond": [
        {
          "type": "QUEST_COND_STATE_EQUAL",
          "param": [
            99902,
            3,
            0,
            0,
            0
          ],
          "param_str": ""
        }
      ],
      "finishCond": [
        {
          "type": "QUEST_CONTENT_FINISH_PLOT",
          "param": [
            4002718,
            0
          ],
          "param_str": ""
        }
      ],
      "failCond": [],
      "guide": {
        "param": []
      },
      "failParentShow": "QUEST_HIDDEN",
      "finishExec": [],
      "failExec": [],
      "beginExec": []
    },
    {
      "subId": 4002719,
      "mainId": 40027,
      "order": 4,
      "descTextMapHash": 3392558900,
      "showType": "QUEST_HIDDEN",
      "acceptCond": [
        {
          "type": "QUEST_COND_STATE_EQUAL",
          "param": [
            4002702,
            3,
            0,
            0,
            0
          ],
          "param_str": ""
        }
      ],
      "finishCond": [
        {
          "type": "QUEST_CONTENT_FINISH_PLOT",
          "param": [
            4002719,
            0
          ],
          "param_str": ""
        }
      ],
      "failCond": [],
      "guide": {
        "param": []
      },
      "failParentShow": "QUEST_HIDDEN",
      "finishExec": [
        {
          "type": "QUEST_EXEC_NOTIFY_GROUP_LUA",
          "param": [
            "3",
            "133002055"
          ],
          "param_str": ""
        }
      ],
      "failExec": [],
      "beginExec": [
        {
          "type": "QUEST_EXEC_REGISTER_DYNAMIC_GROUP",
          "param": [
            "3",
            "133002055"
          ],
          "param_str": ""
        }
      ]
    },
    {
      "subId": 4002720,
      "mainId": 40027,
      "order": 10,
      "descTextMapHash": 3740679244,
      "showType": "QUEST_HIDDEN",
      "acceptCond": [
        {
          "type": "QUEST_COND_STATE_EQUAL",
          "param": [
            4002707,
            3,
            0,
            0,
            0
          ],
          "param_str": ""
        }
      ],
      "finishCond": [
        {
          "type": "QUEST_CONTENT_FINISH_PLOT",
          "param": [
            4002720,
            0
          ],
          "param_str": ""
        }
      ],
      "failCond": [],
      "guide": {
        "param": []
      },
      "showGuide": "QUEST_GUIDE_ITEM_DISABLE",
      "finishExec": [
        {
          "type": "QUEST_EXEC_SET_GAME_TIME",
          "param": [
            "21"
          ],
          "param_str": ""
        }
      ],
      "failExec": [],
      "beginExec": [],
      "exclusiveNpcList": [
        1002,
        1024,
        1018,
        1029
      ]
    }
  ],
  "talks": [
    {
      "id": 4002701,
      "beginWay": "TALK_BEGIN_MANUAL",
      "activeMode": "PLAY_MODE_SINGLE",
      "beginCond": [
        {
          "type": "QUEST_COND_STATE_EQUAL",
          "param": [
            "4002701",
            "2"
          ],
          "param_str": ""
        }
      ],
      "priority": 5,
      "initDialog": 400270101,
      "npcId": [
        1018
      ],
      "performCfg": "QuestDialogue/EQ/WinterCamp_40027/Q4002701",
      "heroTalk": "TALK_HERO_MAIN",
      "questId": 40027,
      "prePerformCfg": "",
      "lockGameTime": true
    },
    {
      "id": 4002702,
      "beginWay": "TALK_BEGIN_MANUAL",
      "activeMode": "PLAY_MODE_SINGLE",
      "beginCond": [
        {
          "type": "QUEST_COND_STATE_EQUAL",
          "param": [
            "4002704",
            "2"
          ],
          "param_str": ""
        }
      ],
      "priority": 5,
      "initDialog": 400270201,
      "npcId": [
        1029,
        1002,
        1024,
        1018
      ],
      "performCfg": "QuestDialogue/EQ/WinterCamp_40027/Q4002702",
      "heroTalk": "TALK_HERO_MAIN",
      "questId": 40027,
      "prePerformCfg": "",
      "lockGameTime": true
    },
    {
      "id": 4002703,
      "beginWay": "TALK_BEGIN_MANUAL",
      "activeMode": "PLAY_MODE_SINGLE",
      "beginCond": [
        {
          "type": "QUEST_COND_STATE_EQUAL",
          "param": [
            "4002705",
            "2"
          ],
          "param_str": ""
        }
      ],
      "priority": 5,
      "initDialog": 400270301,
      "npcId": [
        1018,
        1002,
        1029,
        1024
      ],
      "performCfg": "QuestDialogue/EQ/WinterCamp_40027/Q4002703",
      "heroTalk": "TALK_HERO_MAIN",
      "questId": 40027,
      "prePerformCfg": "",
      "lockGameTime": true
    },
    {
      "id": 4002704,
      "beginWay": "TALK_BEGIN_MANUAL",
      "activeMode": "PLAY_MODE_SINGLE",
      "beginCond": [
        {
          "type": "QUEST_COND_STATE_EQUAL",
          "param": [
            "4002709",
            "2"
          ],
          "param_str": ""
        }
      ],
      "priority": 5,
      "initDialog": 400270401,
      "npcId": [
        1018,
        1024,
        1029,
        1002
      ],
      "performCfg": "QuestDialogue/EQ/WinterCamp_40027/Q4002704",
      "heroTalk": "TALK_HERO_MAIN",
      "questId": 40027,
      "prePerformCfg": "",
      "lockGameTime": true
    },
    {
      "id": 4002705,
      "beginWay": "TALK_BEGIN_MANUAL",
      "activeMode": "PLAY_MODE_SINGLE",
      "beginCond": [
        {
          "type": "QUEST_COND_STATE_EQUAL",
          "param": [
            "4002710",
            "2"
          ],
          "param_str": ""
        }
      ],
      "priority": 5,
      "initDialog": 400270501,
      "npcId": [
        1018
      ],
      "performCfg": "QuestDialogue/EQ/WinterCamp_40027/Q4002705",
      "heroTalk": "TALK_HERO_MAIN",
      "questId": 40027,
      "prePerformCfg": "",
      "lockGameTime": true
    },
    {
      "id": 4002706,
      "beginWay": "TALK_BEGIN_MANUAL",
      "activeMode": "PLAY_MODE_SINGLE",
      "beginCond": [
        {
          "type": "QUEST_COND_STATE_EQUAL",
          "param": [
            "4002711",
            "2"
          ],
          "param_str": ""
        }
      ],
      "priority": 5,
      "initDialog": 400270601,
      "npcId": [
        12256
      ],
      "performCfg": "QuestDialogue/EQ/WinterCamp_40027/Q4002706",
      "heroTalk": "TALK_HERO_MAIN",
      "questId": 40027,
      "prePerformCfg": "",
      "lockGameTime": true
    },
    {
      "id": 4002707,
      "beginWay": "TALK_BEGIN_MANUAL",
      "activeMode": "PLAY_MODE_SINGLE",
      "beginCondComb": "LOGIC_OR",
      "beginCond": [
        {
          "type": "QUEST_COND_STATE_EQUAL",
          "param": [
            "4002706",
            "2"
          ],
          "param_str": ""
        },
        {
          "type": "QUEST_COND_STATE_EQUAL",
          "param": [
            "4002707",
            "2"
          ],
          "param_str": ""
        },
        {
          "type": "QUEST_COND_STATE_EQUAL",
          "param": [
            "4002708",
            "2"
          ],
          "param_str": ""
        }
      ],
      "priority": 5,
      "initDialog": 400270701,
      "npcId": [
        1002
      ],
      "performCfg": "QuestDialogue/EQ/WinterCamp_40027/Q4002707",
      "heroTalk": "TALK_HERO_MAIN",
      "questId": 40027,
      "prePerformCfg": "",
      "lockGameTime": true,
      "lowPriority": true
    },
    {
      "id": 4002708,
      "beginWay": "TALK_BEGIN_MANUAL",
      "activeMode": "PLAY_MODE_SINGLE",
      "beginCondComb": "LOGIC_OR",
      "beginCond": [
        {
          "type": "QUEST_COND_STATE_EQUAL",
          "param": [
            "4002706",
            "2"
          ],
          "param_str": ""
        },
        {
          "type": "QUEST_COND_STATE_EQUAL",
          "param": [
            "4002707",
            "2"
          ],
          "param_str": ""
        },
        {
          "type": "QUEST_COND_STATE_EQUAL",
          "param": [
            "4002708",
            "2"
          ],
          "param_str": ""
        }
      ],
      "priority": 5,
      "initDialog": 400270801,
      "npcId": [
        1024
      ],
      "performCfg": "QuestDialogue/EQ/WinterCamp_40027/Q4002708",
      "heroTalk": "TALK_HERO_MAIN",
      "questId": 40027,
      "prePerformCfg": "",
      "lockGameTime": true,
      "lowPriority": true
    },
    {
      "id": 4002709,
      "beginWay": "TALK_BEGIN_MANUAL",
      "activeMode": "PLAY_MODE_SINGLE",
      "beginCondComb": "LOGIC_OR",
      "beginCond": [
        {
          "type": "QUEST_COND_STATE_EQUAL",
          "param": [
            "4002706",
            "2"
          ],
          "param_str": ""
        },
        {
          "type": "QUEST_COND_STATE_EQUAL",
          "param": [
            "4002707",
            "2"
          ],
          "param_str": ""
        },
        {
          "type": "QUEST_COND_STATE_EQUAL",
          "param": [
            "4002708",
            "2"
          ],
          "param_str": ""
        }
      ],
      "priority": 5,
      "initDialog": 400270901,
      "npcId": [
        1029
      ],
      "performCfg": "QuestDialogue/EQ/WinterCamp_40027/Q4002709",
      "heroTalk": "TALK_HERO_MAIN",
      "questId": 40027,
      "prePerformCfg": "",
      "lockGameTime": true,
      "lowPriority": true
    },
    {
      "id": 4002710,
      "beginWay": "TALK_BEGIN_MANUAL",
      "activeMode": "PLAY_MODE_SINGLE",
      "beginCondComb": "LOGIC_OR",
      "beginCond": [
        {
          "type": "QUEST_COND_STATE_EQUAL",
          "param": [
            "4002706",
            "2"
          ],
          "param_str": ""
        },
        {
          "type": "QUEST_COND_STATE_EQUAL",
          "param": [
            "4002707",
            "2"
          ],
          "param_str": ""
        },
        {
          "type": "QUEST_COND_STATE_EQUAL",
          "param": [
            "4002708",
            "2"
          ],
          "param_str": ""
        }
      ],
      "priority": 5,
      "nextTalks": [
        4002715,
        4002711,
        4002712,
        4002713,
        4002714,
        4002716
      ],
      "initDialog": 400271001,
      "npcId": [
        1018
      ],
      "performCfg": "QuestDialogue/EQ/WinterCamp_40027/Q4002710",
      "heroTalk": "TALK_HERO_MAIN",
      "questId": 40027,
      "prePerformCfg": "",
      "lockGameTime": true,
      "lowPriority": true
    },
    {
      "id": 4002711,
      "activeMode": "PLAY_MODE_SINGLE",
      "beginCondComb": "LOGIC_OR",
      "beginCond": [
        {
          "type": "QUEST_COND_STATE_EQUAL",
          "param": [
            "4002706",
            "2"
          ],
          "param_str": ""
        },
        {
          "type": "QUEST_COND_STATE_EQUAL",
          "param": [
            "4002707",
            "2"
          ],
          "param_str": ""
        },
        {
          "type": "QUEST_COND_STATE_EQUAL",
          "param": [
            "4002708",
            "2"
          ],
          "param_str": ""
        }
      ],
      "priority": 5,
      "nextTalks": [
        4002715,
        4002711,
        4002712,
        4002713,
        4002714,
        4002716
      ],
      "initDialog": 400271101,
      "npcId": [
        1018
      ],
      "performCfg": "QuestDialogue/EQ/WinterCamp_40027/Q4002711",
      "heroTalk": "TALK_HERO_MAIN",
      "questId": 40027,
      "prePerformCfg": "",
      "lockGameTime": true,
      "lowPriority": true
    },
    {
      "id": 4002712,
      "activeMode": "PLAY_MODE_SINGLE",
      "beginCondComb": "LOGIC_OR",
      "beginCond": [
        {
          "type": "QUEST_COND_STATE_EQUAL",
          "param": [
            "4002706",
            "2"
          ],
          "param_str": ""
        },
        {
          "type": "QUEST_COND_STATE_EQUAL",
          "param": [
            "4002707",
            "2"
          ],
          "param_str": ""
        },
        {
          "type": "QUEST_COND_STATE_EQUAL",
          "param": [
            "4002708",
            "2"
          ],
          "param_str": ""
        }
      ],
      "priority": 5,
      "nextTalks": [
        4002715,
        4002711,
        4002712,
        4002713,
        4002714,
        4002716
      ],
      "initDialog": 400271201,
      "npcId": [
        1018
      ],
      "performCfg": "QuestDialogue/EQ/WinterCamp_40027/Q4002712",
      "heroTalk": "TALK_HERO_MAIN",
      "questId": 40027,
      "prePerformCfg": "",
      "lockGameTime": true,
      "lowPriority": true
    },
    {
      "id": 4002713,
      "activeMode": "PLAY_MODE_SINGLE",
      "beginCondComb": "LOGIC_OR",
      "beginCond": [
        {
          "type": "QUEST_COND_STATE_EQUAL",
          "param": [
            "4002706",
            "2"
          ],
          "param_str": ""
        },
        {
          "type": "QUEST_COND_STATE_EQUAL",
          "param": [
            "4002707",
            "2"
          ],
          "param_str": ""
        },
        {
          "type": "QUEST_COND_STATE_EQUAL",
          "param": [
            "4002708",
            "2"
          ],
          "param_str": ""
        }
      ],
      "priority": 5,
      "nextTalks": [
        4002715,
        4002711,
        4002712,
        4002713,
        4002714,
        4002716
      ],
      "initDialog": 400271301,
      "npcId": [
        1018
      ],
      "performCfg": "QuestDialogue/EQ/WinterCamp_40027/Q4002713",
      "heroTalk": "TALK_HERO_MAIN",
      "questId": 40027,
      "prePerformCfg": "",
      "lockGameTime": true,
      "lowPriority": true
    },
    {
      "id": 4002714,
      "activeMode": "PLAY_MODE_SINGLE",
      "beginCondComb": "LOGIC_OR",
      "beginCond": [
        {
          "type": "QUEST_COND_STATE_EQUAL",
          "param": [
            "4002706",
            "2"
          ],
          "param_str": ""
        },
        {
          "type": "QUEST_COND_STATE_EQUAL",
          "param": [
            "4002707",
            "2"
          ],
          "param_str": ""
        },
        {
          "type": "QUEST_COND_STATE_EQUAL",
          "param": [
            "4002708",
            "2"
          ],
          "param_str": ""
        }
      ],
      "priority": 5,
      "nextTalks": [
        4002715,
        4002711,
        4002712,
        4002713,
        4002714,
        4002716
      ],
      "initDialog": 400271401,
      "npcId": [
        1018
      ],
      "performCfg": "QuestDialogue/EQ/WinterCamp_40027/Q4002714",
      "heroTalk": "TALK_HERO_MAIN",
      "questId": 40027,
      "prePerformCfg": "",
      "lockGameTime": true,
      "lowPriority": true
    },
    {
      "id": 4002715,
      "activeMode": "PLAY_MODE_SINGLE",
      "beginCond": [
        {
          "type": "QUEST_COND_STATE_EQUAL",
          "param": [
            "4002707",
            "2"
          ],
          "param_str": ""
        }
      ],
      "priority": 5,
      "initDialog": 400271501,
      "npcId": [
        1018
      ],
      "performCfg": "QuestDialogue/EQ/WinterCamp_40027/Q4002715",
      "heroTalk": "TALK_HERO_MAIN",
      "questId": 40027,
      "prePerformCfg": "",
      "lockGameTime": true
    },
    {
      "id": 4002716,
      "activeMode": "PLAY_MODE_SINGLE",
      "beginCondComb": "LOGIC_OR",
      "beginCond": [
        {
          "type": "QUEST_COND_STATE_EQUAL",
          "param": [
            "4002706",
            "2"
          ],
          "param_str": ""
        },
        {
          "type": "QUEST_COND_STATE_EQUAL",
          "param": [
            "4002707",
            "2"
          ],
          "param_str": ""
        },
        {
          "type": "QUEST_COND_STATE_EQUAL",
          "param": [
            "4002708",
            "2"
          ],
          "param_str": ""
        }
      ],
      "priority": 5,
      "initDialog": 400271601,
      "npcId": [
        1018
      ],
      "performCfg": "QuestDialogue/EQ/WinterCamp_40027/Q4002716",
      "heroTalk": "TALK_HERO_MAIN",
      "questId": 40027,
      "prePerformCfg": "",
      "lockGameTime": true,
      "lowPriority": true
    },
    {
      "id": 4002717,
      "beginWay": "TALK_BEGIN_MANUAL",
      "activeMode": "PLAY_MODE_SINGLE",
      "beginCondComb": "LOGIC_OR",
      "beginCond": [
        {
          "type": "QUEST_COND_STATE_EQUAL",
          "param": [
            "4002710",
            "2"
          ],
          "param_str": ""
        },
        {
          "type": "QUEST_COND_STATE_EQUAL",
          "param": [
            "4002711",
            "2"
          ],
          "param_str": ""
        }
      ],
      "priority": 5,
      "initDialog": 400271701,
      "npcId": [
        1024
      ],
      "performCfg": "QuestDialogue/EQ/WinterCamp_40027/Q4002717",
      "heroTalk": "TALK_HERO_MAIN",
      "questId": 40027,
      "prePerformCfg": "",
      "lockGameTime": true,
      "lowPriority": true
    }
  ]
}