{
  "id": 40031,
  "type": "WQ",
  "titleTextMapHash": 1008905071,
  "descTextMapHash": 171869670,
  "luaPath": "Actor/Quest/WQ40031",
  "rewardIdList": [
    140031
  ],
  "subQuests": [
    {
      "subId": 4003101,
      "mainId": 40031,
      "order": 1,
      "descTextMapHash": 1435726892,
      "acceptCond": [
        {
          "type": "QUEST_COND_ACTIVITY_COND",
          "param": [
            5051001,
            1,
            0,
            0,
            0
          ],
          "param_str": ""
        }
      ],
      "finishCond": [
        {
          "type": "QUEST_CONTENT_COMPLETE_TALK",
          "param": [
            4003101,
            0
          ],
          "param_str": ""
        }
      ],
      "failCond": [],
      "guide": {
        "type": "QUEST_GUIDE_NPC",
        "autoGuide": "QUEST_GUIDE_AUTO_ENABLE",
        "param": [
          "3004"
        ],
        "guideScene": 3,
        "guideStyle": "QUEST_GUIDE_STYLE_TARGET",
        "guideLayer": "QUEST_GUIDE_LAYER_SCENE"
      },
      "isRewind": true,
      "finishExec": [],
      "failExec": [],
      "beginExec": [],
      "exclusiveNpcList": [
        3004
      ],
      "exclusiveNpcPriority": 1100
    },
    {
      "subId": 4003102,
      "mainId": 40031,
      "order": 2,
      "descTextMapHash": 4292114156,
      "acceptCond": [
        {
          "type": "QUEST_COND_STATE_EQUAL",
          "param": [
            4003101,
            3,
            0,
            0,
            0
          ],
          "param_str": ""
        }
      ],
      "finishCond": [
        {
          "type": "QUEST_CONTENT_COMPLETE_TALK",
          "param": [
            4003102,
            0
          ],
          "param_str": ""
        }
      ],
      "failCond": [],
      "guide": {
        "type": "QUEST_GUIDE_NPC",
        "autoGuide": "QUEST_GUIDE_AUTO_ENABLE",
        "param": [
          "3041"
        ],
        "guideScene": 3,
        "guideStyle": "QUEST_GUIDE_STYLE_TARGET",
        "guideLayer": "QUEST_GUIDE_LAYER_SCENE"
      },
      "isRewind": true,
      "finishExec": [],
      "failExec": [],
      "beginExec": [],
      "exclusiveNpcList": [
        3041,
        3042
      ],
      "exclusiveNpcPriority": 1100
    },
    {
      "subId": 4003103,
      "mainId": 40031,
      "order": 3,
      "isMpBlock": true,
      "descTextMapHash": 742085340,
      "acceptCond": [
        {
          "type": "QUEST_COND_STATE_EQUAL",
          "param": [
            4003102,
            3,
            0,
            0,
            0
          ],
          "param_str": ""
        }
      ],
      "finishCond": [
        {
          "type": "QUEST_CONTENT_COMPLETE_TALK",
          "param": [
            4003103,
            0
          ],
          "param_str": ""
        }
      ],
      "failCond": [],
      "guide": {
        "type": "QUEST_GUIDE_NPC",
        "param": [
          "3042"
        ],
        "guideScene": 3,
        "guideStyle": "QUEST_GUIDE_STYLE_TARGET",
        "guideLayer": "QUEST_GUIDE_LAYER_SCENE"
      },
      "isRewind": true,
      "finishExec": [
        {
          "type": "QUEST_EXEC_NOTIFY_GROUP_LUA",
          "param": [
            "3",
            "133212590"
          ],
          "param_str": ""
        }
      ],
      "failExec": [],
      "beginExec": [],
      "exclusiveNpcList": [
        3041,
        3042
      ],
      "exclusiveNpcPriority": 1100,
      "exclusivePlaceList": [
        321201
      ]
    },
    {
      "subId": 4003104,
      "mainId": 40031,
      "order": 6,
      "descTextMapHash": 3481431516,
      "acceptCond": [
        {
          "type": "QUEST_COND_STATE_EQUAL",
          "param": [
            4003103,
            3,
            0,
            0,
            0
          ],
          "param_str": ""
        }
      ],
      "finishCond": [
        {
          "type": "QUEST_CONTENT_LUA_NOTIFY",
          "param": [
            0,
            0
          ],
          "param_str": "133212590_finish",
          "count": 1
        }
      ],
      "failCond": [],
      "guide": {
        "param": [],
        "guideScene": 3,
        "guideLayer": "QUEST_GUIDE_LAYER_SCENE"
      },
      "isRewind": true,
      "finishExec": [],
      "failExec": [],
      "beginExec": [],
      "exclusiveNpcList": [
        3042
      ],
      "exclusiveNpcPriority": 1100,
      "exclusivePlaceList": [
        321201
      ]
    },
    {
      "subId": 4003105,
      "mainId": 40031,
      "order": 7,
      "descTextMapHash": 3494897100,
      "acceptCond": [
        {
          "type": "QUEST_COND_STATE_EQUAL",
          "param": [
            4003104,
            3,
            0,
            0,
            0
          ],
          "param_str": ""
        }
      ],
      "finishCond": [
        {
          "type": "QUEST_CONTENT_COMPLETE_TALK",
          "param": [
            4003105,
            0
          ],
          "param_str": ""
        }
      ],
      "failCond": [],
      "guide": {
        "type": "QUEST_GUIDE_NPC",
        "autoGuide": "QUEST_GUIDE_AUTO_ENABLE",
        "param": [
          "3042"
        ],
        "guideScene": 3,
        "guideStyle": "QUEST_GUIDE_STYLE_TARGET",
        "guideLayer": "QUEST_GUIDE_LAYER_SCENE"
      },
      "isRewind": true,
      "finishExec": [],
      "failExec": [],
      "beginExec": [],
      "exclusiveNpcList": [
        3042
      ],
      "exclusiveNpcPriority": 1100
    },
    {
      "subId": 4003106,
      "mainId": 40031,
      "order": 8,
      "descTextMapHash": 2707655932,
      "acceptCond": [
        {
          "type": "QUEST_COND_STATE_EQUAL",
          "param": [
            4003105,
            3,
            0,
            0,
            0
          ],
          "param_str": ""
        }
      ],
      "finishCond": [
        {
          "type": "QUEST_CONTENT_FINISH_PLOT",
          "param": [
            4003106,
            0
          ],
          "param_str": ""
        }
      ],
      "failCond": [],
      "guide": {
        "type": "QUEST_GUIDE_LOCATION",
        "autoGuide": "QUEST_GUIDE_AUTO_ENABLE",
        "param": [
          "Q40031Game02"
        ],
        "guideScene": 3,
        "guideStyle": "QUEST_GUIDE_STYLE_POINT",
        "guideLayer": "QUEST_GUIDE_LAYER_SCENE"
      },
      "isRewind": true,
      "finishExec": [
        {
          "type": "QUEST_EXEC_NOTIFY_GROUP_LUA",
          "param": [
            "3",
            "133212598"
          ],
          "param_str": ""
        }
      ],
      "failExec": [],
      "beginExec": [],
      "exclusiveNpcList": [
        3042
      ],
      "exclusiveNpcPriority": 1100
    },
    {
      "subId": 4003107,
      "mainId": 40031,
      "order": 9,
      "descTextMapHash": 3479582548,
      "acceptCond": [
        {
          "type": "QUEST_COND_STATE_EQUAL",
          "param": [
            4003106,
            3,
            0,
            0,
            0
          ],
          "param_str": ""
        }
      ],
      "finishCond": [
        {
          "type": "QUEST_CONTENT_LUA_NOTIFY",
          "param": [
            0,
            0
          ],
          "param_str": "133212598_finish",
          "count": 1
        }
      ],
      "failCond": [],
      "guide": {
        "autoGuide": "QUEST_GUIDE_AUTO_ENABLE",
        "param": [],
        "guideScene": 3,
        "guideLayer": "QUEST_GUIDE_LAYER_SCENE"
      },
      "isRewind": true,
      "finishExec": [],
      "failExec": [],
      "beginExec": [],
      "exclusiveNpcList": [
        3042
      ],
      "exclusiveNpcPriority": 1100
    },
    {
      "subId": 4003108,
      "mainId": 40031,
      "order": 10,
      "descTextMapHash": 3437404132,
      "acceptCond": [
        {
          "type": "QUEST_COND_STATE_EQUAL",
          "param": [
            4003107,
            3,
            0,
            0,
            0
          ],
          "param_str": ""
        }
      ],
      "finishCond": [
        {
          "type": "QUEST_CONTENT_COMPLETE_TALK",
          "param": [
            4003108,
            0
          ],
          "param_str": ""
        }
      ],
      "failCond": [],
      "guide": {
        "type": "QUEST_GUIDE_NPC",
        "autoGuide": "QUEST_GUIDE_AUTO_ENABLE",
        "param": [
          "3042"
        ],
        "guideScene": 3,
        "guideStyle": "QUEST_GUIDE_STYLE_TARGET",
        "guideLayer": "QUEST_GUIDE_LAYER_SCENE"
      },
      "finishParent": true,
      "isRewind": true,
      "finishExec": [],
      "failExec": [],
      "beginExec": [],
      "exclusiveNpcList": [
        3042
      ],
      "exclusiveNpcPriority": 1100
    },
    {
      "subId": 4003109,
      "mainId": 40031,
      "order": 5,
      "descTextMapHash": 1114574932,
      "showType": "QUEST_HIDDEN",
      "acceptCond": [
        {
          "type": "QUEST_COND_STATE_EQUAL",
          "param": [
            4003102,
            3,
            0,
            0,
            0
          ],
          "param_str": ""
        }
      ],
      "finishCond": [
        {
          "type": "QUEST_CONTENT_FINISH_PLOT",
          "param": [
            4003109,
            0
          ],
          "param_str": ""
        }
      ],
      "failCond": [],
      "guide": {
        "param": []
      },
      "showGuide": "QUEST_GUIDE_ITEM_DISABLE",
      "finishExec": [
        {
          "type": "QUEST_EXEC_NOTIFY_GROUP_LUA",
          "param": [
            "3",
            "133212590"
          ],
          "param_str": ""
        }
      ],
      "failExec": [],
      "beginExec": [],
      "exclusiveNpcList": [
        3042
      ],
      "exclusiveNpcPriority": 1100
    },
    {
      "subId": 4003110,
      "mainId": 40031,
      "order": 4,
      "descTextMapHash": 1828368844,
      "showType": "QUEST_HIDDEN",
      "acceptCond": [
        {
          "type": "QUEST_COND_STATE_EQUAL",
          "param": [
            4003102,
            3,
            0,
            0,
            0
          ],
          "param_str": ""
        }
      ],
      "finishCond": [
        {
          "type": "QUEST_CONTENT_FINISH_PLOT",
          "param": [
            4003110,
            0
          ],
          "param_str": ""
        }
      ],
      "failCond": [],
      "guide": {
        "param": []
      },
      "showGuide": "QUEST_GUIDE_ITEM_DISABLE",
      "finishExec": [],
      "failExec": [],
      "beginExec": [],
      "exclusiveNpcList": [
        3042
      ],
      "exclusiveNpcPriority": 1100
    }
  ],
  "talks": [
    {
      "id": 4003101,
      "beginWay": "TALK_BEGIN_MANUAL",
      "activeMode": "PLAY_MODE_SINGLE",
      "beginCond": [
        {
          "type": "QUEST_COND_STATE_EQUAL",
          "param": [
            "4003101",
            "2"
          ],
          "param_str": ""
        }
      ],
      "priority": 5,
      "initDialog": 400310101,
      "npcId": [
        3004
      ],
      "performCfg": "QuestDialogue/EQ/Dog1_40031/Q4003101",
      "heroTalk": "TALK_HERO_MAIN",
      "questId": 40031,
      "prePerformCfg": ""
    },
    {
      "id": 4003102,
      "beginWay": "TALK_BEGIN_MANUAL",
      "activeMode": "PLAY_MODE_SINGLE",
      "beginCond": [
        {
          "type": "QUEST_COND_STATE_EQUAL",
          "param": [
            "4003102",
            "2"
          ],
          "param_str": ""
        }
      ],
      "priority": 5,
      "initDialog": 400310202,
      "npcId": [
        3041,
        3042
      ],
      "performCfg": "QuestDialogue/EQ/Dog1_40031/Q4003102",
      "heroTalk": "TALK_HERO_MAIN",
      "questId": 40031,
      "prePerformCfg": ""
    },
    {
      "id": 4003103,
      "beginWay": "TALK_BEGIN_MANUAL",
      "activeMode": "PLAY_MODE_SINGLE",
      "beginCond": [
        {
          "type": "QUEST_COND_STATE_EQUAL",
          "param": [
            "4003103",
            "2"
          ],
          "param_str": ""
        }
      ],
      "priority": 5,
      "initDialog": 400310301,
      "npcId": [
        3042
      ],
      "performCfg": "QuestDialogue/EQ/Dog1_40031/Q4003103",
      "heroTalk": "TALK_HERO_MAIN",
      "questId": 40031,
      "prePerformCfg": ""
    },
    {
      "id": 4003105,
      "beginWay": "TALK_BEGIN_MANUAL",
      "activeMode": "PLAY_MODE_SINGLE",
      "beginCond": [
        {
          "type": "QUEST_COND_STATE_EQUAL",
          "param": [
            "4003105",
            "2"
          ],
          "param_str": ""
        }
      ],
      "priority": 5,
      "initDialog": 400310501,
      "npcId": [
        3042
      ],
      "performCfg": "QuestDialogue/EQ/Dog1_40031/Q4003105",
      "heroTalk": "TALK_HERO_MAIN",
      "questId": 40031,
      "prePerformCfg": ""
    },
    {
      "id": 4003108,
      "beginWay": "TALK_BEGIN_AUTO",
      "activeMode": "PLAY_MODE_SINGLE",
      "beginCond": [
        {
          "type": "QUEST_COND_STATE_EQUAL",
          "param": [
            "4003108",
            "2"
          ],
          "param_str": ""
        }
      ],
      "priority": 5,
      "initDialog": 400310801,
      "npcId": [
        3042
      ],
      "performCfg": "QuestDialogue/EQ/Dog1_40031/Q4003108",
      "heroTalk": "TALK_HERO_MAIN",
      "questId": 40031,
      "prePerformCfg": ""
    },
    {
      "id": 4003151,
      "beginWay": "TALK_BEGIN_MANUAL",
      "activeMode": "PLAY_MODE_SINGLE",
      "beginCond": [
        {
          "type": "QUEST_COND_STATE_EQUAL",
          "param": [
            "4003103",
            "2"
          ],
          "param_str": ""
        }
      ],
      "priority": 5,
      "initDialog": 400315101,
      "npcId": [
        3041
      ],
      "performCfg": "",
      "heroTalk": "TALK_HERO_MAIN",
      "questId": 40031,
      "prePerformCfg": ""
    },
    {
      "id": 4003152,
      "beginWay": "TALK_BEGIN_MANUAL",
      "activeMode": "PLAY_MODE_SINGLE",
      "beginCond": [
        {
          "type": "QUEST_COND_STATE_EQUAL",
          "param": [
            "4003104",
            "2"
          ],
          "param_str": ""
        }
      ],
      "priority": 5,
      "initDialog": 400315201,
      "npcId": [
        3042
      ],
      "performCfg": "",
      "heroTalk": "TALK_HERO_MAIN",
      "questId": 40031,
      "prePerformCfg": ""
    }
  ]
}