{
  "id": 40044,
  "type": "EQ",
  "titleTextMapHash": 3109303,
  "descTextMapHash": 2690116414,
  "luaPath": "",
  "showType": "QUEST_HIDDEN",
  "rewardIdList": [
    140044
  ],
  "subQuests": [
    {
      "subId": 4004401,
      "mainId": 40044,
      "order": 1,
      "descTextMapHash": 3234974380,
      "showType": "QUEST_HIDDEN",
      "acceptCond": [
        {
          "type": "QUEST_COND_STATE_EQUAL",
          "param": [
            4002903,
            3,
            0,
            0,
            0
          ],
          "param_str": ""
        }
      ],
      "finishCond": [
        {
          "type": "QUEST_CONTENT_QUEST_STATE_EQUAL",
          "param": [
            4002904,
            3
          ],
          "param_str": ""
        }
      ],
      "failCond": [],
      "guide": {
        "param": []
      },
      "showGuide": "QUEST_GUIDE_ITEM_DISABLE",
      "finishParent": true,
      "failParentShow": "QUEST_HIDDEN",
      "isRewind": true,
      "finishExec": [],
      "failExec": [],
      "beginExec": []
    }
  ]
}