{
  "id": 40057,
  "type": "EQ",
  "series": 10067,
  "titleTextMapHash": 2251740031,
  "descTextMapHash": 225201078,
  "luaPath": "Actor/Quest/EQ40057",
  "suggestTrackMainQuestList": [
    40058
  ],
  "rewardIdList": [
    140057
  ],
  "chapterId": 10067,
  "subQuests": [
    {
      "subId": 4005701,
      "mainId": 40057,
      "order": 1,
      "descTextMapHash": 2877524212,
      "acceptCondComb": "LOGIC_AND",
      "acceptCond": [
        {
          "type": "QUEST_COND_STATE_EQUAL",
          "param": [
            4005610,
            3,
            0,
            0,
            0
          ],
          "param_str": ""
        },
        {
          "type": "QUEST_COND_ACTIVITY_COND",
          "param": [
            2012005,
            1,
            0,
            0,
            0
          ],
          "param_str": ""
        }
      ],
      "finishCond": [
        {
          "type": "QUEST_CONTENT_GAME_TIME_TICK",
          "param": [
            1,
            0
          ],
          "param_str": "7,9"
        }
      ],
      "failCond": [],
      "guide": {
        "param": []
      },
      "isRewind": true,
      "finishExec": [],
      "failExec": [],
      "beginExec": []
    },
    {
      "subId": 4005702,
      "mainId": 40057,
      "order": 2,
      "descTextMapHash": 369161068,
      "acceptCond": [
        {
          "type": "QUEST_COND_STATE_EQUAL",
          "param": [
            4005701,
            3,
            0,
            0,
            0
          ],
          "param_str": ""
        }
      ],
      "finishCond": [
        {
          "type": "QUEST_CONTENT_FINISH_PLOT",
          "param": [
            4005702,
            0
          ],
          "param_str": ""
        }
      ],
      "failCond": [],
      "guide": {
        "type": "QUEST_GUIDE_LOCATION",
        "autoGuide": "QUEST_GUIDE_AUTO_ENABLE",
        "param": [
          "Q4005501_MaTou"
        ],
        "guideScene": 3,
        "guideStyle": "QUEST_GUIDE_STYLE_POINT",
        "guideLayer": "QUEST_GUIDE_LAYER_SCENE"
      },
      "isRewind": true,
      "finishExec": [],
      "failExec": [],
      "beginExec": [
        {
          "type": "QUEST_EXEC_REGISTER_DYNAMIC_GROUP",
          "param": [
            "3",
            "133209070"
          ],
          "param_str": ""
        }
      ],
      "exclusiveNpcList": [
        1032
      ],
      "exclusiveNpcPriority": 1050
    },
    {
      "subId": 4005703,
      "mainId": 40057,
      "order": 3,
      "descTextMapHash": 1967892508,
      "acceptCond": [
        {
          "type": "QUEST_COND_STATE_EQUAL",
          "param": [
            4005702,
            3,
            0,
            0,
            0
          ],
          "param_str": ""
        }
      ],
      "finishCond": [
        {
          "type": "QUEST_CONTENT_COMPLETE_TALK",
          "param": [
            4005701,
            0
          ],
          "param_str": ""
        }
      ],
      "failCond": [],
      "guide": {
        "type": "QUEST_GUIDE_NPC",
        "autoGuide": "QUEST_GUIDE_AUTO_ENABLE",
        "param": [
          "1032"
        ],
        "guideScene": 3,
        "guideStyle": "QUEST_GUIDE_STYLE_TARGET",
        "guideLayer": "QUEST_GUIDE_LAYER_SCENE"
      },
      "finishExec": [],
      "failExec": [],
      "beginExec": [
        {
          "type": "QUEST_EXEC_REGISTER_DYNAMIC_GROUP_ONLY",
          "param": [
            "133209070"
          ],
          "param_str": ""
        },
        {
          "type": "QUEST_EXEC_SET_GAME_TIME",
          "param": [
            "8"
          ],
          "param_str": ""
        }
      ],
      "exclusiveNpcList": [
        1032
      ],
      "exclusiveNpcPriority": 1050
    },
    {
      "subId": 4005704,
      "mainId": 40057,
      "order": 4,
      "descTextMapHash": 2167054580,
      "acceptCond": [
        {
          "type": "QUEST_COND_STATE_EQUAL",
          "param": [
            4005703,
            3,
            0,
            0,
            0
          ],
          "param_str": ""
        }
      ],
      "finishCond": [
        {
          "type": "QUEST_CONTENT_COMPLETE_TALK",
          "param": [
            4005702,
            0
          ],
          "param_str": ""
        }
      ],
      "failCond": [],
      "guide": {
        "type": "QUEST_GUIDE_NPC",
        "autoGuide": "QUEST_GUIDE_AUTO_ENABLE",
        "param": [
          "1018"
        ],
        "guideScene": 3,
        "guideStyle": "QUEST_GUIDE_STYLE_TARGET",
        "guideLayer": "QUEST_GUIDE_LAYER_SCENE"
      },
      "isRewind": true,
      "finishExec": [
        {
          "type": "QUEST_EXEC_UNREGISTER_DYNAMIC_GROUP",
          "param": [
            "133209070"
          ],
          "param_str": ""
        }
      ],
      "failExec": [],
      "beginExec": [
        {
          "type": "QUEST_EXEC_REGISTER_DYNAMIC_GROUP_ONLY",
          "param": [
            "133209070"
          ],
          "param_str": ""
        }
      ],
      "exclusiveNpcList": [
        1032,
        1018
      ],
      "exclusiveNpcPriority": 1050,
      "exclusivePlaceList": [
        320905
      ]
    },
    {
      "subId": 4005705,
      "mainId": 40057,
      "order": 5,
      "descTextMapHash": 1261447500,
      "acceptCond": [
        {
          "type": "QUEST_COND_STATE_EQUAL",
          "param": [
            4005704,
            3,
            0,
            0,
            0
          ],
          "param_str": ""
        }
      ],
      "finishCond": [
        {
          "type": "QUEST_CONTENT_FINISH_PLOT",
          "param": [
            4005705,
            0
          ],
          "param_str": ""
        }
      ],
      "failCond": [],
      "guide": {
        "type": "QUEST_GUIDE_LOCATION",
        "autoGuide": "QUEST_GUIDE_AUTO_ENABLE",
        "param": [
          "Q4005605_guide",
          "5"
        ],
        "guideScene": 1066,
        "guideLayer": "QUEST_GUIDE_LAYER_SCENE"
      },
      "isRewind": true,
      "finishExec": [],
      "failExec": [],
      "beginExec": [
        {
          "type": "QUEST_EXEC_REFRESH_GROUP_SUITE",
          "param": [
            "1066",
            "201066002,2"
          ],
          "param_str": ""
        }
      ],
      "exclusiveNpcList": [
        1032,
        1018,
        10045,
        30139,
        3000,
        3190
      ],
      "exclusiveNpcPriority": 1050,
      "exclusivePlaceList": [
        106601
      ]
    },
    {
      "subId": 4005706,
      "mainId": 40057,
      "order": 6,
      "descTextMapHash": 484181524,
      "acceptCond": [
        {
          "type": "QUEST_COND_STATE_EQUAL",
          "param": [
            4005705,
            3,
            0,
            0,
            0
          ],
          "param_str": ""
        }
      ],
      "finishCond": [
        {
          "type": "QUEST_CONTENT_COMPLETE_TALK",
          "param": [
            4005703,
            0
          ],
          "param_str": ""
        }
      ],
      "failCond": [],
      "guide": {
        "type": "QUEST_GUIDE_NPC",
        "autoGuide": "QUEST_GUIDE_AUTO_ENABLE",
        "param": [
          "10045"
        ],
        "guideScene": 1066,
        "guideStyle": "QUEST_GUIDE_STYLE_TARGET",
        "guideLayer": "QUEST_GUIDE_LAYER_SCENE"
      },
      "isRewind": true,
      "finishExec": [],
      "failExec": [],
      "beginExec": [],
      "exclusiveNpcList": [
        1032,
        1018,
        10045,
        30139,
        3000,
        3190,
        12435,
        30150
      ],
      "exclusiveNpcPriority": 1050,
      "exclusivePlaceList": [
        106601
      ]
    },
    {
      "subId": 4005707,
      "mainId": 40057,
      "order": 7,
      "descTextMapHash": 3619709996,
      "acceptCond": [
        {
          "type": "QUEST_COND_STATE_EQUAL",
          "param": [
            4005706,
            3,
            0,
            0,
            0
          ],
          "param_str": ""
        }
      ],
      "finishCondComb": "LOGIC_OR",
      "finishCond": [
        {
          "type": "QUEST_CONTENT_FINISH_PLOT",
          "param": [
            4005707,
            0
          ],
          "param_str": ""
        },
        {
          "type": "QUEST_CONTENT_ENTER_MY_WORLD",
          "param": [
            3,
            0
          ],
          "param_str": ""
        }
      ],
      "failCond": [],
      "guide": {
        "type": "QUEST_GUIDE_LOCATION",
        "autoGuide": "QUEST_GUIDE_AUTO_ENABLE",
        "param": [
          "Q4005707_OutSideWuYouTing"
        ],
        "guideScene": 3,
        "guideStyle": "QUEST_GUIDE_STYLE_POINT",
        "guideLayer": "QUEST_GUIDE_LAYER_SCENE"
      },
      "isRewind": true,
      "finishExec": [],
      "failExec": [],
      "beginExec": [],
      "exclusiveNpcList": [
        1032,
        1018,
        10045,
        30139,
        3000,
        3190
      ],
      "exclusiveNpcPriority": 1050,
      "exclusivePlaceList": [
        4005605
      ]
    },
    {
      "subId": 4005708,
      "mainId": 40057,
      "order": 8,
      "descTextMapHash": 3717666252,
      "acceptCond": [
        {
          "type": "QUEST_COND_STATE_EQUAL",
          "param": [
            4005707,
            3,
            0,
            0,
            0
          ],
          "param_str": ""
        }
      ],
      "finishCond": [
        {
          "type": "QUEST_CONTENT_COMPLETE_TALK",
          "param": [
            4005704,
            0
          ],
          "param_str": ""
        }
      ],
      "failCond": [],
      "guide": {
        "type": "QUEST_GUIDE_LOCATION",
        "autoGuide": "QUEST_GUIDE_AUTO_ENABLE",
        "param": [
          "Q4005707_OutSideWuYouTing"
        ],
        "guideScene": 3,
        "guideStyle": "QUEST_GUIDE_STYLE_POINT",
        "guideLayer": "QUEST_GUIDE_LAYER_SCENE"
      },
      "isRewind": true,
      "finishExec": [],
      "failExec": [],
      "beginExec": [
        {
          "type": "QUEST_EXEC_REFRESH_GROUP_SUITE",
          "param": [
            "1066",
            "201066002,1"
          ],
          "param_str": ""
        }
      ],
      "exclusiveNpcList": [
        1032,
        1018,
        10045,
        1013,
        1001
      ],
      "exclusiveNpcPriority": 1050,
      "exclusivePlaceList": [
        4005605
      ]
    },
    {
      "subId": 4005709,
      "mainId": 40057,
      "order": 9,
      "descTextMapHash": 636306612,
      "acceptCond": [
        {
          "type": "QUEST_COND_STATE_EQUAL",
          "param": [
            4005708,
            3,
            0,
            0,
            0
          ],
          "param_str": ""
        }
      ],
      "finishCond": [
        {
          "type": "QUEST_CONTENT_FINISH_PLOT",
          "param": [
            4005709,
            0
          ],
          "param_str": ""
        }
      ],
      "failCond": [],
      "guide": {
        "type": "QUEST_GUIDE_LOCATION",
        "param": [
          "Q4005709_BesideWater"
        ],
        "guideStyle": "QUEST_GUIDE_STYLE_POINT"
      },
      "isRewind": true,
      "finishExec": [],
      "failExec": [],
      "beginExec": [],
      "exclusiveNpcList": [
        1032,
        1018,
        10045,
        1013,
        1001
      ],
      "exclusiveNpcPriority": 1050
    },
    {
      "subId": 4005710,
      "mainId": 40057,
      "order": 10,
      "descTextMapHash": 2875581676,
      "acceptCond": [
        {
          "type": "QUEST_COND_STATE_EQUAL",
          "param": [
            4005709,
            3,
            0,
            0,
            0
          ],
          "param_str": ""
        }
      ],
      "finishCond": [
        {
          "type": "QUEST_CONTENT_COMPLETE_TALK",
          "param": [
            4005705,
            0
          ],
          "param_str": ""
        }
      ],
      "failCond": [],
      "guide": {
        "type": "QUEST_GUIDE_NPC",
        "autoGuide": "QUEST_GUIDE_AUTO_ENABLE",
        "param": [
          "1013"
        ],
        "guideScene": 3,
        "guideStyle": "QUEST_GUIDE_STYLE_TARGET",
        "guideLayer": "QUEST_GUIDE_LAYER_SCENE"
      },
      "finishExec": [
        {
          "type": "QUEST_EXEC_DEL_ALL_SPECIFIC_PACK_ITEM",
          "param": [
            "101730"
          ],
          "param_str": ""
        }
      ],
      "failExec": [],
      "beginExec": [],
      "exclusiveNpcList": [
        1032,
        1018,
        10045,
        1013,
        1001
      ],
      "exclusiveNpcPriority": 1050
    },
    {
      "subId": 4005711,
      "mainId": 40057,
      "order": 11,
      "isMpBlock": true,
      "descTextMapHash": 3816737196,
      "showType": "QUEST_HIDDEN",
      "acceptCond": [
        {
          "type": "QUEST_COND_STATE_EQUAL",
          "param": [
            4005710,
            3,
            0,
            0,
            0
          ],
          "param_str": ""
        }
      ],
      "finishCond": [
        {
          "type": "QUEST_CONTENT_FINISH_PLOT",
          "param": [
            4005711,
            0
          ],
          "param_str": ""
        }
      ],
      "failCond": [],
      "guide": {
        "param": []
      },
      "finishExec": [],
      "failExec": [],
      "beginExec": [],
      "exclusiveNpcList": [
        1032,
        1018,
        10045,
        1013,
        1001
      ],
      "exclusiveNpcPriority": 1050
    },
    {
      "subId": 4005712,
      "mainId": 40057,
      "order": 12,
      "descTextMapHash": 819800916,
      "acceptCond": [
        {
          "type": "QUEST_COND_STATE_EQUAL",
          "param": [
            4005711,
            3,
            0,
            0,
            0
          ],
          "param_str": ""
        }
      ],
      "finishCondComb": "LOGIC_OR",
      "finishCond": [
        {
          "type": "QUEST_CONTENT_FINISH_PLOT",
          "param": [
            4005712,
            0
          ],
          "param_str": ""
        },
        {
          "type": "QUEST_CONTENT_GAME_TIME_TICK",
          "param": [
            0,
            0
          ],
          "param_str": "0,24"
        }
      ],
      "failCond": [],
      "guide": {
        "type": "QUEST_GUIDE_NPC",
        "autoGuide": "QUEST_GUIDE_AUTO_ENABLE",
        "param": [
          "1013"
        ],
        "guideScene": 3,
        "guideStyle": "QUEST_GUIDE_STYLE_TARGET",
        "guideLayer": "QUEST_GUIDE_LAYER_SCENE"
      },
      "isRewind": true,
      "finishExec": [],
      "failExec": [],
      "beginExec": [],
      "exclusiveNpcList": [
        1032,
        1018,
        10045,
        1013,
        1001
      ],
      "exclusiveNpcPriority": 1050,
      "exclusivePlaceList": [
        320905
      ]
    },
    {
      "subId": 4005713,
      "mainId": 40057,
      "order": 13,
      "descTextMapHash": 165955020,
      "acceptCond": [
        {
          "type": "QUEST_COND_STATE_EQUAL",
          "param": [
            4005712,
            3,
            0,
            0,
            0
          ],
          "param_str": ""
        }
      ],
      "finishCond": [
        {
          "type": "QUEST_CONTENT_COMPLETE_TALK",
          "param": [
            4005706,
            0
          ],
          "param_str": ""
        }
      ],
      "failCond": [],
      "guide": {
        "type": "QUEST_GUIDE_NPC",
        "autoGuide": "QUEST_GUIDE_AUTO_ENABLE",
        "param": [
          "1013"
        ],
        "guideScene": 3,
        "guideStyle": "QUEST_GUIDE_STYLE_TARGET",
        "guideLayer": "QUEST_GUIDE_LAYER_SCENE"
      },
      "isRewind": true,
      "finishExec": [],
      "failExec": [],
      "beginExec": [],
      "exclusiveNpcList": [
        1032,
        1018,
        10045,
        1013,
        1001
      ],
      "exclusiveNpcPriority": 1050,
      "exclusivePlaceList": [
        320905
      ]
    },
    {
      "subId": 4005714,
      "mainId": 40057,
      "order": 14,
      "descTextMapHash": 1409302260,
      "acceptCond": [
        {
          "type": "QUEST_COND_STATE_EQUAL",
          "param": [
            4005713,
            3,
            0,
            0,
            0
          ],
          "param_str": ""
        }
      ],
      "finishCond": [
        {
          "type": "QUEST_CONTENT_COMPLETE_TALK",
          "param": [
            4005707,
            0
          ],
          "param_str": ""
        }
      ],
      "failCond": [],
      "guide": {
        "type": "QUEST_GUIDE_NPC",
        "autoGuide": "QUEST_GUIDE_AUTO_ENABLE",
        "param": [
          "1032"
        ],
        "guideScene": 3,
        "guideStyle": "QUEST_GUIDE_STYLE_TARGET",
        "guideLayer": "QUEST_GUIDE_LAYER_SCENE"
      },
      "finishParent": true,
      "isRewind": true,
      "finishExec": [
        {
          "type": "QUEST_EXEC_SET_QUEST_GLOBAL_VAR",
          "param": [
            "4005714",
            "1"
          ],
          "param_str": ""
        }
      ],
      "failExec": [],
      "beginExec": [],
      "exclusiveNpcList": [
        1032,
        1018,
        10045,
        1013,
        1001
      ],
      "exclusiveNpcPriority": 1050,
      "exclusivePlaceList": [
        320905
      ]
    }
  ],
  "talks": [
    {
      "id": 4005701,
      "beginWay": "TALK_BEGIN_MANUAL",
      "activeMode": "PLAY_MODE_SINGLE",
      "beginCond": [
        {
          "type": "QUEST_COND_STATE_EQUAL",
          "param": [
            "4005703",
            "2"
          ],
          "param_str": ""
        }
      ],
      "priority": 5,
      "initDialog": 400570101,
      "npcId": [
        1032
      ],
      "performCfg": "QuestDialogue/EQ/RongCaiJi_40057/Q4005701",
      "heroTalk": "TALK_HERO_MAIN",
      "questId": 40057,
      "prePerformCfg": ""
    },
    {
      "id": 4005702,
      "beginWay": "TALK_BEGIN_MANUAL",
      "activeMode": "PLAY_MODE_SINGLE",
      "beginCond": [
        {
          "type": "QUEST_COND_STATE_EQUAL",
          "param": [
            "4005704",
            "2"
          ],
          "param_str": ""
        }
      ],
      "priority": 5,
      "initDialog": 400570201,
      "npcId": [
        1018
      ],
      "performCfg": "QuestDialogue/EQ/RongCaiJi_40057/Q4005702",
      "heroTalk": "TALK_HERO_MAIN",
      "questId": 40057,
      "prePerformCfg": ""
    },
    {
      "id": 4005703,
      "beginWay": "TALK_BEGIN_MANUAL",
      "activeMode": "PLAY_MODE_SINGLE",
      "beginCond": [
        {
          "type": "QUEST_COND_STATE_EQUAL",
          "param": [
            "4005706",
            "2"
          ],
          "param_str": ""
        }
      ],
      "priority": 5,
      "initDialog": 400570301,
      "npcId": [
        10045
      ],
      "performCfg": "QuestDialogue/EQ/RongCaiJi_40057/Q4005703",
      "heroTalk": "TALK_HERO_MAIN",
      "questId": 40057,
      "prePerformCfg": ""
    },
    {
      "id": 4005704,
      "beginWay": "TALK_BEGIN_MANUAL",
      "activeMode": "PLAY_MODE_SINGLE",
      "beginCond": [
        {
          "type": "QUEST_COND_STATE_EQUAL",
          "param": [
            "4005708",
            "2"
          ],
          "param_str": ""
        }
      ],
      "priority": 5,
      "initDialog": 400570401,
      "npcId": [
        1013
      ],
      "performCfg": "QuestDialogue/EQ/RongCaiJi_40057/Q4005704",
      "heroTalk": "TALK_HERO_MAIN",
      "questId": 40057,
      "prePerformCfg": ""
    },
    {
      "id": 4005705,
      "beginWay": "TALK_BEGIN_MANUAL",
      "activeMode": "PLAY_MODE_SINGLE",
      "beginCond": [
        {
          "type": "QUEST_COND_STATE_EQUAL",
          "param": [
            "4005710",
            "2"
          ],
          "param_str": ""
        }
      ],
      "priority": 5,
      "initDialog": 400570501,
      "npcId": [
        1013
      ],
      "performCfg": "QuestDialogue/EQ/RongCaiJi_40057/Q4005705",
      "heroTalk": "TALK_HERO_MAIN",
      "questId": 40057,
      "prePerformCfg": ""
    },
    {
      "id": 4005706,
      "beginWay": "TALK_BEGIN_MANUAL",
      "activeMode": "PLAY_MODE_SINGLE",
      "beginCond": [
        {
          "type": "QUEST_COND_STATE_EQUAL",
          "param": [
            "4005713",
            "2"
          ],
          "param_str": ""
        }
      ],
      "priority": 5,
      "initDialog": 400570601,
      "npcId": [
        1013
      ],
      "performCfg": "QuestDialogue/EQ/RongCaiJi_40057/Q4005706",
      "heroTalk": "TALK_HERO_MAIN",
      "questId": 40057,
      "prePerformCfg": ""
    },
    {
      "id": 4005707,
      "beginWay": "TALK_BEGIN_MANUAL",
      "activeMode": "PLAY_MODE_SINGLE",
      "beginCond": [
        {
          "type": "QUEST_COND_STATE_EQUAL",
          "param": [
            "4005714",
            "2"
          ],
          "param_str": ""
        }
      ],
      "priority": 5,
      "initDialog": 400570701,
      "npcId": [
        1032
      ],
      "performCfg": "QuestDialogue/EQ/RongCaiJi_40057/Q4005707",
      "heroTalk": "TALK_HERO_MAIN",
      "questId": 40057,
      "prePerformCfg": ""
    },
    {
      "id": 4005751,
      "beginWay": "TALK_BEGIN_MANUAL",
      "activeMode": "PLAY_MODE_SINGLE",
      "beginCond": [
        {
          "type": "QUEST_COND_STATE_EQUAL",
          "param": [
            "4005707",
            "2"
          ],
          "param_str": ""
        }
      ],
      "priority": 5,
      "initDialog": 400575101,
      "npcId": [
        3000,
        30139,
        3190
      ],
      "performCfg": "QuestDialogue/EQ/RongCaiJi_40057/Q4005751",
      "heroTalk": "TALK_HERO_MAIN",
      "questId": 40057,
      "prePerformCfg": ""
    }
  ]
}