{
  "id": 40064,
  "type": "EQ",
  "series": 10088,
  "titleTextMapHash": 3313780663,
  "descTextMapHash": 618811230,
  "luaPath": "Actor/Quest/EQ40064",
  "suggestTrackMainQuestList": [
    40065
  ],
  "rewardIdList": [
    140064
  ],
  "chapterId": 10088,
  "subQuests": [
    {
      "subId": 4006401,
      "mainId": 40064,
      "order": 1,
      "descTextMapHash": 1561626052,
      "acceptCond": [
        {
          "type": "QUEST_COND_ACTIVITY_COND",
          "param": [
            2014003,
            1,
            0,
            0,
            0
          ],
          "param_str": ""
        }
      ],
      "finishCond": [
        {
          "type": "QUEST_CONTENT_COMPLETE_TALK",
          "param": [
            4006401,
            0
          ],
          "param_str": ""
        }
      ],
      "failCond": [],
      "guide": {
        "type": "QUEST_GUIDE_NPC",
        "param": [
          "1512"
        ],
        "guideScene": 3,
        "guideStyle": "QUEST_GUIDE_STYLE_TARGET",
        "guideLayer": "QUEST_GUIDE_LAYER_SCENE"
      },
      "isRewind": true,
      "finishExec": [],
      "failExec": [],
      "beginExec": [
        {
          "type": "QUEST_EXEC_REGISTER_DYNAMIC_GROUP",
          "param": [
            "3",
            "133004071"
          ],
          "param_str": ""
        }
      ],
      "exclusiveNpcList": [
        1512
      ],
      "exclusiveNpcPriority": 1050
    },
    {
      "subId": 4006402,
      "mainId": 40064,
      "order": 2,
      "descTextMapHash": 2650896172,
      "acceptCond": [
        {
          "type": "QUEST_COND_STATE_EQUAL",
          "param": [
            4006401,
            3,
            0,
            0,
            0
          ],
          "param_str": ""
        }
      ],
      "finishCond": [
        {
          "type": "QUEST_CONTENT_COMPLETE_TALK",
          "param": [
            4006402,
            0
          ],
          "param_str": ""
        }
      ],
      "failCond": [],
      "guide": {
        "type": "QUEST_GUIDE_NPC",
        "param": [
          "10011"
        ],
        "guideScene": 3,
        "guideStyle": "QUEST_GUIDE_STYLE_TARGET",
        "guideLayer": "QUEST_GUIDE_LAYER_SCENE"
      },
      "isRewind": true,
      "finishExec": [],
      "failExec": [],
      "beginExec": [
        {
          "type": "QUEST_EXEC_REGISTER_DYNAMIC_GROUP",
          "param": [
            "3",
            "133004071"
          ],
          "param_str": ""
        }
      ],
      "exclusiveNpcList": [
        10095,
        10011,
        10012,
        1405,
        1525
      ],
      "exclusiveNpcPriority": 1050
    },
    {
      "subId": 4006403,
      "mainId": 40064,
      "order": 3,
      "descTextMapHash": 3858955836,
      "acceptCond": [
        {
          "type": "QUEST_COND_STATE_EQUAL",
          "param": [
            4006402,
            3,
            0,
            0,
            0
          ],
          "param_str": ""
        }
      ],
      "finishCond": [
        {
          "type": "QUEST_CONTENT_ENTER_ROOM",
          "param": [
            1009,
            0
          ],
          "param_str": ""
        }
      ],
      "failCond": [],
      "guide": {
        "type": "QUEST_GUIDE_LOCATION",
        "param": [
          "Q4006403_guide",
          "0"
        ],
        "guideScene": 3,
        "guideStyle": "QUEST_GUIDE_STYLE_TARGET",
        "guideLayer": "QUEST_GUIDE_LAYER_SCENE"
      },
      "isRewind": true,
      "finishExec": [],
      "failExec": [],
      "beginExec": [
        {
          "type": "QUEST_EXEC_REGISTER_DYNAMIC_GROUP",
          "param": [
            "3",
            "133004071"
          ],
          "param_str": ""
        }
      ],
      "exclusiveNpcList": [
        1477,
        1409,
        1475,
        1523,
        1465,
        1403,
        1413
      ],
      "exclusiveNpcPriority": 1050,
      "exclusivePlaceList": [
        1009
      ]
    },
    {
      "subId": 4006404,
      "mainId": 40064,
      "order": 4,
      "descTextMapHash": 695296092,
      "acceptCond": [
        {
          "type": "QUEST_COND_STATE_EQUAL",
          "param": [
            4006403,
            3,
            0,
            0,
            0
          ],
          "param_str": ""
        }
      ],
      "finishCond": [
        {
          "type": "QUEST_CONTENT_COMPLETE_TALK",
          "param": [
            4006403,
            0
          ],
          "param_str": ""
        }
      ],
      "failCond": [
        {
          "type": "QUEST_CONTENT_LEAVE_SCENE",
          "param": [
            1009,
            0
          ],
          "param_str": ""
        }
      ],
      "guide": {
        "type": "QUEST_GUIDE_NPC",
        "param": [
          "1001"
        ],
        "guideScene": 1009,
        "guideStyle": "QUEST_GUIDE_STYLE_TARGET",
        "guideLayer": "QUEST_GUIDE_LAYER_SCENE"
      },
      "finishExec": [],
      "failExec": [
        {
          "type": "QUEST_EXEC_ROLLBACK_QUEST",
          "param": [
            "4006403"
          ],
          "param_str": ""
        },
        {
          "type": "QUEST_EXEC_REFRESH_GROUP_SUITE",
          "param": [
            "1009",
            "201009001,1"
          ],
          "param_str": ""
        }
      ],
      "beginExec": [
        {
          "type": "QUEST_EXEC_REGISTER_DYNAMIC_GROUP",
          "param": [
            "3",
            "133004071"
          ],
          "param_str": ""
        },
        {
          "type": "QUEST_EXEC_REFRESH_GROUP_SUITE",
          "param": [
            "1009",
            "201009001,2"
          ],
          "param_str": ""
        }
      ],
      "exclusiveNpcList": [
        1001,
        1032,
        1042,
        1477,
        1409,
        1475,
        1523,
        1465,
        1403,
        1413
      ],
      "exclusiveNpcPriority": 1050,
      "exclusivePlaceList": [
        1009
      ]
    },
    {
      "subId": 4006405,
      "mainId": 40064,
      "order": 6,
      "descTextMapHash": 1131580540,
      "acceptCond": [
        {
          "type": "QUEST_COND_STATE_EQUAL",
          "param": [
            4006416,
            3,
            0,
            0,
            0
          ],
          "param_str": ""
        }
      ],
      "finishCond": [
        {
          "type": "QUEST_CONTENT_GAME_TIME_TICK",
          "param": [
            1,
            0
          ],
          "param_str": "8,10"
        }
      ],
      "failCond": [],
      "guide": {
        "param": []
      },
      "isRewind": true,
      "finishExec": [
        {
          "type": "QUEST_EXEC_REFRESH_GROUP_SUITE",
          "param": [
            "1009",
            "201009001,1"
          ],
          "param_str": ""
        }
      ],
      "failExec": [],
      "beginExec": [
        {
          "type": "QUEST_EXEC_REGISTER_DYNAMIC_GROUP",
          "param": [
            "3",
            "133004071"
          ],
          "param_str": ""
        }
      ],
      "exclusiveNpcList": [
        1032,
        1042,
        1477,
        1409,
        1465
      ],
      "exclusiveNpcPriority": 1050,
      "exclusivePlaceList": [
        1009
      ]
    },
    {
      "subId": 4006406,
      "mainId": 40064,
      "order": 7,
      "descTextMapHash": 1281048012,
      "acceptCond": [
        {
          "type": "QUEST_COND_STATE_EQUAL",
          "param": [
            4006405,
            3,
            0,
            0,
            0
          ],
          "param_str": ""
        }
      ],
      "finishCond": [
        {
          "type": "QUEST_CONTENT_COMPLETE_TALK",
          "param": [
            4006405,
            0
          ],
          "param_str": ""
        }
      ],
      "failCond": [],
      "guide": {
        "type": "QUEST_GUIDE_LOCATION",
        "param": [
          "Q4006406_guide",
          "20"
        ],
        "guideScene": 3,
        "guideStyle": "QUEST_GUIDE_STYLE_TARGET",
        "guideLayer": "QUEST_GUIDE_LAYER_SCENE"
      },
      "isRewind": true,
      "finishExec": [],
      "failExec": [],
      "beginExec": [
        {
          "type": "QUEST_EXEC_REGISTER_DYNAMIC_GROUP",
          "param": [
            "3",
            "133004071"
          ],
          "param_str": ""
        }
      ],
      "exclusiveNpcList": [
        10095,
        10011,
        1032,
        1042,
        10012
      ],
      "exclusiveNpcPriority": 1050
    },
    {
      "subId": 4006407,
      "mainId": 40064,
      "order": 8,
      "descTextMapHash": 266720780,
      "acceptCond": [
        {
          "type": "QUEST_COND_STATE_EQUAL",
          "param": [
            4006406,
            3,
            0,
            0,
            0
          ],
          "param_str": ""
        }
      ],
      "finishCond": [
        {
          "type": "QUEST_CONTENT_COMPLETE_TALK",
          "param": [
            4006406,
            0
          ],
          "param_str": ""
        }
      ],
      "failCond": [],
      "guide": {
        "type": "QUEST_GUIDE_LOCATION",
        "param": [
          "Q4006407_guide",
          "30"
        ],
        "guideScene": 3,
        "guideStyle": "QUEST_GUIDE_STYLE_TARGET",
        "guideLayer": "QUEST_GUIDE_LAYER_SCENE"
      },
      "isRewind": true,
      "finishExec": [
        {
          "type": "QUEST_EXEC_UNREGISTER_DYNAMIC_GROUP",
          "param": [
            "133004071"
          ],
          "param_str": ""
        }
      ],
      "failExec": [],
      "beginExec": [
        {
          "type": "QUEST_EXEC_REGISTER_DYNAMIC_GROUP",
          "param": [
            "3",
            "133004071"
          ],
          "param_str": ""
        }
      ],
      "exclusiveNpcList": [
        10095,
        10011,
        1032,
        1042
      ],
      "exclusiveNpcPriority": 1050
    },
    {
      "subId": 4006408,
      "mainId": 40064,
      "order": 9,
      "descTextMapHash": 3152894996,
      "acceptCond": [
        {
          "type": "QUEST_COND_STATE_EQUAL",
          "param": [
            4006407,
            3,
            0,
            0,
            0
          ],
          "param_str": ""
        }
      ],
      "finishCond": [
        {
          "type": "QUEST_CONTENT_ENTER_MY_WORLD_SCENE",
          "param": [
            9,
            0
          ],
          "param_str": ""
        }
      ],
      "failCond": [],
      "guide": {
        "type": "QUEST_GUIDE_LOCATION",
        "param": [
          "Q4006409_guide",
          "20"
        ],
        "guideScene": 9,
        "guideStyle": "QUEST_GUIDE_STYLE_TARGET",
        "guideLayer": "QUEST_GUIDE_LAYER_SCENE"
      },
      "isRewind": true,
      "finishExec": [],
      "failExec": [],
      "beginExec": [
        {
          "type": "QUEST_EXEC_CHANGE_SCENE_LEVEL_TAG",
          "param": [
            "14"
          ],
          "param_str": ""
        },
        {
          "type": "QUEST_EXEC_CHANGE_SCENE_LEVEL_TAG",
          "param": [
            "15"
          ],
          "param_str": ""
        },
        {
          "type": "QUEST_EXEC_CHANGE_SCENE_LEVEL_TAG",
          "param": [
            "18"
          ],
          "param_str": ""
        },
        {
          "type": "QUEST_EXEC_CHANGE_SCENE_LEVEL_TAG",
          "param": [
            "21"
          ],
          "param_str": ""
        }
      ]
    },
    {
      "subId": 4006409,
      "mainId": 40064,
      "order": 10,
      "descTextMapHash": 2282765732,
      "acceptCond": [
        {
          "type": "QUEST_COND_STATE_EQUAL",
          "param": [
            4006408,
            3,
            0,
            0,
            0
          ],
          "param_str": ""
        }
      ],
      "finishCond": [
        {
          "type": "QUEST_CONTENT_COMPLETE_TALK",
          "param": [
            4006407,
            0
          ],
          "param_str": ""
        }
      ],
      "failCond": [],
      "guide": {
        "type": "QUEST_GUIDE_LOCATION",
        "param": [
          "Q4006409_guide",
          "20"
        ],
        "guideScene": 9,
        "guideStyle": "QUEST_GUIDE_STYLE_TARGET",
        "guideLayer": "QUEST_GUIDE_LAYER_SCENE"
      },
      "isRewind": true,
      "finishExec": [],
      "failExec": [],
      "beginExec": [],
      "exclusiveNpcList": [
        10095,
        10011,
        1032,
        1042
      ],
      "exclusiveNpcPriority": 1050
    },
    {
      "subId": 4006410,
      "mainId": 40064,
      "order": 11,
      "descTextMapHash": 2957471932,
      "acceptCond": [
        {
          "type": "QUEST_COND_STATE_EQUAL",
          "param": [
            4006409,
            3,
            0,
            0,
            0
          ],
          "param_str": ""
        }
      ],
      "finishCond": [
        {
          "type": "QUEST_CONTENT_COMPLETE_TALK",
          "param": [
            4006408,
            0
          ],
          "param_str": ""
        }
      ],
      "failCond": [],
      "guide": {
        "type": "QUEST_GUIDE_LOCATION",
        "param": [
          "Q4006410_guide",
          "20"
        ],
        "guideScene": 9,
        "guideStyle": "QUEST_GUIDE_STYLE_TARGET",
        "guideLayer": "QUEST_GUIDE_LAYER_SCENE"
      },
      "isRewind": true,
      "finishExec": [],
      "failExec": [],
      "beginExec": [],
      "exclusiveNpcList": [
        1032,
        1042,
        12732
      ],
      "exclusiveNpcPriority": 1050
    },
    {
      "subId": 4006411,
      "mainId": 40064,
      "order": 12,
      "descTextMapHash": 1294672108,
      "acceptCond": [
        {
          "type": "QUEST_COND_STATE_EQUAL",
          "param": [
            4006410,
            3,
            0,
            0,
            0
          ],
          "param_str": ""
        }
      ],
      "finishCondComb": "LOGIC_OR",
      "finishCond": [
        {
          "type": "QUEST_CONTENT_FINISH_PLOT",
          "param": [
            4006411,
            0
          ],
          "param_str": ""
        },
        {
          "type": "QUEST_CONTENT_LUA_NOTIFY",
          "param": [
            0,
            0
          ],
          "param_str": "4006411",
          "count": 1
        }
      ],
      "failCond": [
        {
          "type": "QUEST_CONTENT_LEAVE_SCENE_RANGE",
          "param": [
            9,
            120
          ],
          "param_str": "Q4006411_SafePoint"
        }
      ],
      "guide": {
        "type": "QUEST_GUIDE_LOCATION",
        "param": [
          "guide_Q4006411",
          "50"
        ],
        "guideScene": 9,
        "guideStyle": "QUEST_GUIDE_STYLE_POINT",
        "guideLayer": "QUEST_GUIDE_LAYER_SCENE"
      },
      "isRewind": true,
      "finishExec": [],
      "failExec": [
        {
          "type": "QUEST_EXEC_ROLLBACK_QUEST",
          "param": [
            "4006410"
          ],
          "param_str": ""
        },
        {
          "type": "QUEST_EXEC_UNREGISTER_DYNAMIC_GROUP",
          "param": [
            "199001024"
          ],
          "param_str": ""
        }
      ],
      "beginExec": [
        {
          "type": "QUEST_EXEC_REGISTER_DYNAMIC_GROUP",
          "param": [
            "9",
            "199001024"
          ],
          "param_str": ""
        }
      ],
      "exclusiveNpcList": [
        12732
      ],
      "exclusiveNpcPriority": 1050
    },
    {
      "subId": 4006412,
      "mainId": 40064,
      "order": 13,
      "descTextMapHash": 4039183868,
      "acceptCond": [
        {
          "type": "QUEST_COND_STATE_EQUAL",
          "param": [
            4006411,
            3,
            0,
            0,
            0
          ],
          "param_str": ""
        }
      ],
      "finishCond": [
        {
          "type": "QUEST_CONTENT_LUA_NOTIFY",
          "param": [
            0,
            0
          ],
          "param_str": "4006412",
          "count": 1
        }
      ],
      "failCond": [],
      "guide": {
        "type": "QUEST_GUIDE_LOCATION",
        "param": [
          "guide_Q4006412",
          "20"
        ],
        "guideScene": 9,
        "guideStyle": "QUEST_GUIDE_STYLE_POINT",
        "guideLayer": "QUEST_GUIDE_LAYER_SCENE"
      },
      "finishExec": [
        {
          "type": "QUEST_EXEC_UNREGISTER_DYNAMIC_GROUP",
          "param": [
            "199001024"
          ],
          "param_str": ""
        }
      ],
      "failExec": [],
      "beginExec": [
        {
          "type": "QUEST_EXEC_NOTIFY_GROUP_LUA",
          "param": [
            "9",
            "199001024"
          ],
          "param_str": ""
        }
      ],
      "exclusiveNpcList": [
        12732
      ],
      "exclusiveNpcPriority": 1050
    },
    {
      "subId": 4006413,
      "mainId": 40064,
      "order": 14,
      "descTextMapHash": 2691719628,
      "acceptCond": [
        {
          "type": "QUEST_COND_STATE_EQUAL",
          "param": [
            4006412,
            3,
            0,
            0,
            0
          ],
          "param_str": ""
        }
      ],
      "finishCond": [
        {
          "type": "QUEST_CONTENT_COMPLETE_TALK",
          "param": [
            4006409,
            0
          ],
          "param_str": ""
        }
      ],
      "failCond": [],
      "guide": {
        "type": "QUEST_GUIDE_LOCATION",
        "param": [
          "Q4006413_guide",
          "0"
        ],
        "guideScene": 9,
        "guideStyle": "QUEST_GUIDE_STYLE_POINT",
        "guideLayer": "QUEST_GUIDE_LAYER_SCENE"
      },
      "isRewind": true,
      "finishExec": [],
      "failExec": [],
      "beginExec": [],
      "exclusiveNpcList": [
        1032,
        12604,
        12605,
        12732
      ],
      "exclusiveNpcPriority": 1050
    },
    {
      "subId": 4006414,
      "mainId": 40064,
      "order": 15,
      "descTextMapHash": 4013589724,
      "acceptCond": [
        {
          "type": "QUEST_COND_STATE_EQUAL",
          "param": [
            4006413,
            3,
            0,
            0,
            0
          ],
          "param_str": ""
        }
      ],
      "finishCond": [
        {
          "type": "QUEST_CONTENT_COMPLETE_TALK",
          "param": [
            4006410,
            0
          ],
          "param_str": ""
        }
      ],
      "failCond": [],
      "guide": {
        "type": "QUEST_GUIDE_LOCATION",
        "param": [
          "Q4006414_guide",
          "10"
        ],
        "guideScene": 9,
        "guideStyle": "QUEST_GUIDE_STYLE_TARGET",
        "guideLayer": "QUEST_GUIDE_LAYER_SCENE"
      },
      "isRewind": true,
      "finishExec": [],
      "failExec": [],
      "beginExec": [
        {
          "type": "QUEST_EXEC_REGISTER_DYNAMIC_GROUP",
          "param": [
            "9",
            "199001088"
          ],
          "param_str": ""
        }
      ],
      "exclusiveNpcList": [
        10095,
        10011,
        1032,
        1042
      ],
      "exclusiveNpcPriority": 1050
    },
    {
      "subId": 4006415,
      "mainId": 40064,
      "order": 17,
      "descTextMapHash": 791581252,
      "acceptCond": [
        {
          "type": "QUEST_COND_STATE_EQUAL",
          "param": [
            4006414,
            3,
            0,
            0,
            0
          ],
          "param_str": ""
        }
      ],
      "finishCond": [
        {
          "type": "QUEST_CONTENT_COMPLETE_TALK",
          "param": [
            4006415,
            0
          ],
          "param_str": ""
        }
      ],
      "failCond": [],
      "guide": {
        "type": "QUEST_GUIDE_LOCATION",
        "autoGuide": "QUEST_GUIDE_AUTO_ENABLE",
        "param": [
          "Q4006415_guide",
          "0"
        ],
        "guideScene": 9,
        "guideStyle": "QUEST_GUIDE_STYLE_POINT",
        "guideLayer": "QUEST_GUIDE_LAYER_SCENE"
      },
      "finishParent": true,
      "isRewind": true,
      "finishExec": [
        {
          "type": "QUEST_EXEC_UNREGISTER_DYNAMIC_GROUP",
          "param": [
            "199001088"
          ],
          "param_str": ""
        },
        {
          "type": "QUEST_EXEC_SET_QUEST_GLOBAL_VAR",
          "param": [
            "40064",
            "1"
          ],
          "param_str": ""
        }
      ],
      "failExec": [],
      "beginExec": [
        {
          "type": "QUEST_EXEC_REGISTER_DYNAMIC_GROUP_ONLY",
          "param": [
            "199001088"
          ],
          "param_str": ""
        }
      ],
      "exclusiveNpcList": [
        12625
      ],
      "exclusiveNpcPriority": 1050
    },
    {
      "subId": 4006416,
      "mainId": 40064,
      "order": 5,
      "descTextMapHash": 300815404,
      "acceptCond": [
        {
          "type": "QUEST_COND_STATE_EQUAL",
          "param": [
            4006404,
            3,
            0,
            0,
            0
          ],
          "param_str": ""
        }
      ],
      "finishCond": [
        {
          "type": "QUEST_CONTENT_COMPLETE_TALK",
          "param": [
            4006416,
            0
          ],
          "param_str": ""
        }
      ],
      "failCond": [],
      "guide": {
        "type": "QUEST_GUIDE_LOCATION",
        "autoGuide": "QUEST_GUIDE_AUTO_ENABLE",
        "param": [
          "Q4006416_guide",
          "0"
        ],
        "guideScene": 1009,
        "guideStyle": "QUEST_GUIDE_STYLE_POINT",
        "guideLayer": "QUEST_GUIDE_LAYER_SCENE"
      },
      "isRewind": true,
      "finishExec": [],
      "failExec": [],
      "beginExec": [
        {
          "type": "QUEST_EXEC_REGISTER_DYNAMIC_GROUP",
          "param": [
            "3",
            "133004071"
          ],
          "param_str": ""
        }
      ],
      "exclusiveNpcList": [
        1001,
        1032,
        1042,
        1477,
        1409,
        1475,
        1523,
        1603,
        1465
      ],
      "exclusiveNpcPriority": 1050,
      "exclusivePlaceList": [
        1009
      ]
    },
    {
      "subId": 4006417,
      "mainId": 40064,
      "order": 16,
      "descTextMapHash": 648120836,
      "showType": "QUEST_HIDDEN",
      "acceptCond": [
        {
          "type": "QUEST_COND_STATE_EQUAL",
          "param": [
            4006413,
            3,
            0,
            0,
            0
          ],
          "param_str": ""
        }
      ],
      "finishCond": [
        {
          "type": "QUEST_CONTENT_FINISH_PLOT",
          "param": [
            4006417,
            0
          ],
          "param_str": ""
        }
      ],
      "failCond": [],
      "guide": {
        "param": []
      },
      "finishExec": [
        {
          "type": "QUEST_EXEC_REFRESH_GROUP_SUITE",
          "param": [
            "9",
            "199001088,2"
          ],
          "param_str": ""
        }
      ],
      "failExec": [],
      "beginExec": []
    }
  ],
  "talks": [
    {
      "id": 4006401,
      "beginWay": "TALK_BEGIN_MANUAL",
      "activeMode": "PLAY_MODE_SINGLE",
      "beginCond": [
        {
          "type": "QUEST_COND_STATE_EQUAL",
          "param": [
            "4006401",
            "2"
          ],
          "param_str": ""
        }
      ],
      "priority": 8,
      "initDialog": 400640101,
      "npcId": [
        1512
      ],
      "performCfg": "QuestDialogue/EQ/DreamIsland_40064/Q4006401",
      "heroTalk": "TALK_HERO_MAIN",
      "questId": 40064,
      "prePerformCfg": "",
      "lockGameTime": true
    },
    {
      "id": 4006402,
      "beginWay": "TALK_BEGIN_MANUAL",
      "activeMode": "PLAY_MODE_SINGLE",
      "beginCond": [
        {
          "type": "QUEST_COND_STATE_EQUAL",
          "param": [
            "4006402",
            "2"
          ],
          "param_str": ""
        }
      ],
      "priority": 8,
      "initDialog": 400640201,
      "npcId": [
        10011,
        10095,
        10012
      ],
      "performCfg": "QuestDialogue/EQ/DreamIsland_40064/Q4006402",
      "heroTalk": "TALK_HERO_MAIN",
      "questId": 40064,
      "prePerformCfg": "",
      "lockGameTime": true
    },
    {
      "id": 4006403,
      "beginWay": "TALK_BEGIN_MANUAL",
      "activeMode": "PLAY_MODE_SINGLE",
      "beginCond": [
        {
          "type": "QUEST_COND_STATE_EQUAL",
          "param": [
            "4006404",
            "2"
          ],
          "param_str": ""
        }
      ],
      "priority": 8,
      "initDialog": 400640301,
      "npcId": [
        1001,
        1042,
        1032
      ],
      "performCfg": "QuestDialogue/EQ/DreamIsland_40064/Q4006403",
      "heroTalk": "TALK_HERO_MAIN",
      "questId": 40064,
      "prePerformCfg": "",
      "lockGameTime": true
    },
    {
      "id": 4006404,
      "beginWay": "TALK_BEGIN_MANUAL",
      "activeMode": "PLAY_MODE_SINGLE",
      "beginCondComb": "LOGIC_AND",
      "beginCond": [
        {
          "type": "QUEST_COND_STATE_EQUAL",
          "param": [
            "4006409",
            "3"
          ],
          "param_str": ""
        },
        {
          "type": "QUEST_COND_STATE_EQUAL",
          "param": [
            "4006415",
            "0"
          ],
          "param_str": ""
        }
      ],
      "priority": 5,
      "initDialog": 400640401,
      "npcId": [
        1042
      ],
      "performCfg": "QuestDialogue/EQ/DreamIsland_40064/Q4006404",
      "heroTalk": "TALK_HERO_MAIN",
      "questId": 40064,
      "prePerformCfg": ""
    },
    {
      "id": 4006405,
      "beginWay": "TALK_BEGIN_MANUAL",
      "activeMode": "PLAY_MODE_SINGLE",
      "beginCond": [
        {
          "type": "QUEST_COND_STATE_EQUAL",
          "param": [
            "4006406",
            "2"
          ],
          "param_str": ""
        }
      ],
      "priority": 5,
      "initDialog": 400640501,
      "npcId": [
        10011,
        10012,
        10095,
        1042,
        1032
      ],
      "performCfg": "QuestDialogue/EQ/DreamIsland_40064/Q4006405",
      "heroTalk": "TALK_HERO_MAIN",
      "questId": 40064,
      "prePerformCfg": "",
      "lockGameTime": true
    },
    {
      "id": 4006406,
      "beginWay": "TALK_BEGIN_MANUAL",
      "activeMode": "PLAY_MODE_SINGLE",
      "beginCond": [
        {
          "type": "QUEST_COND_STATE_EQUAL",
          "param": [
            "4006407",
            "2"
          ],
          "param_str": ""
        }
      ],
      "priority": 8,
      "initDialog": 400640601,
      "npcId": [
        10095,
        1042,
        1032,
        10011,
        10012
      ],
      "performCfg": "QuestDialogue/EQ/DreamIsland_40064/Q4006406",
      "heroTalk": "TALK_HERO_MAIN",
      "questId": 40064,
      "prePerformCfg": "",
      "lockGameTime": true
    },
    {
      "id": 4006407,
      "beginWay": "TALK_BEGIN_MANUAL",
      "activeMode": "PLAY_MODE_SINGLE",
      "beginCond": [
        {
          "type": "QUEST_COND_STATE_EQUAL",
          "param": [
            "4006409",
            "2"
          ],
          "param_str": ""
        }
      ],
      "priority": 8,
      "initDialog": 400640701,
      "npcId": [
        1042,
        1032,
        10011,
        10012,
        10095
      ],
      "performCfg": "QuestDialogue/EQ/DreamIsland_40064/Q4006407",
      "heroTalk": "TALK_HERO_MAIN",
      "questId": 40064,
      "prePerformCfg": "",
      "lockGameTime": true
    },
    {
      "id": 4006408,
      "beginWay": "TALK_BEGIN_MANUAL",
      "activeMode": "PLAY_MODE_SINGLE",
      "beginCond": [
        {
          "type": "QUEST_COND_STATE_EQUAL",
          "param": [
            "4006410",
            "2"
          ],
          "param_str": ""
        }
      ],
      "priority": 8,
      "initDialog": 400640801,
      "npcId": [
        1032
      ],
      "performCfg": "QuestDialogue/EQ/DreamIsland_40064/Q4006408",
      "heroTalk": "TALK_HERO_MAIN",
      "questId": 40064,
      "prePerformCfg": "",
      "lockGameTime": true
    },
    {
      "id": 4006409,
      "beginWay": "TALK_BEGIN_MANUAL",
      "activeMode": "PLAY_MODE_SINGLE",
      "beginCond": [
        {
          "type": "QUEST_COND_STATE_EQUAL",
          "param": [
            "4006413",
            "2"
          ],
          "param_str": ""
        }
      ],
      "priority": 8,
      "initDialog": 400640901,
      "npcId": [
        12604,
        1032,
        12605
      ],
      "performCfg": "QuestDialogue/EQ/DreamIsland_40064/Q4006409",
      "heroTalk": "TALK_HERO_MAIN",
      "questId": 40064,
      "prePerformCfg": "",
      "lockGameTime": true
    },
    {
      "id": 4006410,
      "beginWay": "TALK_BEGIN_MANUAL",
      "activeMode": "PLAY_MODE_SINGLE",
      "beginCond": [
        {
          "type": "QUEST_COND_STATE_EQUAL",
          "param": [
            "4006414",
            "2"
          ],
          "param_str": ""
        }
      ],
      "priority": 8,
      "initDialog": 400641001,
      "npcId": [
        10095,
        10011,
        10012,
        1042,
        1032
      ],
      "performCfg": "QuestDialogue/EQ/DreamIsland_40064/Q4006410",
      "heroTalk": "TALK_HERO_MAIN",
      "questId": 40064,
      "prePerformCfg": "",
      "lockGameTime": true
    },
    {
      "id": 4006415,
      "beginWay": "TALK_BEGIN_MANUAL",
      "activeMode": "PLAY_MODE_SINGLE",
      "beginCond": [
        {
          "type": "QUEST_COND_STATE_EQUAL",
          "param": [
            "4006415",
            "2"
          ],
          "param_str": ""
        }
      ],
      "priority": 5,
      "initDialog": 400641501,
      "npcId": [
        12625,
        1001
      ],
      "performCfg": "QuestDialogue/EQ/DreamIsland_40064/Q4006415",
      "heroTalk": "TALK_HERO_MAIN",
      "questId": 40064,
      "prePerformCfg": "",
      "lockGameTime": true
    },
    {
      "id": 4006416,
      "beginWay": "TALK_BEGIN_MANUAL",
      "activeMode": "PLAY_MODE_SINGLE",
      "beginCond": [
        {
          "type": "QUEST_COND_STATE_EQUAL",
          "param": [
            "4006416",
            "2"
          ],
          "param_str": ""
        }
      ],
      "priority": 5,
      "initDialog": 400641601,
      "npcId": [
        1001
      ],
      "performCfg": "QuestDialogue/EQ/DreamIsland_40064/Q4006416",
      "heroTalk": "TALK_HERO_MAIN",
      "questId": 40064,
      "prePerformCfg": "",
      "lockGameTime": true
    },
    {
      "id": 4006417,
      "beginWay": "TALK_BEGIN_MANUAL",
      "activeMode": "PLAY_MODE_SINGLE",
      "beginCondComb": "LOGIC_OR",
      "beginCond": [
        {
          "type": "QUEST_COND_STATE_EQUAL",
          "param": [
            "4006405",
            "2"
          ],
          "param_str": ""
        },
        {
          "type": "QUEST_COND_STATE_EQUAL",
          "param": [
            "4006416",
            "2"
          ],
          "param_str": ""
        }
      ],
      "priority": 5,
      "initDialog": 400641701,
      "npcId": [
        1042,
        1032
      ],
      "performCfg": "QuestDialogue/EQ/DreamIsland_40064/Q4006417",
      "heroTalk": "TALK_HERO_MAIN",
      "questId": 40064,
      "prePerformCfg": ""
    },
    {
      "id": 4006421,
      "beginWay": "TALK_BEGIN_MANUAL",
      "activeMode": "PLAY_MODE_SINGLE",
      "beginCondComb": "LOGIC_AND",
      "beginCond": [
        {
          "type": "QUEST_COND_STATE_EQUAL",
          "param": [
            "4006409",
            "3"
          ],
          "param_str": ""
        },
        {
          "type": "QUEST_COND_STATE_EQUAL",
          "param": [
            "4006414"
          ],
          "param_str": ""
        }
      ],
      "initDialog": 400642101,
      "npcId": [
        12732
      ],
      "performCfg": "",
      "questId": 40064,
      "prePerformCfg": "",
      "lowPriority": true
    }
  ]
}