{
  "id": 40062,
  "type": "EQ",
  "titleTextMapHash": 4155992895,
  "descTextMapHash": 2943075086,
  "luaPath": "Actor/Quest/EQ40062",
  "showType": "QUEST_HIDDEN",
  "rewardIdList": [
    140062
  ],
  "subQuests": [
    {
      "subId": 4006201,
      "mainId": 40062,
      "order": 1,
      "descTextMapHash": 548770140,
      "showType": "QUEST_HIDDEN",
      "acceptCond": [
        {
          "type": "QUEST_COND_STATE_EQUAL",
          "param": [
            4004712,
            3,
            0,
            0,
            0
          ],
          "param_str": ""
        }
      ],
      "finishCond": [
        {
          "type": "QUEST_CONTENT_COMPLETE_TALK",
          "param": [
            4004713,
            0
          ],
          "param_str": ""
        }
      ],
      "failCond": [],
      "guide": {
        "param": []
      },
      "finishParent": true,
      "failParentShow": "QUEST_HIDDEN",
      "isRewind": true,
      "finishExec": [],
      "failExec": [],
      "beginExec": []
    }
  ]
}