{
  "id": 40079,
  "type": "EQ",
  "titleTextMapHash": 3388673367,
  "descTextMapHash": 1264582358,
  "luaPath": "Actor/Quest/EQ40079",
  "suggestTrackMainQuestList": [
    40080
  ],
  "rewardIdList": [
    140079
  ],
  "chapterId": 10098,
  "subQuests": [
    {
      "mainId": 40079,
      "subId": 4007901,
      "order": 1,
      "descTextMapHash": 397880980,
      "acceptCond": [
        {
          "type": "QUEST_COND_UNKNOWN",
          "param": [
            0,
            0
          ]
        }
      ],
      "finishCond": [],
      "failCond": [],
      "guide": {},
      "finishExec": [],
      "failExec": [],
      "beginExec": []
    },
    {
      "mainId": 40079,
      "subId": 4007902,
      "order": 2,
      "descTextMapHash": 3139611108,
      "acceptCond": [
        {
          "type": "QUEST_COND_UNKNOWN",
          "param": [
            0,
            0
          ]
        }
      ],
      "finishCond": [],
      "failCond": [],
      "guide": {
        "type": "QUEST_GUIDE_LOCATION",
        "param": [
          "Q4007901_N1011",
          "0"
        ],
        "guideScene": 3,
        "guideStyle": "QUEST_GUIDE_STYLE_POINT",
        "guideLayer": "QUEST_GUIDE_LAYER_SCENE"
      },
      "finishExec": [],
      "failExec": [],
      "beginExec": []
    },
    {
      "mainId": 40079,
      "subId": 4007903,
      "order": 3,
      "descTextMapHash": 1754752252,
      "acceptCond": [
        {
          "type": "QUEST_COND_UNKNOWN",
          "param": [
            0,
            0
          ]
        }
      ],
      "finishCond": [],
      "failCond": [],
      "guide": {
        "type": "QUEST_GUIDE_LOCATION",
        "param": [
          "Q4007903_N1011",
          "0"
        ],
        "guideScene": 3,
        "guideStyle": "QUEST_GUIDE_STYLE_POINT",
        "guideLayer": "QUEST_GUIDE_LAYER_SCENE"
      },
      "finishExec": [],
      "failExec": [],
      "beginExec": []
    },
    {
      "mainId": 40079,
      "subId": 4007904,
      "order": 5,
      "descTextMapHash": 955317820,
      "acceptCond": [
        {
          "type": "QUEST_COND_UNKNOWN",
          "param": [
            0,
            0
          ]
        }
      ],
      "finishCond": [],
      "failCond": [],
      "guide": {
        "type": "QUEST_GUIDE_LOCATION",
        "param": [
          "Q4007905_N1011",
          "20"
        ],
        "guideScene": 3,
        "guideStyle": "QUEST_GUIDE_STYLE_POINT",
        "guideLayer": "QUEST_GUIDE_LAYER_SCENE"
      },
      "finishExec": [],
      "failExec": [],
      "beginExec": []
    },
    {
      "mainId": 40079,
      "subId": 4007905,
      "order": 6,
      "descTextMapHash": 343362716,
      "acceptCond": [
        {
          "type": "QUEST_COND_UNKNOWN",
          "param": [
            0,
            0
          ]
        }
      ],
      "finishCond": [],
      "failCond": [],
      "guide": {
        "type": "QUEST_GUIDE_LOCATION",
        "param": [
          "Q4007905_N1011",
          "0"
        ],
        "guideScene": 3,
        "guideStyle": "QUEST_GUIDE_STYLE_POINT",
        "guideLayer": "QUEST_GUIDE_LAYER_SCENE"
      },
      "finishExec": [],
      "failExec": [],
      "beginExec": []
    },
    {
      "mainId": 40079,
      "subId": 4007906,
      "order": 8,
      "descTextMapHash": 1850704836,
      "acceptCond": [
        {
          "type": "QUEST_COND_UNKNOWN",
          "param": [
            0,
            0
          ]
        }
      ],
      "finishCond": [],
      "failCond": [],
      "guide": {
        "type": "QUEST_GUIDE_NPC",
        "param": [
          "1004"
        ],
        "guideScene": 1004,
        "guideStyle": "QUEST_GUIDE_STYLE_TARGET",
        "guideLayer": "QUEST_GUIDE_LAYER_SCENE"
      },
      "finishExec": [],
      "failExec": [],
      "beginExec": []
    },
    {
      "mainId": 40079,
      "subId": 4007907,
      "order": 9,
      "descTextMapHash": 3091210268,
      "acceptCond": [
        {
          "type": "QUEST_COND_UNKNOWN",
          "param": [
            0,
            0
          ]
        }
      ],
      "finishCond": [],
      "failCond": [],
      "guide": {
        "type": "QUEST_GUIDE_LOCATION",
        "param": [
          "Q4007907_guide",
          "35"
        ],
        "guideScene": 3,
        "guideStyle": "QUEST_GUIDE_STYLE_POINT",
        "guideLayer": "QUEST_GUIDE_LAYER_SCENE"
      },
      "finishExec": [],
      "failExec": [],
      "beginExec": []
    },
    {
      "mainId": 40079,
      "subId": 4007908,
      "order": 10,
      "descTextMapHash": 1407343420,
      "acceptCond": [
        {
          "type": "QUEST_COND_UNKNOWN",
          "param": [
            0,
            0
          ]
        }
      ],
      "finishCond": [],
      "failCond": [],
      "guide": {
        "type": "QUEST_GUIDE_NPC",
        "param": [
          "1009"
        ],
        "guideScene": 1018,
        "guideStyle": "QUEST_GUIDE_STYLE_TARGET",
        "guideLayer": "QUEST_GUIDE_LAYER_SCENE"
      },
      "finishExec": [],
      "failExec": [],
      "beginExec": []
    },
    {
      "mainId": 40079,
      "subId": 4007909,
      "order": 4,
      "showType": "QUEST_HIDDEN",
      "acceptCond": [
        {
          "type": "QUEST_COND_UNKNOWN",
          "param": [
            0,
            0
          ]
        }
      ],
      "finishCond": [],
      "failCond": [],
      "guide": {},
      "finishExec": [],
      "failExec": [],
      "beginExec": []
    },
    {
      "mainId": 40079,
      "subId": 4007910,
      "order": 11,
      "showType": "QUEST_HIDDEN",
      "acceptCond": [
        {
          "type": "QUEST_COND_UNKNOWN",
          "param": [
            0,
            0
          ]
        }
      ],
      "finishCond": [],
      "failCond": [],
      "guide": {},
      "finishExec": [],
      "failExec": [],
      "beginExec": []
    },
    {
      "mainId": 40079,
      "subId": 4007911,
      "order": 7,
      "showType": "QUEST_HIDDEN",
      "acceptCond": [
        {
          "type": "QUEST_COND_UNKNOWN",
          "param": [
            0,
            0
          ]
        }
      ],
      "finishCond": [],
      "failCond": [],
      "guide": {},
      "finishExec": [],
      "failExec": [],
      "beginExec": []
    },
    {
      "mainId": 40079,
      "subId": 4007912,
      "order": 13,
      "descTextMapHash": 958777980,
      "acceptCond": [
        {
          "type": "QUEST_COND_UNKNOWN",
          "param": [
            0,
            0
          ]
        }
      ],
      "finishCond": [],
      "failCond": [],
      "guide": {
        "type": "QUEST_GUIDE_LOCATION",
        "param": [
          "Q4007907_guide",
          "35"
        ],
        "guideScene": 3,
        "guideStyle": "QUEST_GUIDE_STYLE_POINT",
        "guideLayer": "QUEST_GUIDE_LAYER_SCENE"
      },
      "finishExec": [],
      "failExec": [],
      "beginExec": []
    },
    {
      "mainId": 40079,
      "subId": 4007913,
      "order": 12,
      "showType": "QUEST_HIDDEN",
      "acceptCond": [
        {
          "type": "QUEST_COND_UNKNOWN",
          "param": [
            0,
            0
          ]
        }
      ],
      "finishCond": [],
      "failCond": [],
      "guide": {},
      "finishExec": [],
      "failExec": [],
      "beginExec": []
    }
  ],
  "talks": [
    {
      "id": 4007902,
      "beginWay": "TALK_BEGIN_MANUAL",
      "activeMode": "PLAY_MODE_SINGLE",
      "beginCond": [
        {
          "type": "QUEST_COND_STATE_EQUAL",
          "param": [
            "4007902",
            "2"
          ],
          "param_str": ""
        }
      ],
      "priority": 5,
      "initDialog": 400790201,
      "npcId": [
        10090,
        1011,
        1028
      ],
      "performCfg": "QuestDialogue/EQ/Vintage_40079/Q4007902",
      "heroTalk": "TALK_HERO_MAIN",
      "questId": 40079,
      "prePerformCfg": "",
      "lockGameTime": true
    },
    {
      "id": 4007903,
      "beginWay": "TALK_BEGIN_MANUAL",
      "activeMode": "PLAY_MODE_SINGLE",
      "beginCond": [
        {
          "type": "QUEST_COND_STATE_EQUAL",
          "param": [
            "4007903",
            "2"
          ],
          "param_str": ""
        }
      ],
      "priority": 5,
      "initDialog": 400790301,
      "npcId": [
        1011
      ],
      "performCfg": "QuestDialogue/EQ/Vintage_40079/Q4007903",
      "heroTalk": "TALK_HERO_MAIN",
      "questId": 40079,
      "prePerformCfg": ""
    },
    {
      "id": 4007905,
      "beginWay": "TALK_BEGIN_MANUAL",
      "activeMode": "PLAY_MODE_SINGLE",
      "beginCond": [
        {
          "type": "QUEST_COND_STATE_EQUAL",
          "param": [
            "4007905",
            "2"
          ],
          "param_str": ""
        }
      ],
      "priority": 5,
      "initDialog": 400790501,
      "npcId": [
        1011,
        1020
      ],
      "performCfg": "QuestDialogue/EQ/Vintage_40079/Q4007905",
      "heroTalk": "TALK_HERO_MAIN",
      "questId": 40079,
      "prePerformCfg": ""
    },
    {
      "id": 4007906,
      "beginWay": "TALK_BEGIN_MANUAL",
      "activeMode": "PLAY_MODE_SINGLE",
      "beginCond": [
        {
          "type": "QUEST_COND_STATE_EQUAL",
          "param": [
            "4007906",
            "2"
          ],
          "param_str": ""
        }
      ],
      "priority": 5,
      "initDialog": 400790601,
      "npcId": [
        1007,
        1004
      ],
      "performCfg": "QuestDialogue/EQ/Vintage_40079/Q4007906",
      "heroTalk": "TALK_HERO_MAIN",
      "questId": 40079,
      "prePerformCfg": ""
    },
    {
      "id": 4007908,
      "beginWay": "TALK_BEGIN_MANUAL",
      "activeMode": "PLAY_MODE_SINGLE",
      "beginCond": [
        {
          "type": "QUEST_COND_STATE_EQUAL",
          "param": [
            "4007908",
            "2"
          ],
          "param_str": ""
        }
      ],
      "priority": 5,
      "initDialog": 400790801,
      "npcId": [
        1009,
        1004,
        1531
      ],
      "performCfg": "QuestDialogue/EQ/Vintage_40079/Q4007908",
      "heroTalk": "TALK_HERO_MAIN",
      "questId": 40079,
      "prePerformCfg": ""
    },
    {
      "id": 4007950,
      "beginWay": "TALK_BEGIN_MANUAL",
      "activeMode": "PLAY_MODE_SINGLE",
      "beginCond": [
        {
          "type": "QUEST_COND_STATE_EQUAL",
          "param": [
            "4007903",
            "2"
          ],
          "param_str": ""
        }
      ],
      "priority": 5,
      "initDialog": 400795001,
      "npcId": [
        30240
      ],
      "performCfg": "QuestDialogue/EQ/Vintage_40079/Q4007950",
      "heroTalk": "TALK_HERO_MAIN",
      "questId": 40079,
      "prePerformCfg": ""
    },
    {
      "id": 4007951,
      "beginWay": "TALK_BEGIN_MANUAL",
      "activeMode": "PLAY_MODE_SINGLE",
      "beginCond": [
        {
          "type": "QUEST_COND_STATE_EQUAL",
          "param": [
            "4007907",
            "2"
          ],
          "param_str": ""
        }
      ],
      "priority": 5,
      "initDialog": 400795101,
      "npcId": [
        1011,
        1007
      ],
      "performCfg": "QuestDialogue/EQ/Vintage_40079/Q4007951",
      "heroTalk": "TALK_HERO_MAIN",
      "questId": 40079,
      "prePerformCfg": ""
    },
    {
      "id": 4007952,
      "beginWay": "TALK_BEGIN_MANUAL",
      "activeMode": "PLAY_MODE_SINGLE",
      "beginCond": [
        {
          "type": "QUEST_COND_STATE_EQUAL",
          "param": [
            "4007912",
            "2"
          ],
          "param_str": ""
        }
      ],
      "priority": 5,
      "initDialog": 400795201,
      "npcId": [
        1009
      ],
      "performCfg": "QuestDialogue/EQ/Vintage_40079/Q4007952",
      "heroTalk": "TALK_HERO_MAIN",
      "questId": 40079,
      "prePerformCfg": "",
      "questIdleTalk": true
    },
    {
      "id": 4007953,
      "beginWay": "TALK_BEGIN_MANUAL",
      "activeMode": "PLAY_MODE_SINGLE",
      "beginCond": [
        {
          "type": "QUEST_COND_STATE_EQUAL",
          "param": [
            "4007912",
            "2"
          ],
          "param_str": ""
        }
      ],
      "priority": 5,
      "initDialog": 400795301,
      "npcId": [
        1531
      ],
      "performCfg": "QuestDialogue/EQ/Vintage_40079/Q4007953",
      "heroTalk": "TALK_HERO_MAIN",
      "questId": 40079,
      "prePerformCfg": ""
    },
    {
      "id": 4007960,
      "activeMode": "PLAY_MODE_SINGLE",
      "priority": 5,
      "initDialog": 400796001,
      "npcId": [
        1011,
        10090,
        1028
      ],
      "performCfg": "",
      "heroTalk": "TALK_HERO_MAIN",
      "questId": 40079,
      "prePerformCfg": ""
    }
  ]
}