{
  "id": 40078,
  "type": "EQ",
  "titleTextMapHash": 401175279,
  "descTextMapHash": 571307606,
  "luaPath": "Actor/Quest/EQ40078",
  "suggestTrackMainQuestList": [
    40079
  ],
  "rewardIdList": [
    140078
  ],
  "chapterId": 10097,
  "subQuests": [
    {
      "mainId": 40078,
      "subId": 4007801,
      "order": 1,
      "descTextMapHash": 2571820628,
      "acceptCond": [
        {
          "type": "QUEST_COND_UNKNOWN",
          "param": [
            0,
            0
          ]
        }
      ],
      "finishCond": [],
      "failCond": [],
      "guide": {
        "type": "QUEST_GUIDE_NPC",
        "param": [
          "1512"
        ],
        "guideScene": 3,
        "guideStyle": "QUEST_GUIDE_STYLE_TARGET",
        "guideLayer": "QUEST_GUIDE_LAYER_SCENE"
      },
      "finishExec": [],
      "failExec": [],
      "beginExec": []
    },
    {
      "mainId": 40078,
      "subId": 4007802,
      "order": 2,
      "descTextMapHash": 1596163124,
      "acceptCond": [
        {
          "type": "QUEST_COND_UNKNOWN",
          "param": [
            0,
            0
          ]
        }
      ],
      "finishCond": [],
      "failCond": [],
      "guide": {
        "type": "QUEST_GUIDE_NPC",
        "param": [
          "1006"
        ],
        "guideScene": 1004,
        "guideStyle": "QUEST_GUIDE_STYLE_TARGET",
        "guideLayer": "QUEST_GUIDE_LAYER_SCENE"
      },
      "finishExec": [],
      "failExec": [],
      "beginExec": []
    },
    {
      "mainId": 40078,
      "subId": 4007803,
      "order": 3,
      "descTextMapHash": 1762128188,
      "acceptCond": [
        {
          "type": "QUEST_COND_UNKNOWN",
          "param": [
            0,
            0
          ]
        }
      ],
      "finishCond": [],
      "failCond": [],
      "guide": {
        "type": "QUEST_GUIDE_LOCATION",
        "param": [
          "Q4007803_N1006",
          "0"
        ],
        "guideScene": 1004,
        "guideStyle": "QUEST_GUIDE_STYLE_POINT",
        "guideLayer": "QUEST_GUIDE_LAYER_SCENE"
      },
      "finishExec": [],
      "failExec": [],
      "beginExec": []
    },
    {
      "mainId": 40078,
      "subId": 4007804,
      "order": 5,
      "descTextMapHash": 3072644180,
      "acceptCond": [
        {
          "type": "QUEST_COND_UNKNOWN",
          "param": [
            0,
            0
          ]
        }
      ],
      "finishCond": [],
      "failCond": [],
      "guide": {
        "type": "QUEST_GUIDE_LOCATION",
        "param": [
          "Q4007804_N1005",
          "0"
        ],
        "guideScene": 3,
        "guideStyle": "QUEST_GUIDE_STYLE_POINT",
        "guideLayer": "QUEST_GUIDE_LAYER_SCENE"
      },
      "finishExec": [],
      "failExec": [],
      "beginExec": []
    },
    {
      "mainId": 40078,
      "subId": 4007805,
      "order": 6,
      "descTextMapHash": 2226810380,
      "acceptCond": [
        {
          "type": "QUEST_COND_UNKNOWN",
          "param": [
            0,
            0
          ]
        }
      ],
      "finishCond": [],
      "failCond": [],
      "guide": {
        "type": "QUEST_GUIDE_LOCATION",
        "param": [
          "Q4007805_guide",
          "35"
        ],
        "guideScene": 3
      },
      "finishExec": [],
      "failExec": [],
      "beginExec": []
    },
    {
      "mainId": 40078,
      "subId": 4007806,
      "order": 7,
      "descTextMapHash": 1656652972,
      "acceptCond": [
        {
          "type": "QUEST_COND_UNKNOWN",
          "param": [
            0,
            0
          ]
        }
      ],
      "finishCond": [],
      "failCond": [],
      "guide": {
        "type": "QUEST_GUIDE_LOCATION",
        "param": [
          "Q4007806_guide",
          "35"
        ],
        "guideScene": 3
      },
      "finishExec": [],
      "failExec": [],
      "beginExec": []
    },
    {
      "mainId": 40078,
      "subId": 4007807,
      "order": 8,
      "descTextMapHash": 3216959540,
      "acceptCond": [
        {
          "type": "QUEST_COND_UNKNOWN",
          "param": [
            0,
            0
          ]
        }
      ],
      "finishCond": [],
      "failCond": [],
      "guide": {
        "type": "QUEST_GUIDE_LOCATION",
        "param": [
          "Q4007807_guide",
          "35"
        ],
        "guideScene": 3
      },
      "finishExec": [],
      "failExec": [],
      "beginExec": []
    },
    {
      "mainId": 40078,
      "subId": 4007808,
      "order": 9,
      "descTextMapHash": 3431111532,
      "acceptCond": [
        {
          "type": "QUEST_COND_UNKNOWN",
          "param": [
            0,
            0
          ]
        }
      ],
      "finishCond": [],
      "failCond": [],
      "guide": {
        "type": "QUEST_GUIDE_LOCATION",
        "param": [
          "Q4007808_guide",
          "40"
        ],
        "guideScene": 3,
        "guideStyle": "QUEST_GUIDE_STYLE_POINT",
        "guideLayer": "QUEST_GUIDE_LAYER_SCENE"
      },
      "finishExec": [],
      "failExec": [],
      "beginExec": []
    },
    {
      "mainId": 40078,
      "subId": 4007809,
      "order": 10,
      "descTextMapHash": 2581985716,
      "acceptCond": [
        {
          "type": "QUEST_COND_UNKNOWN",
          "param": [
            0,
            0
          ]
        }
      ],
      "finishCond": [],
      "failCond": [],
      "guide": {
        "type": "QUEST_GUIDE_LOCATION",
        "param": [
          "Q4007809_N1011",
          "35"
        ],
        "guideScene": 3,
        "guideStyle": "QUEST_GUIDE_STYLE_POINT",
        "guideLayer": "QUEST_GUIDE_LAYER_SCENE"
      },
      "finishExec": [],
      "failExec": [],
      "beginExec": []
    },
    {
      "mainId": 40078,
      "subId": 4007810,
      "order": 11,
      "descTextMapHash": 1590246900,
      "acceptCond": [
        {
          "type": "QUEST_COND_UNKNOWN",
          "param": [
            0,
            0
          ]
        }
      ],
      "finishCond": [],
      "failCond": [],
      "guide": {
        "type": "QUEST_GUIDE_NPC",
        "param": [
          "1007"
        ],
        "guideScene": 1004,
        "guideStyle": "QUEST_GUIDE_STYLE_TARGET",
        "guideLayer": "QUEST_GUIDE_LAYER_SCENE"
      },
      "finishExec": [],
      "failExec": [],
      "beginExec": []
    },
    {
      "mainId": 40078,
      "subId": 4007811,
      "order": 12,
      "descTextMapHash": 2666153844,
      "acceptCond": [
        {
          "type": "QUEST_COND_UNKNOWN",
          "param": [
            0,
            0
          ]
        }
      ],
      "finishCond": [],
      "failCond": [],
      "guide": {},
      "finishExec": [],
      "failExec": [],
      "beginExec": []
    },
    {
      "mainId": 40078,
      "subId": 4007812,
      "order": 14,
      "descTextMapHash": 1909170828,
      "acceptCond": [
        {
          "type": "QUEST_COND_UNKNOWN",
          "param": [
            0,
            0
          ]
        }
      ],
      "finishCond": [],
      "failCond": [],
      "guide": {
        "type": "QUEST_GUIDE_LOCATION",
        "param": [
          "Q4007812_N1011",
          "25"
        ],
        "guideScene": 3,
        "guideStyle": "QUEST_GUIDE_STYLE_POINT",
        "guideLayer": "QUEST_GUIDE_LAYER_SCENE"
      },
      "finishExec": [],
      "failExec": [],
      "beginExec": []
    },
    {
      "mainId": 40078,
      "subId": 4007813,
      "order": 15,
      "descTextMapHash": 567960444,
      "acceptCond": [
        {
          "type": "QUEST_COND_UNKNOWN",
          "param": [
            0,
            0
          ]
        }
      ],
      "finishCond": [],
      "failCond": [],
      "guide": {
        "type": "QUEST_GUIDE_NPC",
        "param": [
          "1001"
        ],
        "guideScene": 3,
        "guideStyle": "QUEST_GUIDE_STYLE_TARGET",
        "guideLayer": "QUEST_GUIDE_LAYER_SCENE"
      },
      "finishExec": [],
      "failExec": [],
      "beginExec": []
    },
    {
      "mainId": 40078,
      "subId": 4007814,
      "order": 4,
      "descTextMapHash": 2803253748,
      "acceptCond": [
        {
          "type": "QUEST_COND_UNKNOWN",
          "param": [
            0,
            0
          ]
        }
      ],
      "finishCond": [],
      "failCond": [],
      "guide": {
        "type": "QUEST_GUIDE_LOCATION",
        "param": [
          "Q4007804_N1005",
          "0"
        ],
        "guideScene": 3,
        "guideStyle": "QUEST_GUIDE_STYLE_POINT",
        "guideLayer": "QUEST_GUIDE_LAYER_SCENE"
      },
      "finishExec": [],
      "failExec": [],
      "beginExec": []
    },
    {
      "mainId": 40078,
      "subId": 4007815,
      "order": 13,
      "descTextMapHash": 4100663196,
      "acceptCond": [
        {
          "type": "QUEST_COND_UNKNOWN",
          "param": [
            0,
            0
          ]
        }
      ],
      "finishCond": [],
      "failCond": [],
      "guide": {
        "type": "QUEST_GUIDE_LOCATION",
        "param": [
          "Q4007812_N1011",
          "25"
        ],
        "guideScene": 3,
        "guideStyle": "QUEST_GUIDE_STYLE_POINT",
        "guideLayer": "QUEST_GUIDE_LAYER_SCENE"
      },
      "finishExec": [],
      "failExec": [],
      "beginExec": []
    }
  ],
  "talks": [
    {
      "id": 4007801,
      "beginWay": "TALK_BEGIN_MANUAL",
      "activeMode": "PLAY_MODE_SINGLE",
      "beginCond": [
        {
          "type": "QUEST_COND_STATE_EQUAL",
          "param": [
            "4007801",
            "2"
          ],
          "param_str": ""
        }
      ],
      "priority": 5,
      "initDialog": 400780101,
      "npcId": [
        1512
      ],
      "performCfg": "QuestDialogue/EQ/Vintage_40078/Q4007801",
      "heroTalk": "TALK_HERO_MAIN",
      "questId": 40078,
      "prePerformCfg": ""
    },
    {
      "id": 4007802,
      "beginWay": "TALK_BEGIN_MANUAL",
      "activeMode": "PLAY_MODE_SINGLE",
      "beginCond": [
        {
          "type": "QUEST_COND_STATE_EQUAL",
          "param": [
            "4007802",
            "2"
          ],
          "param_str": ""
        }
      ],
      "priority": 5,
      "initDialog": 400780201,
      "npcId": [
        1004,
        1007,
        1006
      ],
      "performCfg": "QuestDialogue/EQ/Vintage_40078/Q4007802",
      "heroTalk": "TALK_HERO_MAIN",
      "questId": 40078,
      "prePerformCfg": ""
    },
    {
      "id": 4007803,
      "beginWay": "TALK_BEGIN_MANUAL",
      "activeMode": "PLAY_MODE_SINGLE",
      "beginCond": [
        {
          "type": "QUEST_COND_STATE_EQUAL",
          "param": [
            "4007803",
            "2"
          ],
          "param_str": ""
        }
      ],
      "priority": 5,
      "initDialog": 400780301,
      "npcId": [
        1006,
        1007
      ],
      "performCfg": "QuestDialogue/EQ/Vintage_40078/Q4007803",
      "heroTalk": "TALK_HERO_MAIN",
      "questId": 40078,
      "prePerformCfg": ""
    },
    {
      "id": 4007804,
      "beginWay": "TALK_BEGIN_MANUAL",
      "activeMode": "PLAY_MODE_SINGLE",
      "beginCond": [
        {
          "type": "QUEST_COND_STATE_EQUAL",
          "param": [
            "4007804",
            "2"
          ],
          "param_str": ""
        }
      ],
      "priority": 5,
      "initDialog": 400780401,
      "npcId": [
        12917
      ],
      "performCfg": "QuestDialogue/EQ/Vintage_40078/Q4007804",
      "heroTalk": "TALK_HERO_MAIN",
      "questId": 40078,
      "prePerformCfg": ""
    },
    {
      "id": 4007809,
      "beginWay": "TALK_BEGIN_MANUAL",
      "activeMode": "PLAY_MODE_SINGLE",
      "beginCond": [
        {
          "type": "QUEST_COND_STATE_EQUAL",
          "param": [
            "4007809",
            "2"
          ],
          "param_str": ""
        }
      ],
      "priority": 5,
      "initDialog": 400780901,
      "npcId": [
        1537,
        1011
      ],
      "performCfg": "QuestDialogue/EQ/Vintage_40078/Q4007809",
      "heroTalk": "TALK_HERO_MAIN",
      "questId": 40078,
      "prePerformCfg": "",
      "enableCameraDisplacement": true
    },
    {
      "id": 4007810,
      "beginWay": "TALK_BEGIN_MANUAL",
      "activeMode": "PLAY_MODE_SINGLE",
      "beginCond": [
        {
          "type": "QUEST_COND_STATE_EQUAL",
          "param": [
            "4007810",
            "2"
          ],
          "param_str": ""
        }
      ],
      "priority": 5,
      "initDialog": 400781001,
      "npcId": [
        1011,
        1007
      ],
      "performCfg": "QuestDialogue/EQ/Vintage_40078/Q4007810",
      "heroTalk": "TALK_HERO_MAIN",
      "questId": 40078,
      "prePerformCfg": ""
    },
    {
      "id": 4007812,
      "beginWay": "TALK_BEGIN_MANUAL",
      "activeMode": "PLAY_MODE_SINGLE",
      "beginCond": [
        {
          "type": "QUEST_COND_STATE_EQUAL",
          "param": [
            "4007812",
            "2"
          ],
          "param_str": ""
        }
      ],
      "priority": 5,
      "initDialog": 400781201,
      "npcId": [
        1006,
        1011
      ],
      "performCfg": "QuestDialogue/EQ/Vintage_40078/Q4007812",
      "heroTalk": "TALK_HERO_MAIN",
      "questId": 40078,
      "prePerformCfg": "",
      "lockGameTime": true
    },
    {
      "id": 4007813,
      "beginWay": "TALK_BEGIN_MANUAL",
      "activeMode": "PLAY_MODE_SINGLE",
      "beginCond": [
        {
          "type": "QUEST_COND_STATE_EQUAL",
          "param": [
            "4007813",
            "2"
          ],
          "param_str": ""
        }
      ],
      "priority": 5,
      "initDialog": 400781301,
      "npcId": [
        1001
      ],
      "performCfg": "QuestDialogue/EQ/Vintage_40078/Q4007813",
      "heroTalk": "TALK_HERO_MAIN",
      "questId": 40078,
      "prePerformCfg": ""
    },
    {
      "id": 4007850,
      "beginWay": "TALK_BEGIN_MANUAL",
      "activeMode": "PLAY_MODE_SINGLE",
      "beginCond": [
        {
          "type": "QUEST_COND_STATE_EQUAL",
          "param": [
            "4007814",
            "2"
          ],
          "param_str": ""
        }
      ],
      "priority": 5,
      "initDialog": 400785001,
      "npcId": [
        1007
      ],
      "performCfg": "QuestDialogue/EQ/Vintage_40078/Q4007850",
      "heroTalk": "TALK_HERO_MAIN",
      "questId": 40078,
      "prePerformCfg": ""
    },
    {
      "id": 4007851,
      "beginWay": "TALK_BEGIN_MANUAL",
      "activeMode": "PLAY_MODE_SINGLE",
      "beginCond": [
        {
          "type": "QUEST_COND_STATE_EQUAL",
          "param": [
            "4007814",
            "2"
          ],
          "param_str": ""
        }
      ],
      "priority": 5,
      "initDialog": 400785101,
      "npcId": [
        1006
      ],
      "performCfg": "QuestDialogue/EQ/Vintage_40078/Q4007851",
      "heroTalk": "TALK_HERO_MAIN",
      "questId": 40078,
      "prePerformCfg": ""
    },
    {
      "id": 4007852,
      "beginWay": "TALK_BEGIN_MANUAL",
      "activeMode": "PLAY_MODE_SINGLE",
      "beginCondComb": "LOGIC_A_AND_ETCOR",
      "beginCond": [
        {
          "type": "QUEST_COND_QUEST_VAR_EQUAL",
          "param": [
            "1",
            "0",
            "40078"
          ],
          "param_str": ""
        },
        {
          "type": "QUEST_COND_STATE_EQUAL",
          "param": [
            "4007803",
            "2"
          ],
          "param_str": ""
        },
        {
          "type": "QUEST_COND_STATE_EQUAL",
          "param": [
            "4007814",
            "2"
          ],
          "param_str": ""
        }
      ],
      "priority": 5,
      "initDialog": 400785201,
      "npcId": [
        1060,
        1004
      ],
      "performCfg": "QuestDialogue/EQ/Vintage_40078/Q4007852",
      "heroTalk": "TALK_HERO_MAIN",
      "questId": 40078,
      "prePerformCfg": "",
      "finishExec": [
        {
          "type": "TALK_EXEC_SET_QUEST_VAR",
          "param": [
            "1",
            "1",
            "40078"
          ],
          "param_str": ""
        }
      ]
    },
    {
      "id": 4007853,
      "beginWay": "TALK_BEGIN_MANUAL",
      "activeMode": "PLAY_MODE_SINGLE",
      "beginCondComb": "LOGIC_A_AND_ETCOR",
      "beginCond": [
        {
          "type": "QUEST_COND_QUEST_VAR_EQUAL",
          "param": [
            "1",
            "1",
            "40078"
          ],
          "param_str": ""
        },
        {
          "type": "QUEST_COND_STATE_EQUAL",
          "param": [
            "4007803",
            "2"
          ],
          "param_str": ""
        },
        {
          "type": "QUEST_COND_STATE_EQUAL",
          "param": [
            "4007814",
            "2"
          ],
          "param_str": ""
        }
      ],
      "priority": 5,
      "initDialog": 400785301,
      "npcId": [
        1004
      ],
      "performCfg": "QuestDialogue/EQ/Vintage_40078/Q4007853",
      "heroTalk": "TALK_HERO_MAIN",
      "questId": 40078,
      "prePerformCfg": ""
    },
    {
      "id": 4007854,
      "beginWay": "TALK_BEGIN_MANUAL",
      "activeMode": "PLAY_MODE_SINGLE",
      "beginCondComb": "LOGIC_OR",
      "beginCond": [
        {
          "type": "QUEST_COND_STATE_EQUAL",
          "param": [
            "4007803",
            "2"
          ],
          "param_str": ""
        },
        {
          "type": "QUEST_COND_STATE_EQUAL",
          "param": [
            "4007814",
            "2"
          ],
          "param_str": ""
        }
      ],
      "priority": 5,
      "initDialog": 400785401,
      "npcId": [
        30274,
        30233
      ],
      "performCfg": "QuestDialogue/EQ/Vintage_40078/Q4007854",
      "heroTalk": "TALK_HERO_MAIN",
      "questId": 40078,
      "prePerformCfg": ""
    },
    {
      "id": 4007855,
      "beginWay": "TALK_BEGIN_MANUAL",
      "activeMode": "PLAY_MODE_SINGLE",
      "beginCondComb": "LOGIC_OR",
      "beginCond": [
        {
          "type": "QUEST_COND_STATE_EQUAL",
          "param": [
            "4007805",
            "2"
          ],
          "param_str": ""
        },
        {
          "type": "QUEST_COND_STATE_EQUAL",
          "param": [
            "4007806",
            "2"
          ],
          "param_str": ""
        },
        {
          "type": "QUEST_COND_STATE_EQUAL",
          "param": [
            "4007807",
            "2"
          ],
          "param_str": ""
        },
        {
          "type": "QUEST_COND_STATE_EQUAL",
          "param": [
            "4007808",
            "2"
          ],
          "param_str": ""
        }
      ],
      "priority": 5,
      "initDialog": 400785501,
      "npcId": [
        1539
      ],
      "performCfg": "QuestDialogue/EQ/Vintage_40078/Q4007855",
      "heroTalk": "TALK_HERO_MAIN",
      "questId": 40078,
      "prePerformCfg": ""
    },
    {
      "id": 4007856,
      "beginWay": "TALK_BEGIN_MANUAL",
      "activeMode": "PLAY_MODE_SINGLE",
      "beginCond": [
        {
          "type": "QUEST_COND_STATE_EQUAL",
          "param": [
            "4007811",
            "2"
          ],
          "param_str": ""
        }
      ],
      "priority": 5,
      "initDialog": 400785601,
      "npcId": [
        1007
      ],
      "performCfg": "QuestDialogue/EQ/Vintage_40078/Q4007856",
      "heroTalk": "TALK_HERO_MAIN",
      "questId": 40078,
      "prePerformCfg": ""
    },
    {
      "id": 4007857,
      "beginWay": "TALK_BEGIN_MANUAL",
      "activeMode": "PLAY_MODE_SINGLE",
      "beginCond": [
        {
          "type": "QUEST_COND_STATE_EQUAL",
          "param": [
            "4007813",
            "3"
          ],
          "param_str": ""
        }
      ],
      "priority": 5,
      "initDialog": 400785701,
      "npcId": [
        1001
      ],
      "performCfg": "QuestDialogue/EQ/Vintage_40078/Q4007857",
      "heroTalk": "TALK_HERO_MAIN",
      "questId": 40078,
      "prePerformCfg": "",
      "questIdleTalk": true
    }
  ]
}