{
  "id": 40080,
  "type": "EQ",
  "titleTextMapHash": 1133846615,
  "descTextMapHash": 2930884830,
  "luaPath": "Actor/Quest/EQ40080",
  "rewardIdList": [
    140080
  ],
  "chapterId": 10099,
  "subQuests": [
    {
      "mainId": 40080,
      "subId": 4008001,
      "order": 1,
      "descTextMapHash": 3338107980,
      "acceptCond": [
        {
          "type": "QUEST_COND_UNKNOWN",
          "param": [
            0,
            0
          ]
        }
      ],
      "finishCond": [],
      "failCond": [],
      "guide": {},
      "finishExec": [],
      "failExec": [],
      "beginExec": []
    },
    {
      "mainId": 40080,
      "subId": 4008002,
      "order": 2,
      "descTextMapHash": 1918373884,
      "acceptCond": [
        {
          "type": "QUEST_COND_UNKNOWN",
          "param": [
            0,
            0
          ]
        }
      ],
      "finishCond": [],
      "failCond": [],
      "guide": {
        "type": "QUEST_GUIDE_LOCATION",
        "param": [
          "Q4008002_N1019",
          "20"
        ],
        "guideScene": 1004,
        "guideStyle": "QUEST_GUIDE_STYLE_POINT",
        "guideLayer": "QUEST_GUIDE_LAYER_SCENE"
      },
      "finishExec": [],
      "failExec": [],
      "beginExec": []
    },
    {
      "mainId": 40080,
      "subId": 4008003,
      "order": 3,
      "descTextMapHash": 4094645820,
      "acceptCond": [
        {
          "type": "QUEST_COND_UNKNOWN",
          "param": [
            0,
            0
          ]
        }
      ],
      "finishCond": [],
      "failCond": [],
      "guide": {
        "type": "QUEST_GUIDE_LOCATION",
        "param": [
          "Q4008003_N10090",
          "25"
        ],
        "guideScene": 3,
        "guideStyle": "QUEST_GUIDE_STYLE_POINT",
        "guideLayer": "QUEST_GUIDE_LAYER_SCENE"
      },
      "finishExec": [],
      "failExec": [],
      "beginExec": []
    },
    {
      "mainId": 40080,
      "subId": 4008004,
      "order": 4,
      "descTextMapHash": 3368949108,
      "acceptCond": [
        {
          "type": "QUEST_COND_UNKNOWN",
          "param": [
            0,
            0
          ]
        }
      ],
      "finishCond": [],
      "failCond": [],
      "guide": {
        "type": "QUEST_GUIDE_LOCATION",
        "param": [
          "Q4008004_N1001",
          "20"
        ],
        "guideScene": 3,
        "guideStyle": "QUEST_GUIDE_STYLE_POINT",
        "guideLayer": "QUEST_GUIDE_LAYER_SCENE"
      },
      "finishExec": [],
      "failExec": [],
      "beginExec": []
    },
    {
      "mainId": 40080,
      "subId": 4008005,
      "order": 6,
      "descTextMapHash": 3578935636,
      "acceptCond": [
        {
          "type": "QUEST_COND_UNKNOWN",
          "param": [
            0,
            0
          ]
        }
      ],
      "finishCond": [],
      "failCond": [],
      "guide": {},
      "finishExec": [],
      "failExec": [],
      "beginExec": []
    },
    {
      "mainId": 40080,
      "subId": 4008006,
      "order": 7,
      "descTextMapHash": 489357732,
      "acceptCond": [
        {
          "type": "QUEST_COND_UNKNOWN",
          "param": [
            0,
            0
          ]
        }
      ],
      "finishCond": [],
      "failCond": [],
      "guide": {
        "type": "QUEST_GUIDE_LOCATION",
        "param": [
          "Q4008006_N1007",
          "25"
        ],
        "guideScene": 3,
        "guideStyle": "QUEST_GUIDE_STYLE_POINT",
        "guideLayer": "QUEST_GUIDE_LAYER_SCENE"
      },
      "finishExec": [],
      "failExec": [],
      "beginExec": []
    },
    {
      "mainId": 40080,
      "subId": 4008007,
      "order": 5,
      "showType": "QUEST_HIDDEN",
      "acceptCond": [
        {
          "type": "QUEST_COND_UNKNOWN",
          "param": [
            0,
            0
          ]
        }
      ],
      "finishCond": [],
      "failCond": [],
      "guide": {},
      "finishExec": [],
      "failExec": [],
      "beginExec": []
    },
    {
      "mainId": 40080,
      "subId": 4008008,
      "order": 8,
      "showType": "QUEST_HIDDEN",
      "acceptCond": [
        {
          "type": "QUEST_COND_UNKNOWN",
          "param": [
            0,
            0
          ]
        }
      ],
      "finishCond": [],
      "failCond": [],
      "guide": {},
      "finishExec": [],
      "failExec": [],
      "beginExec": []
    }
  ],
  "talks": [
    {
      "id": 4008002,
      "beginWay": "TALK_BEGIN_MANUAL",
      "activeMode": "PLAY_MODE_SINGLE",
      "beginCond": [
        {
          "type": "QUEST_COND_STATE_EQUAL",
          "param": [
            "4008002",
            "2"
          ],
          "param_str": ""
        }
      ],
      "priority": 5,
      "initDialog": 400800201,
      "npcId": [
        1062,
        1019,
        1011
      ],
      "performCfg": "QuestDialogue/EQ/Vintage_40080/Q4008002",
      "heroTalk": "TALK_HERO_MAIN",
      "questId": 40080,
      "prePerformCfg": ""
    },
    {
      "id": 4008003,
      "beginWay": "TALK_BEGIN_MANUAL",
      "activeMode": "PLAY_MODE_SINGLE",
      "beginCond": [
        {
          "type": "QUEST_COND_STATE_EQUAL",
          "param": [
            "4008003",
            "2"
          ],
          "param_str": ""
        }
      ],
      "priority": 5,
      "initDialog": 400800301,
      "npcId": [
        10090,
        1061,
        1011
      ],
      "performCfg": "QuestDialogue/EQ/Vintage_40080/Q4008003",
      "heroTalk": "TALK_HERO_MAIN",
      "questId": 40080,
      "prePerformCfg": ""
    },
    {
      "id": 4008004,
      "beginWay": "TALK_BEGIN_MANUAL",
      "activeMode": "PLAY_MODE_SINGLE",
      "beginCond": [
        {
          "type": "QUEST_COND_STATE_EQUAL",
          "param": [
            "4008004",
            "2"
          ],
          "param_str": ""
        }
      ],
      "priority": 5,
      "initDialog": 400800401,
      "npcId": [
        1001
      ],
      "performCfg": "QuestDialogue/EQ/Vintage_40080/Q4008004",
      "heroTalk": "TALK_HERO_MAIN",
      "questId": 40080,
      "prePerformCfg": "",
      "enableCameraDisplacement": true
    },
    {
      "id": 4008006,
      "beginWay": "TALK_BEGIN_MANUAL",
      "activeMode": "PLAY_MODE_SINGLE",
      "beginCond": [
        {
          "type": "QUEST_COND_STATE_EQUAL",
          "param": [
            "4008006",
            "2"
          ],
          "param_str": ""
        }
      ],
      "priority": 5,
      "initDialog": 400800601,
      "npcId": [
        1007,
        1001,
        1006,
        1011
      ],
      "performCfg": "QuestDialogue/EQ/Vintage_40080/Q4008006",
      "heroTalk": "TALK_HERO_MAIN",
      "questId": 40080,
      "prePerformCfg": "",
      "lockGameTime": true,
      "finishExec": [
        {
          "type": "TALK_EXEC_SET_GAME_TIME",
          "param": [
            "18"
          ],
          "param_str": ""
        }
      ]
    },
    {
      "id": 4008009,
      "beginWay": "TALK_BEGIN_MANUAL",
      "activeMode": "PLAY_MODE_SINGLE",
      "beginCond": [
        {
          "type": "QUEST_COND_STATE_EQUAL",
          "param": [
            "4008005",
            "2"
          ],
          "param_str": ""
        }
      ],
      "priority": 5,
      "initDialog": 400800901,
      "npcId": [
        10090,
        1011
      ],
      "performCfg": "QuestDialogue/EQ/Vintage_40080/Q4008009",
      "heroTalk": "TALK_HERO_MAIN",
      "questId": 40080,
      "prePerformCfg": ""
    },
    {
      "id": 4008050,
      "beginWay": "TALK_BEGIN_MANUAL",
      "activeMode": "PLAY_MODE_SINGLE",
      "beginCond": [
        {
          "type": "QUEST_COND_STATE_EQUAL",
          "param": [
            "4008003",
            "2"
          ],
          "param_str": ""
        }
      ],
      "priority": 5,
      "initDialog": 400805001,
      "npcId": [
        1062
      ],
      "performCfg": "QuestDialogue/EQ/Vintage_40080/Q4008050",
      "heroTalk": "TALK_HERO_MAIN",
      "questId": 40080,
      "prePerformCfg": "",
      "finishExec": [
        {
          "type": "TALK_EXEC_SET_QUEST_VAR",
          "param": [
            "4",
            "1",
            "40080"
          ],
          "param_str": ""
        }
      ]
    }
  ]
}