{
  "id": 40096,
  "type": "WQ",
  "series": 40092,
  "titleTextMapHash": 1412474175,
  "descTextMapHash": 4050494806,
  "luaPath": "Actor/Quest/WQ40096",
  "rewardIdList": [
    140096
  ],
  "subQuests": [
    {
      "mainId": 40096,
      "subId": 4009601,
      "order": 2,
      "descTextMapHash": 2374962404,
      "acceptCond": [
        {
          "type": "QUEST_COND_UNKNOWN",
          "param": [
            0,
            0
          ]
        }
      ],
      "finishCond": [],
      "failCond": [],
      "guide": {
        "type": "QUEST_GUIDE_LOCATION",
        "param": [
          "Q4009606_N10000005"
        ],
        "guideScene": 1035,
        "guideStyle": "QUEST_GUIDE_STYLE_TARGET",
        "guideLayer": "QUEST_GUIDE_LAYER_SCENE"
      },
      "finishExec": [],
      "failExec": [],
      "beginExec": []
    },
    {
      "mainId": 40096,
      "subId": 4009602,
      "order": 9,
      "descTextMapHash": 2021063652,
      "acceptCond": [
        {
          "type": "QUEST_COND_UNKNOWN",
          "param": [
            0,
            0
          ]
        }
      ],
      "finishCond": [],
      "failCond": [],
      "guide": {
        "type": "QUEST_GUIDE_LOCATION",
        "autoGuide": "QUEST_GUIDE_AUTO_ENABLE",
        "param": [
          "Q4009602_N10204_guide"
        ],
        "guideScene": 3,
        "guideStyle": "QUEST_GUIDE_STYLE_POINT",
        "guideLayer": "QUEST_GUIDE_LAYER_SCENE"
      },
      "finishExec": [],
      "failExec": [],
      "beginExec": []
    },
    {
      "mainId": 40096,
      "subId": 4009603,
      "order": 10,
      "descTextMapHash": 2693596740,
      "acceptCond": [
        {
          "type": "QUEST_COND_UNKNOWN",
          "param": [
            0,
            0
          ]
        }
      ],
      "finishCond": [],
      "failCond": [],
      "guide": {
        "type": "QUEST_GUIDE_NPC",
        "param": [
          "1021"
        ],
        "guideScene": 1035,
        "guideStyle": "QUEST_GUIDE_STYLE_TARGET",
        "guideLayer": "QUEST_GUIDE_LAYER_SCENE"
      },
      "finishExec": [],
      "failExec": [],
      "beginExec": []
    },
    {
      "mainId": 40096,
      "subId": 4009604,
      "order": 11,
      "descTextMapHash": 3812402580,
      "acceptCond": [
        {
          "type": "QUEST_COND_UNKNOWN",
          "param": [
            0,
            0
          ]
        }
      ],
      "finishCond": [],
      "failCond": [],
      "guide": {
        "type": "QUEST_GUIDE_LOCATION",
        "autoGuide": "QUEST_GUIDE_AUTO_ENABLE",
        "param": [
          "Q4009602_N10204_guide"
        ],
        "guideScene": 3,
        "guideStyle": "QUEST_GUIDE_STYLE_POINT",
        "guideLayer": "QUEST_GUIDE_LAYER_SCENE"
      },
      "finishExec": [],
      "failExec": [],
      "beginExec": []
    },
    {
      "mainId": 40096,
      "subId": 4009605,
      "order": 1,
      "descTextMapHash": 1429837492,
      "acceptCond": [
        {
          "type": "QUEST_COND_UNKNOWN",
          "param": [
            0,
            0
          ]
        }
      ],
      "finishCond": [],
      "failCond": [],
      "guide": {},
      "finishExec": [],
      "failExec": [],
      "beginExec": []
    },
    {
      "mainId": 40096,
      "subId": 4009606,
      "order": 3,
      "descTextMapHash": 1514628508,
      "acceptCond": [
        {
          "type": "QUEST_COND_UNKNOWN",
          "param": [
            0,
            0
          ]
        }
      ],
      "finishCond": [],
      "failCond": [],
      "guide": {
        "type": "QUEST_GUIDE_LOCATION",
        "param": [
          "Q4009606_N10000005"
        ],
        "guideScene": 3,
        "guideStyle": "QUEST_GUIDE_STYLE_POINT",
        "guideLayer": "QUEST_GUIDE_LAYER_SCENE"
      },
      "finishExec": [],
      "failExec": [],
      "beginExec": []
    },
    {
      "mainId": 40096,
      "subId": 4009607,
      "order": 4,
      "descTextMapHash": 2603049292,
      "acceptCond": [
        {
          "type": "QUEST_COND_UNKNOWN",
          "param": [
            0,
            0
          ]
        }
      ],
      "finishCond": [],
      "failCond": [],
      "guide": {
        "type": "QUEST_GUIDE_LOCATION",
        "param": [
          "Q4009601_N10000005"
        ],
        "guideScene": 1035,
        "guideStyle": "QUEST_GUIDE_STYLE_TARGET",
        "guideLayer": "QUEST_GUIDE_LAYER_SCENE"
      },
      "finishExec": [],
      "failExec": [],
      "beginExec": []
    },
    {
      "mainId": 40096,
      "subId": 4009608,
      "order": 6,
      "descTextMapHash": 501207988,
      "acceptCond": [
        {
          "type": "QUEST_COND_UNKNOWN",
          "param": [
            0,
            0
          ]
        }
      ],
      "finishCond": [],
      "failCond": [],
      "guide": {
        "type": "QUEST_GUIDE_LOCATION",
        "param": [
          "Q4009606_N10000005"
        ],
        "guideScene": 3,
        "guideStyle": "QUEST_GUIDE_STYLE_POINT",
        "guideLayer": "QUEST_GUIDE_LAYER_SCENE"
      },
      "finishExec": [],
      "failExec": [],
      "beginExec": []
    },
    {
      "mainId": 40096,
      "subId": 4009609,
      "order": 7,
      "descTextMapHash": 3723241972,
      "acceptCond": [
        {
          "type": "QUEST_COND_UNKNOWN",
          "param": [
            0,
            0
          ]
        }
      ],
      "finishCond": [],
      "failCond": [],
      "guide": {
        "type": "QUEST_GUIDE_LOCATION",
        "param": [
          "Q4009601_N10000005"
        ],
        "guideScene": 1035,
        "guideStyle": "QUEST_GUIDE_STYLE_TARGET",
        "guideLayer": "QUEST_GUIDE_LAYER_SCENE"
      },
      "finishExec": [],
      "failExec": [],
      "beginExec": []
    },
    {
      "mainId": 40096,
      "subId": 4009610,
      "order": 8,
      "descTextMapHash": 2018866412,
      "acceptCond": [
        {
          "type": "QUEST_COND_UNKNOWN",
          "param": [
            0,
            0
          ]
        }
      ],
      "finishCond": [],
      "failCond": [],
      "guide": {
        "type": "QUEST_GUIDE_LOCATION",
        "param": [
          "Q4009601_N10000005"
        ],
        "guideScene": 1035,
        "guideStyle": "QUEST_GUIDE_STYLE_TARGET",
        "guideLayer": "QUEST_GUIDE_LAYER_SCENE"
      },
      "finishExec": [],
      "failExec": [],
      "beginExec": []
    },
    {
      "mainId": 40096,
      "subId": 4009611,
      "order": 5,
      "descTextMapHash": 3454414764,
      "acceptCond": [
        {
          "type": "QUEST_COND_UNKNOWN",
          "param": [
            0,
            0
          ]
        }
      ],
      "finishCond": [],
      "failCond": [],
      "guide": {
        "type": "QUEST_GUIDE_LOCATION",
        "param": [
          "Q4009601_N10000005"
        ],
        "guideScene": 1035,
        "guideStyle": "QUEST_GUIDE_STYLE_TARGET",
        "guideLayer": "QUEST_GUIDE_LAYER_SCENE"
      },
      "finishExec": [],
      "failExec": [],
      "beginExec": []
    }
  ],
  "talks": [
    {
      "id": 4009601,
      "beginWay": "TALK_BEGIN_MANUAL",
      "activeMode": "PLAY_MODE_SINGLE",
      "beginCond": [
        {
          "type": "QUEST_COND_STATE_EQUAL",
          "param": [
            "4009601",
            "2"
          ],
          "param_str": ""
        }
      ],
      "priority": 5,
      "initDialog": 400960101,
      "npcId": [
        1012,
        10045,
        10232,
        1023,
        1021,
        10204,
        1001
      ],
      "performCfg": "QuestDialogue/EQ/Sealamp3_40096/Q4009601",
      "heroTalk": "TALK_HERO_MAIN",
      "questId": 40096,
      "prePerformCfg": "",
      "lockGameTime": true
    },
    {
      "id": 4009606,
      "beginWay": "TALK_BEGIN_MANUAL",
      "activeMode": "PLAY_MODE_SINGLE",
      "beginCond": [
        {
          "type": "QUEST_COND_STATE_EQUAL",
          "param": [
            "4009601",
            "3"
          ],
          "param_str": ""
        }
      ],
      "priority": 4,
      "initDialog": 400960601,
      "npcId": [
        1005
      ],
      "performCfg": "QuestDialogue/EQ/Sealamp3_40096/Q4009606",
      "heroTalk": "TALK_HERO_MAIN",
      "questId": 40096,
      "prePerformCfg": ""
    },
    {
      "id": 4009607,
      "beginWay": "TALK_BEGIN_MANUAL",
      "activeMode": "PLAY_MODE_SINGLE",
      "beginCond": [
        {
          "type": "QUEST_COND_STATE_EQUAL",
          "param": [
            "4009601",
            "3"
          ],
          "param_str": ""
        }
      ],
      "priority": 4,
      "initDialog": 400960701,
      "npcId": [
        10204
      ],
      "performCfg": "QuestDialogue/EQ/Sealamp3_40096/Q4009607",
      "heroTalk": "TALK_HERO_MAIN",
      "questId": 40096,
      "prePerformCfg": ""
    },
    {
      "id": 4009608,
      "beginWay": "TALK_BEGIN_MANUAL",
      "activeMode": "PLAY_MODE_SINGLE",
      "beginCond": [
        {
          "type": "QUEST_COND_STATE_EQUAL",
          "param": [
            "4009601",
            "3"
          ],
          "param_str": ""
        }
      ],
      "priority": 4,
      "initDialog": 400960801,
      "npcId": [
        10232,
        1001
      ],
      "performCfg": "QuestDialogue/EQ/Sealamp3_40096/Q4009608",
      "heroTalk": "TALK_HERO_MAIN",
      "questId": 40096,
      "prePerformCfg": ""
    },
    {
      "id": 4009609,
      "beginWay": "TALK_BEGIN_MANUAL",
      "activeMode": "PLAY_MODE_SINGLE",
      "beginCond": [
        {
          "type": "QUEST_COND_STATE_EQUAL",
          "param": [
            "4009601",
            "3"
          ],
          "param_str": ""
        }
      ],
      "priority": 4,
      "initDialog": 400960901,
      "npcId": [
        1021,
        1012
      ],
      "performCfg": "QuestDialogue/EQ/Sealamp3_40096/Q4009609",
      "heroTalk": "TALK_HERO_MAIN",
      "questId": 40096,
      "prePerformCfg": ""
    },
    {
      "id": 4009610,
      "beginWay": "TALK_BEGIN_MANUAL",
      "activeMode": "PLAY_MODE_SINGLE",
      "beginCond": [
        {
          "type": "QUEST_COND_STATE_EQUAL",
          "param": [
            "4009601",
            "3"
          ],
          "param_str": ""
        }
      ],
      "priority": 4,
      "initDialog": 400961001,
      "npcId": [
        1023,
        10045
      ],
      "performCfg": "QuestDialogue/EQ/Sealamp3_40096/Q4009610",
      "heroTalk": "TALK_HERO_MAIN",
      "questId": 40096,
      "prePerformCfg": ""
    },
    {
      "id": 4009611,
      "beginWay": "TALK_BEGIN_MANUAL",
      "activeMode": "PLAY_MODE_SINGLE",
      "beginCond": [
        {
          "type": "QUEST_COND_STATE_EQUAL",
          "param": [
            "4009602",
            "2"
          ],
          "param_str": ""
        }
      ],
      "priority": 5,
      "initDialog": 400961101,
      "npcId": [
        13097
      ],
      "performCfg": "QuestDialogue/EQ/Sealamp3_40096/Q4009611",
      "heroTalk": "TALK_HERO_MAIN",
      "questId": 40096,
      "prePerformCfg": "",
      "lockGameTime": true
    },
    {
      "id": 4009612,
      "beginWay": "TALK_BEGIN_MANUAL",
      "activeMode": "PLAY_MODE_SINGLE",
      "beginCond": [
        {
          "type": "QUEST_COND_STATE_EQUAL",
          "param": [
            "4009603",
            "2"
          ],
          "param_str": ""
        }
      ],
      "priority": 5,
      "initDialog": 400961201,
      "npcId": [
        10204,
        1021,
        1001,
        10232,
        1012,
        10045,
        1023
      ],
      "performCfg": "QuestDialogue/EQ/Sealamp3_40096/Q4009612",
      "heroTalk": "TALK_HERO_MAIN",
      "questId": 40096,
      "prePerformCfg": "",
      "lockGameTime": true
    },
    {
      "id": 4009613,
      "beginWay": "TALK_BEGIN_MANUAL",
      "activeMode": "PLAY_MODE_SINGLE",
      "beginCond": [
        {
          "type": "QUEST_COND_STATE_EQUAL",
          "param": [
            "4009604",
            "2"
          ],
          "param_str": ""
        }
      ],
      "priority": 5,
      "initDialog": 400961301,
      "npcId": [
        1021,
        1001,
        10232,
        10204
      ],
      "performCfg": "QuestDialogue/EQ/Sealamp3_40096/Q4009613",
      "heroTalk": "TALK_HERO_MAIN",
      "questId": 40096,
      "prePerformCfg": "",
      "lockGameTime": true
    },
    {
      "id": 4009614,
      "beginWay": "TALK_BEGIN_MANUAL",
      "activeMode": "PLAY_MODE_SINGLE",
      "beginCond": [
        {
          "type": "QUEST_COND_STATE_EQUAL",
          "param": [
            "4009606",
            "2"
          ],
          "param_str": ""
        }
      ],
      "priority": 5,
      "initDialog": 400960157,
      "npcId": [
        1012,
        10045,
        10232,
        1023,
        1021,
        10204,
        1001
      ],
      "performCfg": "QuestDialogue/EQ/Sealamp3_40096/Q4009614",
      "heroTalk": "TALK_HERO_MAIN",
      "questId": 40096,
      "prePerformCfg": "",
      "lockGameTime": true
    },
    {
      "id": 4009615,
      "beginWay": "TALK_BEGIN_MANUAL",
      "activeMode": "PLAY_MODE_SINGLE",
      "beginCond": [
        {
          "type": "QUEST_COND_STATE_EQUAL",
          "param": [
            "4009607",
            "2"
          ],
          "param_str": ""
        }
      ],
      "priority": 5,
      "initDialog": 400960166,
      "npcId": [
        1012,
        10045,
        10232,
        1023,
        1021,
        10204,
        1001
      ],
      "performCfg": "QuestDialogue/EQ/Sealamp3_40096/Q4009615",
      "heroTalk": "TALK_HERO_MAIN",
      "questId": 40096,
      "prePerformCfg": "",
      "lockGameTime": true
    },
    {
      "id": 4009616,
      "beginWay": "TALK_BEGIN_MANUAL",
      "activeMode": "PLAY_MODE_SINGLE",
      "beginCond": [
        {
          "type": "QUEST_COND_STATE_EQUAL",
          "param": [
            "4009608",
            "2"
          ],
          "param_str": ""
        }
      ],
      "priority": 5,
      "initDialog": 400960212,
      "npcId": [
        1012,
        10045,
        10232,
        1023,
        1021,
        10204,
        1001
      ],
      "performCfg": "QuestDialogue/EQ/Sealamp3_40096/Q4009616",
      "heroTalk": "TALK_HERO_MAIN",
      "questId": 40096,
      "prePerformCfg": "",
      "lockGameTime": true
    },
    {
      "id": 4009617,
      "beginWay": "TALK_BEGIN_MANUAL",
      "activeMode": "PLAY_MODE_SINGLE",
      "beginCond": [
        {
          "type": "QUEST_COND_STATE_EQUAL",
          "param": [
            "4009609",
            "2"
          ],
          "param_str": ""
        }
      ],
      "priority": 5,
      "initDialog": 400960223,
      "npcId": [
        1012,
        10045,
        10232,
        1023,
        1021,
        10204,
        1001
      ],
      "performCfg": "QuestDialogue/EQ/Sealamp3_40096/Q4009617",
      "heroTalk": "TALK_HERO_MAIN",
      "questId": 40096,
      "prePerformCfg": "",
      "lockGameTime": true
    },
    {
      "id": 4009618,
      "beginWay": "TALK_BEGIN_MANUAL",
      "activeMode": "PLAY_MODE_SINGLE",
      "beginCond": [
        {
          "type": "QUEST_COND_STATE_EQUAL",
          "param": [
            "4009610",
            "2"
          ],
          "param_str": ""
        }
      ],
      "priority": 5,
      "initDialog": 400960271,
      "npcId": [
        1012,
        10045,
        10232,
        1023,
        1021,
        10204,
        1001
      ],
      "performCfg": "QuestDialogue/EQ/Sealamp3_40096/Q4009618",
      "heroTalk": "TALK_HERO_MAIN",
      "questId": 40096,
      "prePerformCfg": "",
      "lockGameTime": true
    },
    {
      "id": 4009619,
      "beginWay": "TALK_BEGIN_MANUAL",
      "activeMode": "PLAY_MODE_SINGLE",
      "beginCond": [
        {
          "type": "QUEST_COND_STATE_EQUAL",
          "param": [
            "4009611",
            "2"
          ],
          "param_str": ""
        }
      ],
      "priority": 5,
      "initDialog": 400960176,
      "npcId": [
        1012,
        10045,
        10232,
        1023,
        1021,
        10204,
        1001
      ],
      "performCfg": "QuestDialogue/EQ/Sealamp3_40096/Q4009619",
      "heroTalk": "TALK_HERO_MAIN",
      "questId": 40096,
      "prePerformCfg": "",
      "lockGameTime": true
    }
  ]
}