{
  "id": 40101,
  "type": "EQ",
  "series": 40100,
  "titleTextMapHash": 1986011895,
  "descTextMapHash": 2463311470,
  "luaPath": "Actor/Quest/EQ40101",
  "suggestTrackMainQuestList": [
    40102
  ],
  "rewardIdList": [
    140101
  ],
  "chapterId": 10140,
  "subQuests": [
    {
      "mainId": 40101,
      "subId": 4010101,
      "order": 1,
      "descTextMapHash": 2270591764,
      "acceptCond": [
        {
          "type": "QUEST_COND_UNKNOWN",
          "param": [
            0,
            0
          ]
        }
      ],
      "finishCond": [],
      "failCond": [],
      "guide": {},
      "finishExec": [],
      "failExec": [],
      "beginExec": []
    },
    {
      "mainId": 40101,
      "subId": 4010102,
      "order": 12,
      "showType": "QUEST_HIDDEN",
      "acceptCond": [
        {
          "type": "QUEST_COND_UNKNOWN",
          "param": [
            0,
            0
          ]
        }
      ],
      "finishCond": [],
      "failCond": [],
      "guide": {},
      "finishExec": [],
      "failExec": [],
      "beginExec": []
    },
    {
      "mainId": 40101,
      "subId": 4010103,
      "order": 2,
      "descTextMapHash": 3305621100,
      "acceptCond": [
        {
          "type": "QUEST_COND_UNKNOWN",
          "param": [
            0,
            0
          ]
        }
      ],
      "finishCond": [],
      "failCond": [],
      "guide": {
        "type": "QUEST_GUIDE_LOCATION",
        "param": [
          "Q4010103_guide",
          "25"
        ],
        "guideScene": 3,
        "guideStyle": "QUEST_GUIDE_STYLE_TARGET",
        "guideLayer": "QUEST_GUIDE_LAYER_SCENE"
      },
      "finishExec": [],
      "failExec": [],
      "beginExec": []
    },
    {
      "mainId": 40101,
      "subId": 4010104,
      "order": 3,
      "descTextMapHash": 3820014548,
      "acceptCond": [
        {
          "type": "QUEST_COND_UNKNOWN",
          "param": [
            0,
            0
          ]
        }
      ],
      "finishCond": [],
      "failCond": [],
      "guide": {},
      "finishExec": [],
      "failExec": [],
      "beginExec": []
    },
    {
      "mainId": 40101,
      "subId": 4010105,
      "order": 4,
      "descTextMapHash": 2074888620,
      "acceptCond": [
        {
          "type": "QUEST_COND_UNKNOWN",
          "param": [
            0,
            0
          ]
        }
      ],
      "finishCond": [],
      "failCond": [],
      "guide": {
        "type": "QUEST_GUIDE_LOCATION",
        "param": [
          "Q4010105_N1063",
          "15"
        ],
        "guideScene": 3,
        "guideStyle": "QUEST_GUIDE_STYLE_TARGET",
        "guideLayer": "QUEST_GUIDE_LAYER_SCENE"
      },
      "finishExec": [],
      "failExec": [],
      "beginExec": []
    },
    {
      "mainId": 40101,
      "subId": 4010106,
      "order": 5,
      "descTextMapHash": 3541960804,
      "acceptCond": [
        {
          "type": "QUEST_COND_UNKNOWN",
          "param": [
            0,
            0
          ]
        }
      ],
      "finishCond": [],
      "failCond": [],
      "guide": {},
      "finishExec": [],
      "failExec": [],
      "beginExec": []
    },
    {
      "mainId": 40101,
      "subId": 4010107,
      "order": 6,
      "descTextMapHash": 2777067972,
      "acceptCond": [
        {
          "type": "QUEST_COND_UNKNOWN",
          "param": [
            0,
            0
          ]
        }
      ],
      "finishCond": [],
      "failCond": [],
      "guide": {},
      "finishExec": [],
      "failExec": [],
      "beginExec": []
    },
    {
      "mainId": 40101,
      "subId": 4010108,
      "order": 7,
      "descTextMapHash": 2771287276,
      "acceptCond": [
        {
          "type": "QUEST_COND_UNKNOWN",
          "param": [
            0,
            0
          ]
        }
      ],
      "finishCond": [],
      "failCond": [],
      "guide": {
        "type": "QUEST_GUIDE_LOCATION",
        "param": [
          "Q4010103_guide",
          "20"
        ],
        "guideScene": 3,
        "guideStyle": "QUEST_GUIDE_STYLE_TARGET",
        "guideLayer": "QUEST_GUIDE_LAYER_SCENE"
      },
      "finishExec": [],
      "failExec": [],
      "beginExec": []
    },
    {
      "mainId": 40101,
      "subId": 4010109,
      "order": 8,
      "descTextMapHash": 1466106300,
      "acceptCond": [
        {
          "type": "QUEST_COND_UNKNOWN",
          "param": [
            0,
            0
          ]
        }
      ],
      "finishCond": [],
      "failCond": [],
      "guide": {},
      "finishExec": [],
      "failExec": [],
      "beginExec": []
    },
    {
      "mainId": 40101,
      "subId": 4010110,
      "order": 9,
      "descTextMapHash": 2573837020,
      "acceptCond": [
        {
          "type": "QUEST_COND_UNKNOWN",
          "param": [
            0,
            0
          ]
        }
      ],
      "finishCond": [],
      "failCond": [],
      "guide": {
        "type": "QUEST_GUIDE_NPC",
        "param": [
          "1063"
        ],
        "guideScene": 3,
        "guideStyle": "QUEST_GUIDE_STYLE_TARGET",
        "guideLayer": "QUEST_GUIDE_LAYER_SCENE"
      },
      "finishExec": [],
      "failExec": [],
      "beginExec": []
    },
    {
      "mainId": 40101,
      "subId": 4010111,
      "order": 10,
      "descTextMapHash": 1794147748,
      "acceptCond": [
        {
          "type": "QUEST_COND_UNKNOWN",
          "param": [
            0,
            0
          ]
        }
      ],
      "finishCond": [],
      "failCond": [],
      "guide": {
        "type": "QUEST_GUIDE_NPC",
        "param": [
          "1063"
        ],
        "guideScene": 3,
        "guideStyle": "QUEST_GUIDE_STYLE_POINT",
        "guideLayer": "QUEST_GUIDE_LAYER_SCENE"
      },
      "finishExec": [],
      "failExec": [],
      "beginExec": []
    },
    {
      "mainId": 40101,
      "subId": 4010112,
      "order": 11,
      "descTextMapHash": 606661604,
      "acceptCond": [
        {
          "type": "QUEST_COND_UNKNOWN",
          "param": [
            0,
            0
          ]
        }
      ],
      "finishCond": [],
      "failCond": [],
      "guide": {},
      "finishExec": [],
      "failExec": [],
      "beginExec": []
    },
    {
      "mainId": 40101,
      "subId": 4010113,
      "order": 15,
      "descTextMapHash": 3733806532,
      "acceptCond": [
        {
          "type": "QUEST_COND_UNKNOWN",
          "param": [
            0,
            0
          ]
        }
      ],
      "finishCond": [],
      "failCond": [],
      "guide": {
        "type": "QUEST_GUIDE_LOCATION",
        "param": [
          "Q4010103_guide",
          "20"
        ],
        "guideScene": 3,
        "guideStyle": "QUEST_GUIDE_STYLE_TARGET",
        "guideLayer": "QUEST_GUIDE_LAYER_SCENE"
      },
      "finishExec": [],
      "failExec": [],
      "beginExec": []
    },
    {
      "mainId": 40101,
      "subId": 4010114,
      "order": 13,
      "showType": "QUEST_HIDDEN",
      "acceptCond": [
        {
          "type": "QUEST_COND_UNKNOWN",
          "param": [
            0,
            0
          ]
        }
      ],
      "finishCond": [],
      "failCond": [],
      "guide": {},
      "finishExec": [],
      "failExec": [],
      "beginExec": []
    },
    {
      "mainId": 40101,
      "subId": 4010115,
      "order": 14,
      "showType": "QUEST_HIDDEN",
      "acceptCond": [
        {
          "type": "QUEST_COND_UNKNOWN",
          "param": [
            0,
            0
          ]
        }
      ],
      "finishCond": [],
      "failCond": [],
      "guide": {},
      "finishExec": [],
      "failExec": [],
      "beginExec": []
    }
  ],
  "talks": [
    {
      "id": 4010103,
      "beginWay": "TALK_BEGIN_MANUAL",
      "activeMode": "PLAY_MODE_SINGLE",
      "beginCond": [
        {
          "type": "QUEST_COND_STATE_EQUAL",
          "param": [
            "4010103",
            "2"
          ],
          "param_str": ""
        }
      ],
      "priority": 5,
      "nextTalks": [
        4010123,
        4010133
      ],
      "initDialog": 401010301,
      "npcId": [
        13161
      ],
      "performCfg": "QuestDialogue/EQ/AkaFes_40101/Q4010103",
      "heroTalk": "TALK_HERO_MAIN",
      "questId": 40101,
      "prePerformCfg": "",
      "lockGameTime": true
    },
    {
      "id": 4010104,
      "beginWay": "TALK_BEGIN_MANUAL",
      "activeMode": "PLAY_MODE_SINGLE",
      "beginCondComb": "LOGIC_AND",
      "beginCond": [
        {
          "type": "QUEST_COND_STATE_EQUAL",
          "param": [
            "4010104",
            "2"
          ],
          "param_str": ""
        },
        {
          "type": "QUEST_COND_PLAYER_CHOOSE_MALE",
          "param": [
            "1"
          ],
          "param_str": ""
        }
      ],
      "priority": 5,
      "initDialog": 401010401,
      "npcId": [
        1050
      ],
      "performCfg": "QuestDialogue/EQ/AkaFes_40101/Q4010104",
      "heroTalk": "TALK_HERO_MAIN",
      "questId": 40101,
      "prePerformCfg": "",
      "lockGameTime": true
    },
    {
      "id": 4010105,
      "beginWay": "TALK_BEGIN_MANUAL",
      "activeMode": "PLAY_MODE_SINGLE",
      "beginCond": [
        {
          "type": "QUEST_COND_STATE_EQUAL",
          "param": [
            "4010105",
            "2"
          ],
          "param_str": ""
        }
      ],
      "priority": 5,
      "initDialog": 401010501,
      "npcId": [
        13161
      ],
      "performCfg": "QuestDialogue/EQ/AkaFes_40101/Q4010105",
      "heroTalk": "TALK_HERO_MAIN",
      "questId": 40101,
      "prePerformCfg": "",
      "lockGameTime": true
    },
    {
      "id": 4010106,
      "beginWay": "TALK_BEGIN_MANUAL",
      "activeMode": "PLAY_MODE_SINGLE",
      "beginCond": [
        {
          "type": "QUEST_COND_STATE_EQUAL",
          "param": [
            "4010106",
            "2"
          ],
          "param_str": ""
        }
      ],
      "priority": 5,
      "initDialog": 401010601,
      "npcId": [
        1067
      ],
      "performCfg": "QuestDialogue/EQ/AkaFes_40101/Q4010106",
      "heroTalk": "TALK_HERO_MAIN",
      "questId": 40101,
      "prePerformCfg": "",
      "lockGameTime": true
    },
    {
      "id": 4010107,
      "beginWay": "TALK_BEGIN_MANUAL",
      "activeMode": "PLAY_MODE_SINGLE",
      "beginCond": [
        {
          "type": "QUEST_COND_STATE_EQUAL",
          "param": [
            "4010107",
            "2"
          ],
          "param_str": ""
        }
      ],
      "priority": 5,
      "initDialog": 401010701,
      "npcId": [
        1064
      ],
      "performCfg": "QuestDialogue/EQ/AkaFes_40101/Q4010107",
      "heroTalk": "TALK_HERO_MAIN",
      "questId": 40101,
      "prePerformCfg": "",
      "lockGameTime": true
    },
    {
      "id": 4010108,
      "beginWay": "TALK_BEGIN_MANUAL",
      "activeMode": "PLAY_MODE_SINGLE",
      "beginCond": [
        {
          "type": "QUEST_COND_STATE_EQUAL",
          "param": [
            "4010108",
            "2"
          ],
          "param_str": ""
        }
      ],
      "priority": 5,
      "initDialog": 401010801,
      "npcId": [
        13161
      ],
      "performCfg": "QuestDialogue/EQ/AkaFes_40101/Q4010108",
      "heroTalk": "TALK_HERO_MAIN",
      "questId": 40101,
      "prePerformCfg": "",
      "lockGameTime": true
    },
    {
      "id": 4010109,
      "beginWay": "TALK_BEGIN_MANUAL",
      "activeMode": "PLAY_MODE_SINGLE",
      "beginCond": [
        {
          "type": "QUEST_COND_STATE_EQUAL",
          "param": [
            "4010109",
            "2"
          ],
          "param_str": ""
        }
      ],
      "priority": 5,
      "initDialog": 401010901,
      "npcId": [
        1063
      ],
      "performCfg": "QuestDialogue/EQ/AkaFes_40101/Q4010109",
      "heroTalk": "TALK_HERO_MAIN",
      "questId": 40101,
      "prePerformCfg": "",
      "lockGameTime": true
    },
    {
      "id": 4010111,
      "beginWay": "TALK_BEGIN_MANUAL",
      "activeMode": "PLAY_MODE_SINGLE",
      "beginCond": [
        {
          "type": "QUEST_COND_STATE_EQUAL",
          "param": [
            "4010111",
            "2"
          ],
          "param_str": ""
        }
      ],
      "priority": 5,
      "initDialog": 401011101,
      "npcId": [
        13161
      ],
      "performCfg": "QuestDialogue/EQ/AkaFes_40101/Q4010111",
      "heroTalk": "TALK_HERO_MAIN",
      "questId": 40101,
      "prePerformCfg": "",
      "lockGameTime": true
    },
    {
      "id": 4010112,
      "beginWay": "TALK_BEGIN_MANUAL",
      "activeMode": "PLAY_MODE_SINGLE",
      "beginCond": [
        {
          "type": "QUEST_COND_STATE_EQUAL",
          "param": [
            "4010112",
            "2"
          ],
          "param_str": ""
        }
      ],
      "priority": 5,
      "initDialog": 401011201,
      "npcId": [
        1067,
        1064
      ],
      "performCfg": "QuestDialogue/EQ/AkaFes_40101/Q4010112",
      "heroTalk": "TALK_HERO_MAIN",
      "questId": 40101,
      "prePerformCfg": "",
      "lockGameTime": true
    },
    {
      "id": 4010113,
      "beginWay": "TALK_BEGIN_MANUAL",
      "activeMode": "PLAY_MODE_SINGLE",
      "beginCond": [
        {
          "type": "QUEST_COND_STATE_EQUAL",
          "param": [
            "4010113",
            "2"
          ],
          "param_str": ""
        }
      ],
      "priority": 5,
      "initDialog": 401011301,
      "npcId": [
        13161
      ],
      "performCfg": "QuestDialogue/EQ/AkaFes_40101/Q4010113",
      "heroTalk": "TALK_HERO_MAIN",
      "questId": 40101,
      "prePerformCfg": "",
      "lockGameTime": true
    },
    {
      "id": 4010123,
      "activeMode": "PLAY_MODE_SINGLE",
      "beginCondComb": "LOGIC_AND",
      "beginCond": [
        {
          "type": "QUEST_COND_QUEST_GLOBAL_VAR_EQUAL",
          "param": [
            "13003",
            "1"
          ],
          "param_str": ""
        },
        {
          "type": "QUEST_COND_STATE_EQUAL",
          "param": [
            "4010103",
            "2"
          ],
          "param_str": ""
        }
      ],
      "priority": 5,
      "nextTalks": [
        4010143
      ],
      "initDialog": 401010301,
      "npcId": [
        13161
      ],
      "performCfg": "QuestDialogue/EQ/AkaFes_40101/Q4010123",
      "heroTalk": "TALK_HERO_MAIN",
      "questId": 40101,
      "prePerformCfg": "",
      "lockGameTime": true
    },
    {
      "id": 4010133,
      "activeMode": "PLAY_MODE_SINGLE",
      "beginCondComb": "LOGIC_AND",
      "beginCond": [
        {
          "type": "QUEST_COND_QUEST_GLOBAL_VAR_EQUAL",
          "param": [
            "13003",
            "0"
          ],
          "param_str": ""
        },
        {
          "type": "QUEST_COND_STATE_EQUAL",
          "param": [
            "4010103",
            "2"
          ],
          "param_str": ""
        }
      ],
      "priority": 5,
      "nextTalks": [
        4010143
      ],
      "initDialog": 401010301,
      "npcId": [
        13161
      ],
      "performCfg": "QuestDialogue/EQ/AkaFes_40101/Q4010133",
      "heroTalk": "TALK_HERO_MAIN",
      "questId": 40101,
      "prePerformCfg": "",
      "lockGameTime": true
    },
    {
      "id": 4010143,
      "activeMode": "PLAY_MODE_SINGLE",
      "beginCond": [
        {
          "type": "QUEST_COND_STATE_EQUAL",
          "param": [
            "4010103",
            "2"
          ],
          "param_str": ""
        }
      ],
      "priority": 5,
      "initDialog": 401010301,
      "npcId": [
        13161
      ],
      "performCfg": "QuestDialogue/EQ/AkaFes_40101/Q4010143",
      "heroTalk": "TALK_HERO_MAIN",
      "questId": 40101,
      "prePerformCfg": "",
      "lockGameTime": true
    },
    {
      "id": 4010144,
      "beginWay": "TALK_BEGIN_MANUAL",
      "activeMode": "PLAY_MODE_SINGLE",
      "beginCondComb": "LOGIC_AND",
      "beginCond": [
        {
          "type": "QUEST_COND_STATE_EQUAL",
          "param": [
            "4010104",
            "2"
          ],
          "param_str": ""
        },
        {
          "type": "QUEST_COND_PLAYER_CHOOSE_MALE",
          "param": [
            "0"
          ],
          "param_str": ""
        }
      ],
      "priority": 5,
      "initDialog": 401010401,
      "npcId": [
        1050
      ],
      "performCfg": "QuestDialogue/EQ/AkaFes_40101/Q4010144",
      "heroTalk": "TALK_HERO_MAIN",
      "questId": 40101,
      "prePerformCfg": "",
      "lockGameTime": true
    },
    {
      "id": 4010150,
      "beginWay": "TALK_BEGIN_MANUAL",
      "activeMode": "PLAY_MODE_SINGLE",
      "beginCondComb": "LOGIC_OR",
      "beginCond": [
        {
          "type": "QUEST_COND_STATE_EQUAL",
          "param": [
            "4010104",
            "2"
          ],
          "param_str": ""
        },
        {
          "type": "QUEST_COND_STATE_EQUAL",
          "param": [
            "4010105",
            "2"
          ],
          "param_str": ""
        }
      ],
      "priority": 5,
      "initDialog": 401015001,
      "npcId": [
        1054,
        1053
      ],
      "performCfg": "QuestDialogue/EQ/AkaFes_40101/Q4010150",
      "heroTalk": "TALK_HERO_MAIN",
      "questId": 40101,
      "prePerformCfg": ""
    },
    {
      "id": 4010151,
      "beginWay": "TALK_BEGIN_MANUAL",
      "activeMode": "PLAY_MODE_SINGLE",
      "beginCondComb": "LOGIC_OR",
      "beginCond": [
        {
          "type": "QUEST_COND_STATE_EQUAL",
          "param": [
            "4010106",
            "2"
          ],
          "param_str": ""
        },
        {
          "type": "QUEST_COND_STATE_EQUAL",
          "param": [
            "4010107",
            "2"
          ],
          "param_str": ""
        }
      ],
      "priority": 5,
      "initDialog": 401015101,
      "npcId": [
        1054,
        1053
      ],
      "performCfg": "QuestDialogue/EQ/AkaFes_40101/Q4010151",
      "heroTalk": "TALK_HERO_MAIN",
      "questId": 40101,
      "prePerformCfg": ""
    },
    {
      "id": 4010152,
      "beginWay": "TALK_BEGIN_MANUAL",
      "activeMode": "PLAY_MODE_SINGLE",
      "beginCondComb": "LOGIC_OR",
      "beginCond": [
        {
          "type": "QUEST_COND_STATE_EQUAL",
          "param": [
            "4010109",
            "2"
          ],
          "param_str": ""
        },
        {
          "type": "QUEST_COND_STATE_EQUAL",
          "param": [
            "4010110",
            "2"
          ],
          "param_str": ""
        },
        {
          "type": "QUEST_COND_STATE_EQUAL",
          "param": [
            "4010111",
            "2"
          ],
          "param_str": ""
        },
        {
          "type": "QUEST_COND_STATE_EQUAL",
          "param": [
            "4010112",
            "2"
          ],
          "param_str": ""
        }
      ],
      "priority": 5,
      "initDialog": 401015201,
      "npcId": [
        1054,
        1053
      ],
      "performCfg": "QuestDialogue/EQ/AkaFes_40101/Q4010152",
      "heroTalk": "TALK_HERO_MAIN",
      "questId": 40101,
      "prePerformCfg": ""
    },
    {
      "id": 4010153,
      "beginWay": "TALK_BEGIN_MANUAL",
      "activeMode": "PLAY_MODE_SINGLE",
      "beginCond": [
        {
          "type": "QUEST_COND_STATE_EQUAL",
          "param": [
            "4010104",
            "2"
          ],
          "param_str": ""
        }
      ],
      "priority": 5,
      "initDialog": 401015301,
      "npcId": [
        1065
      ],
      "performCfg": "QuestDialogue/EQ/AkaFes_40101/Q4010153",
      "heroTalk": "TALK_HERO_MAIN",
      "questId": 40101,
      "prePerformCfg": ""
    },
    {
      "id": 4010154,
      "beginWay": "TALK_BEGIN_MANUAL",
      "activeMode": "PLAY_MODE_SINGLE",
      "beginCond": [
        {
          "type": "QUEST_COND_STATE_EQUAL",
          "param": [
            "4010104",
            "2"
          ],
          "param_str": ""
        }
      ],
      "priority": 5,
      "initDialog": 401015401,
      "npcId": [
        1058
      ],
      "performCfg": "QuestDialogue/EQ/AkaFes_40101/Q4010154",
      "heroTalk": "TALK_HERO_MAIN",
      "questId": 40101,
      "prePerformCfg": "",
      "lockGameTime": true
    },
    {
      "id": 4010156,
      "beginWay": "TALK_BEGIN_MANUAL",
      "activeMode": "PLAY_MODE_SINGLE",
      "beginCond": [
        {
          "type": "QUEST_COND_STATE_EQUAL",
          "param": [
            "4010104",
            "2"
          ],
          "param_str": ""
        }
      ],
      "priority": 5,
      "initDialog": 401015601,
      "npcId": [
        1063
      ],
      "performCfg": "QuestDialogue/EQ/AkaFes_40101/Q4010156",
      "heroTalk": "TALK_HERO_MAIN",
      "questId": 40101,
      "prePerformCfg": ""
    },
    {
      "id": 4010157,
      "beginWay": "TALK_BEGIN_MANUAL",
      "activeMode": "PLAY_MODE_SINGLE",
      "beginCondComb": "LOGIC_OR",
      "beginCond": [
        {
          "type": "QUEST_COND_STATE_EQUAL",
          "param": [
            "4010104",
            "2"
          ],
          "param_str": ""
        },
        {
          "type": "QUEST_COND_STATE_EQUAL",
          "param": [
            "4010105",
            "2"
          ],
          "param_str": ""
        }
      ],
      "priority": 5,
      "initDialog": 401015701,
      "npcId": [
        1067
      ],
      "performCfg": "QuestDialogue/EQ/AkaFes_40101/Q4010157",
      "heroTalk": "TALK_HERO_MAIN",
      "questId": 40101,
      "prePerformCfg": ""
    },
    {
      "id": 4010158,
      "beginWay": "TALK_BEGIN_MANUAL",
      "activeMode": "PLAY_MODE_SINGLE",
      "beginCondComb": "LOGIC_OR",
      "beginCond": [
        {
          "type": "QUEST_COND_STATE_EQUAL",
          "param": [
            "4010104",
            "2"
          ],
          "param_str": ""
        },
        {
          "type": "QUEST_COND_STATE_EQUAL",
          "param": [
            "4010105",
            "2"
          ],
          "param_str": ""
        }
      ],
      "priority": 5,
      "initDialog": 401015801,
      "npcId": [
        1064
      ],
      "performCfg": "QuestDialogue/EQ/AkaFes_40101/Q4010158",
      "heroTalk": "TALK_HERO_MAIN",
      "questId": 40101,
      "prePerformCfg": ""
    },
    {
      "id": 4010159,
      "beginWay": "TALK_BEGIN_MANUAL",
      "activeMode": "PLAY_MODE_SINGLE",
      "beginCond": [
        {
          "type": "QUEST_COND_STATE_EQUAL",
          "param": [
            "4010105",
            "2"
          ],
          "param_str": ""
        }
      ],
      "priority": 5,
      "initDialog": 401015901,
      "npcId": [
        1065
      ],
      "performCfg": "QuestDialogue/EQ/AkaFes_40101/Q4010159",
      "heroTalk": "TALK_HERO_MAIN",
      "questId": 40101,
      "prePerformCfg": ""
    },
    {
      "id": 4010160,
      "beginWay": "TALK_BEGIN_MANUAL",
      "activeMode": "PLAY_MODE_SINGLE",
      "beginCond": [
        {
          "type": "QUEST_COND_STATE_EQUAL",
          "param": [
            "4010106",
            "2"
          ],
          "param_str": ""
        }
      ],
      "priority": 5,
      "initDialog": 401016001,
      "npcId": [
        1064
      ],
      "performCfg": "QuestDialogue/EQ/AkaFes_40101/Q4010160",
      "heroTalk": "TALK_HERO_MAIN",
      "questId": 40101,
      "prePerformCfg": ""
    },
    {
      "id": 4010161,
      "beginWay": "TALK_BEGIN_MANUAL",
      "activeMode": "PLAY_MODE_SINGLE",
      "beginCond": [
        {
          "type": "QUEST_COND_STATE_EQUAL",
          "param": [
            "4010106",
            "2"
          ],
          "param_str": ""
        }
      ],
      "priority": 5,
      "initDialog": 401016101,
      "npcId": [
        1063
      ],
      "performCfg": "QuestDialogue/EQ/AkaFes_40101/Q4010161",
      "heroTalk": "TALK_HERO_MAIN",
      "questId": 40101,
      "prePerformCfg": ""
    },
    {
      "id": 4010162,
      "beginWay": "TALK_BEGIN_MANUAL",
      "activeMode": "PLAY_MODE_SINGLE",
      "beginCondComb": "LOGIC_OR",
      "beginCond": [
        {
          "type": "QUEST_COND_STATE_EQUAL",
          "param": [
            "4010106",
            "2"
          ],
          "param_str": ""
        },
        {
          "type": "QUEST_COND_STATE_EQUAL",
          "param": [
            "4010107",
            "2"
          ],
          "param_str": ""
        }
      ],
      "priority": 5,
      "initDialog": 401016201,
      "npcId": [
        1065
      ],
      "performCfg": "QuestDialogue/EQ/AkaFes_40101/Q4010162",
      "heroTalk": "TALK_HERO_MAIN",
      "questId": 40101,
      "prePerformCfg": ""
    },
    {
      "id": 4010163,
      "beginWay": "TALK_BEGIN_MANUAL",
      "activeMode": "PLAY_MODE_SINGLE",
      "beginCondComb": "LOGIC_OR",
      "beginCond": [
        {
          "type": "QUEST_COND_STATE_EQUAL",
          "param": [
            "4010106",
            "2"
          ],
          "param_str": ""
        },
        {
          "type": "QUEST_COND_STATE_EQUAL",
          "param": [
            "4010107",
            "2"
          ],
          "param_str": ""
        },
        {
          "type": "QUEST_COND_STATE_EQUAL",
          "param": [
            "4010108",
            "2"
          ],
          "param_str": ""
        }
      ],
      "priority": 5,
      "initDialog": 401016301,
      "npcId": [
        1058
      ],
      "performCfg": "QuestDialogue/EQ/AkaFes_40101/Q4010163",
      "heroTalk": "TALK_HERO_MAIN",
      "questId": 40101,
      "prePerformCfg": ""
    },
    {
      "id": 4010164,
      "beginWay": "TALK_BEGIN_MANUAL",
      "activeMode": "PLAY_MODE_SINGLE",
      "beginCond": [
        {
          "type": "QUEST_COND_STATE_EQUAL",
          "param": [
            "4010107",
            "2"
          ],
          "param_str": ""
        }
      ],
      "priority": 5,
      "initDialog": 401016401,
      "npcId": [
        1063
      ],
      "performCfg": "QuestDialogue/EQ/AkaFes_40101/Q4010164",
      "heroTalk": "TALK_HERO_MAIN",
      "questId": 40101,
      "prePerformCfg": ""
    },
    {
      "id": 4010165,
      "beginWay": "TALK_BEGIN_MANUAL",
      "activeMode": "PLAY_MODE_SINGLE",
      "beginCondComb": "LOGIC_OR",
      "beginCond": [
        {
          "type": "QUEST_COND_STATE_EQUAL",
          "param": [
            "4010107",
            "2"
          ],
          "param_str": ""
        },
        {
          "type": "QUEST_COND_STATE_EQUAL",
          "param": [
            "4010108",
            "2"
          ],
          "param_str": ""
        }
      ],
      "priority": 5,
      "initDialog": 401016501,
      "npcId": [
        1067
      ],
      "performCfg": "QuestDialogue/EQ/AkaFes_40101/Q4010165",
      "heroTalk": "TALK_HERO_MAIN",
      "questId": 40101,
      "prePerformCfg": ""
    },
    {
      "id": 4010166,
      "beginWay": "TALK_BEGIN_MANUAL",
      "activeMode": "PLAY_MODE_SINGLE",
      "beginCond": [
        {
          "type": "QUEST_COND_STATE_EQUAL",
          "param": [
            "4010108",
            "2"
          ],
          "param_str": ""
        }
      ],
      "priority": 5,
      "initDialog": 401016601,
      "npcId": [
        1063
      ],
      "performCfg": "QuestDialogue/EQ/AkaFes_40101/Q4010166",
      "heroTalk": "TALK_HERO_MAIN",
      "questId": 40101,
      "prePerformCfg": ""
    },
    {
      "id": 4010167,
      "beginWay": "TALK_BEGIN_MANUAL",
      "activeMode": "PLAY_MODE_SINGLE",
      "beginCondComb": "LOGIC_OR",
      "beginCond": [
        {
          "type": "QUEST_COND_STATE_EQUAL",
          "param": [
            "4010108",
            "2"
          ],
          "param_str": ""
        },
        {
          "type": "QUEST_COND_STATE_EQUAL",
          "param": [
            "4010109",
            "2"
          ],
          "param_str": ""
        },
        {
          "type": "QUEST_COND_STATE_EQUAL",
          "param": [
            "4010110",
            "2"
          ],
          "param_str": ""
        },
        {
          "type": "QUEST_COND_STATE_EQUAL",
          "param": [
            "4010111",
            "2"
          ],
          "param_str": ""
        },
        {
          "type": "QUEST_COND_STATE_EQUAL",
          "param": [
            "4010112",
            "2"
          ],
          "param_str": ""
        },
        {
          "type": "QUEST_COND_STATE_EQUAL",
          "param": [
            "4010113",
            "2"
          ],
          "param_str": ""
        }
      ],
      "priority": 5,
      "initDialog": 401016701,
      "npcId": [
        1065
      ],
      "performCfg": "QuestDialogue/EQ/AkaFes_40101/Q4010167",
      "heroTalk": "TALK_HERO_MAIN",
      "questId": 40101,
      "prePerformCfg": ""
    },
    {
      "id": 4010168,
      "beginWay": "TALK_BEGIN_MANUAL",
      "activeMode": "PLAY_MODE_SINGLE",
      "beginCondComb": "LOGIC_OR",
      "beginCond": [
        {
          "type": "QUEST_COND_STATE_EQUAL",
          "param": [
            "4010109",
            "2"
          ],
          "param_str": ""
        },
        {
          "type": "QUEST_COND_STATE_EQUAL",
          "param": [
            "4010110",
            "2"
          ],
          "param_str": ""
        },
        {
          "type": "QUEST_COND_STATE_EQUAL",
          "param": [
            "4010111",
            "2"
          ],
          "param_str": ""
        },
        {
          "type": "QUEST_COND_STATE_EQUAL",
          "param": [
            "4010112",
            "2"
          ],
          "param_str": ""
        },
        {
          "type": "QUEST_COND_STATE_EQUAL",
          "param": [
            "4010113",
            "2"
          ],
          "param_str": ""
        }
      ],
      "priority": 5,
      "initDialog": 401016801,
      "npcId": [
        1058,
        1050
      ],
      "performCfg": "QuestDialogue/EQ/AkaFes_40101/Q4010168",
      "heroTalk": "TALK_HERO_MAIN",
      "questId": 40101,
      "prePerformCfg": ""
    },
    {
      "id": 4010169,
      "beginWay": "TALK_BEGIN_MANUAL",
      "activeMode": "PLAY_MODE_SINGLE",
      "beginCondComb": "LOGIC_OR",
      "beginCond": [
        {
          "type": "QUEST_COND_STATE_EQUAL",
          "param": [
            "4010108",
            "2"
          ],
          "param_str": ""
        },
        {
          "type": "QUEST_COND_STATE_EQUAL",
          "param": [
            "4010109",
            "2"
          ],
          "param_str": ""
        },
        {
          "type": "QUEST_COND_STATE_EQUAL",
          "param": [
            "4010110",
            "2"
          ],
          "param_str": ""
        },
        {
          "type": "QUEST_COND_STATE_EQUAL",
          "param": [
            "4010111",
            "2"
          ],
          "param_str": ""
        }
      ],
      "priority": 5,
      "initDialog": 401016901,
      "npcId": [
        1064,
        13198
      ],
      "performCfg": "QuestDialogue/EQ/AkaFes_40101/Q4010169",
      "heroTalk": "TALK_HERO_MAIN",
      "questId": 40101,
      "prePerformCfg": ""
    }
  ]
}