{
  "id": 41141,
  "type": "EQ",
  "titleTextMapHash": 3200370287,
  "descTextMapHash": 353801062,
  "luaPath": "Actor/Quest/EQ41141",
  "rewardIdList": [
    3001012
  ],
  "subQuests": [
    {
      "subId": 4114101,
      "mainId": 41141,
      "order": 2,
      "descTextMapHash": 4207333732,
      "acceptCondComb": "LOGIC_AND",
      "acceptCond": [
        {
          "type": "QUEST_COND_STATE_EQUAL",
          "param": [
            4114104,
            3,
            0,
            0,
            0
          ],
          "param_str": ""
        }
      ],
      "finishCondComb": "LOGIC_OR",
      "finishCond": [
        {
          "type": "QUEST_CONTENT_FINISH_PLOT",
          "param": [
            4114101,
            0
          ],
          "param_str": ""
        }
      ],
      "failCondComb": "LOGIC_OR",
      "failCond": [],
      "guide": {
        "type": "QUEST_GUIDE_NPC",
        "autoGuide": "QUEST_GUIDE_AUTO_ENABLE",
        "param": [
          "2204"
        ],
        "guideScene": 3,
        "guideStyle": "QUEST_GUIDE_STYLE_TARGET",
        "guideLayer": "QUEST_GUIDE_LAYER_UI"
      },
      "isRewind": true,
      "finishExec": [],
      "failExec": [],
      "beginExec": [
        {
          "type": "QUEST_EXEC_DEL_PACK_ITEM",
          "param": [
            "100647",
            "1"
          ],
          "param_str": ""
        }
      ],
      "exclusiveNpcList": [
        2204,
        30027
      ],
      "exclusiveNpcPriority": 1100
    },
    {
      "subId": 4114102,
      "mainId": 41141,
      "order": 3,
      "isMpBlock": true,
      "descTextMapHash": 503380444,
      "banType": "BAN_GROUP_TRANSPOR_GOTO_SCENE",
      "acceptCondComb": "LOGIC_AND",
      "acceptCond": [
        {
          "type": "QUEST_COND_STATE_EQUAL",
          "param": [
            4114101,
            3,
            0,
            0,
            0
          ],
          "param_str": ""
        }
      ],
      "finishCondComb": "LOGIC_OR",
      "finishCond": [
        {
          "type": "QUEST_CONTENT_COMPLETE_TALK",
          "param": [
            4114102,
            0
          ],
          "param_str": ""
        }
      ],
      "failCondComb": "LOGIC_OR",
      "failCond": [
        {
          "type": "QUEST_CONTENT_NOT_FINISH_PLOT",
          "param": [
            4114102,
            0
          ],
          "param_str": ""
        },
        {
          "type": "QUEST_CONTENT_ITEM_LESS_THAN",
          "param": [
            100647,
            1
          ],
          "param_str": ""
        },
        {
          "type": "QUEST_CONTENT_ACTIVITY_TRIGGER_FAILED",
          "param": [
            5006,
            0
          ],
          "param_str": ""
        }
      ],
      "guide": {
        "type": "QUEST_GUIDE_NPC",
        "autoGuide": "QUEST_GUIDE_AUTO_ENABLE",
        "param": [
          "30027"
        ],
        "guideScene": 3,
        "guideStyle": "QUEST_GUIDE_STYLE_FINISH",
        "guideLayer": "QUEST_GUIDE_LAYER_UI"
      },
      "finishExec": [
        {
          "type": "QUEST_EXEC_DEL_PACK_ITEM",
          "param": [
            "100647",
            "1"
          ],
          "param_str": ""
        }
      ],
      "failExec": [
        {
          "type": "QUEST_EXEC_DEL_PACK_ITEM",
          "param": [
            "100647",
            "1"
          ],
          "param_str": ""
        },
        {
          "type": "QUEST_EXEC_ROLLBACK_QUEST",
          "param": [
            "4114101"
          ],
          "param_str": ""
        }
      ],
      "beginExec": [],
      "exclusiveNpcList": [
        30027
      ],
      "exclusiveNpcPriority": 1100
    },
    {
      "subId": 4114103,
      "mainId": 41141,
      "order": 4,
      "descTextMapHash": 3990749076,
      "acceptCondComb": "LOGIC_AND",
      "acceptCond": [
        {
          "type": "QUEST_COND_STATE_EQUAL",
          "param": [
            4114102,
            3,
            0,
            0,
            0
          ],
          "param_str": ""
        }
      ],
      "finishCondComb": "LOGIC_OR",
      "finishCond": [
        {
          "type": "QUEST_CONTENT_COMPLETE_TALK",
          "param": [
            4114106,
            0
          ],
          "param_str": ""
        }
      ],
      "failCond": [],
      "guide": {
        "type": "QUEST_GUIDE_NPC",
        "autoGuide": "QUEST_GUIDE_AUTO_ENABLE",
        "param": [
          "30027"
        ],
        "guideScene": 3,
        "guideStyle": "QUEST_GUIDE_STYLE_FINISH",
        "guideLayer": "QUEST_GUIDE_LAYER_UI"
      },
      "finishParent": true,
      "isRewind": true,
      "finishExec": [],
      "failExec": [],
      "beginExec": [],
      "exclusiveNpcList": [
        30027
      ],
      "exclusiveNpcPriority": 1100
    },
    {
      "subId": 4114104,
      "mainId": 41141,
      "order": 1,
      "descTextMapHash": 4083378316,
      "showType": "QUEST_HIDDEN",
      "acceptCond": [
        {
          "type": "QUEST_COND_ACTIVITY_COND",
          "param": [
            50060101,
            1,
            0,
            0,
            0
          ],
          "param_str": ""
        }
      ],
      "finishCond": [
        {
          "type": "QUEST_CONTENT_FINISH_PLOT",
          "param": [
            4114104,
            0
          ],
          "param_str": ""
        }
      ],
      "failCond": [],
      "guide": {
        "param": []
      },
      "finishExec": [],
      "failExec": [],
      "beginExec": []
    }
  ],
  "talks": [
    {
      "id": 4114101,
      "activeMode": "PLAY_MODE_SINGLE",
      "beginCond": [
        {
          "type": "QUEST_COND_STATE_EQUAL",
          "param": [
            "4114101",
            "2"
          ],
          "param_str": ""
        }
      ],
      "priority": 10,
      "initDialog": 411410101,
      "npcId": [
        2204
      ],
      "performCfg": "",
      "heroTalk": "TALK_HERO_MAIN",
      "questId": 41141,
      "prePerformCfg": ""
    },
    {
      "id": 4114102,
      "beginWay": "TALK_BEGIN_MANUAL",
      "activeMode": "PLAY_MODE_SINGLE",
      "beginCond": [
        {
          "type": "QUEST_COND_STATE_EQUAL",
          "param": [
            "4114101",
            "3"
          ],
          "param_str": ""
        }
      ],
      "priority": 10,
      "nextTalks": [
        4114106
      ],
      "initDialog": 411410201,
      "npcId": [
        30027
      ],
      "performCfg": "",
      "heroTalk": "TALK_HERO_MAIN",
      "questId": 41141,
      "prePerformCfg": ""
    },
    {
      "id": 4114103,
      "activeMode": "PLAY_MODE_SINGLE",
      "beginCond": [
        {
          "type": "QUEST_COND_STATE_EQUAL",
          "param": [
            "4114101",
            "2"
          ],
          "param_str": ""
        }
      ],
      "priority": 90,
      "nextTalks": [
        4114101,
        4114104
      ],
      "initDialog": 411410301,
      "npcId": [
        2204
      ],
      "performCfg": "",
      "heroTalk": "TALK_HERO_MAIN",
      "questId": 41141,
      "dontBlockDaily": true,
      "prePerformCfg": ""
    },
    {
      "id": 4114104,
      "activeMode": "PLAY_MODE_SINGLE",
      "beginCond": [
        {
          "type": "QUEST_COND_STATE_EQUAL",
          "param": [
            "4114101",
            "2"
          ],
          "param_str": ""
        }
      ],
      "priority": 10,
      "initDialog": 411410401,
      "npcId": [
        2204
      ],
      "performCfg": "",
      "heroTalk": "TALK_HERO_MAIN",
      "questId": 41141,
      "prePerformCfg": ""
    },
    {
      "id": 4114105,
      "beginWay": "TALK_BEGIN_MANUAL",
      "activeMode": "PLAY_MODE_SINGLE",
      "beginCond": [
        {
          "type": "QUEST_COND_STATE_EQUAL",
          "param": [
            "4114101",
            "2"
          ],
          "param_str": ""
        }
      ],
      "initDialog": 411410501,
      "npcId": [
        30027
      ],
      "performCfg": "",
      "heroTalk": "TALK_HERO_MAIN",
      "questId": 41141,
      "prePerformCfg": ""
    },
    {
      "id": 4114106,
      "beginCond": [
        {
          "type": "QUEST_COND_STATE_EQUAL",
          "param": [
            "4114103",
            "2"
          ],
          "param_str": ""
        }
      ],
      "initDialog": 411410601,
      "npcId": [
        30027
      ],
      "performCfg": "",
      "questId": 41141,
      "prePerformCfg": ""
    }
  ]
}