{
  "id": 41157,
  "type": "EQ",
  "titleTextMapHash": 2950603743,
  "descTextMapHash": 3783410886,
  "luaPath": "Actor/Quest/EQ41157",
  "rewardIdList": [
    3001063
  ],
  "subQuests": [
    {
      "subId": 4115701,
      "mainId": 41157,
      "order": 2,
      "descTextMapHash": 493562492,
      "acceptCondComb": "LOGIC_AND",
      "acceptCond": [
        {
          "type": "QUEST_COND_STATE_EQUAL",
          "param": [
            4115704,
            3,
            0,
            0,
            0
          ],
          "param_str": ""
        }
      ],
      "finishCondComb": "LOGIC_OR",
      "finishCond": [
        {
          "type": "QUEST_CONTENT_FINISH_PLOT",
          "param": [
            4115701,
            0
          ],
          "param_str": ""
        }
      ],
      "failCondComb": "LOGIC_OR",
      "failCond": [],
      "guide": {
        "type": "QUEST_GUIDE_NPC",
        "autoGuide": "QUEST_GUIDE_AUTO_ENABLE",
        "param": [
          "2045"
        ],
        "guideScene": 3,
        "guideStyle": "QUEST_GUIDE_STYLE_TARGET",
        "guideLayer": "QUEST_GUIDE_LAYER_UI"
      },
      "isRewind": true,
      "finishExec": [],
      "failExec": [],
      "beginExec": [
        {
          "type": "QUEST_EXEC_DEL_PACK_ITEM",
          "param": [
            "100663",
            "1"
          ],
          "param_str": ""
        }
      ],
      "exclusiveNpcList": [
        2045,
        30029
      ],
      "exclusiveNpcPriority": 1100
    },
    {
      "subId": 4115702,
      "mainId": 41157,
      "order": 3,
      "isMpBlock": true,
      "descTextMapHash": 3480609572,
      "banType": "BAN_GROUP_TRANSPOR_GOTO_SCENE",
      "acceptCondComb": "LOGIC_AND",
      "acceptCond": [
        {
          "type": "QUEST_COND_STATE_EQUAL",
          "param": [
            4115701,
            3,
            0,
            0,
            0
          ],
          "param_str": ""
        }
      ],
      "finishCond": [
        {
          "type": "QUEST_CONTENT_COMPLETE_TALK",
          "param": [
            4115702,
            0
          ],
          "param_str": ""
        }
      ],
      "failCondComb": "LOGIC_OR",
      "failCond": [
        {
          "type": "QUEST_CONTENT_NOT_FINISH_PLOT",
          "param": [
            4115702,
            0
          ],
          "param_str": ""
        },
        {
          "type": "QUEST_CONTENT_ITEM_LESS_THAN",
          "param": [
            100663,
            1
          ],
          "param_str": ""
        },
        {
          "type": "QUEST_CONTENT_ACTIVITY_TRIGGER_FAILED",
          "param": [
            5006,
            0
          ],
          "param_str": ""
        }
      ],
      "guide": {
        "type": "QUEST_GUIDE_NPC",
        "autoGuide": "QUEST_GUIDE_AUTO_ENABLE",
        "param": [
          "30029"
        ],
        "guideScene": 3,
        "guideStyle": "QUEST_GUIDE_STYLE_FINISH",
        "guideLayer": "QUEST_GUIDE_LAYER_UI"
      },
      "finishExec": [
        {
          "type": "QUEST_EXEC_DEL_PACK_ITEM",
          "param": [
            "100663",
            "1"
          ],
          "param_str": ""
        },
        {
          "type": "QUEST_EXEC_UNREGISTER_DYNAMIC_GROUP",
          "param": [
            "133108151"
          ],
          "param_str": ""
        }
      ],
      "failExec": [
        {
          "type": "QUEST_EXEC_DEL_PACK_ITEM",
          "param": [
            "100663",
            "1"
          ],
          "param_str": ""
        },
        {
          "type": "QUEST_EXEC_ROLLBACK_QUEST",
          "param": [
            "4115701"
          ],
          "param_str": ""
        },
        {
          "type": "QUEST_EXEC_UNREGISTER_DYNAMIC_GROUP",
          "param": [
            "133108151"
          ],
          "param_str": ""
        }
      ],
      "beginExec": [
        {
          "type": "QUEST_EXEC_REGISTER_DYNAMIC_GROUP",
          "param": [
            "3",
            "133108151"
          ],
          "param_str": ""
        }
      ],
      "exclusiveNpcList": [
        30029
      ],
      "exclusiveNpcPriority": 1100
    },
    {
      "subId": 4115703,
      "mainId": 41157,
      "order": 4,
      "descTextMapHash": 132838828,
      "acceptCondComb": "LOGIC_AND",
      "acceptCond": [
        {
          "type": "QUEST_COND_STATE_EQUAL",
          "param": [
            4115702,
            3,
            0,
            0,
            0
          ],
          "param_str": ""
        }
      ],
      "finishCondComb": "LOGIC_OR",
      "finishCond": [
        {
          "type": "QUEST_CONTENT_COMPLETE_TALK",
          "param": [
            4115706,
            0
          ],
          "param_str": ""
        }
      ],
      "failCond": [],
      "guide": {
        "type": "QUEST_GUIDE_NPC",
        "autoGuide": "QUEST_GUIDE_AUTO_ENABLE",
        "param": [
          "30029"
        ],
        "guideScene": 3,
        "guideStyle": "QUEST_GUIDE_STYLE_FINISH",
        "guideLayer": "QUEST_GUIDE_LAYER_UI"
      },
      "finishParent": true,
      "isRewind": true,
      "finishExec": [],
      "failExec": [],
      "beginExec": [],
      "exclusiveNpcList": [
        30029
      ],
      "exclusiveNpcPriority": 1100
    },
    {
      "subId": 4115704,
      "mainId": 41157,
      "order": 1,
      "descTextMapHash": 1953568188,
      "showType": "QUEST_HIDDEN",
      "acceptCond": [
        {
          "type": "QUEST_COND_ACTIVITY_COND",
          "param": [
            50060106,
            1,
            0,
            0,
            0
          ],
          "param_str": ""
        }
      ],
      "finishCond": [
        {
          "type": "QUEST_CONTENT_FINISH_PLOT",
          "param": [
            4115704,
            0
          ],
          "param_str": ""
        }
      ],
      "failCond": [],
      "guide": {
        "param": []
      },
      "finishExec": [],
      "failExec": [],
      "beginExec": []
    }
  ],
  "talks": [
    {
      "id": 4115701,
      "activeMode": "PLAY_MODE_SINGLE",
      "beginCond": [
        {
          "type": "QUEST_COND_STATE_EQUAL",
          "param": [
            "4115701",
            "2"
          ],
          "param_str": ""
        }
      ],
      "priority": 10,
      "initDialog": 411570101,
      "npcId": [
        2045
      ],
      "performCfg": "",
      "heroTalk": "TALK_HERO_MAIN",
      "questId": 41157,
      "dontBlockDaily": true,
      "prePerformCfg": ""
    },
    {
      "id": 4115702,
      "beginWay": "TALK_BEGIN_MANUAL",
      "activeMode": "PLAY_MODE_SINGLE",
      "beginCond": [
        {
          "type": "QUEST_COND_STATE_EQUAL",
          "param": [
            "4115701",
            "3"
          ],
          "param_str": ""
        }
      ],
      "priority": 10,
      "nextTalks": [
        4115706
      ],
      "initDialog": 411570201,
      "npcId": [
        30029
      ],
      "performCfg": "",
      "heroTalk": "TALK_HERO_MAIN",
      "questId": 41157,
      "prePerformCfg": ""
    },
    {
      "id": 4115703,
      "activeMode": "PLAY_MODE_SINGLE",
      "beginCond": [
        {
          "type": "QUEST_COND_STATE_EQUAL",
          "param": [
            "4115701",
            "2"
          ],
          "param_str": ""
        }
      ],
      "priority": 90,
      "nextTalks": [
        4115701,
        4115704
      ],
      "initDialog": 411570301,
      "npcId": [
        2045
      ],
      "performCfg": "",
      "heroTalk": "TALK_HERO_MAIN",
      "questId": 41157,
      "dontBlockDaily": true,
      "prePerformCfg": ""
    },
    {
      "id": 4115704,
      "activeMode": "PLAY_MODE_SINGLE",
      "beginCond": [
        {
          "type": "QUEST_COND_STATE_EQUAL",
          "param": [
            "4115701",
            "2"
          ],
          "param_str": ""
        }
      ],
      "priority": 10,
      "initDialog": 411570401,
      "npcId": [
        2045
      ],
      "performCfg": "",
      "heroTalk": "TALK_HERO_MAIN",
      "questId": 41157,
      "prePerformCfg": ""
    },
    {
      "id": 4115705,
      "beginWay": "TALK_BEGIN_MANUAL",
      "activeMode": "PLAY_MODE_SINGLE",
      "beginCond": [
        {
          "type": "QUEST_COND_STATE_EQUAL",
          "param": [
            "4115701",
            "2"
          ],
          "param_str": ""
        }
      ],
      "priority": 5,
      "initDialog": 411570501,
      "npcId": [
        30029
      ],
      "performCfg": "",
      "heroTalk": "TALK_HERO_MAIN",
      "questId": 41157,
      "prePerformCfg": ""
    },
    {
      "id": 4115706,
      "beginCond": [
        {
          "type": "QUEST_COND_STATE_EQUAL",
          "param": [
            "4115703",
            "2"
          ],
          "param_str": ""
        }
      ],
      "initDialog": 411570601,
      "npcId": [
        30029
      ],
      "performCfg": "",
      "questId": 41157,
      "prePerformCfg": ""
    }
  ]
}