{
  "id": 41413,
  "type": "EQ",
  "series": 10021,
  "titleTextMapHash": 2220954191,
  "descTextMapHash": 3386110294,
  "luaPath": "Actor/Quest/EQ41413",
  "rewardIdList": [
    141413
  ],
  "chapterId": 10024,
  "subQuests": [
    {
      "subId": 4141301,
      "mainId": 41413,
      "order": 1,
      "descTextMapHash": 1073212004,
      "acceptCond": [
        {
          "type": "QUEST_COND_ACTIVITY_COND",
          "param": [
            2003004,
            1,
            0,
            0,
            0
          ],
          "param_str": ""
        }
      ],
      "finishCond": [
        {
          "type": "QUEST_CONTENT_FINISH_PLOT",
          "param": [
            4141301,
            0
          ],
          "param_str": ""
        }
      ],
      "failCond": [],
      "guide": {
        "type": "QUEST_GUIDE_LOCATION",
        "param": [
          "Q4141301Trigger",
          "30"
        ],
        "guideScene": 3,
        "guideStyle": "QUEST_GUIDE_STYLE_POINT",
        "guideLayer": "QUEST_GUIDE_LAYER_SCENE"
      },
      "showGuide": "QUEST_GUIDE_ITEM_DISABLE",
      "isRewind": true,
      "finishExec": [],
      "failExec": [],
      "beginExec": [],
      "exclusiveNpcList": [
        1006,
        1001,
        1429,
        1453,
        1451,
        1642
      ],
      "exclusiveNpcPriority": 1000
    },
    {
      "subId": 4141302,
      "mainId": 41413,
      "order": 2,
      "descTextMapHash": 3859672580,
      "acceptCond": [
        {
          "type": "QUEST_COND_STATE_EQUAL",
          "param": [
            4141301,
            3,
            0,
            0,
            0
          ],
          "param_str": ""
        }
      ],
      "finishCond": [
        {
          "type": "QUEST_CONTENT_COMPLETE_TALK",
          "param": [
            4141302,
            0
          ],
          "param_str": ""
        }
      ],
      "failCond": [],
      "guide": {
        "type": "QUEST_GUIDE_NPC",
        "param": [
          "1006"
        ],
        "guideScene": 3,
        "guideStyle": "QUEST_GUIDE_STYLE_TARGET",
        "guideLayer": "QUEST_GUIDE_LAYER_SCENE"
      },
      "isRewind": true,
      "finishExec": [],
      "failExec": [],
      "beginExec": [
        {
          "type": "QUEST_EXEC_REFRESH_GROUP_SUITE",
          "param": [
            "3",
            "133004927,1"
          ],
          "param_str": ""
        },
        {
          "type": "QUEST_EXEC_SET_QUEST_VAR",
          "param": [
            "0",
            "0"
          ],
          "param_str": ""
        }
      ],
      "exclusiveNpcList": [
        1006,
        1001,
        1429,
        1453,
        1451,
        1642
      ],
      "exclusiveNpcPriority": 1000
    },
    {
      "subId": 4141303,
      "mainId": 41413,
      "order": 3,
      "descTextMapHash": 3259265724,
      "acceptCond": [
        {
          "type": "QUEST_COND_STATE_EQUAL",
          "param": [
            4141302,
            3,
            0,
            0,
            0
          ],
          "param_str": ""
        }
      ],
      "finishCond": [
        {
          "type": "QUEST_CONTENT_ADD_QUEST_PROGRESS",
          "param": [
            4141303,
            0
          ],
          "param_str": "",
          "count": 1
        }
      ],
      "failCond": [],
      "guide": {
        "type": "QUEST_GUIDE_LOCATION",
        "param": [
          "Q4141303Target"
        ],
        "guideScene": 3,
        "guideStyle": "QUEST_GUIDE_STYLE_TARGET",
        "guideLayer": "QUEST_GUIDE_LAYER_SCENE"
      },
      "showGuide": "QUEST_GUIDE_ITEM_DISABLE",
      "finishExec": [],
      "failExec": [],
      "beginExec": [],
      "exclusiveNpcList": [
        1006,
        1001,
        1429,
        1453,
        1451,
        1642
      ],
      "exclusiveNpcPriority": 1000
    },
    {
      "subId": 4141304,
      "mainId": 41413,
      "order": 10,
      "descTextMapHash": 712556140,
      "acceptCond": [
        {
          "type": "QUEST_COND_STATE_EQUAL",
          "param": [
            4141303,
            3,
            0,
            0,
            0
          ],
          "param_str": ""
        }
      ],
      "finishCond": [
        {
          "type": "QUEST_CONTENT_COMPLETE_TALK",
          "param": [
            4141304,
            0
          ],
          "param_str": ""
        }
      ],
      "failCond": [],
      "guide": {
        "type": "QUEST_GUIDE_NPC",
        "param": [
          "1001"
        ],
        "guideScene": 3,
        "guideStyle": "QUEST_GUIDE_STYLE_TARGET",
        "guideLayer": "QUEST_GUIDE_LAYER_SCENE"
      },
      "isRewind": true,
      "finishExec": [],
      "failExec": [],
      "beginExec": [],
      "exclusiveNpcList": [
        1006,
        1001,
        1429,
        1453,
        1451,
        1642
      ],
      "exclusiveNpcPriority": 1000
    },
    {
      "subId": 4141305,
      "mainId": 41413,
      "order": 11,
      "descTextMapHash": 564294676,
      "acceptCond": [
        {
          "type": "QUEST_COND_STATE_EQUAL",
          "param": [
            4141304,
            3,
            0,
            0,
            0
          ],
          "param_str": ""
        }
      ],
      "finishCond": [
        {
          "type": "QUEST_CONTENT_FINISH_PLOT",
          "param": [
            4141305,
            0
          ],
          "param_str": ""
        }
      ],
      "failCond": [],
      "guide": {
        "type": "QUEST_GUIDE_LOCATION",
        "param": [
          "Q4141305Trigger"
        ],
        "guideScene": 3,
        "guideStyle": "QUEST_GUIDE_STYLE_POINT",
        "guideLayer": "QUEST_GUIDE_LAYER_SCENE"
      },
      "isRewind": true,
      "finishExec": [],
      "failExec": [],
      "beginExec": [],
      "exclusiveNpcList": [
        1001,
        1429,
        1453,
        1451,
        1642
      ],
      "exclusiveNpcPriority": 1000,
      "exclusivePlaceList": [
        303
      ]
    },
    {
      "subId": 4141306,
      "mainId": 41413,
      "order": 12,
      "descTextMapHash": 3366470844,
      "acceptCond": [
        {
          "type": "QUEST_COND_STATE_EQUAL",
          "param": [
            4141305,
            3,
            0,
            0,
            0
          ],
          "param_str": ""
        }
      ],
      "finishCond": [
        {
          "type": "QUEST_CONTENT_LUA_NOTIFY",
          "param": [
            0,
            0
          ],
          "param_str": "4141306",
          "count": 1
        }
      ],
      "failCond": [],
      "guide": {
        "type": "QUEST_GUIDE_LOCATION",
        "param": [
          "Q4141306Target"
        ],
        "guideScene": 3,
        "guideStyle": "QUEST_GUIDE_STYLE_POINT",
        "guideLayer": "QUEST_GUIDE_LAYER_SCENE"
      },
      "showGuide": "QUEST_GUIDE_ITEM_DISABLE",
      "isRewind": true,
      "finishExec": [],
      "failExec": [],
      "beginExec": [
        {
          "type": "QUEST_EXEC_REGISTER_DYNAMIC_GROUP",
          "param": [
            "3",
            "133007293"
          ],
          "param_str": ""
        },
        {
          "type": "QUEST_EXEC_REGISTER_DYNAMIC_GROUP",
          "param": [
            "3",
            "133007294"
          ],
          "param_str": ""
        }
      ],
      "exclusiveNpcList": [
        1001
      ],
      "exclusiveNpcPriority": 1000,
      "exclusivePlaceList": [
        303
      ]
    },
    {
      "subId": 4141307,
      "mainId": 41413,
      "order": 13,
      "descTextMapHash": 117537300,
      "acceptCond": [
        {
          "type": "QUEST_COND_STATE_EQUAL",
          "param": [
            4141306,
            3,
            0,
            0,
            0
          ],
          "param_str": ""
        }
      ],
      "finishCond": [
        {
          "type": "QUEST_CONTENT_FINISH_PLOT",
          "param": [
            4141307,
            0
          ],
          "param_str": ""
        }
      ],
      "failCond": [],
      "guide": {
        "type": "QUEST_GUIDE_NPC",
        "param": [
          "1001"
        ],
        "guideScene": 3,
        "guideStyle": "QUEST_GUIDE_STYLE_TARGET",
        "guideLayer": "QUEST_GUIDE_LAYER_SCENE"
      },
      "finishParent": true,
      "isRewind": true,
      "finishExec": [
        {
          "type": "QUEST_EXEC_UNREGISTER_DYNAMIC_GROUP",
          "param": [
            "133007293"
          ],
          "param_str": ""
        },
        {
          "type": "QUEST_EXEC_UNREGISTER_DYNAMIC_GROUP",
          "param": [
            "133007294"
          ],
          "param_str": ""
        }
      ],
      "failExec": [],
      "beginExec": [],
      "exclusiveNpcList": [
        1001
      ],
      "exclusiveNpcPriority": 1000,
      "exclusivePlaceList": [
        303
      ]
    },
    {
      "subId": 4141308,
      "mainId": 41413,
      "order": 4,
      "descTextMapHash": 3157209732,
      "showType": "QUEST_HIDDEN",
      "acceptCondComb": "LOGIC_AND",
      "acceptCond": [
        {
          "type": "QUEST_COND_STATE_EQUAL",
          "param": [
            4141303,
            2,
            0,
            0,
            0
          ],
          "param_str": ""
        },
        {
          "type": "QUEST_COND_QUEST_VAR_EQUAL",
          "param": [
            0,
            1,
            0,
            0,
            0
          ],
          "param_str": ""
        }
      ],
      "finishCond": [
        {
          "type": "QUEST_CONTENT_LUA_NOTIFY",
          "param": [
            0,
            0
          ],
          "param_str": "4141308",
          "count": 1
        }
      ],
      "failCond": [],
      "guide": {
        "param": []
      },
      "finishExec": [
        {
          "type": "QUEST_EXEC_ADD_QUEST_PROGRESS",
          "param": [
            "4141303",
            "1"
          ],
          "param_str": ""
        }
      ],
      "failExec": [],
      "beginExec": [
        {
          "type": "QUEST_EXEC_REFRESH_GROUP_SUITE",
          "param": [
            "3",
            "133004927,2"
          ],
          "param_str": ""
        }
      ]
    },
    {
      "subId": 4141309,
      "mainId": 41413,
      "order": 5,
      "descTextMapHash": 884112732,
      "showType": "QUEST_HIDDEN",
      "acceptCondComb": "LOGIC_AND",
      "acceptCond": [
        {
          "type": "QUEST_COND_STATE_EQUAL",
          "param": [
            4141303,
            2,
            0,
            0,
            0
          ],
          "param_str": ""
        },
        {
          "type": "QUEST_COND_QUEST_VAR_EQUAL",
          "param": [
            0,
            2,
            0,
            0,
            0
          ],
          "param_str": ""
        }
      ],
      "finishCond": [
        {
          "type": "QUEST_CONTENT_LUA_NOTIFY",
          "param": [
            0,
            0
          ],
          "param_str": "4141309",
          "count": 1
        }
      ],
      "failCond": [],
      "guide": {
        "param": []
      },
      "finishExec": [
        {
          "type": "QUEST_EXEC_ADD_QUEST_PROGRESS",
          "param": [
            "4141303",
            "1"
          ],
          "param_str": ""
        }
      ],
      "failExec": [],
      "beginExec": [
        {
          "type": "QUEST_EXEC_REFRESH_GROUP_SUITE",
          "param": [
            "3",
            "133004927,3"
          ],
          "param_str": ""
        }
      ]
    },
    {
      "subId": 4141310,
      "mainId": 41413,
      "order": 6,
      "descTextMapHash": 1157355844,
      "showType": "QUEST_HIDDEN",
      "acceptCondComb": "LOGIC_AND",
      "acceptCond": [
        {
          "type": "QUEST_COND_STATE_EQUAL",
          "param": [
            4141303,
            2,
            0,
            0,
            0
          ],
          "param_str": ""
        },
        {
          "type": "QUEST_COND_QUEST_VAR_EQUAL",
          "param": [
            0,
            3,
            0,
            0,
            0
          ],
          "param_str": ""
        }
      ],
      "finishCond": [
        {
          "type": "QUEST_CONTENT_LUA_NOTIFY",
          "param": [
            0,
            0
          ],
          "param_str": "4141310",
          "count": 1
        }
      ],
      "failCond": [],
      "guide": {
        "param": []
      },
      "finishExec": [
        {
          "type": "QUEST_EXEC_ADD_QUEST_PROGRESS",
          "param": [
            "4141303",
            "1"
          ],
          "param_str": ""
        }
      ],
      "failExec": [],
      "beginExec": [
        {
          "type": "QUEST_EXEC_REFRESH_GROUP_SUITE",
          "param": [
            "3",
            "133004927,4"
          ],
          "param_str": ""
        }
      ]
    },
    {
      "subId": 4141311,
      "mainId": 41413,
      "order": 7,
      "descTextMapHash": 3868086972,
      "showType": "QUEST_HIDDEN",
      "acceptCondComb": "LOGIC_AND",
      "acceptCond": [
        {
          "type": "QUEST_COND_STATE_EQUAL",
          "param": [
            4141303,
            2,
            0,
            0,
            0
          ],
          "param_str": ""
        },
        {
          "type": "QUEST_COND_QUEST_VAR_EQUAL",
          "param": [
            0,
            4,
            0,
            0,
            0
          ],
          "param_str": ""
        }
      ],
      "finishCond": [
        {
          "type": "QUEST_CONTENT_LUA_NOTIFY",
          "param": [
            0,
            0
          ],
          "param_str": "4141311",
          "count": 1
        }
      ],
      "failCond": [],
      "guide": {
        "param": []
      },
      "finishExec": [
        {
          "type": "QUEST_EXEC_ADD_QUEST_PROGRESS",
          "param": [
            "4141303",
            "1"
          ],
          "param_str": ""
        }
      ],
      "failExec": [],
      "beginExec": [
        {
          "type": "QUEST_EXEC_REFRESH_GROUP_SUITE",
          "param": [
            "3",
            "133004927,5"
          ],
          "param_str": ""
        }
      ]
    },
    {
      "subId": 4141312,
      "mainId": 41413,
      "order": 8,
      "descTextMapHash": 1052875252,
      "showType": "QUEST_HIDDEN",
      "acceptCondComb": "LOGIC_AND",
      "acceptCond": [
        {
          "type": "QUEST_COND_STATE_EQUAL",
          "param": [
            4141303,
            2,
            0,
            0,
            0
          ],
          "param_str": ""
        },
        {
          "type": "QUEST_COND_QUEST_VAR_EQUAL",
          "param": [
            0,
            5,
            0,
            0,
            0
          ],
          "param_str": ""
        }
      ],
      "finishCond": [
        {
          "type": "QUEST_CONTENT_LUA_NOTIFY",
          "param": [
            0,
            0
          ],
          "param_str": "4141312",
          "count": 1
        }
      ],
      "failCond": [],
      "guide": {
        "param": []
      },
      "finishExec": [
        {
          "type": "QUEST_EXEC_ADD_QUEST_PROGRESS",
          "param": [
            "4141303",
            "1"
          ],
          "param_str": ""
        }
      ],
      "failExec": [],
      "beginExec": [
        {
          "type": "QUEST_EXEC_REFRESH_GROUP_SUITE",
          "param": [
            "3",
            "133004927,6"
          ],
          "param_str": ""
        }
      ]
    },
    {
      "subId": 4141313,
      "mainId": 41413,
      "order": 9,
      "descTextMapHash": 2619362468,
      "showType": "QUEST_HIDDEN",
      "acceptCondComb": "LOGIC_AND",
      "acceptCond": [
        {
          "type": "QUEST_COND_STATE_EQUAL",
          "param": [
            4141303,
            2,
            0,
            0,
            0
          ],
          "param_str": ""
        },
        {
          "type": "QUEST_COND_QUEST_VAR_EQUAL",
          "param": [
            0,
            6,
            0,
            0,
            0
          ],
          "param_str": ""
        }
      ],
      "finishCond": [
        {
          "type": "QUEST_CONTENT_LUA_NOTIFY",
          "param": [
            0,
            0
          ],
          "param_str": "4141313",
          "count": 1
        }
      ],
      "failCond": [],
      "guide": {
        "param": []
      },
      "finishExec": [
        {
          "type": "QUEST_EXEC_ADD_QUEST_PROGRESS",
          "param": [
            "4141303",
            "1"
          ],
          "param_str": ""
        }
      ],
      "failExec": [],
      "beginExec": [
        {
          "type": "QUEST_EXEC_REFRESH_GROUP_SUITE",
          "param": [
            "3",
            "133004927,7"
          ],
          "param_str": ""
        }
      ]
    }
  ],
  "talks": [
    {
      "id": 4141302,
      "beginWay": "TALK_BEGIN_MANUAL",
      "activeMode": "PLAY_MODE_SINGLE",
      "beginCond": [
        {
          "type": "QUEST_COND_STATE_EQUAL",
          "param": [
            "4141302",
            "2"
          ],
          "param_str": ""
        }
      ],
      "priority": 5,
      "initDialog": 414130201,
      "npcId": [
        1006
      ],
      "performCfg": "QuestDialogue/EQ/Fenghua1_41413/Q4141302",
      "heroTalk": "TALK_HERO_MAIN",
      "questId": 41413,
      "prePerformCfg": ""
    },
    {
      "id": 4141304,
      "beginWay": "TALK_BEGIN_MANUAL",
      "activeMode": "PLAY_MODE_SINGLE",
      "beginCond": [
        {
          "type": "QUEST_COND_STATE_EQUAL",
          "param": [
            "4141304",
            "2"
          ],
          "param_str": ""
        }
      ],
      "priority": 5,
      "initDialog": 414130401,
      "npcId": [
        1001
      ],
      "performCfg": "QuestDialogue/EQ/Fenghua1_41413/Q4141304",
      "heroTalk": "TALK_HERO_MAIN",
      "questId": 41413,
      "prePerformCfg": ""
    },
    {
      "id": 4141307,
      "beginWay": "TALK_BEGIN_MANUAL",
      "activeMode": "PLAY_MODE_SINGLE",
      "beginCond": [
        {
          "type": "QUEST_COND_STATE_EQUAL",
          "param": [
            "4141307",
            "2"
          ],
          "param_str": ""
        }
      ],
      "priority": 5,
      "initDialog": 414130701,
      "npcId": [
        1001
      ],
      "performCfg": "QuestDialogue/EQ/Fenghua1_41413/Q4141307",
      "heroTalk": "TALK_HERO_MAIN",
      "questId": 41413,
      "prePerformCfg": ""
    },
    {
      "id": 4141397,
      "beginWay": "TALK_BEGIN_MANUAL",
      "activeMode": "PLAY_MODE_SINGLE",
      "beginCondComb": "LOGIC_OR",
      "beginCond": [
        {
          "type": "QUEST_COND_STATE_EQUAL",
          "param": [
            "4141303",
            "2"
          ],
          "param_str": ""
        },
        {
          "type": "QUEST_COND_STATE_EQUAL",
          "param": [
            "4141304",
            "2"
          ],
          "param_str": ""
        },
        {
          "type": "QUEST_COND_STATE_EQUAL",
          "param": [
            "4141305",
            "2"
          ],
          "param_str": ""
        }
      ],
      "priority": 5,
      "initDialog": 414139701,
      "npcId": [
        1006
      ],
      "performCfg": "QuestDialogue/EQ/Fenghua1_41413/Q4141397",
      "heroTalk": "TALK_HERO_MAIN",
      "questId": 41413,
      "prePerformCfg": ""
    },
    {
      "id": 4141398,
      "beginWay": "TALK_BEGIN_MANUAL",
      "activeMode": "PLAY_MODE_SINGLE",
      "beginCond": [
        {
          "type": "QUEST_COND_STATE_EQUAL",
          "param": [
            "4141303",
            "2"
          ],
          "param_str": ""
        }
      ],
      "priority": 5,
      "initDialog": 414139801,
      "npcId": [
        1001
      ],
      "performCfg": "QuestDialogue/EQ/Fenghua1_41413/Q4141398",
      "heroTalk": "TALK_HERO_MAIN",
      "questId": 41413,
      "prePerformCfg": ""
    },
    {
      "id": 4141399,
      "beginWay": "TALK_BEGIN_MANUAL",
      "activeMode": "PLAY_MODE_SINGLE",
      "beginCond": [
        {
          "type": "QUEST_COND_STATE_EQUAL",
          "param": [
            "99902",
            "3"
          ],
          "param_str": ""
        }
      ],
      "priority": 5,
      "initDialog": 414139901,
      "npcId": [
        1006
      ],
      "performCfg": "QuestDialogue/EQ/Fenghua1_41413/Q4141399",
      "heroTalk": "TALK_HERO_MAIN",
      "questId": 41413,
      "prePerformCfg": ""
    }
  ]
}