{
  "id": 519,
  "type": "WQ",
  "titleTextMapHash": 1020965833,
  "descTextMapHash": 3744388607,
  "luaPath": "",
  "showType": "QUEST_HIDDEN",
  "subQuests": [
    {
      "subId": 51901,
      "mainId": 519,
      "order": 1,
      "descTextMapHash": 2509826223,
      "showType": "QUEST_HIDDEN",
      "acceptCondComb": "LOGIC_AND",
      "acceptCond": [
        {
          "type": "QUEST_COND_STATE_EQUAL",
          "param": [
            202102,
            3,
            0
          ],
          "param_str": ""
        },
        {
          "type": "QUEST_COND_STATE_EQUAL",
          "param": [
            7214409,
            3,
            0
          ],
          "param_str": ""
        }
      ],
      "finishCond": [
        {
          "type": "QUEST_CONTENT_COMPLETE_TALK",
          "param": [
            51901,
            0
          ],
          "param_str": ""
        }
      ],
      "failCond": [],
      "guide": {
        "param": []
      },
      "finishExec": [
        {
          "type": "QUEST_EXEC_ADD_QUEST_PROGRESS",
          "param": [
            "51901",
            "1"
          ],
          "param_str": ""
        }
      ],
      "failExec": [],
      "beginExec": []
    },
    {
      "subId": 51902,
      "mainId": 519,
      "order": 2,
      "descTextMapHash": 3651340495,
      "showType": "QUEST_HIDDEN",
      "acceptCondComb": "LOGIC_AND",
      "acceptCond": [
        {
          "type": "QUEST_COND_STATE_EQUAL",
          "param": [
            202102,
            3,
            0
          ],
          "param_str": ""
        },
        {
          "type": "QUEST_COND_STATE_EQUAL",
          "param": [
            7214409,
            3,
            0
          ],
          "param_str": ""
        }
      ],
      "finishCond": [
        {
          "type": "QUEST_CONTENT_COMPLETE_TALK",
          "param": [
            51902,
            0
          ],
          "param_str": ""
        }
      ],
      "failCond": [],
      "guide": {
        "param": []
      },
      "finishExec": [
        {
          "type": "QUEST_EXEC_ADD_QUEST_PROGRESS",
          "param": [
            "51901",
            "1"
          ],
          "param_str": ""
        }
      ],
      "failExec": [],
      "beginExec": []
    },
    {
      "subId": 51903,
      "mainId": 519,
      "order": 3,
      "descTextMapHash": 249970983,
      "showType": "QUEST_HIDDEN",
      "acceptCondComb": "LOGIC_AND",
      "acceptCond": [
        {
          "type": "QUEST_COND_STATE_EQUAL",
          "param": [
            202102,
            3,
            0
          ],
          "param_str": ""
        },
        {
          "type": "QUEST_COND_STATE_EQUAL",
          "param": [
            7214409,
            3,
            0
          ],
          "param_str": ""
        }
      ],
      "finishCond": [
        {
          "type": "QUEST_CONTENT_COMPLETE_TALK",
          "param": [
            51903,
            0
          ],
          "param_str": ""
        }
      ],
      "failCond": [],
      "guide": {
        "param": []
      },
      "finishExec": [
        {
          "type": "QUEST_EXEC_ADD_QUEST_PROGRESS",
          "param": [
            "51901",
            "1"
          ],
          "param_str": ""
        }
      ],
      "failExec": [],
      "beginExec": []
    },
    {
      "subId": 51904,
      "mainId": 519,
      "order": 4,
      "descTextMapHash": 2366884399,
      "showType": "QUEST_HIDDEN",
      "acceptCondComb": "LOGIC_AND",
      "acceptCond": [
        {
          "type": "QUEST_COND_STATE_EQUAL",
          "param": [
            202102,
            3,
            0
          ],
          "param_str": ""
        },
        {
          "type": "QUEST_COND_STATE_EQUAL",
          "param": [
            7214409,
            3,
            0
          ],
          "param_str": ""
        }
      ],
      "finishCond": [
        {
          "type": "QUEST_CONTENT_COMPLETE_TALK",
          "param": [
            51904,
            0
          ],
          "param_str": ""
        }
      ],
      "failCond": [],
      "guide": {
        "param": []
      },
      "finishExec": [
        {
          "type": "QUEST_EXEC_ADD_QUEST_PROGRESS",
          "param": [
            "51901",
            "1"
          ],
          "param_str": ""
        }
      ],
      "failExec": [],
      "beginExec": []
    },
    {
      "subId": 51905,
      "mainId": 519,
      "order": 5,
      "descTextMapHash": 1771666063,
      "showType": "QUEST_HIDDEN",
      "acceptCondComb": "LOGIC_AND",
      "acceptCond": [
        {
          "type": "QUEST_COND_STATE_EQUAL",
          "param": [
            202102,
            3,
            0
          ],
          "param_str": ""
        },
        {
          "type": "QUEST_COND_STATE_EQUAL",
          "param": [
            7214409,
            3,
            0
          ],
          "param_str": ""
        }
      ],
      "finishCond": [
        {
          "type": "QUEST_CONTENT_COMPLETE_TALK",
          "param": [
            51905,
            0
          ],
          "param_str": ""
        }
      ],
      "failCond": [],
      "guide": {
        "param": []
      },
      "finishExec": [
        {
          "type": "QUEST_EXEC_ADD_QUEST_PROGRESS",
          "param": [
            "51901",
            "1"
          ],
          "param_str": ""
        }
      ],
      "failExec": [],
      "beginExec": []
    },
    {
      "subId": 51906,
      "mainId": 519,
      "order": 6,
      "descTextMapHash": 433584919,
      "showType": "QUEST_HIDDEN",
      "acceptCondComb": "LOGIC_AND",
      "acceptCond": [
        {
          "type": "QUEST_COND_STATE_EQUAL",
          "param": [
            202102,
            3,
            0
          ],
          "param_str": ""
        },
        {
          "type": "QUEST_COND_STATE_EQUAL",
          "param": [
            7214409,
            3,
            0
          ],
          "param_str": ""
        }
      ],
      "finishCond": [
        {
          "type": "QUEST_CONTENT_COMPLETE_TALK",
          "param": [
            51906,
            0
          ],
          "param_str": ""
        }
      ],
      "failCond": [],
      "guide": {
        "param": []
      },
      "finishExec": [
        {
          "type": "QUEST_EXEC_ADD_QUEST_PROGRESS",
          "param": [
            "51901",
            "1"
          ],
          "param_str": ""
        }
      ],
      "failExec": [],
      "beginExec": []
    },
    {
      "subId": 51907,
      "mainId": 519,
      "order": 7,
      "descTextMapHash": 1820565951,
      "showType": "QUEST_HIDDEN",
      "acceptCondComb": "LOGIC_AND",
      "acceptCond": [
        {
          "type": "QUEST_COND_STATE_EQUAL",
          "param": [
            202102,
            3,
            0
          ],
          "param_str": ""
        },
        {
          "type": "QUEST_COND_STATE_EQUAL",
          "param": [
            7214409,
            3,
            0
          ],
          "param_str": ""
        }
      ],
      "finishCond": [
        {
          "type": "QUEST_CONTENT_COMPLETE_TALK",
          "param": [
            51907,
            0
          ],
          "param_str": ""
        }
      ],
      "failCond": [],
      "guide": {
        "param": []
      },
      "finishExec": [
        {
          "type": "QUEST_EXEC_ADD_QUEST_PROGRESS",
          "param": [
            "51901",
            "1"
          ],
          "param_str": ""
        }
      ],
      "failExec": [],
      "beginExec": []
    },
    {
      "subId": 51908,
      "mainId": 519,
      "order": 8,
      "descTextMapHash": 669440191,
      "showType": "QUEST_HIDDEN",
      "acceptCondComb": "LOGIC_AND",
      "acceptCond": [
        {
          "type": "QUEST_COND_STATE_EQUAL",
          "param": [
            202102,
            3,
            0
          ],
          "param_str": ""
        },
        {
          "type": "QUEST_COND_STATE_EQUAL",
          "param": [
            7214409,
            3,
            0
          ],
          "param_str": ""
        }
      ],
      "finishCond": [
        {
          "type": "QUEST_CONTENT_COMPLETE_TALK",
          "param": [
            51908,
            0
          ],
          "param_str": ""
        }
      ],
      "failCond": [],
      "guide": {
        "param": []
      },
      "finishExec": [
        {
          "type": "QUEST_EXEC_ADD_QUEST_PROGRESS",
          "param": [
            "51901",
            "1"
          ],
          "param_str": ""
        }
      ],
      "failExec": [],
      "beginExec": []
    },
    {
      "subId": 51909,
      "mainId": 519,
      "order": 9,
      "descTextMapHash": 1166475551,
      "showType": "QUEST_HIDDEN",
      "acceptCondComb": "LOGIC_AND",
      "acceptCond": [
        {
          "type": "QUEST_COND_STATE_EQUAL",
          "param": [
            202102,
            3,
            0
          ],
          "param_str": ""
        },
        {
          "type": "QUEST_COND_STATE_EQUAL",
          "param": [
            7214409,
            3,
            0
          ],
          "param_str": ""
        }
      ],
      "finishCond": [
        {
          "type": "QUEST_CONTENT_COMPLETE_TALK",
          "param": [
            51909,
            0
          ],
          "param_str": ""
        }
      ],
      "failCond": [],
      "guide": {
        "param": []
      },
      "finishExec": [
        {
          "type": "QUEST_EXEC_ADD_QUEST_PROGRESS",
          "param": [
            "51901",
            "1"
          ],
          "param_str": ""
        }
      ],
      "failExec": [],
      "beginExec": []
    },
    {
      "subId": 51910,
      "mainId": 519,
      "order": 10,
      "descTextMapHash": 2969419719,
      "showType": "QUEST_HIDDEN",
      "acceptCondComb": "LOGIC_AND",
      "acceptCond": [
        {
          "type": "QUEST_COND_STATE_EQUAL",
          "param": [
            202102,
            3,
            0
          ],
          "param_str": ""
        },
        {
          "type": "QUEST_COND_STATE_EQUAL",
          "param": [
            7214409,
            3,
            0
          ],
          "param_str": ""
        }
      ],
      "finishCond": [
        {
          "type": "QUEST_CONTENT_COMPLETE_TALK",
          "param": [
            51910,
            0
          ],
          "param_str": ""
        }
      ],
      "failCond": [],
      "guide": {
        "param": []
      },
      "finishExec": [
        {
          "type": "QUEST_EXEC_ADD_QUEST_PROGRESS",
          "param": [
            "51901",
            "1"
          ],
          "param_str": ""
        }
      ],
      "failExec": [],
      "beginExec": []
    },
    {
      "subId": 51911,
      "mainId": 519,
      "order": 11,
      "descTextMapHash": 3628529343,
      "showType": "QUEST_HIDDEN",
      "acceptCondComb": "LOGIC_AND",
      "acceptCond": [
        {
          "type": "QUEST_COND_STATE_EQUAL",
          "param": [
            202102,
            3,
            0
          ],
          "param_str": ""
        },
        {
          "type": "QUEST_COND_STATE_EQUAL",
          "param": [
            7214409,
            3,
            0
          ],
          "param_str": ""
        }
      ],
      "finishCond": [
        {
          "type": "QUEST_CONTENT_COMPLETE_TALK",
          "param": [
            51911,
            0
          ],
          "param_str": ""
        }
      ],
      "failCond": [],
      "guide": {
        "param": []
      },
      "finishExec": [
        {
          "type": "QUEST_EXEC_ADD_QUEST_PROGRESS",
          "param": [
            "51901",
            "1"
          ],
          "param_str": ""
        }
      ],
      "failExec": [],
      "beginExec": []
    },
    {
      "subId": 51912,
      "mainId": 519,
      "order": 12,
      "descTextMapHash": 3741495447,
      "showType": "QUEST_HIDDEN",
      "acceptCondComb": "LOGIC_AND",
      "acceptCond": [
        {
          "type": "QUEST_COND_STATE_EQUAL",
          "param": [
            202102,
            3,
            0
          ],
          "param_str": ""
        },
        {
          "type": "QUEST_COND_STATE_EQUAL",
          "param": [
            7214409,
            3,
            0
          ],
          "param_str": ""
        }
      ],
      "finishCond": [
        {
          "type": "QUEST_CONTENT_ADD_QUEST_PROGRESS",
          "param": [
            51901,
            0
          ],
          "param_str": "",
          "count": 11
        }
      ],
      "failCond": [],
      "guide": {
        "param": []
      },
      "finishExec": [
        {
          "type": "QUEST_EXEC_ROLLBACK_PARENT_QUEST",
          "param": [],
          "param_str": ""
        }
      ],
      "failExec": [],
      "beginExec": []
    }
  ]
}