{
  "id": 70005,
  "type": "WQ",
  "titleTextMapHash": 1771120705,
  "descTextMapHash": 2995291959,
  "luaPath": "",
  "showType": "QUEST_HIDDEN",
  "subQuests": [
    {
      "subId": 7000500,
      "mainId": 70005,
      "order": 1,
      "descTextMapHash": 3355148993,
      "showType": "QUEST_HIDDEN",
      "acceptCond": [
        {
          "type": "QUEST_COND_STATE_EQUAL",
          "param": [
            99902,
            3,
            0
          ],
          "param_str": ""
        }
      ],
      "finishCond": [
        {
          "type": "QUEST_CONTENT_COMPLETE_TALK",
          "param": [
            7000500,
            0
          ],
          "param_str": ""
        }
      ],
      "failCond": [],
      "guide": {
        "param": []
      },
      "isRewind": true,
      "finishExec": [],
      "failExec": [],
      "beginExec": []
    },
    {
      "subId": 7000501,
      "mainId": 70005,
      "order": 2,
      "subIdSet": 1,
      "descTextMapHash": 1717335681,
      "showType": "QUEST_HIDDEN",
      "acceptCond": [
        {
          "type": "QUEST_COND_STATE_EQUAL",
          "param": [
            7000500,
            3,
            0
          ],
          "param_str": ""
        }
      ],
      "finishCond": [
        {
          "type": "QUEST_CONTENT_LUA_NOTIFY",
          "param": [
            0,
            0
          ],
          "param_str": "7000501",
          "count": 1
        }
      ],
      "failCond": [],
      "guide": {
        "param": []
      },
      "isRewind": true,
      "finishExec": [
        {
          "type": "QUEST_EXEC_ADD_QUEST_PROGRESS",
          "param": [
            "7000506",
            "1"
          ],
          "param_str": ""
        }
      ],
      "failExec": [],
      "beginExec": [
        {
          "type": "QUEST_EXEC_REFRESH_GROUP_SUITE",
          "param": [
            "3",
            "133101040,1"
          ],
          "param_str": ""
        }
      ]
    },
    {
      "subId": 7000502,
      "mainId": 70005,
      "order": 3,
      "subIdSet": 1,
      "descTextMapHash": 2991264641,
      "showType": "QUEST_HIDDEN",
      "acceptCond": [
        {
          "type": "QUEST_COND_STATE_EQUAL",
          "param": [
            7000500,
            3,
            0
          ],
          "param_str": ""
        }
      ],
      "finishCond": [
        {
          "type": "QUEST_CONTENT_LUA_NOTIFY",
          "param": [
            0,
            0
          ],
          "param_str": "7000502",
          "count": 1
        }
      ],
      "failCond": [],
      "guide": {
        "param": []
      },
      "isRewind": true,
      "finishExec": [
        {
          "type": "QUEST_EXEC_ADD_QUEST_PROGRESS",
          "param": [
            "7000506",
            "1"
          ],
          "param_str": ""
        }
      ],
      "failExec": [],
      "beginExec": [
        {
          "type": "QUEST_EXEC_REFRESH_GROUP_SUITE",
          "param": [
            "3",
            "133101041,1"
          ],
          "param_str": ""
        }
      ]
    },
    {
      "subId": 7000503,
      "mainId": 70005,
      "order": 4,
      "subIdSet": 1,
      "descTextMapHash": 1473580593,
      "showType": "QUEST_HIDDEN",
      "acceptCond": [
        {
          "type": "QUEST_COND_STATE_EQUAL",
          "param": [
            7000500,
            3,
            0
          ],
          "param_str": ""
        }
      ],
      "finishCond": [
        {
          "type": "QUEST_CONTENT_LUA_NOTIFY",
          "param": [
            0,
            0
          ],
          "param_str": "7000503",
          "count": 1
        }
      ],
      "failCond": [],
      "guide": {
        "param": []
      },
      "isRewind": true,
      "finishExec": [
        {
          "type": "QUEST_EXEC_ADD_QUEST_PROGRESS",
          "param": [
            "7000506",
            "1"
          ],
          "param_str": ""
        }
      ],
      "failExec": [],
      "beginExec": [
        {
          "type": "QUEST_EXEC_REFRESH_GROUP_SUITE",
          "param": [
            "3",
            "133101042,1"
          ],
          "param_str": ""
        }
      ]
    },
    {
      "subId": 7000504,
      "mainId": 70005,
      "order": 5,
      "subIdSet": 1,
      "descTextMapHash": 250481409,
      "showType": "QUEST_HIDDEN",
      "acceptCond": [
        {
          "type": "QUEST_COND_STATE_EQUAL",
          "param": [
            7000500,
            3,
            0
          ],
          "param_str": ""
        }
      ],
      "finishCond": [
        {
          "type": "QUEST_CONTENT_LUA_NOTIFY",
          "param": [
            0,
            0
          ],
          "param_str": "7000504",
          "count": 1
        }
      ],
      "failCond": [],
      "guide": {
        "param": []
      },
      "isRewind": true,
      "finishExec": [
        {
          "type": "QUEST_EXEC_ADD_QUEST_PROGRESS",
          "param": [
            "7000506",
            "1"
          ],
          "param_str": ""
        }
      ],
      "failExec": [],
      "beginExec": [
        {
          "type": "QUEST_EXEC_REFRESH_GROUP_SUITE",
          "param": [
            "3",
            "133101043,1"
          ],
          "param_str": ""
        }
      ]
    },
    {
      "subId": 7000505,
      "mainId": 70005,
      "order": 6,
      "subIdSet": 1,
      "descTextMapHash": 2362801841,
      "showType": "QUEST_HIDDEN",
      "acceptCond": [
        {
          "type": "QUEST_COND_STATE_EQUAL",
          "param": [
            7000500,
            3,
            0
          ],
          "param_str": ""
        }
      ],
      "finishCond": [
        {
          "type": "QUEST_CONTENT_LUA_NOTIFY",
          "param": [
            0,
            0
          ],
          "param_str": "7000505",
          "count": 1
        }
      ],
      "failCond": [],
      "guide": {
        "param": []
      },
      "isRewind": true,
      "finishExec": [
        {
          "type": "QUEST_EXEC_ADD_QUEST_PROGRESS",
          "param": [
            "7000506",
            "1"
          ],
          "param_str": ""
        }
      ],
      "failExec": [],
      "beginExec": [
        {
          "type": "QUEST_EXEC_REFRESH_GROUP_SUITE",
          "param": [
            "3",
            "133101044,1"
          ],
          "param_str": ""
        }
      ]
    },
    {
      "subId": 7000506,
      "mainId": 70005,
      "order": 7,
      "descTextMapHash": 2389465321,
      "showType": "QUEST_HIDDEN",
      "acceptCond": [
        {
          "type": "QUEST_COND_STATE_EQUAL",
          "param": [
            7000500,
            3,
            0
          ],
          "param_str": ""
        }
      ],
      "finishCond": [
        {
          "type": "QUEST_CONTENT_ADD_QUEST_PROGRESS",
          "param": [
            0,
            0
          ],
          "param_str": "7000506",
          "count": 5
        }
      ],
      "failCond": [],
      "guide": {
        "param": []
      },
      "isRewind": true,
      "finishExec": [
        {
          "type": "QUEST_EXEC_ADD_QUEST_PROGRESS",
          "param": [
            "7000507",
            "1"
          ],
          "param_str": ""
        }
      ],
      "failExec": [],
      "beginExec": []
    },
    {
      "subId": 7000507,
      "mainId": 70005,
      "order": 8,
      "descTextMapHash": 3507822457,
      "showType": "QUEST_HIDDEN",
      "acceptCond": [
        {
          "type": "QUEST_COND_STATE_EQUAL",
          "param": [
            7000500,
            3,
            0
          ],
          "param_str": ""
        }
      ],
      "finishCond": [
        {
          "type": "QUEST_CONTENT_ADD_QUEST_PROGRESS",
          "param": [
            0,
            0
          ],
          "param_str": "7000507",
          "count": 1
        }
      ],
      "failCond": [],
      "guide": {
        "param": []
      },
      "finishParent": true,
      "isRewind": true,
      "finishExec": [],
      "failExec": [],
      "beginExec": []
    }
  ]
}