{
  "id": 70022,
  "type": "WQ",
  "titleTextMapHash": 722130847,
  "descTextMapHash": 3079536222,
  "luaPath": "Actor/Quest/WQ70022",
  "rewardIdList": [
    170022
  ],
  "subQuests": [
    {
      "subId": 7002201,
      "mainId": 70022,
      "order": 1,
      "descTextMapHash": 4177542380,
      "acceptCond": [
        {
          "type": "QUEST_COND_ACTIVITY_COND",
          "param": [
            5024015,
            1,
            0,
            0,
            0
          ],
          "param_str": ""
        }
      ],
      "finishCond": [
        {
          "type": "QUEST_CONTENT_COMPLETE_TALK",
          "param": [
            7002201,
            0
          ],
          "param_str": ""
        }
      ],
      "failCond": [],
      "guide": {
        "type": "QUEST_GUIDE_LOCATION",
        "autoGuide": "QUEST_GUIDE_AUTO_ENABLE",
        "param": [
          "Q70022guild",
          "55"
        ],
        "guideScene": 3,
        "guideStyle": "QUEST_GUIDE_STYLE_TARGET",
        "guideLayer": "QUEST_GUIDE_LAYER_SCENE"
      },
      "isRewind": true,
      "finishExec": [],
      "failExec": [],
      "beginExec": [
        {
          "type": "QUEST_EXEC_REGISTER_DYNAMIC_GROUP",
          "param": [
            "3",
            "133106406"
          ],
          "param_str": ""
        }
      ],
      "exclusiveNpcList": [
        11007,
        11008,
        1565
      ],
      "exclusiveNpcPriority": 1100
    },
    {
      "subId": 7002202,
      "mainId": 70022,
      "order": 2,
      "descTextMapHash": 4109030292,
      "acceptCond": [
        {
          "type": "QUEST_COND_STATE_EQUAL",
          "param": [
            7002201,
            3,
            0,
            0,
            0
          ],
          "param_str": ""
        }
      ],
      "finishCond": [
        {
          "type": "QUEST_CONTENT_LUA_NOTIFY",
          "param": [
            0,
            0
          ],
          "param_str": "133106407"
        }
      ],
      "failCond": [],
      "guide": {
        "type": "QUEST_GUIDE_LOCATION",
        "autoGuide": "QUEST_GUIDE_AUTO_ENABLE",
        "param": [
          "Q7002101guild",
          "30"
        ],
        "guideScene": 3,
        "guideStyle": "QUEST_GUIDE_STYLE_TARGET",
        "guideLayer": "QUEST_GUIDE_LAYER_SCENE"
      },
      "isRewind": true,
      "finishExec": [],
      "failExec": [],
      "beginExec": [
        {
          "type": "QUEST_EXEC_REGISTER_DYNAMIC_GROUP",
          "param": [
            "3",
            "133106407"
          ],
          "param_str": ""
        }
      ],
      "exclusiveNpcList": [
        11007,
        11008,
        1565
      ],
      "exclusiveNpcPriority": 1100
    },
    {
      "subId": 7002203,
      "mainId": 70022,
      "order": 3,
      "descTextMapHash": 1412182052,
      "acceptCond": [
        {
          "type": "QUEST_COND_STATE_EQUAL",
          "param": [
            7002202,
            3,
            0,
            0,
            0
          ],
          "param_str": ""
        }
      ],
      "finishCond": [
        {
          "type": "QUEST_CONTENT_COMPLETE_TALK",
          "param": [
            7002202,
            0
          ],
          "param_str": ""
        }
      ],
      "failCond": [],
      "guide": {
        "type": "QUEST_GUIDE_NPC",
        "autoGuide": "QUEST_GUIDE_AUTO_ENABLE",
        "param": [
          "11008",
          "SELECT_NPC_NONE"
        ],
        "guideScene": 3,
        "guideStyle": "QUEST_GUIDE_STYLE_TARGET",
        "guideLayer": "QUEST_GUIDE_LAYER_SCENE"
      },
      "finishParent": true,
      "isRewind": true,
      "finishExec": [
        {
          "type": "QUEST_EXEC_UNREGISTER_DYNAMIC_GROUP",
          "param": [
            "133106406"
          ],
          "param_str": ""
        },
        {
          "type": "QUEST_EXEC_UNREGISTER_DYNAMIC_GROUP",
          "param": [
            "133106407"
          ],
          "param_str": ""
        }
      ],
      "failExec": [],
      "beginExec": [],
      "exclusiveNpcList": [
        11007,
        11008,
        1565
      ],
      "exclusiveNpcPriority": 1100
    }
  ],
  "talks": [
    {
      "id": 7002201,
      "beginWay": "TALK_BEGIN_MANUAL",
      "activeMode": "PLAY_MODE_HOST",
      "beginCond": [
        {
          "type": "QUEST_COND_STATE_EQUAL",
          "param": [
            "7002201",
            "2"
          ],
          "param_str": ""
        }
      ],
      "priority": 5,
      "initDialog": 700220101,
      "npcId": [
        11008,
        156501,
        1005
      ],
      "performCfg": "QuestDialogue/WQ/MimiTomo_70024/Q7002201",
      "heroTalk": "TALK_HERO_MAIN",
      "questId": 70022,
      "prePerformCfg": ""
    },
    {
      "id": 7002202,
      "beginWay": "TALK_BEGIN_MANUAL",
      "activeMode": "PLAY_MODE_HOST",
      "beginCond": [
        {
          "type": "QUEST_COND_STATE_EQUAL",
          "param": [
            "7002203",
            "2"
          ],
          "param_str": ""
        }
      ],
      "priority": 5,
      "initDialog": 700220201,
      "npcId": [
        11008,
        1005
      ],
      "performCfg": "QuestDialogue/WQ/MimiTomo_70024/Q7002202",
      "heroTalk": "TALK_HERO_MAIN",
      "questId": 70022,
      "prePerformCfg": ""
    },
    {
      "id": 7002203,
      "beginWay": "TALK_BEGIN_MANUAL",
      "activeMode": "PLAY_MODE_HOST",
      "beginCond": [
        {
          "type": "QUEST_COND_STATE_EQUAL",
          "param": [
            "7002202",
            "2"
          ],
          "param_str": ""
        }
      ],
      "priority": 5,
      "initDialog": 700220301,
      "npcId": [
        11008
      ],
      "performCfg": "",
      "heroTalk": "TALK_HERO_MAIN",
      "questId": 70022,
      "prePerformCfg": ""
    }
  ]
}