{
  "id": 70036,
  "type": "WQ",
  "titleTextMapHash": 2288727151,
  "descTextMapHash": 3340506694,
  "luaPath": "Actor/Quest/WQ70036",
  "showType": "QUEST_HIDDEN",
  "subQuests": [
    {
      "subId": 7003601,
      "mainId": 70036,
      "order": 1,
      "descTextMapHash": 119178260,
      "showType": "QUEST_HIDDEN",
      "acceptCond": [
        {
          "type": "QUEST_COND_ACTIVITY_COND",
          "param": [
            50500105,
            1,
            0,
            0,
            0
          ],
          "param_str": ""
        }
      ],
      "finishCond": [
        {
          "type": "QUEST_CONTENT_COMPLETE_TALK",
          "param": [
            7003601,
            0
          ],
          "param_str": ""
        }
      ],
      "failCond": [],
      "guide": {
        "type": "QUEST_GUIDE_NPC",
        "autoGuide": "QUEST_GUIDE_AUTO_ENABLE",
        "param": [
          "30073"
        ],
        "guideScene": 3,
        "guideStyle": "QUEST_GUIDE_STYLE_TARGET",
        "guideLayer": "QUEST_GUIDE_LAYER_SCENE"
      },
      "finishParent": true,
      "failParentShow": "QUEST_HIDDEN",
      "isRewind": true,
      "finishExec": [],
      "failExec": [],
      "beginExec": []
    }
  ],
  "talks": [
    {
      "id": 7003601,
      "beginWay": "TALK_BEGIN_MANUAL",
      "activeMode": "PLAY_MODE_SINGLE",
      "beginCond": [
        {
          "type": "QUEST_COND_STATE_EQUAL",
          "param": [
            "7003601",
            "2"
          ],
          "param_str": ""
        }
      ],
      "priority": 5,
      "initDialog": 700360101,
      "npcId": [
        30073
      ],
      "performCfg": "QuestDialogue/WQ/Inazuma_70036/Q7003601",
      "heroTalk": "TALK_HERO_MAIN",
      "questId": 70036,
      "prePerformCfg": ""
    }
  ]
}