{
  "id": 70033,
  "type": "WQ",
  "titleTextMapHash": 2957088815,
  "descTextMapHash": 4223132798,
  "luaPath": "Actor/Quest/WQ70033",
  "showType": "QUEST_HIDDEN",
  "subQuests": [
    {
      "subId": 7003301,
      "mainId": 70033,
      "order": 1,
      "descTextMapHash": 1209514620,
      "showType": "QUEST_HIDDEN",
      "acceptCond": [
        {
          "type": "QUEST_COND_ACTIVITY_COND",
          "param": [
            50500102,
            1,
            0,
            0,
            0
          ],
          "param_str": ""
        }
      ],
      "finishCond": [
        {
          "type": "QUEST_CONTENT_COMPLETE_TALK",
          "param": [
            7003301,
            0
          ],
          "param_str": ""
        }
      ],
      "failCond": [],
      "guide": {
        "type": "QUEST_GUIDE_NPC",
        "autoGuide": "QUEST_GUIDE_AUTO_ENABLE",
        "param": [
          "30070"
        ],
        "guideScene": 3,
        "guideStyle": "QUEST_GUIDE_STYLE_TARGET",
        "guideLayer": "QUEST_GUIDE_LAYER_SCENE"
      },
      "finishParent": true,
      "failParentShow": "QUEST_HIDDEN",
      "isRewind": true,
      "finishExec": [],
      "failExec": [],
      "beginExec": []
    }
  ],
  "talks": [
    {
      "id": 7003301,
      "beginWay": "TALK_BEGIN_MANUAL",
      "activeMode": "PLAY_MODE_SINGLE",
      "beginCond": [
        {
          "type": "QUEST_COND_STATE_EQUAL",
          "param": [
            "7003301",
            "2"
          ],
          "param_str": ""
        }
      ],
      "priority": 5,
      "initDialog": 700330101,
      "npcId": [
        30070
      ],
      "performCfg": "QuestDialogue/WQ/Inazuma_70033/Q7003301",
      "heroTalk": "TALK_HERO_MAIN",
      "questId": 70033,
      "prePerformCfg": ""
    }
  ]
}