{
  "id": 70511,
  "type": "WQ",
  "titleTextMapHash": 2415099311,
  "descTextMapHash": 2098888230,
  "luaPath": "",
  "showType": "QUEST_HIDDEN",
  "subQuests": [
    {
      "subId": 7051101,
      "mainId": 70511,
      "order": 1,
      "descTextMapHash": 703734156,
      "showType": "QUEST_HIDDEN",
      "acceptCond": [
        {
          "type": "QUEST_COND_ACTIVITY_END",
          "param": [
            5062001,
            0,
            0,
            0,
            0
          ],
          "param_str": ""
        }
      ],
      "finishCond": [
        {
          "type": "QUEST_CONTENT_LEAVE_SCENE",
          "param": [
            1068,
            0
          ],
          "param_str": ""
        }
      ],
      "failCond": [],
      "guide": {
        "param": []
      },
      "finishParent": true,
      "isRewind": true,
      "finishExec": [],
      "failExec": [],
      "beginExec": [
        {
          "type": "QUEST_EXEC_REFRESH_GROUP_SUITE",
          "param": [
            "1068",
            "201068003,1;201068004,1;201068005,1;201068006,1"
          ],
          "param_str": ""
        }
      ]
    }
  ]
}