{
  "id": 70521,
  "type": "WQ",
  "titleTextMapHash": 479438695,
  "descTextMapHash": 2281817710,
  "luaPath": "Actor/Quest/WQ70521",
  "rewardIdList": [
    170521
  ],
  "subQuests": [
    {
      "mainId": 70521,
      "subId": 7052101,
      "order": 1,
      "showType": "QUEST_HIDDEN",
      "acceptCond": [
        {
          "type": "QUEST_COND_UNKNOWN",
          "param": [
            0,
            0
          ]
        }
      ],
      "finishCond": [],
      "failCond": [],
      "guide": {},
      "finishExec": [],
      "failExec": [],
      "beginExec": []
    },
    {
      "mainId": 70521,
      "subId": 7052102,
      "order": 2,
      "descTextMapHash": 1744393252,
      "acceptCond": [
        {
          "type": "QUEST_COND_UNKNOWN",
          "param": [
            0,
            0
          ]
        }
      ],
      "finishCond": [],
      "failCond": [],
      "guide": {
        "type": "QUEST_GUIDE_LOCATION",
        "autoGuide": "QUEST_GUIDE_AUTO_ENABLE",
        "param": [
          "Q7052101_N1002",
          "0"
        ],
        "guideScene": 3,
        "guideStyle": "QUEST_GUIDE_STYLE_POINT",
        "guideLayer": "QUEST_GUIDE_LAYER_SCENE"
      },
      "finishExec": [],
      "failExec": [],
      "beginExec": []
    }
  ],
  "talks": [
    {
      "id": 7052101,
      "beginWay": "TALK_BEGIN_MANUAL",
      "beginCond": [
        {
          "type": "QUEST_COND_STATE_EQUAL",
          "param": [
            "7052102",
            "2"
          ],
          "param_str": ""
        }
      ],
      "priority": 5,
      "initDialog": 705210101,
      "npcId": [
        1029,
        1002,
        30234
      ],
      "performCfg": "QuestDialogue/WQ/Vintage_70521/Q7052101",
      "questId": 70521,
      "prePerformCfg": ""
    }
  ]
}