{
  "id": 70665,
  "type": "WQ",
  "titleTextMapHash": 1351580231,
  "descTextMapHash": 3979163358,
  "luaPath": "Actor/Quest/WQ70665",
  "rewardIdList": [
    170665
  ],
  "chapterId": 10106,
  "subQuests": [
    {
      "mainId": 70665,
      "subId": 7066501,
      "order": 1,
      "descTextMapHash": 2896566772,
      "acceptCond": [
        {
          "type": "QUEST_COND_UNKNOWN",
          "param": [
            0,
            0
          ]
        }
      ],
      "finishCond": [],
      "failCond": [],
      "guide": {
        "type": "QUEST_GUIDE_NPC",
        "param": [
          "1019"
        ],
        "guideScene": 3,
        "guideStyle": "QUEST_GUIDE_STYLE_TARGET",
        "guideLayer": "QUEST_GUIDE_LAYER_SCENE"
      },
      "finishExec": [],
      "failExec": [],
      "beginExec": []
    },
    {
      "mainId": 70665,
      "subId": 7066502,
      "order": 2,
      "descTextMapHash": 1855745844,
      "acceptCond": [
        {
          "type": "QUEST_COND_UNKNOWN",
          "param": [
            0,
            0
          ]
        }
      ],
      "finishCond": [],
      "failCond": [],
      "guide": {
        "type": "QUEST_GUIDE_NPC",
        "param": [
          "1431"
        ],
        "guideScene": 1076,
        "guideStyle": "QUEST_GUIDE_STYLE_TARGET",
        "guideLayer": "QUEST_GUIDE_LAYER_SCENE"
      },
      "finishExec": [],
      "failExec": [],
      "beginExec": []
    },
    {
      "mainId": 70665,
      "subId": 7066503,
      "order": 3,
      "descTextMapHash": 4287919772,
      "acceptCond": [
        {
          "type": "QUEST_COND_UNKNOWN",
          "param": [
            0,
            0
          ]
        }
      ],
      "finishCond": [],
      "failCond": [],
      "guide": {
        "type": "QUEST_GUIDE_NPC",
        "param": [
          "1431"
        ],
        "guideScene": 1076,
        "guideStyle": "QUEST_GUIDE_STYLE_TARGET",
        "guideLayer": "QUEST_GUIDE_LAYER_SCENE"
      },
      "finishExec": [],
      "failExec": [],
      "beginExec": []
    },
    {
      "mainId": 70665,
      "subId": 7066504,
      "order": 4,
      "descTextMapHash": 4051449308,
      "acceptCond": [
        {
          "type": "QUEST_COND_UNKNOWN",
          "param": [
            0,
            0
          ]
        }
      ],
      "finishCond": [],
      "failCond": [],
      "guide": {
        "type": "QUEST_GUIDE_NPC",
        "param": [
          "1061"
        ],
        "guideScene": 1076,
        "guideStyle": "QUEST_GUIDE_STYLE_TARGET",
        "guideLayer": "QUEST_GUIDE_LAYER_SCENE"
      },
      "finishExec": [],
      "failExec": [],
      "beginExec": []
    },
    {
      "mainId": 70665,
      "subId": 7066505,
      "order": 5,
      "descTextMapHash": 2684700108,
      "acceptCond": [
        {
          "type": "QUEST_COND_UNKNOWN",
          "param": [
            0,
            0
          ]
        }
      ],
      "finishCond": [],
      "failCond": [],
      "guide": {
        "type": "QUEST_GUIDE_NPC",
        "param": [
          "1061"
        ],
        "guideScene": 1076,
        "guideStyle": "QUEST_GUIDE_STYLE_TARGET",
        "guideLayer": "QUEST_GUIDE_LAYER_SCENE"
      },
      "finishExec": [],
      "failExec": [],
      "beginExec": []
    },
    {
      "mainId": 70665,
      "subId": 7066506,
      "order": 7,
      "descTextMapHash": 3639796860,
      "acceptCond": [
        {
          "type": "QUEST_COND_UNKNOWN",
          "param": [
            0,
            0
          ]
        }
      ],
      "finishCond": [],
      "failCond": [],
      "guide": {
        "type": "QUEST_GUIDE_NPC",
        "param": [
          "1061"
        ],
        "guideScene": 1076,
        "guideStyle": "QUEST_GUIDE_STYLE_TARGET",
        "guideLayer": "QUEST_GUIDE_LAYER_SCENE"
      },
      "finishExec": [],
      "failExec": [],
      "beginExec": []
    },
    {
      "mainId": 70665,
      "subId": 7066507,
      "order": 8,
      "descTextMapHash": 2665538996,
      "acceptCond": [
        {
          "type": "QUEST_COND_UNKNOWN",
          "param": [
            0,
            0
          ]
        }
      ],
      "finishCond": [],
      "failCond": [],
      "guide": {
        "type": "QUEST_GUIDE_NPC",
        "param": [
          "1019"
        ],
        "guideScene": 1076,
        "guideStyle": "QUEST_GUIDE_STYLE_TARGET",
        "guideLayer": "QUEST_GUIDE_LAYER_SCENE"
      },
      "finishExec": [],
      "failExec": [],
      "beginExec": []
    },
    {
      "mainId": 70665,
      "subId": 7066508,
      "order": 10,
      "descTextMapHash": 1986881692,
      "acceptCond": [
        {
          "type": "QUEST_COND_UNKNOWN",
          "param": [
            0,
            0
          ]
        }
      ],
      "finishCond": [],
      "failCond": [],
      "guide": {
        "type": "QUEST_GUIDE_NPC",
        "param": [
          "1019"
        ],
        "guideScene": 1076,
        "guideStyle": "QUEST_GUIDE_STYLE_TARGET",
        "guideLayer": "QUEST_GUIDE_LAYER_SCENE"
      },
      "finishExec": [],
      "failExec": [],
      "beginExec": []
    },
    {
      "mainId": 70665,
      "subId": 7066509,
      "order": 11,
      "descTextMapHash": 2761329196,
      "acceptCond": [
        {
          "type": "QUEST_COND_UNKNOWN",
          "param": [
            0,
            0
          ]
        }
      ],
      "finishCond": [],
      "failCond": [],
      "guide": {
        "type": "QUEST_GUIDE_NPC",
        "param": [
          "1712"
        ],
        "guideScene": 1076,
        "guideStyle": "QUEST_GUIDE_STYLE_TARGET",
        "guideLayer": "QUEST_GUIDE_LAYER_SCENE"
      },
      "finishExec": [],
      "failExec": [],
      "beginExec": []
    },
    {
      "mainId": 70665,
      "subId": 7066510,
      "order": 12,
      "descTextMapHash": 13065740,
      "acceptCond": [
        {
          "type": "QUEST_COND_UNKNOWN",
          "param": [
            0,
            0
          ]
        }
      ],
      "finishCond": [],
      "failCond": [],
      "guide": {
        "type": "QUEST_GUIDE_NPC",
        "param": [
          "1431"
        ],
        "guideScene": 3,
        "guideStyle": "QUEST_GUIDE_STYLE_TARGET",
        "guideLayer": "QUEST_GUIDE_LAYER_SCENE"
      },
      "finishExec": [],
      "failExec": [],
      "beginExec": []
    },
    {
      "mainId": 70665,
      "subId": 7066511,
      "order": 13,
      "descTextMapHash": 1031674844,
      "acceptCond": [
        {
          "type": "QUEST_COND_UNKNOWN",
          "param": [
            0,
            0
          ]
        }
      ],
      "finishCond": [],
      "failCond": [],
      "guide": {
        "guideScene": 3,
        "guideStyle": "QUEST_GUIDE_STYLE_TARGET",
        "guideLayer": "QUEST_GUIDE_LAYER_SCENE"
      },
      "finishExec": [],
      "failExec": [],
      "beginExec": []
    },
    {
      "mainId": 70665,
      "subId": 7066512,
      "order": 15,
      "descTextMapHash": 1089635556,
      "acceptCond": [
        {
          "type": "QUEST_COND_UNKNOWN",
          "param": [
            0,
            0
          ]
        }
      ],
      "finishCond": [],
      "failCond": [],
      "guide": {
        "type": "QUEST_GUIDE_NPC",
        "param": [
          "1437"
        ],
        "guideScene": 3,
        "guideStyle": "QUEST_GUIDE_STYLE_TARGET",
        "guideLayer": "QUEST_GUIDE_LAYER_SCENE"
      },
      "finishExec": [],
      "failExec": [],
      "beginExec": []
    },
    {
      "mainId": 70665,
      "subId": 7066513,
      "order": 14,
      "showType": "QUEST_HIDDEN",
      "acceptCond": [
        {
          "type": "QUEST_COND_UNKNOWN",
          "param": [
            0,
            0
          ]
        }
      ],
      "finishCond": [],
      "failCond": [],
      "guide": {},
      "finishExec": [],
      "failExec": [],
      "beginExec": []
    },
    {
      "mainId": 70665,
      "subId": 7066514,
      "order": 16,
      "descTextMapHash": 3954966948,
      "acceptCond": [
        {
          "type": "QUEST_COND_UNKNOWN",
          "param": [
            0,
            0
          ]
        }
      ],
      "finishCond": [],
      "failCond": [],
      "guide": {
        "type": "QUEST_GUIDE_NPC",
        "param": [
          "1713"
        ],
        "guideScene": 1076,
        "guideStyle": "QUEST_GUIDE_STYLE_TARGET",
        "guideLayer": "QUEST_GUIDE_LAYER_SCENE"
      },
      "finishExec": [],
      "failExec": [],
      "beginExec": []
    },
    {
      "mainId": 70665,
      "subId": 7066515,
      "order": 17,
      "descTextMapHash": 3471089332,
      "acceptCond": [
        {
          "type": "QUEST_COND_UNKNOWN",
          "param": [
            0,
            0
          ]
        }
      ],
      "finishCond": [],
      "failCond": [],
      "guide": {
        "type": "QUEST_GUIDE_LOCATION",
        "param": [
          "Q7066515_N10012",
          "5"
        ],
        "guideScene": 1076,
        "guideStyle": "QUEST_GUIDE_STYLE_TARGET",
        "guideLayer": "QUEST_GUIDE_LAYER_SCENE"
      },
      "finishExec": [],
      "failExec": [],
      "beginExec": []
    },
    {
      "mainId": 70665,
      "subId": 7066516,
      "order": 18,
      "descTextMapHash": 3365875572,
      "acceptCond": [
        {
          "type": "QUEST_COND_UNKNOWN",
          "param": [
            0,
            0
          ]
        }
      ],
      "finishCond": [],
      "failCond": [],
      "guide": {
        "type": "QUEST_GUIDE_NPC",
        "param": [
          "10011"
        ],
        "guideScene": 1076,
        "guideStyle": "QUEST_GUIDE_STYLE_TARGET",
        "guideLayer": "QUEST_GUIDE_LAYER_SCENE"
      },
      "finishExec": [],
      "failExec": [],
      "beginExec": []
    },
    {
      "mainId": 70665,
      "subId": 7066517,
      "order": 20,
      "descTextMapHash": 821297148,
      "acceptCond": [
        {
          "type": "QUEST_COND_UNKNOWN",
          "param": [
            0,
            0
          ]
        }
      ],
      "finishCond": [],
      "failCond": [],
      "guide": {
        "type": "QUEST_GUIDE_NPC",
        "param": [
          "10011"
        ],
        "guideScene": 1076,
        "guideStyle": "QUEST_GUIDE_STYLE_TARGET",
        "guideLayer": "QUEST_GUIDE_LAYER_SCENE"
      },
      "finishExec": [],
      "failExec": [],
      "beginExec": []
    },
    {
      "mainId": 70665,
      "subId": 7066518,
      "order": 21,
      "descTextMapHash": 355566364,
      "acceptCond": [
        {
          "type": "QUEST_COND_UNKNOWN",
          "param": [
            0,
            0
          ]
        }
      ],
      "finishCond": [],
      "failCond": [],
      "guide": {
        "type": "QUEST_GUIDE_NPC",
        "param": [
          "1712"
        ],
        "guideScene": 1076,
        "guideStyle": "QUEST_GUIDE_STYLE_TARGET",
        "guideLayer": "QUEST_GUIDE_LAYER_SCENE"
      },
      "finishExec": [],
      "failExec": [],
      "beginExec": []
    },
    {
      "mainId": 70665,
      "subId": 7066519,
      "order": 6,
      "showType": "QUEST_HIDDEN",
      "acceptCond": [
        {
          "type": "QUEST_COND_UNKNOWN",
          "param": [
            0,
            0
          ]
        }
      ],
      "finishCond": [],
      "failCond": [],
      "guide": {},
      "finishExec": [],
      "failExec": [],
      "beginExec": []
    },
    {
      "mainId": 70665,
      "subId": 7066520,
      "order": 9,
      "showType": "QUEST_HIDDEN",
      "acceptCond": [
        {
          "type": "QUEST_COND_UNKNOWN",
          "param": [
            0,
            0
          ]
        }
      ],
      "finishCond": [],
      "failCond": [],
      "guide": {},
      "finishExec": [],
      "failExec": [],
      "beginExec": []
    },
    {
      "mainId": 70665,
      "subId": 7066521,
      "order": 22,
      "showType": "QUEST_HIDDEN",
      "acceptCond": [
        {
          "type": "QUEST_COND_UNKNOWN",
          "param": [
            0,
            0
          ]
        }
      ],
      "finishCond": [],
      "failCond": [],
      "guide": {},
      "finishExec": [],
      "failExec": [],
      "beginExec": []
    },
    {
      "mainId": 70665,
      "subId": 7066522,
      "order": 19,
      "showType": "QUEST_HIDDEN",
      "acceptCond": [
        {
          "type": "QUEST_COND_UNKNOWN",
          "param": [
            0,
            0
          ]
        }
      ],
      "finishCond": [],
      "failCond": [],
      "guide": {},
      "finishExec": [],
      "failExec": [],
      "beginExec": []
    },
    {
      "mainId": 70665,
      "subId": 7066523,
      "order": 23,
      "showType": "QUEST_HIDDEN",
      "acceptCond": [
        {
          "type": "QUEST_COND_UNKNOWN",
          "param": [
            0,
            0
          ]
        }
      ],
      "finishCond": [],
      "failCond": [],
      "guide": {},
      "finishExec": [],
      "failExec": [],
      "beginExec": []
    }
  ],
  "talks": [
    {
      "id": 7066501,
      "beginWay": "TALK_BEGIN_MANUAL",
      "activeMode": "PLAY_MODE_HOST",
      "beginCondComb": "LOGIC_AND",
      "beginCond": [
        {
          "type": "QUEST_COND_STATE_EQUAL",
          "param": [
            "7066501",
            "2"
          ],
          "param_str": ""
        },
        {
          "type": "QUEST_COND_STATE_EQUAL",
          "param": [
            "1104002",
            "3"
          ],
          "param_str": ""
        }
      ],
      "priority": 5,
      "initDialog": 706650101,
      "npcId": [
        1587,
        1019
      ],
      "performCfg": "QuestDialogue/WQ/Mengde_70665/Q7066501",
      "heroTalk": "TALK_HERO_MAIN",
      "questId": 70665,
      "prePerformCfg": ""
    },
    {
      "id": 7066502,
      "beginWay": "TALK_BEGIN_MANUAL",
      "activeMode": "PLAY_MODE_HOST",
      "beginCond": [
        {
          "type": "QUEST_COND_STATE_EQUAL",
          "param": [
            "7066503",
            "2"
          ],
          "param_str": ""
        }
      ],
      "priority": 5,
      "nextTalks": [
        7066503,
        7066505
      ],
      "initDialog": 706650201,
      "npcId": [
        1431,
        1713,
        1712
      ],
      "performCfg": "QuestDialogue/WQ/Mengde_70665/Q7066502",
      "heroTalk": "TALK_HERO_MAIN",
      "questId": 70665,
      "prePerformCfg": ""
    },
    {
      "id": 7066503,
      "activeMode": "PLAY_MODE_HOST",
      "beginCondComb": "LOGIC_AND",
      "beginCond": [
        {
          "type": "QUEST_COND_STATE_EQUAL",
          "param": [
            "7066503",
            "2"
          ],
          "param_str": ""
        },
        {
          "type": "QUEST_COND_STATE_EQUAL",
          "param": [
            "48605",
            "3"
          ],
          "param_str": ""
        }
      ],
      "priority": 5,
      "nextTalks": [
        7066504
      ],
      "initDialog": 706650301,
      "npcId": [
        1431,
        1713,
        1712
      ],
      "performCfg": "QuestDialogue/WQ/Mengde_70665/Q7066503",
      "heroTalk": "TALK_HERO_MAIN",
      "questId": 70665,
      "prePerformCfg": ""
    },
    {
      "id": 7066504,
      "activeMode": "PLAY_MODE_HOST",
      "beginCondComb": "LOGIC_AND",
      "beginCond": [
        {
          "type": "QUEST_COND_STATE_EQUAL",
          "param": [
            "7066503",
            "2"
          ],
          "param_str": ""
        },
        {
          "type": "QUEST_COND_STATE_EQUAL",
          "param": [
            "48605",
            "3"
          ],
          "param_str": ""
        }
      ],
      "priority": 5,
      "initDialog": 706650401,
      "npcId": [
        1713,
        1712,
        1431
      ],
      "performCfg": "QuestDialogue/WQ/Mengde_70665/Q7066504",
      "heroTalk": "TALK_HERO_MAIN",
      "questId": 70665,
      "prePerformCfg": ""
    },
    {
      "id": 7066505,
      "activeMode": "PLAY_MODE_HOST",
      "beginCondComb": "LOGIC_A_AND_ETCOR",
      "beginCond": [
        {
          "type": "QUEST_COND_STATE_EQUAL",
          "param": [
            "7066503",
            "2"
          ],
          "param_str": ""
        },
        {
          "type": "QUEST_COND_STATE_NOT_EQUAL",
          "param": [
            "48605",
            "3"
          ],
          "param_str": ""
        },
        {
          "type": "QUEST_COND_QUEST_NOT_RECEIVE",
          "param": [
            "48605",
            "1"
          ],
          "param_str": ""
        }
      ],
      "priority": 5,
      "initDialog": 706650401,
      "npcId": [
        1713,
        1712,
        1431
      ],
      "performCfg": "QuestDialogue/WQ/Mengde_70665/Q7066505",
      "heroTalk": "TALK_HERO_MAIN",
      "questId": 70665,
      "prePerformCfg": ""
    },
    {
      "id": 7066506,
      "beginWay": "TALK_BEGIN_MANUAL",
      "activeMode": "PLAY_MODE_HOST",
      "beginCond": [
        {
          "type": "QUEST_COND_STATE_EQUAL",
          "param": [
            "7066504",
            "2"
          ],
          "param_str": ""
        }
      ],
      "priority": 5,
      "initDialog": 706650601,
      "npcId": [
        1713,
        1712
      ],
      "performCfg": "QuestDialogue/WQ/Mengde_70665/Q7066506",
      "heroTalk": "TALK_HERO_MAIN",
      "questId": 70665,
      "prePerformCfg": ""
    },
    {
      "id": 7066507,
      "beginWay": "TALK_BEGIN_MANUAL",
      "activeMode": "PLAY_MODE_HOST",
      "beginCond": [
        {
          "type": "QUEST_COND_STATE_EQUAL",
          "param": [
            "7066504",
            "2"
          ],
          "param_str": ""
        }
      ],
      "priority": 5,
      "initDialog": 706650701,
      "npcId": [
        1061
      ],
      "performCfg": "QuestDialogue/WQ/Mengde_70665/Q7066507",
      "heroTalk": "TALK_HERO_MAIN",
      "questId": 70665,
      "prePerformCfg": ""
    },
    {
      "id": 7066508,
      "beginWay": "TALK_BEGIN_MANUAL",
      "activeMode": "PLAY_MODE_HOST",
      "beginCondComb": "LOGIC_AND",
      "beginCond": [
        {
          "type": "QUEST_COND_STATE_EQUAL",
          "param": [
            "7066505",
            "2"
          ],
          "param_str": ""
        },
        {
          "type": "QUEST_COND_STATE_EQUAL",
          "param": [
            "7066519",
            "2"
          ],
          "param_str": ""
        }
      ],
      "priority": 5,
      "initDialog": 706650801,
      "npcId": [
        1061
      ],
      "performCfg": "QuestDialogue/WQ/Mengde_70665/Q7066508",
      "heroTalk": "TALK_HERO_MAIN",
      "questId": 70665,
      "prePerformCfg": ""
    },
    {
      "id": 7066509,
      "beginWay": "TALK_BEGIN_MANUAL",
      "activeMode": "PLAY_MODE_HOST",
      "beginCondComb": "LOGIC_AND",
      "beginCond": [
        {
          "type": "QUEST_COND_STATE_EQUAL",
          "param": [
            "7066519",
            "3"
          ],
          "param_str": ""
        },
        {
          "type": "QUEST_COND_QUEST_NOT_RECEIVE",
          "param": [
            "7066506",
            "1"
          ],
          "param_str": ""
        }
      ],
      "priority": 5,
      "initDialog": 706650901,
      "npcId": [
        1061
      ],
      "performCfg": "QuestDialogue/WQ/Mengde_70665/Q7066509",
      "questId": 70665,
      "prePerformCfg": ""
    },
    {
      "id": 7066510,
      "beginWay": "TALK_BEGIN_MANUAL",
      "activeMode": "PLAY_MODE_HOST",
      "beginCondComb": "LOGIC_OR",
      "beginCond": [
        {
          "type": "QUEST_COND_STATE_EQUAL",
          "param": [
            "7066505",
            "2"
          ],
          "param_str": ""
        },
        {
          "type": "QUEST_COND_STATE_EQUAL",
          "param": [
            "7066506",
            "2"
          ],
          "param_str": ""
        }
      ],
      "priority": 5,
      "initDialog": 706651001,
      "npcId": [
        1019
      ],
      "performCfg": "QuestDialogue/WQ/Mengde_70665/Q7066510",
      "heroTalk": "TALK_HERO_MAIN",
      "questId": 70665,
      "prePerformCfg": ""
    },
    {
      "id": 7066511,
      "beginWay": "TALK_BEGIN_MANUAL",
      "activeMode": "PLAY_MODE_HOST",
      "beginCondComb": "LOGIC_OR",
      "beginCond": [
        {
          "type": "QUEST_COND_STATE_EQUAL",
          "param": [
            "7066505",
            "2"
          ],
          "param_str": ""
        },
        {
          "type": "QUEST_COND_STATE_EQUAL",
          "param": [
            "7066506",
            "2"
          ],
          "param_str": ""
        },
        {
          "type": "QUEST_COND_STATE_EQUAL",
          "param": [
            "7066507",
            "2"
          ],
          "param_str": ""
        },
        {
          "type": "QUEST_COND_STATE_EQUAL",
          "param": [
            "7066508",
            "2"
          ],
          "param_str": ""
        }
      ],
      "priority": 5,
      "initDialog": 706651101,
      "npcId": [
        1713,
        1712
      ],
      "performCfg": "QuestDialogue/WQ/Mengde_70665/Q7066511",
      "heroTalk": "TALK_HERO_MAIN",
      "questId": 70665,
      "prePerformCfg": ""
    },
    {
      "id": 7066512,
      "beginWay": "TALK_BEGIN_MANUAL",
      "activeMode": "PLAY_MODE_HOST",
      "beginCondComb": "LOGIC_AND",
      "beginCond": [
        {
          "type": "QUEST_COND_STATE_EQUAL",
          "param": [
            "7066505",
            "3"
          ],
          "param_str": ""
        },
        {
          "type": "QUEST_COND_STATE_EQUAL",
          "param": [
            "7066506",
            "2"
          ],
          "param_str": ""
        }
      ],
      "priority": 5,
      "initDialog": 706651201,
      "npcId": [
        1061
      ],
      "performCfg": "QuestDialogue/WQ/Mengde_70665/Q7066512",
      "heroTalk": "TALK_HERO_MAIN",
      "questId": 70665,
      "prePerformCfg": ""
    },
    {
      "id": 7066513,
      "beginWay": "TALK_BEGIN_MANUAL",
      "activeMode": "PLAY_MODE_HOST",
      "beginCondComb": "LOGIC_AND",
      "beginCond": [
        {
          "type": "QUEST_COND_STATE_EQUAL",
          "param": [
            "7066507",
            "2"
          ],
          "param_str": ""
        },
        {
          "type": "QUEST_COND_STATE_EQUAL",
          "param": [
            "7066520",
            "2"
          ],
          "param_str": ""
        }
      ],
      "priority": 5,
      "initDialog": 706651301,
      "npcId": [
        1019
      ],
      "performCfg": "QuestDialogue/WQ/Mengde_70665/Q7066513",
      "heroTalk": "TALK_HERO_MAIN",
      "questId": 70665,
      "prePerformCfg": ""
    },
    {
      "id": 7066514,
      "beginWay": "TALK_BEGIN_MANUAL",
      "activeMode": "PLAY_MODE_HOST",
      "beginCondComb": "LOGIC_AND",
      "beginCond": [
        {
          "type": "QUEST_COND_STATE_EQUAL",
          "param": [
            "7066520",
            "3"
          ],
          "param_str": ""
        },
        {
          "type": "QUEST_COND_QUEST_NOT_RECEIVE",
          "param": [
            "7066508",
            "1"
          ],
          "param_str": ""
        }
      ],
      "priority": 5,
      "initDialog": 706651301,
      "npcId": [
        1019
      ],
      "performCfg": "QuestDialogue/WQ/Mengde_70665/Q7066513",
      "questId": 70665,
      "prePerformCfg": ""
    },
    {
      "id": 7066515,
      "beginWay": "TALK_BEGIN_MANUAL",
      "activeMode": "PLAY_MODE_HOST",
      "beginCondComb": "LOGIC_OR",
      "beginCond": [
        {
          "type": "QUEST_COND_STATE_EQUAL",
          "param": [
            "7066507",
            "2"
          ],
          "param_str": ""
        },
        {
          "type": "QUEST_COND_STATE_EQUAL",
          "param": [
            "7066508",
            "2"
          ],
          "param_str": ""
        }
      ],
      "priority": 5,
      "initDialog": 706651501,
      "npcId": [
        1061
      ],
      "performCfg": "QuestDialogue/WQ/Mengde_70665/Q7066515",
      "heroTalk": "TALK_HERO_MAIN",
      "questId": 70665,
      "prePerformCfg": ""
    },
    {
      "id": 7066516,
      "beginWay": "TALK_BEGIN_MANUAL",
      "activeMode": "PLAY_MODE_HOST",
      "beginCondComb": "LOGIC_AND",
      "beginCond": [
        {
          "type": "QUEST_COND_STATE_EQUAL",
          "param": [
            "7066507",
            "3"
          ],
          "param_str": ""
        },
        {
          "type": "QUEST_COND_STATE_EQUAL",
          "param": [
            "7066508",
            "2"
          ],
          "param_str": ""
        }
      ],
      "priority": 5,
      "initDialog": 706651601,
      "npcId": [
        1019
      ],
      "performCfg": "QuestDialogue/WQ/Mengde_70665/Q7066516",
      "heroTalk": "TALK_HERO_MAIN",
      "questId": 70665,
      "prePerformCfg": ""
    },
    {
      "id": 7066517,
      "beginWay": "TALK_BEGIN_MANUAL",
      "activeMode": "PLAY_MODE_HOST",
      "beginCond": [
        {
          "type": "QUEST_COND_STATE_EQUAL",
          "param": [
            "7066509",
            "2"
          ],
          "param_str": ""
        }
      ],
      "priority": 5,
      "initDialog": 706651701,
      "npcId": [
        1061
      ],
      "performCfg": "QuestDialogue/WQ/Mengde_70665/Q7066517",
      "heroTalk": "TALK_HERO_MAIN",
      "questId": 70665,
      "prePerformCfg": ""
    },
    {
      "id": 7066518,
      "beginWay": "TALK_BEGIN_MANUAL",
      "activeMode": "PLAY_MODE_HOST",
      "beginCond": [
        {
          "type": "QUEST_COND_STATE_EQUAL",
          "param": [
            "7066509",
            "2"
          ],
          "param_str": ""
        }
      ],
      "priority": 5,
      "initDialog": 706651801,
      "npcId": [
        1712,
        1713
      ],
      "performCfg": "QuestDialogue/WQ/Mengde_70665/Q7066518",
      "heroTalk": "TALK_HERO_MAIN",
      "questId": 70665,
      "prePerformCfg": ""
    },
    {
      "id": 7066519,
      "beginWay": "TALK_BEGIN_MANUAL",
      "activeMode": "PLAY_MODE_HOST",
      "beginCond": [
        {
          "type": "QUEST_COND_STATE_EQUAL",
          "param": [
            "7066510",
            "2"
          ],
          "param_str": ""
        }
      ],
      "priority": 5,
      "initDialog": 706651901,
      "npcId": [
        1061
      ],
      "performCfg": "QuestDialogue/WQ/Mengde_70665/Q7066519",
      "heroTalk": "TALK_HERO_MAIN",
      "questId": 70665,
      "prePerformCfg": ""
    },
    {
      "id": 7066520,
      "beginWay": "TALK_BEGIN_MANUAL",
      "activeMode": "PLAY_MODE_HOST",
      "beginCond": [
        {
          "type": "QUEST_COND_STATE_EQUAL",
          "param": [
            "7066510",
            "2"
          ],
          "param_str": ""
        }
      ],
      "priority": 5,
      "initDialog": 706652001,
      "npcId": [
        1713,
        1712
      ],
      "performCfg": "QuestDialogue/WQ/Mengde_70665/Q7066520",
      "heroTalk": "TALK_HERO_MAIN",
      "questId": 70665,
      "prePerformCfg": ""
    },
    {
      "id": 7066521,
      "beginWay": "TALK_BEGIN_MANUAL",
      "activeMode": "PLAY_MODE_HOST",
      "beginCond": [
        {
          "type": "QUEST_COND_STATE_EQUAL",
          "param": [
            "7066510",
            "2"
          ],
          "param_str": ""
        }
      ],
      "priority": 5,
      "initDialog": 706652101,
      "npcId": [
        1431
      ],
      "performCfg": "QuestDialogue/WQ/Mengde_70665/Q7066521",
      "heroTalk": "TALK_HERO_MAIN",
      "questId": 70665,
      "prePerformCfg": ""
    },
    {
      "id": 7066522,
      "beginWay": "TALK_BEGIN_MANUAL",
      "activeMode": "PLAY_MODE_HOST",
      "beginCondComb": "LOGIC_AND",
      "beginCond": [
        {
          "type": "QUEST_COND_STATE_EQUAL",
          "param": [
            "7066511",
            "2"
          ],
          "param_str": ""
        },
        {
          "type": "QUEST_COND_STATE_EQUAL",
          "param": [
            "7066513",
            "2"
          ],
          "param_str": ""
        },
        {
          "type": "QUEST_COND_QUEST_VAR_EQUAL",
          "param": [
            "0",
            "0",
            "70665"
          ],
          "param_str": ""
        }
      ],
      "priority": 5,
      "nextTalks": [
        6143709,
        7066533
      ],
      "initDialog": 706652201,
      "npcId": [
        1437
      ],
      "performCfg": "QuestDialogue/WQ/Mengde_70665/Q7066522",
      "heroTalk": "TALK_HERO_MAIN",
      "questId": 70665,
      "prePerformCfg": "",
      "finishExec": [
        {
          "type": "TALK_EXEC_SET_QUEST_VAR",
          "param": [
            "0",
            "1",
            "70665"
          ],
          "param_str": ""
        }
      ]
    },
    {
      "id": 7066523,
      "beginWay": "TALK_BEGIN_MANUAL",
      "activeMode": "PLAY_MODE_HOST",
      "beginCondComb": "LOGIC_AND",
      "beginCond": [
        {
          "type": "QUEST_COND_STATE_EQUAL",
          "param": [
            "7066511",
            "2"
          ],
          "param_str": ""
        },
        {
          "type": "QUEST_COND_STATE_EQUAL",
          "param": [
            "7066513",
            "2"
          ],
          "param_str": ""
        },
        {
          "type": "QUEST_COND_QUEST_VAR_EQUAL",
          "param": [
            "0",
            "1",
            "70665"
          ],
          "param_str": ""
        }
      ],
      "priority": 5,
      "nextTalks": [
        6143709,
        7066533
      ],
      "initDialog": 706652301,
      "npcId": [
        1437
      ],
      "performCfg": "QuestDialogue/WQ/Mengde_70665/Q7066523",
      "heroTalk": "TALK_HERO_MAIN",
      "questId": 70665,
      "prePerformCfg": ""
    },
    {
      "id": 7066524,
      "beginWay": "TALK_BEGIN_MANUAL",
      "activeMode": "PLAY_MODE_HOST",
      "beginCondComb": "LOGIC_AND",
      "beginCond": [
        {
          "type": "QUEST_COND_STATE_EQUAL",
          "param": [
            "7066511",
            "2"
          ],
          "param_str": ""
        },
        {
          "type": "QUEST_COND_STATE_EQUAL",
          "param": [
            "7066513",
            "3"
          ],
          "param_str": ""
        }
      ],
      "priority": 5,
      "nextTalks": [
        6143709,
        7066533
      ],
      "initDialog": 706652401,
      "npcId": [
        1437
      ],
      "performCfg": "QuestDialogue/WQ/Mengde_70665/Q7066524",
      "questId": 70665,
      "prePerformCfg": ""
    },
    {
      "id": 7066525,
      "beginWay": "TALK_BEGIN_MANUAL",
      "activeMode": "PLAY_MODE_HOST",
      "beginCondComb": "LOGIC_OR",
      "beginCond": [
        {
          "type": "QUEST_COND_STATE_EQUAL",
          "param": [
            "7066512",
            "2"
          ],
          "param_str": ""
        },
        {
          "type": "QUEST_COND_STATE_EQUAL",
          "param": [
            "7066514",
            "2"
          ],
          "param_str": ""
        }
      ],
      "priority": 5,
      "initDialog": 706652501,
      "npcId": [
        1437
      ],
      "performCfg": "QuestDialogue/WQ/Mengde_70665/Q7066525",
      "heroTalk": "TALK_HERO_MAIN",
      "questId": 70665,
      "prePerformCfg": ""
    },
    {
      "id": 7066526,
      "beginWay": "TALK_BEGIN_MANUAL",
      "activeMode": "PLAY_MODE_HOST",
      "beginCond": [
        {
          "type": "QUEST_COND_STATE_EQUAL",
          "param": [
            "7066514",
            "2"
          ],
          "param_str": ""
        }
      ],
      "priority": 5,
      "initDialog": 706652601,
      "npcId": [
        1713,
        1712
      ],
      "performCfg": "QuestDialogue/WQ/Mengde_70665/Q7066526",
      "heroTalk": "TALK_HERO_MAIN",
      "questId": 70665,
      "prePerformCfg": ""
    },
    {
      "id": 7066527,
      "beginWay": "TALK_BEGIN_MANUAL",
      "activeMode": "PLAY_MODE_HOST",
      "beginCond": [
        {
          "type": "QUEST_COND_STATE_EQUAL",
          "param": [
            "7066515",
            "2"
          ],
          "param_str": ""
        }
      ],
      "priority": 5,
      "initDialog": 706652701,
      "npcId": [
        10011,
        10012
      ],
      "performCfg": "QuestDialogue/WQ/Mengde_70665/Q7066527",
      "heroTalk": "TALK_HERO_MAIN",
      "questId": 70665,
      "prePerformCfg": ""
    },
    {
      "id": 7066528,
      "beginWay": "TALK_BEGIN_MANUAL",
      "activeMode": "PLAY_MODE_HOST",
      "beginCondComb": "LOGIC_AND",
      "beginCond": [
        {
          "type": "QUEST_COND_STATE_EQUAL",
          "param": [
            "7066516",
            "2"
          ],
          "param_str": ""
        },
        {
          "type": "QUEST_COND_STATE_EQUAL",
          "param": [
            "7066522",
            "2"
          ],
          "param_str": ""
        }
      ],
      "priority": 5,
      "initDialog": 706652801,
      "npcId": [
        10011
      ],
      "performCfg": "QuestDialogue/WQ/Mengde_70665/Q7066528",
      "heroTalk": "TALK_HERO_MAIN",
      "questId": 70665,
      "prePerformCfg": ""
    },
    {
      "id": 7066529,
      "beginWay": "TALK_BEGIN_MANUAL",
      "activeMode": "PLAY_MODE_HOST",
      "beginCondComb": "LOGIC_AND",
      "beginCond": [
        {
          "type": "QUEST_COND_STATE_EQUAL",
          "param": [
            "7066522",
            "3"
          ],
          "param_str": ""
        },
        {
          "type": "QUEST_COND_QUEST_NOT_RECEIVE",
          "param": [
            "7066517",
            "1"
          ],
          "param_str": ""
        }
      ],
      "priority": 5,
      "initDialog": 706652901,
      "npcId": [
        10011
      ],
      "performCfg": "QuestDialogue/WQ/Mengde_70665/Q7066529",
      "heroTalk": "TALK_HERO_MAIN",
      "questId": 70665,
      "prePerformCfg": ""
    },
    {
      "id": 7066530,
      "beginWay": "TALK_BEGIN_MANUAL",
      "activeMode": "PLAY_MODE_HOST",
      "beginCondComb": "LOGIC_OR",
      "beginCond": [
        {
          "type": "QUEST_COND_STATE_EQUAL",
          "param": [
            "7066515",
            "2"
          ],
          "param_str": ""
        },
        {
          "type": "QUEST_COND_STATE_EQUAL",
          "param": [
            "7066516",
            "2"
          ],
          "param_str": ""
        },
        {
          "type": "QUEST_COND_STATE_EQUAL",
          "param": [
            "7066517",
            "2"
          ],
          "param_str": ""
        }
      ],
      "priority": 5,
      "initDialog": 706653001,
      "npcId": [
        1713,
        1712
      ],
      "performCfg": "QuestDialogue/WQ/Mengde_70665/Q7066530",
      "heroTalk": "TALK_HERO_MAIN",
      "questId": 70665,
      "prePerformCfg": ""
    },
    {
      "id": 7066531,
      "beginWay": "TALK_BEGIN_MANUAL",
      "activeMode": "PLAY_MODE_HOST",
      "beginCondComb": "LOGIC_AND",
      "beginCond": [
        {
          "type": "QUEST_COND_STATE_EQUAL",
          "param": [
            "7066516",
            "3"
          ],
          "param_str": ""
        },
        {
          "type": "QUEST_COND_STATE_EQUAL",
          "param": [
            "7066517",
            "2"
          ],
          "param_str": ""
        }
      ],
      "priority": 5,
      "initDialog": 706653101,
      "npcId": [
        10011
      ],
      "performCfg": "QuestDialogue/WQ/Mengde_70665/Q7066531",
      "heroTalk": "TALK_HERO_MAIN",
      "questId": 70665,
      "prePerformCfg": ""
    },
    {
      "id": 7066532,
      "beginWay": "TALK_BEGIN_MANUAL",
      "activeMode": "PLAY_MODE_HOST",
      "beginCond": [
        {
          "type": "QUEST_COND_STATE_EQUAL",
          "param": [
            "7066518",
            "2"
          ],
          "param_str": ""
        }
      ],
      "priority": 5,
      "initDialog": 706653201,
      "npcId": [
        1712,
        1713
      ],
      "performCfg": "QuestDialogue/WQ/Mengde_70665/Q7066532",
      "heroTalk": "TALK_HERO_MAIN",
      "questId": 70665,
      "prePerformCfg": ""
    },
    {
      "id": 7066533,
      "activeMode": "PLAY_MODE_HOST",
      "beginCondComb": "LOGIC_AND",
      "beginCond": [
        {
          "type": "QUEST_COND_STATE_EQUAL",
          "param": [
            "7066511",
            "2"
          ],
          "param_str": ""
        }
      ],
      "priority": 5,
      "initDialog": 706653301,
      "npcId": [
        1437
      ],
      "performCfg": "",
      "heroTalk": "TALK_HERO_MAIN",
      "questId": 70665,
      "prePerformCfg": ""
    },
    {
      "id": 7066534,
      "beginWay": "TALK_BEGIN_MANUAL",
      "activeMode": "PLAY_MODE_HOST",
      "beginCondComb": "LOGIC_A_AND_ETCOR",
      "beginCond": [
        {
          "type": "QUEST_COND_STATE_EQUAL",
          "param": [
            "7066501",
            "2"
          ],
          "param_str": ""
        },
        {
          "type": "QUEST_COND_STATE_EQUAL",
          "param": [
            "1104002"
          ],
          "param_str": ""
        },
        {
          "type": "QUEST_COND_STATE_NOT_EQUAL",
          "param": [
            "1104002",
            "3"
          ],
          "param_str": ""
        }
      ],
      "priority": 5,
      "initDialog": 706653401,
      "npcId": [
        1587,
        1019
      ],
      "performCfg": "QuestDialogue/WQ/Mengde_70665/Q7066534",
      "heroTalk": "TALK_HERO_MAIN",
      "questId": 70665,
      "prePerformCfg": ""
    }
  ]
}