{
  "id": 70664,
  "type": "WQ",
  "titleTextMapHash": 1106775007,
  "descTextMapHash": 3678800334,
  "luaPath": "Actor/Quest/WQ70664",
  "rewardIdList": [
    170664
  ],
  "subQuests": [
    {
      "mainId": 70664,
      "subId": 7066401,
      "order": 1,
      "descTextMapHash": 4291538836,
      "acceptCond": [
        {
          "type": "QUEST_COND_UNKNOWN",
          "param": [
            0,
            0
          ]
        }
      ],
      "finishCond": [],
      "failCond": [],
      "guide": {
        "type": "QUEST_GUIDE_NPC",
        "param": [
          "30153"
        ],
        "guideScene": 3,
        "guideStyle": "QUEST_GUIDE_STYLE_TARGET",
        "guideLayer": "QUEST_GUIDE_LAYER_SCENE"
      },
      "finishExec": [],
      "failExec": [],
      "beginExec": []
    }
  ],
  "talks": [
    {
      "id": 7066401,
      "beginWay": "TALK_BEGIN_MANUAL",
      "activeMode": "PLAY_MODE_SINGLE",
      "beginCond": [
        {
          "type": "QUEST_COND_STATE_EQUAL",
          "param": [
            "7066401",
            "2"
          ],
          "param_str": ""
        }
      ],
      "priority": 5,
      "initDialog": 706640101,
      "npcId": [
        30153
      ],
      "performCfg": "QuestDialogue/WQ/Mengde_70664/Q7066401",
      "questId": 70664,
      "prePerformCfg": ""
    }
  ]
}