{
  "id": 70704,
  "type": "WQ",
  "titleTextMapHash": 2127604815,
  "descTextMapHash": 1744014118,
  "luaPath": "Actor/Quest/WQ70704",
  "subQuests": [
    {
      "subId": 7070401,
      "mainId": 70704,
      "order": 1,
      "descTextMapHash": 1745164164,
      "acceptCond": [
        {
          "type": "QUEST_COND_CITY_REPUTATION_REQUEST",
          "param": [
            0,
            0,
            0,
            0,
            0
          ],
          "param_str": ""
        }
      ],
      "finishCond": [
        {
          "type": "QUEST_CONTENT_FINISH_ITEM_GIVING",
          "param": [
            7070401,
            0
          ],
          "param_str": ""
        }
      ],
      "failCond": [],
      "guide": {
        "type": "QUEST_GUIDE_NPC",
        "param": [
          "1529"
        ],
        "guideScene": 3,
        "guideLayer": "QUEST_GUIDE_LAYER_SCENE"
      },
      "isRewind": true,
      "finishExec": [],
      "failExec": [],
      "beginExec": [
        {
          "type": "QUEST_EXEC_ACTIVE_ITEM_GIVING",
          "param": [
            "7070401"
          ],
          "param_str": ""
        }
      ],
      "exclusiveNpcList": [
        1529
      ],
      "exclusiveNpcPriority": 2000
    },
    {
      "subId": 7070402,
      "mainId": 70704,
      "order": 2,
      "descTextMapHash": 2473424980,
      "acceptCond": [
        {
          "type": "QUEST_COND_STATE_EQUAL",
          "param": [
            7070401,
            3,
            0,
            0,
            0
          ],
          "param_str": ""
        }
      ],
      "finishCond": [
        {
          "type": "QUEST_CONTENT_COMPLETE_TALK",
          "param": [
            7070402,
            0
          ],
          "param_str": ""
        }
      ],
      "failCond": [],
      "guide": {
        "type": "QUEST_GUIDE_NPC",
        "param": [
          "1529"
        ],
        "guideScene": 3,
        "guideLayer": "QUEST_GUIDE_LAYER_SCENE"
      },
      "finishParent": true,
      "isRewind": true,
      "finishExec": [],
      "failExec": [],
      "beginExec": [],
      "exclusiveNpcList": [
        1529
      ],
      "exclusiveNpcPriority": 2000
    }
  ],
  "talks": [
    {
      "id": 7070401,
      "beginWay": "TALK_BEGIN_MANUAL",
      "activeMode": "PLAY_MODE_SINGLE",
      "beginCondComb": "LOGIC_AND",
      "beginCond": [
        {
          "type": "QUEST_COND_STATE_EQUAL",
          "param": [
            "7070401",
            "2"
          ],
          "param_str": ""
        },
        {
          "type": "QUEST_COND_ITEM_GIVING_ACTIVED",
          "param": [
            "7070401"
          ],
          "param_str": ""
        }
      ],
      "priority": 1,
      "initDialog": 707040101,
      "npcId": [
        1529
      ],
      "performCfg": "",
      "questId": 70704,
      "dontBlockDaily": true,
      "prePerformCfg": ""
    },
    {
      "id": 7070402,
      "beginWay": "TALK_BEGIN_AUTO",
      "activeMode": "PLAY_MODE_SINGLE",
      "beginCond": [
        {
          "type": "QUEST_COND_STATE_EQUAL",
          "param": [
            "7070402",
            "2"
          ],
          "param_str": ""
        }
      ],
      "priority": 1,
      "initDialog": 707040201,
      "npcId": [
        1529
      ],
      "performCfg": "",
      "questId": 70704,
      "prePerformCfg": ""
    }
  ]
}