{
  "id": 70700,
  "type": "WQ",
  "titleTextMapHash": 484031095,
  "descTextMapHash": 1196536710,
  "luaPath": "Actor/Quest/WQ70700",
  "subQuests": [
    {
      "subId": 7070001,
      "mainId": 70700,
      "order": 1,
      "descTextMapHash": 1425764260,
      "acceptCond": [
        {
          "type": "QUEST_COND_CITY_REPUTATION_REQUEST",
          "param": [
            0,
            0,
            0,
            0,
            0
          ],
          "param_str": ""
        }
      ],
      "finishCond": [
        {
          "type": "QUEST_CONTENT_FINISH_ITEM_GIVING",
          "param": [
            7070001,
            0
          ],
          "param_str": ""
        }
      ],
      "failCond": [],
      "guide": {
        "type": "QUEST_GUIDE_NPC",
        "param": [
          "1644"
        ],
        "guideScene": 3,
        "guideLayer": "QUEST_GUIDE_LAYER_SCENE"
      },
      "isRewind": true,
      "finishExec": [],
      "failExec": [],
      "beginExec": [
        {
          "type": "QUEST_EXEC_ACTIVE_ITEM_GIVING",
          "param": [
            "7070001"
          ],
          "param_str": ""
        }
      ],
      "exclusiveNpcList": [
        1644
      ],
      "exclusiveNpcPriority": 2000
    },
    {
      "subId": 7070002,
      "mainId": 70700,
      "order": 2,
      "descTextMapHash": 2475863700,
      "acceptCond": [
        {
          "type": "QUEST_COND_STATE_EQUAL",
          "param": [
            7070001,
            3,
            0,
            0,
            0
          ],
          "param_str": ""
        }
      ],
      "finishCond": [
        {
          "type": "QUEST_CONTENT_COMPLETE_TALK",
          "param": [
            7070002,
            0
          ],
          "param_str": ""
        }
      ],
      "failCond": [],
      "guide": {
        "type": "QUEST_GUIDE_NPC",
        "param": [
          "1644"
        ],
        "guideScene": 3,
        "guideLayer": "QUEST_GUIDE_LAYER_SCENE"
      },
      "finishParent": true,
      "isRewind": true,
      "finishExec": [],
      "failExec": [],
      "beginExec": [],
      "exclusiveNpcList": [
        1644
      ],
      "exclusiveNpcPriority": 2000
    }
  ],
  "talks": [
    {
      "id": 7070001,
      "beginWay": "TALK_BEGIN_MANUAL",
      "activeMode": "PLAY_MODE_SINGLE",
      "beginCondComb": "LOGIC_AND",
      "beginCond": [
        {
          "type": "QUEST_COND_STATE_EQUAL",
          "param": [
            "7070001",
            "2"
          ],
          "param_str": ""
        },
        {
          "type": "QUEST_COND_ITEM_GIVING_ACTIVED",
          "param": [
            "7070001"
          ],
          "param_str": ""
        }
      ],
      "priority": 1,
      "initDialog": 707000101,
      "npcId": [
        1644
      ],
      "performCfg": "",
      "questId": 70700,
      "dontBlockDaily": true,
      "prePerformCfg": ""
    },
    {
      "id": 7070002,
      "beginWay": "TALK_BEGIN_AUTO",
      "activeMode": "PLAY_MODE_SINGLE",
      "beginCond": [
        {
          "type": "QUEST_COND_STATE_EQUAL",
          "param": [
            "7070002",
            "2"
          ],
          "param_str": ""
        }
      ],
      "priority": 1,
      "initDialog": 707000201,
      "npcId": [
        1644
      ],
      "performCfg": "",
      "questId": 70700,
      "prePerformCfg": ""
    }
  ]
}