{
  "id": 70701,
  "type": "WQ",
  "titleTextMapHash": 1282191663,
  "descTextMapHash": 3226701254,
  "luaPath": "Actor/Quest/WQ70701",
  "subQuests": [
    {
      "subId": 7070101,
      "mainId": 70701,
      "order": 1,
      "descTextMapHash": 1431516780,
      "acceptCond": [
        {
          "type": "QUEST_COND_CITY_REPUTATION_REQUEST",
          "param": [
            0,
            0,
            0,
            0,
            0
          ],
          "param_str": ""
        }
      ],
      "finishCond": [
        {
          "type": "QUEST_CONTENT_FINISH_ITEM_GIVING",
          "param": [
            7070101,
            0
          ],
          "param_str": ""
        }
      ],
      "failCond": [],
      "guide": {
        "type": "QUEST_GUIDE_NPC",
        "param": [
          "1521"
        ],
        "guideScene": 3,
        "guideLayer": "QUEST_GUIDE_LAYER_SCENE"
      },
      "isRewind": true,
      "finishExec": [],
      "failExec": [],
      "beginExec": [
        {
          "type": "QUEST_EXEC_ACTIVE_ITEM_GIVING",
          "param": [
            "7070101"
          ],
          "param_str": ""
        }
      ],
      "exclusiveNpcList": [
        1521
      ],
      "exclusiveNpcPriority": 2000
    },
    {
      "subId": 7070102,
      "mainId": 70701,
      "order": 2,
      "descTextMapHash": 258817636,
      "acceptCond": [
        {
          "type": "QUEST_COND_STATE_EQUAL",
          "param": [
            7070101,
            3,
            0,
            0,
            0
          ],
          "param_str": ""
        }
      ],
      "finishCond": [
        {
          "type": "QUEST_CONTENT_COMPLETE_TALK",
          "param": [
            7070102,
            0
          ],
          "param_str": ""
        }
      ],
      "failCond": [],
      "guide": {
        "type": "QUEST_GUIDE_NPC",
        "param": [
          "1521"
        ],
        "guideScene": 3,
        "guideLayer": "QUEST_GUIDE_LAYER_SCENE"
      },
      "finishParent": true,
      "isRewind": true,
      "finishExec": [],
      "failExec": [],
      "beginExec": [],
      "exclusiveNpcList": [
        1521
      ],
      "exclusiveNpcPriority": 2000
    }
  ],
  "talks": [
    {
      "id": 7070101,
      "beginWay": "TALK_BEGIN_MANUAL",
      "activeMode": "PLAY_MODE_SINGLE",
      "beginCondComb": "LOGIC_AND",
      "beginCond": [
        {
          "type": "QUEST_COND_STATE_EQUAL",
          "param": [
            "7070101",
            "2"
          ],
          "param_str": ""
        },
        {
          "type": "QUEST_COND_ITEM_GIVING_ACTIVED",
          "param": [
            "7070101"
          ],
          "param_str": ""
        }
      ],
      "priority": 1,
      "initDialog": 707010101,
      "npcId": [
        1521
      ],
      "performCfg": "",
      "questId": 70701,
      "dontBlockDaily": true,
      "prePerformCfg": ""
    },
    {
      "id": 7070102,
      "beginWay": "TALK_BEGIN_AUTO",
      "activeMode": "PLAY_MODE_SINGLE",
      "beginCond": [
        {
          "type": "QUEST_COND_STATE_EQUAL",
          "param": [
            "7070102",
            "2"
          ],
          "param_str": ""
        }
      ],
      "priority": 1,
      "initDialog": 707010201,
      "npcId": [
        1521
      ],
      "performCfg": "",
      "questId": 70701,
      "prePerformCfg": ""
    }
  ]
}