{
  "id": 70709,
  "type": "WQ",
  "titleTextMapHash": 3216227871,
  "descTextMapHash": 1998500774,
  "luaPath": "Actor/Quest/WQ70709",
  "subQuests": [
    {
      "subId": 7070901,
      "mainId": 70709,
      "order": 1,
      "descTextMapHash": 1215514748,
      "acceptCond": [
        {
          "type": "QUEST_COND_CITY_REPUTATION_REQUEST",
          "param": [
            0,
            0,
            0,
            0,
            0
          ],
          "param_str": ""
        }
      ],
      "finishCond": [
        {
          "type": "QUEST_CONTENT_FINISH_ITEM_GIVING",
          "param": [
            7070901,
            0
          ],
          "param_str": ""
        }
      ],
      "failCond": [],
      "guide": {
        "type": "QUEST_GUIDE_NPC",
        "param": [
          "1656"
        ],
        "guideScene": 3,
        "guideLayer": "QUEST_GUIDE_LAYER_SCENE"
      },
      "isRewind": true,
      "finishExec": [],
      "failExec": [],
      "beginExec": [
        {
          "type": "QUEST_EXEC_ACTIVE_ITEM_GIVING",
          "param": [
            "7070901"
          ],
          "param_str": ""
        }
      ],
      "exclusiveNpcList": [
        1656
      ],
      "exclusiveNpcPriority": 2000
    },
    {
      "subId": 7070902,
      "mainId": 70709,
      "order": 2,
      "descTextMapHash": 530773980,
      "acceptCond": [
        {
          "type": "QUEST_COND_STATE_EQUAL",
          "param": [
            7070901,
            3,
            0,
            0,
            0
          ],
          "param_str": ""
        }
      ],
      "finishCond": [
        {
          "type": "QUEST_CONTENT_COMPLETE_TALK",
          "param": [
            7070902,
            0
          ],
          "param_str": ""
        }
      ],
      "failCond": [],
      "guide": {
        "type": "QUEST_GUIDE_NPC",
        "param": [
          "1656"
        ],
        "guideScene": 3,
        "guideLayer": "QUEST_GUIDE_LAYER_SCENE"
      },
      "finishParent": true,
      "isRewind": true,
      "finishExec": [],
      "failExec": [],
      "beginExec": [],
      "exclusiveNpcList": [
        1656
      ],
      "exclusiveNpcPriority": 2000
    }
  ],
  "talks": [
    {
      "id": 7070901,
      "beginWay": "TALK_BEGIN_MANUAL",
      "activeMode": "PLAY_MODE_SINGLE",
      "beginCondComb": "LOGIC_AND",
      "beginCond": [
        {
          "type": "QUEST_COND_STATE_EQUAL",
          "param": [
            "7070901",
            "2"
          ],
          "param_str": ""
        },
        {
          "type": "QUEST_COND_ITEM_GIVING_ACTIVED",
          "param": [
            "7070901"
          ],
          "param_str": ""
        }
      ],
      "priority": 1,
      "initDialog": 707090101,
      "npcId": [
        1656
      ],
      "performCfg": "",
      "questId": 70709,
      "dontBlockDaily": true,
      "prePerformCfg": ""
    },
    {
      "id": 7070902,
      "beginWay": "TALK_BEGIN_AUTO",
      "activeMode": "PLAY_MODE_SINGLE",
      "beginCond": [
        {
          "type": "QUEST_COND_STATE_EQUAL",
          "param": [
            "7070902",
            "2"
          ],
          "param_str": ""
        }
      ],
      "priority": 1,
      "initDialog": 707090201,
      "npcId": [
        1656
      ],
      "performCfg": "",
      "questId": 70709,
      "prePerformCfg": ""
    }
  ]
}