{
  "id": 70909,
  "type": "WQ",
  "titleTextMapHash": 3110042167,
  "descTextMapHash": 3543795350,
  "luaPath": "",
  "showType": "QUEST_HIDDEN",
  "rewardIdList": [
    551004
  ],
  "subQuests": [
    {
      "subId": 7090901,
      "mainId": 70909,
      "order": 1,
      "descTextMapHash": 1135394596,
      "showType": "QUEST_HIDDEN",
      "acceptCondComb": "LOGIC_OR",
      "acceptCond": [
        {
          "type": "QUEST_COND_COMPLETE_TALK",
          "param": [
            7090901,
            0,
            0,
            0,
            0
          ],
          "param_str": ""
        }
      ],
      "finishCond": [
        {
          "type": "QUEST_CONTENT_COMPLETE_TALK",
          "param": [
            7090901,
            0
          ],
          "param_str": ""
        }
      ],
      "failCond": [],
      "guide": {
        "param": []
      },
      "finishParent": true,
      "finishExec": [],
      "failExec": [],
      "beginExec": []
    }
  ]
}