{
  "id": 70913,
  "type": "WQ",
  "titleTextMapHash": 2960670367,
  "descTextMapHash": 2737451030,
  "luaPath": "",
  "showType": "QUEST_HIDDEN",
  "rewardIdList": [
    551008
  ],
  "subQuests": [
    {
      "subId": 7091301,
      "mainId": 70913,
      "order": 1,
      "descTextMapHash": 1947250156,
      "showType": "QUEST_HIDDEN",
      "acceptCondComb": "LOGIC_OR",
      "acceptCond": [
        {
          "type": "QUEST_COND_COMPLETE_TALK",
          "param": [
            7091301,
            0,
            0,
            0,
            0
          ],
          "param_str": ""
        }
      ],
      "finishCond": [
        {
          "type": "QUEST_CONTENT_COMPLETE_TALK",
          "param": [
            7091301,
            0
          ],
          "param_str": ""
        }
      ],
      "failCond": [],
      "guide": {
        "param": []
      },
      "finishParent": true,
      "finishExec": [],
      "failExec": [],
      "beginExec": []
    }
  ]
}