{
  "id": 70925,
  "type": "WQ",
  "titleTextMapHash": 2836393527,
  "descTextMapHash": 3450008054,
  "luaPath": "",
  "showType": "QUEST_HIDDEN",
  "rewardIdList": [
    551023
  ],
  "subQuests": [
    {
      "subId": 7092501,
      "mainId": 70925,
      "order": 1,
      "descTextMapHash": 3194311284,
      "showType": "QUEST_HIDDEN",
      "acceptCondComb": "LOGIC_OR",
      "acceptCond": [
        {
          "type": "QUEST_COND_COMPLETE_TALK",
          "param": [
            7092501,
            0,
            0,
            0,
            0
          ],
          "param_str": ""
        }
      ],
      "finishCond": [
        {
          "type": "QUEST_CONTENT_COMPLETE_TALK",
          "param": [
            7092501,
            0
          ],
          "param_str": ""
        }
      ],
      "failCond": [],
      "guide": {
        "param": []
      },
      "finishParent": true,
      "finishExec": [],
      "failExec": [],
      "beginExec": []
    }
  ]
}