{
  "id": 71010,
  "type": "WQ",
  "titleTextMapHash": 1780519047,
  "descTextMapHash": 2088695654,
  "luaPath": "Actor/Quest/WQ71010",
  "showType": "QUEST_HIDDEN",
  "subQuests": [
    {
      "subId": 7101001,
      "mainId": 71010,
      "order": 3,
      "descTextMapHash": 2210262316,
      "showType": "QUEST_HIDDEN",
      "acceptCond": [],
      "finishCond": [
        {
          "type": "QUEST_CONTENT_COMPLETE_TALK",
          "param": [
            7101005,
            0
          ],
          "param_str": ""
        }
      ],
      "failCond": [],
      "guide": {
        "type": "QUEST_GUIDE_NPC",
        "param": [
          "20113"
        ],
        "guideScene": 3
      },
      "showGuide": "QUEST_GUIDE_ITEM_DISABLE",
      "failParentShow": "QUEST_HIDDEN",
      "isRewind": true,
      "finishExec": [
        {
          "type": "QUEST_EXEC_REFRESH_GROUP_SUITE",
          "param": [
            "3",
            "133108124,1"
          ],
          "param_str": ""
        }
      ],
      "failExec": [],
      "beginExec": []
    },
    {
      "subId": 7101002,
      "mainId": 71010,
      "order": 7,
      "descTextMapHash": 3786514524,
      "showType": "QUEST_HIDDEN",
      "acceptCond": [
        {
          "type": "QUEST_COND_STATE_EQUAL",
          "param": [
            7101006,
            3,
            0,
            0,
            0
          ],
          "param_str": ""
        }
      ],
      "finishCond": [
        {
          "type": "QUEST_CONTENT_COMPLETE_TALK",
          "param": [
            7101006,
            0
          ],
          "param_str": ""
        }
      ],
      "failCond": [],
      "guide": {
        "type": "QUEST_GUIDE_NPC",
        "param": [
          "20130"
        ],
        "guideScene": 3
      },
      "showGuide": "QUEST_GUIDE_ITEM_DISABLE",
      "failParentShow": "QUEST_HIDDEN",
      "isRewind": true,
      "finishExec": [
        {
          "type": "QUEST_EXEC_REFRESH_GROUP_SUITE",
          "param": [
            "3",
            "133108126,1"
          ],
          "param_str": ""
        }
      ],
      "failExec": [],
      "beginExec": []
    },
    {
      "subId": 7101003,
      "mainId": 71010,
      "order": 5,
      "descTextMapHash": 2787253556,
      "showType": "QUEST_HIDDEN",
      "acceptCond": [
        {
          "type": "QUEST_COND_STATE_EQUAL",
          "param": [
            7101007,
            3,
            0,
            0,
            0
          ],
          "param_str": ""
        }
      ],
      "finishCond": [
        {
          "type": "QUEST_CONTENT_COMPLETE_TALK",
          "param": [
            7101007,
            0
          ],
          "param_str": ""
        }
      ],
      "failCond": [],
      "guide": {
        "type": "QUEST_GUIDE_NPC",
        "param": [
          "20131"
        ],
        "guideScene": 3
      },
      "showGuide": "QUEST_GUIDE_ITEM_DISABLE",
      "finishParent": true,
      "failParentShow": "QUEST_HIDDEN",
      "isRewind": true,
      "finishExec": [
        {
          "type": "QUEST_EXEC_REFRESH_GROUP_SUITE",
          "param": [
            "3",
            "133108127,1"
          ],
          "param_str": ""
        }
      ],
      "failExec": [],
      "beginExec": []
    },
    {
      "subId": 7101004,
      "mainId": 71010,
      "order": 1,
      "descTextMapHash": 3943762028,
      "showType": "QUEST_HIDDEN",
      "acceptCond": [
        {
          "type": "QUEST_COND_STATE_EQUAL",
          "param": [
            7101001,
            2,
            0,
            0,
            0
          ],
          "param_str": ""
        }
      ],
      "finishCond": [
        {
          "type": "QUEST_CONTENT_COMPLETE_TALK",
          "param": [
            7101001,
            0
          ],
          "param_str": ""
        }
      ],
      "failCond": [],
      "guide": {
        "type": "QUEST_GUIDE_NPC",
        "param": [
          "20130"
        ]
      },
      "showGuide": "QUEST_GUIDE_ITEM_DISABLE",
      "isRewind": true,
      "finishExec": [],
      "failExec": [],
      "beginExec": []
    },
    {
      "subId": 7101005,
      "mainId": 71010,
      "order": 2,
      "descTextMapHash": 3239483236,
      "showType": "QUEST_HIDDEN",
      "acceptCond": [
        {
          "type": "QUEST_COND_STATE_EQUAL",
          "param": [
            7101001,
            2,
            0,
            0,
            0
          ],
          "param_str": ""
        }
      ],
      "finishCond": [
        {
          "type": "QUEST_CONTENT_COMPLETE_TALK",
          "param": [
            7101001,
            0
          ],
          "param_str": ""
        }
      ],
      "failCond": [],
      "guide": {
        "type": "QUEST_GUIDE_NPC",
        "param": [
          "20131"
        ]
      },
      "showGuide": "QUEST_GUIDE_ITEM_DISABLE",
      "isRewind": true,
      "finishExec": [],
      "failExec": [],
      "beginExec": []
    },
    {
      "subId": 7101006,
      "mainId": 71010,
      "order": 4,
      "descTextMapHash": 266316772,
      "showType": "QUEST_HIDDEN",
      "acceptCond": [
        {
          "type": "QUEST_COND_STATE_EQUAL",
          "param": [
            7101001,
            3,
            0,
            0,
            0
          ],
          "param_str": ""
        }
      ],
      "finishCond": [
        {
          "type": "QUEST_CONTENT_LUA_NOTIFY",
          "param": [
            0,
            0
          ],
          "param_str": "7101006_finish",
          "count": 1
        }
      ],
      "failCond": [],
      "guide": {
        "type": "QUEST_GUIDE_NPC",
        "param": [
          "20130"
        ]
      },
      "showGuide": "QUEST_GUIDE_ITEM_DISABLE",
      "isRewind": true,
      "finishExec": [],
      "failExec": [],
      "beginExec": []
    },
    {
      "subId": 7101007,
      "mainId": 71010,
      "order": 6,
      "descTextMapHash": 1355189468,
      "showType": "QUEST_HIDDEN",
      "acceptCond": [
        {
          "type": "QUEST_COND_STATE_EQUAL",
          "param": [
            7101002,
            3,
            0,
            0,
            0
          ],
          "param_str": ""
        }
      ],
      "finishCond": [
        {
          "type": "QUEST_CONTENT_LUA_NOTIFY",
          "param": [
            0,
            0
          ],
          "param_str": "7101007_finish",
          "count": 1
        }
      ],
      "failCond": [],
      "guide": {
        "type": "QUEST_GUIDE_NPC",
        "param": [
          "20131"
        ]
      },
      "showGuide": "QUEST_GUIDE_ITEM_DISABLE",
      "isRewind": true,
      "finishExec": [],
      "failExec": [],
      "beginExec": []
    }
  ],
  "talks": [
    {
      "id": 7101001,
      "beginWay": "TALK_BEGIN_MANUAL",
      "activeMode": "PLAY_MODE_SINGLE",
      "beginCond": [
        {
          "type": "QUEST_COND_STATE_EQUAL",
          "param": [
            "7101001",
            "2"
          ],
          "param_str": ""
        }
      ],
      "priority": 3,
      "nextTalks": [
        7101005,
        7101004
      ],
      "initDialog": 710100101,
      "npcId": [
        20113
      ],
      "performCfg": "",
      "questId": 71010,
      "prePerformCfg": ""
    },
    {
      "id": 7101002,
      "beginWay": "TALK_BEGIN_MANUAL",
      "activeMode": "PLAY_MODE_SINGLE",
      "beginCond": [
        {
          "type": "QUEST_COND_STATE_EQUAL",
          "param": [
            "7101006",
            "3"
          ],
          "param_str": ""
        }
      ],
      "priority": 3,
      "nextTalks": [
        7101006,
        7101008
      ],
      "initDialog": 710100201,
      "npcId": [
        20130
      ],
      "performCfg": "",
      "questId": 71010,
      "prePerformCfg": ""
    },
    {
      "id": 7101003,
      "beginWay": "TALK_BEGIN_MANUAL",
      "activeMode": "PLAY_MODE_SINGLE",
      "beginCond": [
        {
          "type": "QUEST_COND_STATE_EQUAL",
          "param": [
            "7101007",
            "3"
          ],
          "param_str": ""
        }
      ],
      "priority": 3,
      "nextTalks": [
        7101007,
        7101009
      ],
      "initDialog": 710100301,
      "npcId": [
        20131
      ],
      "performCfg": "",
      "questId": 71010,
      "prePerformCfg": ""
    },
    {
      "id": 7101004,
      "activeMode": "PLAY_MODE_SINGLE",
      "initDialog": 710100401,
      "npcId": [
        20113
      ],
      "performCfg": "",
      "questId": 71010,
      "prePerformCfg": ""
    },
    {
      "id": 7101005,
      "activeMode": "PLAY_MODE_SINGLE",
      "initDialog": 710100501,
      "npcId": [
        20113
      ],
      "performCfg": "",
      "questId": 71010,
      "prePerformCfg": ""
    },
    {
      "id": 7101006,
      "activeMode": "PLAY_MODE_SINGLE",
      "initDialog": 710100601,
      "npcId": [
        20130
      ],
      "performCfg": "",
      "questId": 71010,
      "prePerformCfg": ""
    },
    {
      "id": 7101007,
      "activeMode": "PLAY_MODE_SINGLE",
      "initDialog": 710100701,
      "npcId": [
        20131
      ],
      "performCfg": "",
      "questId": 71010,
      "prePerformCfg": ""
    },
    {
      "id": 7101008,
      "activeMode": "PLAY_MODE_SINGLE",
      "initDialog": 710100801,
      "npcId": [
        20130
      ],
      "performCfg": "",
      "questId": 71010,
      "prePerformCfg": ""
    },
    {
      "id": 7101009,
      "activeMode": "PLAY_MODE_SINGLE",
      "initDialog": 710100901,
      "npcId": [
        20131
      ],
      "performCfg": "",
      "questId": 71010,
      "prePerformCfg": ""
    },
    {
      "id": 7101010,
      "beginWay": "TALK_BEGIN_MANUAL",
      "activeMode": "PLAY_MODE_SINGLE",
      "beginCond": [
        {
          "type": "QUEST_COND_STATE_EQUAL",
          "param": [
            "7101001",
            "2"
          ],
          "param_str": ""
        }
      ],
      "initDialog": 710101001,
      "npcId": [
        20130
      ],
      "performCfg": "",
      "questId": 71010,
      "prePerformCfg": ""
    },
    {
      "id": 7101011,
      "beginWay": "TALK_BEGIN_MANUAL",
      "activeMode": "PLAY_MODE_SINGLE",
      "beginCond": [
        {
          "type": "QUEST_COND_STATE_EQUAL",
          "param": [
            "7101001",
            "2"
          ],
          "param_str": ""
        }
      ],
      "initDialog": 710101101,
      "npcId": [
        20131
      ],
      "performCfg": "",
      "questId": 71010,
      "prePerformCfg": ""
    }
  ]
}