{
  "id": 71021,
  "type": "WQ",
  "titleTextMapHash": 3128611191,
  "descTextMapHash": 3514703550,
  "luaPath": "Actor/Quest/WQ71021",
  "showType": "QUEST_HIDDEN",
  "subQuests": [
    {
      "subId": 7102101,
      "mainId": 71021,
      "order": 1,
      "descTextMapHash": 3900666188,
      "showType": "QUEST_HIDDEN",
      "acceptCond": [
        {
          "type": "QUEST_COND_PLAYER_LEVEL_EQUAL_GREATER",
          "param": [
            20,
            0,
            0,
            0,
            0
          ],
          "param_str": ""
        }
      ],
      "finishCond": [
        {
          "type": "QUEST_CONTENT_FINISH_PLOT",
          "param": [
            7102101,
            0
          ],
          "param_str": ""
        }
      ],
      "failCond": [],
      "guide": {
        "param": []
      },
      "isRewind": true,
      "finishExec": [],
      "failExec": [],
      "beginExec": []
    }
  ],
  "talks": [
    {
      "id": 7102101,
      "initDialog": 710210101,
      "npcId": [
        20127
      ],
      "performCfg": "",
      "questId": 71021,
      "prePerformCfg": ""
    }
  ]
}