{
  "id": 71062,
  "type": "WQ",
  "titleTextMapHash": 4190444495,
  "descTextMapHash": 1658403134,
  "luaPath": "Actor/Quest/WQ71062",
  "rewardIdList": [
    171062
  ],
  "subQuests": [
    {
      "subId": 7106201,
      "mainId": 71062,
      "order": 3,
      "descTextMapHash": 3296894364,
      "showType": "QUEST_HIDDEN",
      "acceptCond": [
        {
          "type": "QUEST_COND_STATE_EQUAL",
          "param": [
            7106212,
            3,
            0,
            0,
            0
          ],
          "param_str": ""
        }
      ],
      "finishCondComb": "LOGIC_OR",
      "finishCond": [
        {
          "type": "QUEST_CONTENT_COMPLETE_TALK",
          "param": [
            7106220,
            0
          ],
          "param_str": ""
        },
        {
          "type": "QUEST_CONTENT_COMPLETE_TALK",
          "param": [
            7106221,
            0
          ],
          "param_str": ""
        }
      ],
      "failCondComb": "LOGIC_OR",
      "failCond": [
        {
          "type": "QUEST_CONTENT_COMPLETE_TALK",
          "param": [
            7106213,
            0
          ],
          "param_str": ""
        },
        {
          "type": "QUEST_CONTENT_COMPLETE_TALK",
          "param": [
            7106214,
            0
          ],
          "param_str": ""
        },
        {
          "type": "QUEST_CONTENT_COMPLETE_TALK",
          "param": [
            7106215,
            0
          ],
          "param_str": ""
        }
      ],
      "guide": {
        "param": []
      },
      "isRewind": true,
      "finishExec": [],
      "failExec": [],
      "beginExec": [],
      "exclusiveNpcList": [
        20536,
        20551,
        20550,
        20549
      ],
      "exclusiveNpcPriority": 1100
    },
    {
      "subId": 7106202,
      "mainId": 71062,
      "order": 5,
      "descTextMapHash": 2892841356,
      "acceptCond": [
        {
          "type": "QUEST_COND_STATE_EQUAL",
          "param": [
            7106201,
            3,
            0,
            0,
            0
          ],
          "param_str": ""
        }
      ],
      "finishCond": [
        {
          "type": "QUEST_CONTENT_FINISH_ITEM_GIVING",
          "param": [
            7106202,
            0
          ],
          "param_str": ""
        }
      ],
      "failCond": [],
      "guide": {
        "type": "QUEST_GUIDE_NPC",
        "autoGuide": "QUEST_GUIDE_AUTO_ENABLE",
        "param": [
          "20536"
        ],
        "guideScene": 6,
        "guideStyle": "QUEST_GUIDE_STYLE_TARGET",
        "guideLayer": "QUEST_GUIDE_LAYER_UI"
      },
      "isRewind": true,
      "finishExec": [
        {
          "type": "QUEST_EXEC_NOTIFY_GROUP_LUA",
          "param": [
            "6",
            "166001615"
          ],
          "param_str": ""
        }
      ],
      "failExec": [],
      "beginExec": [
        {
          "type": "QUEST_EXEC_ACTIVE_ITEM_GIVING",
          "param": [
            "7106202"
          ],
          "param_str": ""
        }
      ],
      "exclusiveNpcList": [
        20536,
        20551,
        20550,
        20549
      ],
      "exclusiveNpcPriority": 1100
    },
    {
      "subId": 7106203,
      "mainId": 71062,
      "order": 6,
      "descTextMapHash": 3473873644,
      "acceptCond": [
        {
          "type": "QUEST_COND_STATE_EQUAL",
          "param": [
            7106209,
            3,
            0,
            0,
            0
          ],
          "param_str": ""
        }
      ],
      "finishCond": [
        {
          "type": "QUEST_CONTENT_FINISH_ITEM_GIVING",
          "param": [
            7106202,
            0
          ],
          "param_str": ""
        }
      ],
      "failCond": [],
      "guide": {
        "type": "QUEST_GUIDE_NPC",
        "autoGuide": "QUEST_GUIDE_AUTO_ENABLE",
        "param": [
          "20536"
        ],
        "guideScene": 6,
        "guideStyle": "QUEST_GUIDE_STYLE_TARGET",
        "guideLayer": "QUEST_GUIDE_LAYER_UI"
      },
      "isRewind": true,
      "finishExec": [
        {
          "type": "QUEST_EXEC_NOTIFY_GROUP_LUA",
          "param": [
            "6",
            "166001615"
          ],
          "param_str": ""
        }
      ],
      "failExec": [],
      "beginExec": [
        {
          "type": "QUEST_EXEC_ACTIVE_ITEM_GIVING",
          "param": [
            "7106202"
          ],
          "param_str": ""
        }
      ],
      "exclusiveNpcList": [
        20536,
        20551,
        20550,
        20549
      ],
      "exclusiveNpcPriority": 1100
    },
    {
      "subId": 7106204,
      "mainId": 71062,
      "order": 7,
      "descTextMapHash": 2697560212,
      "acceptCondComb": "LOGIC_OR",
      "acceptCond": [
        {
          "type": "QUEST_COND_STATE_EQUAL",
          "param": [
            7106203,
            3,
            0,
            0,
            0
          ],
          "param_str": ""
        },
        {
          "type": "QUEST_COND_STATE_EQUAL",
          "param": [
            7106202,
            3,
            0,
            0,
            0
          ],
          "param_str": ""
        }
      ],
      "finishCond": [
        {
          "type": "QUEST_CONTENT_LUA_NOTIFY",
          "param": [
            0,
            0
          ],
          "param_str": "166001108",
          "count": 1
        }
      ],
      "failCond": [],
      "guide": {
        "type": "QUEST_GUIDE_LOCATION",
        "autoGuide": "QUEST_GUIDE_AUTO_ENABLE",
        "param": [
          "Q7106204_guide",
          "30"
        ],
        "guideScene": 6,
        "guideStyle": "QUEST_GUIDE_STYLE_TARGET",
        "guideLayer": "QUEST_GUIDE_LAYER_SCENE"
      },
      "isRewind": true,
      "finishExec": [
        {
          "type": "QUEST_EXEC_UNREGISTER_DYNAMIC_GROUP",
          "param": [
            "166001108",
            "1"
          ],
          "param_str": ""
        }
      ],
      "failExec": [],
      "beginExec": [
        {
          "type": "QUEST_EXEC_REGISTER_DYNAMIC_GROUP",
          "param": [
            "6",
            "166001108"
          ],
          "param_str": ""
        }
      ]
    },
    {
      "subId": 7106205,
      "mainId": 71062,
      "order": 8,
      "descTextMapHash": 1325885636,
      "acceptCond": [
        {
          "type": "QUEST_COND_STATE_EQUAL",
          "param": [
            7106204,
            3,
            0,
            0,
            0
          ],
          "param_str": ""
        }
      ],
      "finishCond": [
        {
          "type": "QUEST_CONTENT_COMPLETE_TALK",
          "param": [
            7106209,
            0
          ],
          "param_str": ""
        }
      ],
      "failCond": [],
      "guide": {
        "type": "QUEST_GUIDE_NPC",
        "autoGuide": "QUEST_GUIDE_AUTO_ENABLE",
        "param": [
          "20536"
        ],
        "guideScene": 6,
        "guideStyle": "QUEST_GUIDE_STYLE_TARGET",
        "guideLayer": "QUEST_GUIDE_LAYER_UI"
      },
      "isRewind": true,
      "finishExec": [],
      "failExec": [],
      "beginExec": [],
      "exclusiveNpcList": [
        20536,
        20551,
        20550,
        20549
      ],
      "exclusiveNpcPriority": 1100
    },
    {
      "subId": 7106206,
      "mainId": 71062,
      "order": 9,
      "descTextMapHash": 508887188,
      "acceptCond": [
        {
          "type": "QUEST_COND_STATE_EQUAL",
          "param": [
            7106205,
            3,
            0,
            0,
            0
          ],
          "param_str": ""
        }
      ],
      "finishCond": [
        {
          "type": "QUEST_CONTENT_COMPLETE_TALK",
          "param": [
            7106224,
            0
          ],
          "param_str": ""
        }
      ],
      "failCond": [],
      "guide": {
        "type": "QUEST_GUIDE_LOCATION",
        "autoGuide": "QUEST_GUIDE_AUTO_ENABLE",
        "param": [
          "Q7106206_guide",
          "30"
        ],
        "guideScene": 6,
        "guideStyle": "QUEST_GUIDE_STYLE_TARGET",
        "guideLayer": "QUEST_GUIDE_LAYER_SCENE"
      },
      "isRewind": true,
      "finishExec": [],
      "failExec": [],
      "beginExec": [
        {
          "type": "QUEST_EXEC_REFRESH_GROUP_SUITE",
          "param": [
            "6",
            "166001109,2"
          ],
          "param_str": ""
        },
        {
          "type": "QUEST_EXEC_REGISTER_DYNAMIC_GROUP",
          "param": [
            "6",
            "166001656"
          ],
          "param_str": ""
        },
        {
          "type": "QUEST_EXEC_REGISTER_DYNAMIC_GROUP",
          "param": [
            "6",
            "166001667"
          ],
          "param_str": ""
        }
      ],
      "exclusiveNpcList": [
        20536,
        20551,
        20550,
        20549
      ],
      "exclusiveNpcPriority": 1100
    },
    {
      "subId": 7106207,
      "mainId": 71062,
      "order": 12,
      "descTextMapHash": 4291256180,
      "acceptCond": [
        {
          "type": "QUEST_COND_STATE_EQUAL",
          "param": [
            7106210,
            3,
            0,
            0,
            0
          ],
          "param_str": ""
        }
      ],
      "finishCond": [
        {
          "type": "QUEST_CONTENT_COMPLETE_TALK",
          "param": [
            7106211,
            0
          ],
          "param_str": ""
        }
      ],
      "failCond": [],
      "guide": {
        "type": "QUEST_GUIDE_NPC",
        "autoGuide": "QUEST_GUIDE_AUTO_ENABLE",
        "param": [
          "20536"
        ],
        "guideScene": 6,
        "guideStyle": "QUEST_GUIDE_STYLE_TARGET",
        "guideLayer": "QUEST_GUIDE_LAYER_UI"
      },
      "finishParent": true,
      "isRewind": true,
      "finishExec": [
        {
          "type": "QUEST_EXEC_DEL_PACK_ITEM",
          "param": [
            "101711",
            "1"
          ],
          "param_str": ""
        },
        {
          "type": "QUEST_EXEC_INIT_TIME_VAR",
          "param": [
            "0"
          ],
          "param_str": ""
        }
      ],
      "failExec": [],
      "beginExec": [],
      "exclusiveNpcList": [
        20536,
        20551,
        20550,
        20549
      ],
      "exclusiveNpcPriority": 1100
    },
    {
      "subId": 7106209,
      "mainId": 71062,
      "order": 4,
      "descTextMapHash": 1924053084,
      "acceptCond": [
        {
          "type": "QUEST_COND_STATE_EQUAL",
          "param": [
            7106213,
            3,
            0,
            0,
            0
          ],
          "param_str": ""
        }
      ],
      "finishCond": [
        {
          "type": "QUEST_CONTENT_LUA_NOTIFY",
          "param": [
            0,
            0
          ],
          "param_str": "166001217",
          "count": 1
        }
      ],
      "failCond": [],
      "guide": {
        "type": "QUEST_GUIDE_LOCATION",
        "autoGuide": "QUEST_GUIDE_AUTO_ENABLE",
        "param": [
          "Q7106209_guide",
          "30"
        ],
        "guideScene": 6,
        "guideStyle": "QUEST_GUIDE_STYLE_TARGET",
        "guideLayer": "QUEST_GUIDE_LAYER_SCENE"
      },
      "isRewind": true,
      "finishExec": [],
      "failExec": [],
      "beginExec": [
        {
          "type": "QUEST_EXEC_REGISTER_DYNAMIC_GROUP",
          "param": [
            "6",
            "166001217"
          ],
          "param_str": ""
        }
      ],
      "exclusiveNpcList": [
        20536,
        20551,
        20550,
        20549
      ],
      "exclusiveNpcPriority": 1100
    },
    {
      "subId": 7106210,
      "mainId": 71062,
      "order": 10,
      "descTextMapHash": 2311239740,
      "acceptCond": [
        {
          "type": "QUEST_COND_STATE_EQUAL",
          "param": [
            7106206,
            3,
            0,
            0,
            0
          ],
          "param_str": ""
        }
      ],
      "finishCond": [
        {
          "type": "QUEST_CONTENT_LUA_NOTIFY",
          "param": [
            0,
            0
          ],
          "param_str": "166001242",
          "count": 1
        }
      ],
      "failCond": [],
      "guide": {
        "type": "QUEST_GUIDE_LOCATION",
        "autoGuide": "QUEST_GUIDE_AUTO_ENABLE",
        "param": [
          "Q7106210_guide",
          "30"
        ],
        "guideScene": 6,
        "guideStyle": "QUEST_GUIDE_STYLE_TARGET",
        "guideLayer": "QUEST_GUIDE_LAYER_SCENE"
      },
      "isRewind": true,
      "finishExec": [
        {
          "type": "QUEST_EXEC_UNREGISTER_DYNAMIC_GROUP",
          "param": [
            "166001667",
            "1"
          ],
          "param_str": ""
        }
      ],
      "failExec": [],
      "beginExec": [
        {
          "type": "QUEST_EXEC_REGISTER_DYNAMIC_GROUP",
          "param": [
            "6",
            "166001242"
          ],
          "param_str": ""
        },
        {
          "type": "QUEST_EXEC_UNREGISTER_DYNAMIC_GROUP",
          "param": [
            "166001656",
            "0"
          ],
          "param_str": ""
        },
        {
          "type": "QUEST_EXEC_REGISTER_DYNAMIC_GROUP",
          "param": [
            "6",
            "166001667"
          ],
          "param_str": ""
        }
      ],
      "exclusiveNpcList": [
        20536,
        20551,
        20550,
        20549
      ],
      "exclusiveNpcPriority": 1100
    },
    {
      "subId": 7106211,
      "mainId": 71062,
      "order": 11,
      "descTextMapHash": 1685467780,
      "acceptCond": [
        {
          "type": "QUEST_COND_STATE_EQUAL",
          "param": [
            99902,
            3,
            0,
            0,
            0
          ],
          "param_str": ""
        }
      ],
      "finishCond": [
        {
          "type": "QUEST_CONTENT_USE_ITEM",
          "param": [
            101711,
            0
          ],
          "param_str": "",
          "count": 1
        }
      ],
      "failCond": [],
      "guide": {
        "param": []
      },
      "isRewind": true,
      "finishExec": [],
      "failExec": [],
      "beginExec": [],
      "exclusiveNpcList": [
        20536,
        20551,
        20550,
        20549
      ],
      "exclusiveNpcPriority": 1100
    },
    {
      "subId": 7106212,
      "mainId": 71062,
      "order": 1,
      "descTextMapHash": 3138028180,
      "showType": "QUEST_HIDDEN",
      "acceptCond": [
        {
          "type": "QUEST_COND_STATE_EQUAL",
          "param": [
            7103701,
            3,
            0,
            0,
            0
          ],
          "param_str": ""
        }
      ],
      "finishCond": [
        {
          "type": "QUEST_CONTENT_QUEST_STATE_EQUAL",
          "param": [
            7103701,
            3
          ],
          "param_str": ""
        }
      ],
      "failCond": [],
      "guide": {
        "param": []
      },
      "isRewind": true,
      "finishExec": [],
      "failExec": [],
      "beginExec": [],
      "exclusiveNpcPriority": 1100
    },
    {
      "subId": 7106213,
      "mainId": 71062,
      "order": 2,
      "descTextMapHash": 1266852148,
      "showType": "QUEST_HIDDEN",
      "acceptCond": [
        {
          "type": "QUEST_COND_STATE_EQUAL",
          "param": [
            7103701,
            3,
            0,
            0,
            0
          ],
          "param_str": ""
        }
      ],
      "finishCondComb": "LOGIC_OR",
      "finishCond": [
        {
          "type": "QUEST_CONTENT_COMPLETE_TALK",
          "param": [
            7106213,
            0
          ],
          "param_str": ""
        },
        {
          "type": "QUEST_CONTENT_COMPLETE_TALK",
          "param": [
            7106214,
            0
          ],
          "param_str": ""
        },
        {
          "type": "QUEST_CONTENT_COMPLETE_TALK",
          "param": [
            7106215,
            0
          ],
          "param_str": ""
        }
      ],
      "failCond": [],
      "guide": {
        "param": []
      },
      "isRewind": true,
      "finishExec": [],
      "failExec": [],
      "beginExec": [],
      "exclusiveNpcList": [
        20536,
        20551,
        20550,
        20549
      ],
      "exclusiveNpcPriority": 1100
    }
  ],
  "talks": [
    {
      "id": 7106201,
      "beginWay": "TALK_BEGIN_MANUAL",
      "activeMode": "PLAY_MODE_HOST",
      "beginCond": [
        {
          "type": "QUEST_COND_STATE_EQUAL",
          "param": [
            "7106201",
            "2"
          ],
          "param_str": ""
        }
      ],
      "priority": 10,
      "nextTalks": [
        7106216,
        7106217,
        7106213
      ],
      "initDialog": 710620101,
      "npcId": [
        20536
      ],
      "performCfg": "QuestDialogue/WQ/Liyue_71062/Q7106201",
      "questId": 71062,
      "prePerformCfg": "",
      "talkMarkType": "TALK_MARK_COMMON"
    },
    {
      "id": 7106202,
      "beginWay": "TALK_BEGIN_MANUAL",
      "activeMode": "PLAY_MODE_HOST",
      "beginCondComb": "LOGIC_AND",
      "beginCond": [
        {
          "type": "QUEST_COND_ITEM_GIVING_ACTIVED",
          "param": [
            "7106202"
          ],
          "param_str": ""
        },
        {
          "type": "QUEST_COND_STATE_EQUAL",
          "param": [
            "7106202",
            "2"
          ],
          "param_str": ""
        }
      ],
      "priority": 4,
      "initDialog": 710620202,
      "npcId": [
        20536
      ],
      "performCfg": "",
      "heroTalk": "TALK_HERO_MAIN",
      "questId": 71062,
      "prePerformCfg": ""
    },
    {
      "id": 7106207,
      "beginWay": "TALK_BEGIN_MANUAL",
      "activeMode": "PLAY_MODE_HOST",
      "beginCondComb": "LOGIC_AND",
      "beginCond": [
        {
          "type": "QUEST_COND_STATE_EQUAL",
          "param": [
            "7106203",
            "2"
          ],
          "param_str": ""
        },
        {
          "type": "QUEST_COND_ITEM_GIVING_ACTIVED",
          "param": [
            "7106202"
          ],
          "param_str": ""
        }
      ],
      "priority": 5,
      "initDialog": 710620701,
      "npcId": [
        1005,
        20536,
        20549,
        20551,
        20550
      ],
      "performCfg": "QuestDialogue/WQ/Liyue_71062/Q7106207",
      "questId": 71062,
      "prePerformCfg": ""
    },
    {
      "id": 7106209,
      "beginWay": "TALK_BEGIN_MANUAL",
      "activeMode": "PLAY_MODE_HOST",
      "beginCond": [
        {
          "type": "QUEST_COND_STATE_EQUAL",
          "param": [
            "7106205",
            "2"
          ],
          "param_str": ""
        }
      ],
      "priority": 5,
      "initDialog": 710620901,
      "npcId": [
        20536,
        20549,
        20551,
        20550,
        1005
      ],
      "performCfg": "QuestDialogue/WQ/Liyue_71062/Q7106209",
      "questId": 71062,
      "prePerformCfg": ""
    },
    {
      "id": 7106210,
      "beginWay": "TALK_BEGIN_MANUAL",
      "activeMode": "PLAY_MODE_HOST",
      "beginCondComb": "LOGIC_AND",
      "beginCond": [
        {
          "type": "QUEST_COND_STATE_EQUAL",
          "param": [
            "7106205",
            "3"
          ],
          "param_str": ""
        },
        {
          "type": "QUEST_COND_QUEST_NOT_RECEIVE",
          "param": [
            "7106207",
            "1"
          ],
          "param_str": ""
        }
      ],
      "priority": 5,
      "initDialog": 710621001,
      "npcId": [
        20536
      ],
      "performCfg": "QuestDialogue/WQ/Liyue_71062/Q7106210",
      "questId": 71062,
      "prePerformCfg": "",
      "questIdleTalk": true
    },
    {
      "id": 7106211,
      "beginWay": "TALK_BEGIN_AUTO",
      "activeMode": "PLAY_MODE_HOST",
      "beginCond": [
        {
          "type": "QUEST_COND_STATE_EQUAL",
          "param": [
            "7106207",
            "2"
          ],
          "param_str": ""
        }
      ],
      "priority": 5,
      "initDialog": 710621101,
      "npcId": [
        20536,
        20550,
        20549,
        20551
      ],
      "performCfg": "QuestDialogue/WQ/Liyue_71062/Q7106211",
      "questId": 71062,
      "prePerformCfg": ""
    },
    {
      "id": 7106213,
      "activeMode": "PLAY_MODE_HOST",
      "beginCond": [
        {
          "type": "QUEST_COND_QUEST_NOT_RECEIVE",
          "param": [
            "7106205",
            "1"
          ],
          "param_str": ""
        }
      ],
      "priority": 10,
      "initDialog": 710620120,
      "npcId": [
        20536
      ],
      "performCfg": "QuestDialogue/WQ/Liyue_71062/Q7106213",
      "questId": 71062,
      "prePerformCfg": ""
    },
    {
      "id": 7106214,
      "activeMode": "PLAY_MODE_HOST",
      "beginCond": [
        {
          "type": "QUEST_COND_QUEST_NOT_RECEIVE",
          "param": [
            "7106205",
            "1"
          ],
          "param_str": ""
        }
      ],
      "priority": 10,
      "initDialog": 710620130,
      "npcId": [
        20536
      ],
      "performCfg": "QuestDialogue/WQ/Liyue_71062/Q7106214",
      "questId": 71062,
      "prePerformCfg": ""
    },
    {
      "id": 7106215,
      "activeMode": "PLAY_MODE_HOST",
      "beginCond": [
        {
          "type": "QUEST_COND_QUEST_NOT_RECEIVE",
          "param": [
            "7106205",
            "1"
          ],
          "param_str": ""
        }
      ],
      "priority": 10,
      "initDialog": 710620139,
      "npcId": [
        20536
      ],
      "performCfg": "QuestDialogue/WQ/Liyue_71062/Q7106215",
      "questId": 71062,
      "prePerformCfg": ""
    },
    {
      "id": 7106216,
      "activeMode": "PLAY_MODE_HOST",
      "beginCondComb": "LOGIC_OR",
      "beginCond": [
        {
          "type": "QUEST_COND_QUEST_NOT_RECEIVE",
          "param": [
            "7106205",
            "1"
          ],
          "param_str": ""
        },
        {
          "type": "QUEST_COND_QUEST_NOT_RECEIVE",
          "param": [
            "7106202",
            "1"
          ],
          "param_str": ""
        }
      ],
      "priority": 10,
      "nextTalks": [
        7106218,
        7106219,
        7106214
      ],
      "initDialog": 710620118,
      "npcId": [
        20536
      ],
      "performCfg": "QuestDialogue/WQ/Liyue_71062/Q7106216",
      "questId": 71062,
      "prePerformCfg": ""
    },
    {
      "id": 7106217,
      "activeMode": "PLAY_MODE_HOST",
      "beginCondComb": "LOGIC_OR",
      "beginCond": [
        {
          "type": "QUEST_COND_QUEST_NOT_RECEIVE",
          "param": [
            "7106205",
            "1"
          ],
          "param_str": ""
        },
        {
          "type": "QUEST_COND_QUEST_NOT_RECEIVE",
          "param": [
            "7106202",
            "1"
          ],
          "param_str": ""
        }
      ],
      "priority": 10,
      "nextTalks": [
        7106218,
        7106219,
        7106214
      ],
      "initDialog": 710620119,
      "npcId": [
        20536
      ],
      "performCfg": "QuestDialogue/WQ/Liyue_71062/Q7106217",
      "questId": 71062,
      "prePerformCfg": ""
    },
    {
      "id": 7106218,
      "activeMode": "PLAY_MODE_HOST",
      "beginCondComb": "LOGIC_OR",
      "beginCond": [
        {
          "type": "QUEST_COND_QUEST_NOT_RECEIVE",
          "param": [
            "7106205",
            "1"
          ],
          "param_str": ""
        },
        {
          "type": "QUEST_COND_QUEST_NOT_RECEIVE",
          "param": [
            "7106202",
            "1"
          ],
          "param_str": ""
        }
      ],
      "priority": 10,
      "nextTalks": [
        7106220,
        7106221,
        7106215
      ],
      "initDialog": 710620128,
      "npcId": [
        20536
      ],
      "performCfg": "QuestDialogue/WQ/Liyue_71062/Q7106218",
      "questId": 71062,
      "prePerformCfg": ""
    },
    {
      "id": 7106219,
      "activeMode": "PLAY_MODE_HOST",
      "beginCondComb": "LOGIC_OR",
      "beginCond": [
        {
          "type": "QUEST_COND_QUEST_NOT_RECEIVE",
          "param": [
            "7106205",
            "1"
          ],
          "param_str": ""
        },
        {
          "type": "QUEST_COND_QUEST_NOT_RECEIVE",
          "param": [
            "7106202",
            "1"
          ],
          "param_str": ""
        }
      ],
      "priority": 10,
      "nextTalks": [
        7106220,
        7106221,
        7106215
      ],
      "initDialog": 710620129,
      "npcId": [
        20536
      ],
      "performCfg": "QuestDialogue/WQ/Liyue_71062/Q7106219",
      "questId": 71062,
      "prePerformCfg": ""
    },
    {
      "id": 7106220,
      "activeMode": "PLAY_MODE_HOST",
      "beginCondComb": "LOGIC_OR",
      "beginCond": [
        {
          "type": "QUEST_COND_QUEST_NOT_RECEIVE",
          "param": [
            "7106205",
            "1"
          ],
          "param_str": ""
        },
        {
          "type": "QUEST_COND_QUEST_NOT_RECEIVE",
          "param": [
            "7106202",
            "1"
          ],
          "param_str": ""
        }
      ],
      "priority": 10,
      "initDialog": 710620137,
      "npcId": [
        20536
      ],
      "performCfg": "QuestDialogue/WQ/Liyue_71062/Q7106220",
      "questId": 71062,
      "prePerformCfg": ""
    },
    {
      "id": 7106221,
      "activeMode": "PLAY_MODE_HOST",
      "beginCondComb": "LOGIC_OR",
      "beginCond": [
        {
          "type": "QUEST_COND_QUEST_NOT_RECEIVE",
          "param": [
            "7106205",
            "1"
          ],
          "param_str": ""
        },
        {
          "type": "QUEST_COND_QUEST_NOT_RECEIVE",
          "param": [
            "7106202",
            "1"
          ],
          "param_str": ""
        }
      ],
      "priority": 10,
      "initDialog": 710620138,
      "npcId": [
        20536
      ],
      "performCfg": "QuestDialogue/WQ/Liyue_71062/Q7106221",
      "questId": 71062,
      "prePerformCfg": ""
    }
  ]
}