{
  "id": 71060,
  "type": "WQ",
  "titleTextMapHash": 3617985231,
  "descTextMapHash": 2806515590,
  "luaPath": "Actor/Quest/WQ71060",
  "showType": "QUEST_HIDDEN",
  "subQuests": [
    {
      "subId": 7106001,
      "mainId": 71060,
      "order": 1,
      "descTextMapHash": 741060708,
      "showType": "QUEST_HIDDEN",
      "acceptCond": [
        {
          "type": "QUEST_COND_STATE_EQUAL",
          "param": [
            7105909,
            3,
            0,
            0,
            0
          ],
          "param_str": ""
        }
      ],
      "finishCond": [
        {
          "type": "QUEST_CONTENT_TIME_VAR_PASS_DAY",
          "param": [
            71059,
            0
          ],
          "param_str": "1"
        }
      ],
      "failCond": [],
      "guide": {
        "param": []
      },
      "isRewind": true,
      "finishExec": [
        {
          "type": "QUEST_EXEC_REFRESH_GROUP_SUITE",
          "param": [
            "6",
            "166001099,1"
          ],
          "param_str": ""
        },
        {
          "type": "QUEST_EXEC_REFRESH_GROUP_SUITE",
          "param": [
            "6",
            "166001133,2"
          ],
          "param_str": ""
        }
      ],
      "failExec": [],
      "beginExec": []
    },
    {
      "subId": 7106002,
      "mainId": 71060,
      "order": 2,
      "descTextMapHash": 1681536220,
      "showType": "QUEST_HIDDEN",
      "acceptCond": [
        {
          "type": "QUEST_COND_STATE_EQUAL",
          "param": [
            7106001,
            3,
            0,
            0,
            0
          ],
          "param_str": ""
        }
      ],
      "finishCond": [
        {
          "type": "QUEST_CONTENT_COMPLETE_TALK",
          "param": [
            7106001,
            0
          ],
          "param_str": ""
        }
      ],
      "failCond": [],
      "guide": {
        "param": []
      },
      "isRewind": true,
      "finishExec": [
        {
          "type": "QUEST_EXEC_NOTIFY_GROUP_LUA",
          "param": [
            "6",
            "166001133"
          ],
          "param_str": ""
        },
        {
          "type": "QUEST_EXEC_INIT_TIME_VAR",
          "param": [
            "0"
          ],
          "param_str": ""
        }
      ],
      "failExec": [],
      "beginExec": [
        {
          "type": "QUEST_EXEC_REGISTER_DYNAMIC_GROUP",
          "param": [
            "6",
            "166001529"
          ],
          "param_str": ""
        }
      ]
    },
    {
      "subId": 7106003,
      "mainId": 71060,
      "order": 3,
      "descTextMapHash": 3184745868,
      "showType": "QUEST_HIDDEN",
      "acceptCond": [
        {
          "type": "QUEST_COND_STATE_EQUAL",
          "param": [
            7106002,
            3,
            0,
            0,
            0
          ],
          "param_str": ""
        }
      ],
      "finishCond": [
        {
          "type": "QUEST_CONTENT_TIME_VAR_GT_EQ",
          "param": [
            71060,
            0
          ],
          "param_str": "2"
        }
      ],
      "failCond": [],
      "guide": {
        "param": []
      },
      "finishParent": true,
      "isRewind": true,
      "finishExec": [
        {
          "type": "QUEST_EXEC_REFRESH_GROUP_SUITE",
          "param": [
            "6",
            "166001133,1"
          ],
          "param_str": ""
        }
      ],
      "failExec": [],
      "beginExec": []
    }
  ],
  "talks": [
    {
      "id": 7105911,
      "beginWay": "TALK_BEGIN_MANUAL",
      "activeMode": "PLAY_MODE_HOST",
      "beginCondComb": "LOGIC_AND",
      "beginCond": [
        {
          "type": "QUEST_COND_STATE_EQUAL",
          "param": [
            "7106001",
            "2"
          ],
          "param_str": ""
        },
        {
          "type": "QUEST_COND_STATE_EQUAL",
          "param": [
            "7226618",
            "3"
          ],
          "param_str": ""
        }
      ],
      "priority": 6,
      "initDialog": 710591101,
      "npcId": [
        20535
      ],
      "performCfg": "QuestDialogue/WQ/Liyue_71059/Q7105911",
      "heroTalk": "TALK_HERO_MAIN",
      "questId": 71060,
      "prePerformCfg": "",
      "questIdleTalk": true
    },
    {
      "id": 7105912,
      "beginWay": "TALK_BEGIN_MANUAL",
      "activeMode": "PLAY_MODE_HOST",
      "beginCondComb": "LOGIC_A_AND_ETCOR",
      "beginCond": [
        {
          "type": "QUEST_COND_STATE_EQUAL",
          "param": [
            "7106001",
            "2"
          ],
          "param_str": ""
        },
        {
          "type": "QUEST_COND_STATE_EQUAL",
          "param": [
            "7226618",
            "2"
          ],
          "param_str": ""
        },
        {
          "type": "QUEST_COND_QUEST_NOT_RECEIVE",
          "param": [
            "7226618",
            "1"
          ],
          "param_str": ""
        }
      ],
      "priority": 6,
      "initDialog": 710591201,
      "npcId": [
        20535
      ],
      "performCfg": "QuestDialogue/WQ/Liyue_71059/Q7105912",
      "heroTalk": "TALK_HERO_MAIN",
      "questId": 71060,
      "prePerformCfg": "",
      "questIdleTalk": true
    }
  ]
}