{
  "id": 71655,
  "type": "WQ",
  "titleTextMapHash": 4135191143,
  "descTextMapHash": 3842354342,
  "luaPath": "Actor/Quest/WQ71655",
  "rewardIdList": [
    171655
  ],
  "subQuests": [
    {
      "subId": 7165501,
      "mainId": 71655,
      "order": 1,
      "descTextMapHash": 1182956204,
      "acceptCondComb": "LOGIC_OR",
      "acceptCond": [
        {
          "type": "QUEST_COND_STATE_EQUAL",
          "param": [
            7165403,
            3,
            0,
            0,
            0
          ],
          "param_str": ""
        },
        {
          "type": "QUEST_COND_STATE_EQUAL",
          "param": [
            7165408,
            3,
            0,
            0,
            0
          ],
          "param_str": ""
        },
        {
          "type": "QUEST_COND_STATE_EQUAL",
          "param": [
            7165411,
            3,
            0,
            0,
            0
          ],
          "param_str": ""
        },
        {
          "type": "QUEST_COND_STATE_EQUAL",
          "param": [
            7165414,
            3,
            0,
            0,
            0
          ],
          "param_str": ""
        }
      ],
      "finishCondComb": "LOGIC_OR",
      "finishCond": [
        {
          "type": "QUEST_CONTENT_COMPLETE_TALK",
          "param": [
            7165501,
            0
          ],
          "param_str": ""
        },
        {
          "type": "QUEST_CONTENT_COMPLETE_TALK",
          "param": [
            7165502,
            0
          ],
          "param_str": ""
        },
        {
          "type": "QUEST_CONTENT_COMPLETE_TALK",
          "param": [
            7165503,
            0
          ],
          "param_str": ""
        },
        {
          "type": "QUEST_CONTENT_COMPLETE_TALK",
          "param": [
            7165504,
            0
          ],
          "param_str": ""
        }
      ],
      "failCond": [],
      "guide": {
        "param": []
      },
      "finishParent": true,
      "isRewind": true,
      "finishExec": [],
      "failExec": [],
      "beginExec": []
    }
  ],
  "talks": [
    {
      "id": 7165501,
      "beginWay": "TALK_BEGIN_MANUAL",
      "activeMode": "PLAY_MODE_HOST",
      "beginCond": [
        {
          "type": "QUEST_COND_STATE_EQUAL",
          "param": [
            "7165501",
            "2"
          ],
          "param_str": ""
        }
      ],
      "priority": 6,
      "initDialog": 716550101,
      "performCfg": "",
      "heroTalk": "TALK_HERO_MAIN",
      "loadType": "TALK_GADGET",
      "questId": 71655,
      "extraLoadMarkId": [
        1001,
        999999900
      ],
      "prePerformCfg": ""
    },
    {
      "id": 7165502,
      "beginWay": "TALK_BEGIN_MANUAL",
      "activeMode": "PLAY_MODE_HOST",
      "beginCond": [
        {
          "type": "QUEST_COND_STATE_EQUAL",
          "param": [
            "7165501",
            "2"
          ],
          "param_str": ""
        }
      ],
      "priority": 6,
      "initDialog": 716550101,
      "performCfg": "",
      "heroTalk": "TALK_HERO_MAIN",
      "loadType": "TALK_GADGET",
      "questId": 71655,
      "extraLoadMarkId": [
        1002,
        999999900
      ],
      "prePerformCfg": ""
    },
    {
      "id": 7165503,
      "beginWay": "TALK_BEGIN_MANUAL",
      "activeMode": "PLAY_MODE_HOST",
      "beginCond": [
        {
          "type": "QUEST_COND_STATE_EQUAL",
          "param": [
            "7165501",
            "2"
          ],
          "param_str": ""
        }
      ],
      "priority": 6,
      "initDialog": 716550101,
      "performCfg": "",
      "heroTalk": "TALK_HERO_MAIN",
      "loadType": "TALK_GADGET",
      "questId": 71655,
      "extraLoadMarkId": [
        1003,
        999999900
      ],
      "prePerformCfg": ""
    },
    {
      "id": 7165504,
      "beginWay": "TALK_BEGIN_MANUAL",
      "activeMode": "PLAY_MODE_HOST",
      "beginCond": [
        {
          "type": "QUEST_COND_STATE_EQUAL",
          "param": [
            "7165501",
            "2"
          ],
          "param_str": ""
        }
      ],
      "priority": 6,
      "initDialog": 716550101,
      "performCfg": "",
      "heroTalk": "TALK_HERO_MAIN",
      "loadType": "TALK_GADGET",
      "questId": 71655,
      "extraLoadMarkId": [
        1004,
        999999900
      ],
      "prePerformCfg": ""
    }
  ]
}