{
  "id": 71710,
  "type": "WQ",
  "titleTextMapHash": 794129927,
  "descTextMapHash": 1858185286,
  "luaPath": "Actor/Quest/WQ71710",
  "subQuests": [
    {
      "subId": 7171001,
      "mainId": 71710,
      "order": 1,
      "descTextMapHash": 3320633796,
      "acceptCond": [
        {
          "type": "QUEST_COND_CITY_REPUTATION_REQUEST",
          "param": [
            0,
            0,
            0,
            0,
            0
          ],
          "param_str": ""
        }
      ],
      "finishCond": [
        {
          "type": "QUEST_CONTENT_FINISH_ITEM_GIVING",
          "param": [
            7171001,
            0
          ],
          "param_str": ""
        }
      ],
      "failCond": [],
      "guide": {
        "type": "QUEST_GUIDE_NPC",
        "param": [
          "2046"
        ],
        "guideScene": 3,
        "guideLayer": "QUEST_GUIDE_LAYER_SCENE"
      },
      "isRewind": true,
      "finishExec": [],
      "failExec": [],
      "beginExec": [
        {
          "type": "QUEST_EXEC_ACTIVE_ITEM_GIVING",
          "param": [
            "7171001"
          ],
          "param_str": ""
        }
      ],
      "exclusiveNpcList": [
        2046
      ],
      "exclusiveNpcPriority": 2000
    },
    {
      "subId": 7171002,
      "mainId": 71710,
      "order": 2,
      "descTextMapHash": 1984598500,
      "acceptCond": [
        {
          "type": "QUEST_COND_STATE_EQUAL",
          "param": [
            7171001,
            3,
            0,
            0,
            0
          ],
          "param_str": ""
        }
      ],
      "finishCond": [
        {
          "type": "QUEST_CONTENT_COMPLETE_TALK",
          "param": [
            7171002,
            0
          ],
          "param_str": ""
        }
      ],
      "failCond": [],
      "guide": {
        "type": "QUEST_GUIDE_NPC",
        "param": [
          "2046"
        ],
        "guideScene": 3,
        "guideLayer": "QUEST_GUIDE_LAYER_SCENE"
      },
      "finishParent": true,
      "isRewind": true,
      "finishExec": [],
      "failExec": [],
      "beginExec": [],
      "exclusiveNpcList": [
        2046
      ],
      "exclusiveNpcPriority": 2000
    }
  ],
  "talks": [
    {
      "id": 7171001,
      "beginWay": "TALK_BEGIN_MANUAL",
      "activeMode": "PLAY_MODE_SINGLE",
      "beginCondComb": "LOGIC_AND",
      "beginCond": [
        {
          "type": "QUEST_COND_STATE_EQUAL",
          "param": [
            "7171001",
            "2"
          ],
          "param_str": ""
        },
        {
          "type": "QUEST_COND_ITEM_GIVING_ACTIVED",
          "param": [
            "7171001"
          ],
          "param_str": ""
        }
      ],
      "priority": 1,
      "initDialog": 717100101,
      "npcId": [
        2046
      ],
      "performCfg": "",
      "questId": 71710,
      "dontBlockDaily": true,
      "prePerformCfg": ""
    },
    {
      "id": 7171002,
      "beginWay": "TALK_BEGIN_AUTO",
      "activeMode": "PLAY_MODE_SINGLE",
      "beginCond": [
        {
          "type": "QUEST_COND_STATE_EQUAL",
          "param": [
            "7171002",
            "2"
          ],
          "param_str": ""
        }
      ],
      "priority": 1,
      "initDialog": 717100201,
      "npcId": [
        2046
      ],
      "performCfg": "",
      "questId": 71710,
      "prePerformCfg": ""
    }
  ]
}