{
  "id": 71827,
  "type": "WQ",
  "titleTextMapHash": 1534646767,
  "descTextMapHash": 3684408158,
  "luaPath": "",
  "showType": "QUEST_HIDDEN",
  "rewardIdList": [
    171827
  ],
  "subQuests": [
    {
      "subId": 7182701,
      "mainId": 71827,
      "order": 1,
      "descTextMapHash": 701564388,
      "showType": "QUEST_HIDDEN",
      "acceptCond": [
        {
          "type": "QUEST_COND_STATE_EQUAL",
          "param": [
            7181510,
            3,
            0,
            0,
            0
          ],
          "param_str": ""
        }
      ],
      "finishCond": [
        {
          "type": "QUEST_CONTENT_COMPLETE_TALK",
          "param": [
            7181511,
            0
          ],
          "param_str": ""
        }
      ],
      "failCond": [],
      "guide": {
        "param": []
      },
      "finishParent": true,
      "isRewind": true,
      "finishExec": [],
      "failExec": [],
      "beginExec": []
    }
  ]
}