{
  "id": 71902,
  "type": "WQ",
  "titleTextMapHash": 845741223,
  "descTextMapHash": 131253662,
  "luaPath": "",
  "showType": "QUEST_HIDDEN",
  "rewardIdList": [
    552003
  ],
  "subQuests": [
    {
      "subId": 7190201,
      "mainId": 71902,
      "order": 1,
      "descTextMapHash": 4110965508,
      "showType": "QUEST_HIDDEN",
      "acceptCondComb": "LOGIC_OR",
      "acceptCond": [
        {
          "type": "QUEST_COND_COMPLETE_TALK",
          "param": [
            7190201,
            0,
            0,
            0,
            0
          ],
          "param_str": ""
        }
      ],
      "finishCond": [
        {
          "type": "QUEST_CONTENT_COMPLETE_TALK",
          "param": [
            7190201,
            0
          ],
          "param_str": ""
        }
      ],
      "failCond": [],
      "guide": {
        "param": []
      },
      "finishParent": true,
      "finishExec": [],
      "failExec": [],
      "beginExec": []
    }
  ]
}