{
  "id": 71901,
  "type": "WQ",
  "titleTextMapHash": 2934748767,
  "descTextMapHash": 596006038,
  "luaPath": "",
  "showType": "QUEST_HIDDEN",
  "rewardIdList": [
    552002
  ],
  "subQuests": [
    {
      "subId": 7190101,
      "mainId": 71901,
      "order": 1,
      "descTextMapHash": 1197853644,
      "showType": "QUEST_HIDDEN",
      "acceptCondComb": "LOGIC_OR",
      "acceptCond": [
        {
          "type": "QUEST_COND_COMPLETE_TALK",
          "param": [
            7190101,
            0,
            0,
            0,
            0
          ],
          "param_str": ""
        }
      ],
      "finishCond": [
        {
          "type": "QUEST_CONTENT_COMPLETE_TALK",
          "param": [
            7190101,
            0
          ],
          "param_str": ""
        }
      ],
      "failCond": [],
      "guide": {
        "param": []
      },
      "finishParent": true,
      "finishExec": [],
      "failExec": [],
      "beginExec": []
    }
  ]
}