{
  "id": 71935,
  "type": "WQ",
  "titleTextMapHash": 738500519,
  "descTextMapHash": 1986496550,
  "luaPath": "",
  "showType": "QUEST_HIDDEN",
  "rewardIdList": [
    552040
  ],
  "subQuests": [
    {
      "subId": 7193501,
      "mainId": 71935,
      "order": 1,
      "descTextMapHash": 1375526244,
      "showType": "QUEST_HIDDEN",
      "acceptCondComb": "LOGIC_OR",
      "acceptCond": [
        {
          "type": "QUEST_COND_COMPLETE_TALK",
          "param": [
            7193501,
            0,
            0,
            0,
            0
          ],
          "param_str": ""
        }
      ],
      "finishCond": [
        {
          "type": "QUEST_CONTENT_COMPLETE_TALK",
          "param": [
            7193501,
            0
          ],
          "param_str": ""
        }
      ],
      "failCond": [],
      "guide": {
        "param": []
      },
      "finishParent": true,
      "finishExec": [],
      "failExec": [],
      "beginExec": []
    }
  ]
}