{
  "id": 71931,
  "type": "WQ",
  "titleTextMapHash": 3003601839,
  "descTextMapHash": 2638679958,
  "luaPath": "",
  "showType": "QUEST_HIDDEN",
  "rewardIdList": [
    552035
  ],
  "subQuests": [
    {
      "subId": 7193101,
      "mainId": 71931,
      "order": 1,
      "descTextMapHash": 4277934876,
      "showType": "QUEST_HIDDEN",
      "acceptCondComb": "LOGIC_OR",
      "acceptCond": [
        {
          "type": "QUEST_COND_COMPLETE_TALK",
          "param": [
            7193101,
            0,
            0,
            0,
            0
          ],
          "param_str": ""
        }
      ],
      "finishCond": [
        {
          "type": "QUEST_CONTENT_COMPLETE_TALK",
          "param": [
            7193101,
            0
          ],
          "param_str": ""
        }
      ],
      "failCond": [],
      "guide": {
        "param": []
      },
      "finishParent": true,
      "finishExec": [],
      "failExec": [],
      "beginExec": []
    }
  ]
}