{
  "id": 71949,
  "type": "WQ",
  "titleTextMapHash": 2703866471,
  "descTextMapHash": 1288593086,
  "luaPath": "",
  "showType": "QUEST_HIDDEN",
  "rewardIdList": [
    552058
  ],
  "subQuests": [
    {
      "subId": 7194901,
      "mainId": 71949,
      "order": 1,
      "descTextMapHash": 3082236244,
      "showType": "QUEST_HIDDEN",
      "acceptCondComb": "LOGIC_OR",
      "acceptCond": [
        {
          "type": "QUEST_COND_COMPLETE_TALK",
          "param": [
            7194901,
            0,
            0,
            0,
            0
          ],
          "param_str": ""
        }
      ],
      "finishCond": [
        {
          "type": "QUEST_CONTENT_COMPLETE_TALK",
          "param": [
            7194901,
            0
          ],
          "param_str": ""
        }
      ],
      "failCond": [],
      "guide": {
        "param": []
      },
      "finishParent": true,
      "finishExec": [],
      "failExec": [],
      "beginExec": []
    }
  ]
}