{
  "id": 71940,
  "type": "WQ",
  "titleTextMapHash": 55083103,
  "descTextMapHash": 2170687094,
  "luaPath": "",
  "showType": "QUEST_HIDDEN",
  "rewardIdList": [
    552045
  ],
  "subQuests": [
    {
      "subId": 7194001,
      "mainId": 71940,
      "order": 1,
      "descTextMapHash": 2094832892,
      "showType": "QUEST_HIDDEN",
      "acceptCondComb": "LOGIC_OR",
      "acceptCond": [
        {
          "type": "QUEST_COND_COMPLETE_TALK",
          "param": [
            7194001,
            0,
            0,
            0,
            0
          ],
          "param_str": ""
        }
      ],
      "finishCond": [
        {
          "type": "QUEST_CONTENT_COMPLETE_TALK",
          "param": [
            7194001,
            0
          ],
          "param_str": ""
        }
      ],
      "failCond": [],
      "guide": {
        "param": []
      },
      "finishParent": true,
      "finishExec": [],
      "failExec": [],
      "beginExec": []
    }
  ]
}