{
  "id": 72131,
  "type": "WQ",
  "titleTextMapHash": 2474356655,
  "descTextMapHash": 3492908574,
  "luaPath": "Actor/Quest/WQ72131",
  "rewardIdList": [
    172131
  ],
  "chapterId": 10037,
  "subQuests": [
    {
      "subId": 7213104,
      "mainId": 72131,
      "order": 4,
      "descTextMapHash": 3061711204,
      "showType": "QUEST_HIDDEN",
      "acceptCond": [
        {
          "type": "QUEST_COND_QUEST_GLOBAL_VAR_EQUAL",
          "param": [
            10007,
            1,
            0,
            0,
            0
          ],
          "param_str": ""
        }
      ],
      "finishCond": [
        {
          "type": "QUEST_CONTENT_COMPLETE_TALK",
          "param": [
            7213301,
            0
          ],
          "param_str": ""
        }
      ],
      "failCond": [],
      "guide": {
        "param": []
      },
      "finishExec": [],
      "failExec": [],
      "beginExec": []
    },
    {
      "subId": 7213105,
      "mainId": 72131,
      "order": 5,
      "descTextMapHash": 2482668868,
      "acceptCondComb": "LOGIC_AND",
      "acceptCond": [
        {
          "type": "QUEST_COND_STATE_EQUAL",
          "param": [
            7213104,
            3,
            0,
            0,
            0
          ],
          "param_str": ""
        },
        {
          "type": "QUEST_COND_STATE_EQUAL",
          "param": [
            7212911,
            3,
            0,
            0,
            0
          ],
          "param_str": ""
        }
      ],
      "finishCond": [
        {
          "type": "QUEST_CONTENT_COMPLETE_TALK",
          "param": [
            7213102,
            0
          ],
          "param_str": ""
        }
      ],
      "failCond": [],
      "guide": {
        "type": "QUEST_GUIDE_NPC",
        "param": [
          "20236",
          "SELECT_NPC_NONE"
        ]
      },
      "isRewind": true,
      "finishExec": [],
      "failExec": [],
      "beginExec": []
    },
    {
      "subId": 7213106,
      "mainId": 72131,
      "order": 6,
      "descTextMapHash": 799028676,
      "acceptCond": [
        {
          "type": "QUEST_COND_STATE_EQUAL",
          "param": [
            7213105,
            3,
            0,
            0,
            0
          ],
          "param_str": ""
        }
      ],
      "finishCond": [
        {
          "type": "QUEST_CONTENT_FINISH_ITEM_GIVING",
          "param": [
            7213106,
            0
          ],
          "param_str": ""
        }
      ],
      "failCond": [],
      "guide": {
        "type": "QUEST_GUIDE_NPC",
        "autoGuide": "QUEST_GUIDE_AUTO_ENABLE",
        "param": [
          "20236"
        ],
        "guideScene": 3,
        "guideStyle": "QUEST_GUIDE_STYLE_TARGET",
        "guideLayer": "QUEST_GUIDE_LAYER_UI"
      },
      "finishParent": true,
      "isRewind": true,
      "finishExec": [
        {
          "type": "QUEST_EXEC_NOTIFY_GROUP_LUA",
          "param": [
            "3",
            "133212029"
          ],
          "param_str": ""
        },
        {
          "type": "QUEST_EXEC_SET_WEATHER_GADGET",
          "param": [
            "3010",
            "0"
          ],
          "param_str": ""
        },
        {
          "type": "QUEST_EXEC_SET_WEATHER_GADGET",
          "param": [
            "3016",
            "0"
          ],
          "param_str": ""
        },
        {
          "type": "QUEST_EXEC_SET_WEATHER_GADGET",
          "param": [
            "3141",
            "0"
          ],
          "param_str": ""
        },
        {
          "type": "QUEST_EXEC_SET_WEATHER_GADGET",
          "param": [
            "3056",
            "0"
          ],
          "param_str": ""
        }
      ],
      "failExec": [],
      "beginExec": [
        {
          "type": "QUEST_EXEC_ACTIVE_ITEM_GIVING",
          "param": [
            "7213106"
          ],
          "param_str": ""
        }
      ]
    },
    {
      "subId": 7213107,
      "mainId": 72131,
      "order": 7,
      "descTextMapHash": 3320004388,
      "showType": "QUEST_HIDDEN",
      "acceptCond": [
        {
          "type": "QUEST_COND_STATE_EQUAL",
          "param": [
            7213105,
            3,
            0,
            0,
            0
          ],
          "param_str": ""
        }
      ],
      "finishCond": [],
      "failCond": [],
      "guide": {
        "param": []
      },
      "finishExec": [],
      "failExec": [],
      "beginExec": [
        {
          "type": "QUEST_EXEC_NOTIFY_GROUP_LUA",
          "param": [
            "3",
            "133212494"
          ],
          "param_str": ""
        }
      ]
    },
    {
      "subId": 7213108,
      "mainId": 72131,
      "order": 8,
      "descTextMapHash": 1271918668,
      "showType": "QUEST_HIDDEN",
      "acceptCond": [
        {
          "type": "QUEST_COND_STATE_EQUAL",
          "param": [
            7213105,
            3,
            0,
            0,
            0
          ],
          "param_str": ""
        }
      ],
      "finishCond": [],
      "failCond": [],
      "guide": {
        "param": []
      },
      "finishExec": [],
      "failExec": [],
      "beginExec": [
        {
          "type": "QUEST_EXEC_NOTIFY_GROUP_LUA",
          "param": [
            "3",
            "133212103"
          ],
          "param_str": ""
        }
      ]
    },
    {
      "subId": 7213109,
      "mainId": 72131,
      "order": 9,
      "descTextMapHash": 3437444764,
      "showType": "QUEST_HIDDEN",
      "acceptCond": [
        {
          "type": "QUEST_COND_STATE_EQUAL",
          "param": [
            7213105,
            3,
            0,
            0,
            0
          ],
          "param_str": ""
        }
      ],
      "finishCond": [
        {
          "type": "QUEST_CONTENT_FINISH_PLOT",
          "param": [
            7213109,
            0
          ],
          "param_str": ""
        }
      ],
      "failCond": [],
      "guide": {
        "param": []
      },
      "finishExec": [
        {
          "type": "QUEST_EXEC_NOTIFY_GROUP_LUA",
          "param": [
            "3",
            "133212029"
          ],
          "param_str": ""
        }
      ],
      "failExec": [],
      "beginExec": []
    }
  ],
  "talks": [
    {
      "id": 7213101,
      "beginWay": "TALK_BEGIN_MANUAL",
      "beginCond": [
        {
          "type": "QUEST_COND_STATE_EQUAL",
          "param": [
            "7213104",
            "2"
          ],
          "param_str": ""
        }
      ],
      "priority": 5,
      "initDialog": 721310101,
      "npcId": [
        20254
      ],
      "performCfg": "QuestDialogue/WQ/Daoqi_72131/Q7213101",
      "questId": 72131,
      "prePerformCfg": "",
      "lockGameTime": true
    },
    {
      "id": 7213102,
      "beginWay": "TALK_BEGIN_MANUAL",
      "beginCond": [
        {
          "type": "QUEST_COND_STATE_EQUAL",
          "param": [
            "7213105",
            "2"
          ],
          "param_str": ""
        }
      ],
      "priority": 5,
      "initDialog": 721310201,
      "npcId": [
        20236
      ],
      "performCfg": "QuestDialogue/WQ/Daoqi_72131/Q7213102",
      "questId": 72131,
      "prePerformCfg": "",
      "lockGameTime": true
    },
    {
      "id": 7213103,
      "beginWay": "TALK_BEGIN_MANUAL",
      "beginCond": [
        {
          "type": "QUEST_COND_STATE_EQUAL",
          "param": [
            "99902",
            "3"
          ],
          "param_str": ""
        }
      ],
      "priority": 5,
      "initDialog": 721310301,
      "npcId": [
        20236
      ],
      "performCfg": "",
      "questId": 72131,
      "prePerformCfg": "",
      "lockGameTime": true
    },
    {
      "id": 7213104,
      "beginWay": "TALK_BEGIN_MANUAL",
      "beginCondComb": "LOGIC_AND",
      "beginCond": [
        {
          "type": "QUEST_COND_ITEM_GIVING_ACTIVED",
          "param": [
            "7213106"
          ],
          "param_str": ""
        },
        {
          "type": "QUEST_COND_STATE_EQUAL",
          "param": [
            "7213106",
            "2"
          ],
          "param_str": ""
        }
      ],
      "priority": 5,
      "initDialog": 721310401,
      "npcId": [
        20257
      ],
      "performCfg": "",
      "questId": 72131,
      "prePerformCfg": "",
      "lockGameTime": true
    }
  ]
}