{
  "id": 72159,
  "type": "WQ",
  "titleTextMapHash": 1771682479,
  "descTextMapHash": 320290182,
  "luaPath": "Actor/Quest/WQ72159",
  "showType": "QUEST_HIDDEN",
  "subQuests": [
    {
      "subId": 7215901,
      "mainId": 72159,
      "order": 1,
      "descTextMapHash": 1175202148,
      "showType": "QUEST_HIDDEN",
      "acceptCond": [
        {
          "type": "QUEST_COND_STATE_EQUAL",
          "param": [
            7212422,
            3,
            0,
            0,
            0
          ],
          "param_str": ""
        }
      ],
      "finishCond": [],
      "failCond": [],
      "guide": {
        "param": []
      },
      "isRewind": true,
      "finishExec": [],
      "failExec": [],
      "beginExec": [],
      "exclusiveNpcList": [
        3164
      ],
      "exclusiveNpcPriority": 1100
    },
    {
      "subId": 7215902,
      "mainId": 72159,
      "order": 2,
      "descTextMapHash": 4249031372,
      "showType": "QUEST_HIDDEN",
      "acceptCond": [
        {
          "type": "QUEST_COND_STATE_EQUAL",
          "param": [
            7212422,
            3,
            0,
            0,
            0
          ],
          "param_str": ""
        }
      ],
      "finishCond": [
        {
          "type": "QUEST_CONTENT_COMPLETE_TALK",
          "param": [
            7215902,
            0
          ],
          "param_str": ""
        }
      ],
      "failCond": [],
      "guide": {
        "param": []
      },
      "isRewind": true,
      "finishExec": [],
      "failExec": [],
      "beginExec": [],
      "exclusiveNpcList": [
        3164
      ],
      "exclusiveNpcPriority": 1100
    },
    {
      "subId": 7215903,
      "mainId": 72159,
      "order": 5,
      "descTextMapHash": 3085518940,
      "showType": "QUEST_HIDDEN",
      "acceptCond": [
        {
          "type": "QUEST_COND_STATE_EQUAL",
          "param": [
            7215902,
            3,
            0,
            0,
            0
          ],
          "param_str": ""
        }
      ],
      "finishCond": [
        {
          "type": "QUEST_CONTENT_LUA_NOTIFY",
          "param": [
            0,
            0
          ],
          "param_str": "7215903_end",
          "count": 1
        }
      ],
      "failCond": [
        {
          "type": "QUEST_CONTENT_LUA_NOTIFY",
          "param": [
            0,
            0
          ],
          "param_str": "7215903_fail",
          "count": 1
        }
      ],
      "guide": {
        "param": []
      },
      "isRewind": true,
      "finishExec": [
        {
          "type": "QUEST_EXEC_REFRESH_GROUP_SUITE",
          "param": [
            "3",
            "133213151,1"
          ],
          "param_str": ""
        },
        {
          "type": "QUEST_EXEC_REFRESH_GROUP_SUITE",
          "param": [
            "3",
            "133213361,1"
          ],
          "param_str": ""
        }
      ],
      "failExec": [
        {
          "type": "QUEST_EXEC_REFRESH_GROUP_SUITE",
          "param": [
            "3",
            "133213151,1"
          ],
          "param_str": ""
        },
        {
          "type": "QUEST_EXEC_REFRESH_GROUP_SUITE",
          "param": [
            "3",
            "133213361,1"
          ],
          "param_str": ""
        }
      ],
      "beginExec": [],
      "exclusiveNpcList": [
        3164
      ],
      "exclusiveNpcPriority": 1100
    },
    {
      "subId": 7215904,
      "mainId": 72159,
      "order": 6,
      "descTextMapHash": 128896916,
      "showType": "QUEST_HIDDEN",
      "acceptCond": [
        {
          "type": "QUEST_COND_STATE_EQUAL",
          "param": [
            7215903,
            4,
            0,
            0,
            0
          ],
          "param_str": ""
        }
      ],
      "finishCond": [
        {
          "type": "QUEST_CONTENT_COMPLETE_TALK",
          "param": [
            7215905,
            0
          ],
          "param_str": ""
        }
      ],
      "failCond": [],
      "guide": {
        "param": []
      },
      "isRewind": true,
      "finishExec": [
        {
          "type": "QUEST_EXEC_ROLLBACK_QUEST",
          "param": [
            "7215902"
          ],
          "param_str": ""
        }
      ],
      "failExec": [],
      "beginExec": [
        {
          "type": "QUEST_EXEC_REFRESH_GROUP_SUITE",
          "param": [
            "3",
            "133213151,1"
          ],
          "param_str": ""
        },
        {
          "type": "QUEST_EXEC_REFRESH_GROUP_SUITE",
          "param": [
            "3",
            "133213361,1"
          ],
          "param_str": ""
        }
      ],
      "exclusiveNpcList": [
        3164
      ],
      "exclusiveNpcPriority": 1100
    },
    {
      "subId": 7215905,
      "mainId": 72159,
      "order": 7,
      "descTextMapHash": 2493177404,
      "showType": "QUEST_HIDDEN",
      "acceptCond": [
        {
          "type": "QUEST_COND_STATE_EQUAL",
          "param": [
            7215903,
            3,
            0,
            0,
            0
          ],
          "param_str": ""
        }
      ],
      "finishCond": [
        {
          "type": "QUEST_CONTENT_COMPLETE_TALK",
          "param": [
            7215904,
            0
          ],
          "param_str": ""
        }
      ],
      "failCond": [],
      "guide": {
        "param": []
      },
      "isRewind": true,
      "finishExec": [
        {
          "type": "QUEST_EXEC_ROLLBACK_QUEST",
          "param": [
            "7215902"
          ],
          "param_str": ""
        }
      ],
      "failExec": [],
      "beginExec": [
        {
          "type": "QUEST_EXEC_REFRESH_GROUP_SUITE",
          "param": [
            "3",
            "133213151,1"
          ],
          "param_str": ""
        },
        {
          "type": "QUEST_EXEC_REFRESH_GROUP_SUITE",
          "param": [
            "3",
            "133213361,1"
          ],
          "param_str": ""
        }
      ],
      "exclusiveNpcList": [
        3164
      ],
      "exclusiveNpcPriority": 1100
    },
    {
      "subId": 7215906,
      "mainId": 72159,
      "order": 3,
      "descTextMapHash": 1741162884,
      "showType": "QUEST_HIDDEN",
      "acceptCond": [
        {
          "type": "QUEST_COND_STATE_EQUAL",
          "param": [
            7212422,
            3,
            0,
            0,
            0
          ],
          "param_str": ""
        }
      ],
      "finishCond": [
        {
          "type": "QUEST_CONTENT_FINISH_PLOT",
          "param": [
            7215906,
            0
          ],
          "param_str": ""
        }
      ],
      "failCond": [],
      "guide": {
        "param": []
      },
      "isRewind": true,
      "finishExec": [
        {
          "type": "QUEST_EXEC_REFRESH_GROUP_SUITE",
          "param": [
            "3",
            "133213151,2"
          ],
          "param_str": ""
        }
      ],
      "failExec": [],
      "beginExec": [],
      "exclusiveNpcList": [
        3164
      ],
      "exclusiveNpcPriority": 1100
    },
    {
      "subId": 7215907,
      "mainId": 72159,
      "order": 4,
      "descTextMapHash": 3958329292,
      "showType": "QUEST_HIDDEN",
      "acceptCond": [
        {
          "type": "QUEST_COND_STATE_EQUAL",
          "param": [
            7212422,
            3,
            0,
            0,
            0
          ],
          "param_str": ""
        }
      ],
      "finishCond": [
        {
          "type": "QUEST_CONTENT_FINISH_PLOT",
          "param": [
            7215907,
            0
          ],
          "param_str": ""
        }
      ],
      "failCond": [],
      "guide": {
        "param": []
      },
      "isRewind": true,
      "finishExec": [
        {
          "type": "QUEST_EXEC_REFRESH_GROUP_SUITE",
          "param": [
            "3",
            "133213361,2"
          ],
          "param_str": ""
        }
      ],
      "failExec": [],
      "beginExec": [],
      "exclusiveNpcList": [
        3164
      ],
      "exclusiveNpcPriority": 1100
    }
  ],
  "talks": [
    {
      "id": 7215901,
      "beginWay": "TALK_BEGIN_MANUAL",
      "activeMode": "PLAY_MODE_HOST",
      "beginCond": [
        {
          "type": "QUEST_COND_STATE_EQUAL",
          "param": [
            "7215902",
            "2"
          ],
          "param_str": ""
        }
      ],
      "priority": 5,
      "nextTalks": [
        7215902,
        7215903
      ],
      "initDialog": 721590101,
      "npcId": [
        3174
      ],
      "performCfg": "",
      "questId": 72159,
      "prePerformCfg": ""
    },
    {
      "id": 7215902,
      "activeMode": "PLAY_MODE_HOST",
      "beginCond": [
        {
          "type": "QUEST_COND_STATE_EQUAL",
          "param": [
            "7215902",
            "2"
          ],
          "param_str": ""
        }
      ],
      "priority": 5,
      "initDialog": 721590201,
      "npcId": [
        3174
      ],
      "performCfg": "",
      "questId": 72159,
      "prePerformCfg": ""
    },
    {
      "id": 7215903,
      "activeMode": "PLAY_MODE_HOST",
      "beginCond": [
        {
          "type": "QUEST_COND_STATE_EQUAL",
          "param": [
            "7215902",
            "2"
          ],
          "param_str": ""
        }
      ],
      "priority": 5,
      "initDialog": 721590301,
      "npcId": [
        3174
      ],
      "performCfg": "",
      "questId": 72159,
      "prePerformCfg": ""
    },
    {
      "id": 7215904,
      "beginWay": "TALK_BEGIN_MANUAL",
      "activeMode": "PLAY_MODE_HOST",
      "beginCond": [
        {
          "type": "QUEST_COND_STATE_EQUAL",
          "param": [
            "7215905",
            "2"
          ],
          "param_str": ""
        }
      ],
      "priority": 5,
      "initDialog": 721590401,
      "npcId": [
        3174
      ],
      "performCfg": "",
      "questId": 72159,
      "prePerformCfg": ""
    },
    {
      "id": 7215905,
      "beginWay": "TALK_BEGIN_MANUAL",
      "activeMode": "PLAY_MODE_HOST",
      "beginCond": [
        {
          "type": "QUEST_COND_STATE_EQUAL",
          "param": [
            "7215904",
            "2"
          ],
          "param_str": ""
        }
      ],
      "priority": 5,
      "initDialog": 721590501,
      "npcId": [
        3174
      ],
      "performCfg": "",
      "questId": 72159,
      "prePerformCfg": ""
    }
  ]
}