{
  "id": 72212,
  "type": "WQ",
  "titleTextMapHash": 3040736727,
  "descTextMapHash": 56679950,
  "luaPath": "Actor/Quest/WQ72212",
  "rewardIdList": [
    172212
  ],
  "subQuests": [
    {
      "subId": 7221201,
      "mainId": 72212,
      "order": 1,
      "descTextMapHash": 788508076,
      "showType": "QUEST_HIDDEN",
      "acceptCond": [
        {
          "type": "QUEST_COND_TIME_VAR_PASS_DAY",
          "param": [
            72211,
            1,
            1,
            0,
            0
          ],
          "param_str": ""
        }
      ],
      "finishCond": [
        {
          "type": "QUEST_CONTENT_COMPLETE_TALK",
          "param": [
            7221201,
            0
          ],
          "param_str": ""
        }
      ],
      "failCond": [],
      "guide": {
        "param": []
      },
      "finishExec": [],
      "failExec": [],
      "beginExec": [
        {
          "type": "QUEST_EXEC_REFRESH_GROUP_SUITE",
          "param": [
            "3",
            "133217175,2"
          ],
          "param_str": ""
        },
        {
          "type": "QUEST_EXEC_UNREGISTER_DYNAMIC_GROUP",
          "param": [
            "133217122"
          ],
          "param_str": ""
        },
        {
          "type": "QUEST_EXEC_UNREGISTER_DYNAMIC_GROUP",
          "param": [
            "133217230"
          ],
          "param_str": ""
        },
        {
          "type": "QUEST_EXEC_UNREGISTER_DYNAMIC_GROUP",
          "param": [
            "133217231"
          ],
          "param_str": ""
        }
      ],
      "exclusiveNpcList": [
        3189,
        3180,
        3181,
        3182,
        20455
      ],
      "exclusiveNpcPriority": 1100
    },
    {
      "subId": 7221202,
      "mainId": 72212,
      "order": 2,
      "descTextMapHash": 4294228548,
      "acceptCond": [
        {
          "type": "QUEST_COND_STATE_EQUAL",
          "param": [
            7221201,
            3,
            0,
            0,
            0
          ],
          "param_str": ""
        }
      ],
      "finishCond": [
        {
          "type": "QUEST_CONTENT_COMPLETE_TALK",
          "param": [
            7221202,
            0
          ],
          "param_str": ""
        }
      ],
      "failCond": [],
      "guide": {
        "type": "QUEST_GUIDE_NPC",
        "param": [
          "3181"
        ],
        "guideScene": 3
      },
      "isRewind": true,
      "finishExec": [],
      "failExec": [],
      "beginExec": [],
      "exclusiveNpcList": [
        3189,
        3180,
        3181,
        3182,
        20455
      ],
      "exclusiveNpcPriority": 1100
    },
    {
      "subId": 7221203,
      "mainId": 72212,
      "order": 3,
      "descTextMapHash": 276295868,
      "acceptCond": [
        {
          "type": "QUEST_COND_STATE_EQUAL",
          "param": [
            7221202,
            3,
            0,
            0,
            0
          ],
          "param_str": ""
        }
      ],
      "finishCond": [
        {
          "type": "QUEST_CONTENT_FINISH_PLOT",
          "param": [
            7221203,
            0
          ],
          "param_str": ""
        }
      ],
      "failCond": [],
      "guide": {
        "type": "QUEST_GUIDE_LOCATION",
        "param": [
          "WQ72212_Dadao01",
          "60"
        ],
        "guideScene": 3
      },
      "isRewind": true,
      "finishExec": [],
      "failExec": [],
      "beginExec": [
        {
          "type": "QUEST_EXEC_REGISTER_DYNAMIC_GROUP",
          "param": [
            "3",
            "133213549"
          ],
          "param_str": ""
        }
      ],
      "exclusiveNpcList": [
        3189,
        3180,
        3181,
        3182,
        20455
      ],
      "exclusiveNpcPriority": 1100
    },
    {
      "subId": 7221204,
      "mainId": 72212,
      "order": 4,
      "descTextMapHash": 1263583980,
      "acceptCond": [
        {
          "type": "QUEST_COND_STATE_EQUAL",
          "param": [
            7221203,
            3,
            0,
            0,
            0
          ],
          "param_str": ""
        }
      ],
      "finishCond": [
        {
          "type": "QUEST_CONTENT_COMPLETE_TALK",
          "param": [
            7221203,
            0
          ],
          "param_str": ""
        }
      ],
      "failCond": [],
      "guide": {
        "type": "QUEST_GUIDE_NPC",
        "param": [
          "20455"
        ],
        "guideScene": 3
      },
      "isRewind": true,
      "finishExec": [],
      "failExec": [],
      "beginExec": [],
      "exclusiveNpcList": [
        3189,
        3180,
        3181,
        3182,
        20455
      ],
      "exclusiveNpcPriority": 1100
    },
    {
      "subId": 7221205,
      "mainId": 72212,
      "order": 5,
      "descTextMapHash": 2224707700,
      "acceptCond": [
        {
          "type": "QUEST_COND_STATE_EQUAL",
          "param": [
            7221204,
            3,
            0,
            0,
            0
          ],
          "param_str": ""
        }
      ],
      "finishCond": [
        {
          "type": "QUEST_CONTENT_COMPLETE_TALK",
          "param": [
            7221206,
            0
          ],
          "param_str": ""
        }
      ],
      "failCond": [],
      "guide": {
        "type": "QUEST_GUIDE_NPC",
        "param": [
          "3189"
        ],
        "guideScene": 3
      },
      "finishParent": true,
      "isRewind": true,
      "finishExec": [
        {
          "type": "QUEST_EXEC_INIT_TIME_VAR",
          "param": [
            "1"
          ],
          "param_str": ""
        }
      ],
      "failExec": [],
      "beginExec": [],
      "exclusiveNpcList": [
        3189,
        3180,
        3181,
        3182
      ],
      "exclusiveNpcPriority": 1100
    }
  ],
  "talks": [
    {
      "id": 7221201,
      "beginWay": "TALK_BEGIN_MANUAL",
      "activeMode": "PLAY_MODE_SINGLE",
      "beginCond": [
        {
          "type": "QUEST_COND_STATE_EQUAL",
          "param": [
            "7221201",
            "2"
          ],
          "param_str": ""
        }
      ],
      "priority": 5,
      "initDialog": 722120101,
      "npcId": [
        3189,
        1005
      ],
      "performCfg": "QuestDialogue/WQ/Inazuma_72212/Q7221201",
      "heroTalk": "TALK_HERO_MAIN",
      "questId": 72212,
      "prePerformCfg": "",
      "talkMarkType": "TALK_MARK_COMMON"
    },
    {
      "id": 7221202,
      "beginWay": "TALK_BEGIN_MANUAL",
      "activeMode": "PLAY_MODE_SINGLE",
      "beginCond": [
        {
          "type": "QUEST_COND_STATE_EQUAL",
          "param": [
            "7221202",
            "2"
          ],
          "param_str": ""
        }
      ],
      "priority": 5,
      "initDialog": 722120201,
      "npcId": [
        3181,
        3180
      ],
      "performCfg": "QuestDialogue/WQ/Inazuma_72212/Q7221202",
      "heroTalk": "TALK_HERO_MAIN",
      "questId": 72212,
      "prePerformCfg": ""
    },
    {
      "id": 7221203,
      "beginWay": "TALK_BEGIN_MANUAL",
      "activeMode": "PLAY_MODE_SINGLE",
      "beginCond": [
        {
          "type": "QUEST_COND_STATE_EQUAL",
          "param": [
            "7221204",
            "2"
          ],
          "param_str": ""
        }
      ],
      "priority": 5,
      "initDialog": 722120301,
      "npcId": [
        20455,
        1005
      ],
      "performCfg": "QuestDialogue/WQ/Inazuma_72212/Q7221203",
      "heroTalk": "TALK_HERO_MAIN",
      "questId": 72212,
      "prePerformCfg": ""
    },
    {
      "id": 7221204,
      "beginWay": "TALK_BEGIN_MANUAL",
      "activeMode": "PLAY_MODE_SINGLE",
      "beginCond": [
        {
          "type": "QUEST_COND_STATE_EQUAL",
          "param": [
            "7221205",
            "2"
          ],
          "param_str": ""
        }
      ],
      "priority": 5,
      "nextTalks": [
        7221206
      ],
      "initDialog": 722120401,
      "npcId": [
        3189,
        3182,
        1005
      ],
      "performCfg": "QuestDialogue/WQ/Inazuma_72212/Q7221204",
      "heroTalk": "TALK_HERO_MAIN",
      "questId": 72212,
      "prePerformCfg": ""
    },
    {
      "id": 7221205,
      "beginWay": "TALK_BEGIN_MANUAL",
      "activeMode": "PLAY_MODE_SINGLE",
      "beginCondComb": "LOGIC_OR",
      "beginCond": [
        {
          "type": "QUEST_COND_STATE_EQUAL",
          "param": [
            "7221201",
            "3"
          ],
          "param_str": ""
        }
      ],
      "priority": 1,
      "initDialog": 722120501,
      "npcId": [
        3189
      ],
      "performCfg": "",
      "heroTalk": "TALK_HERO_MAIN",
      "questId": 72212,
      "prePerformCfg": "",
      "questIdleTalk": true
    },
    {
      "id": 7221206,
      "beginWay": "TALK_BEGIN_AUTO",
      "activeMode": "PLAY_MODE_SINGLE",
      "beginCond": [
        {
          "type": "QUEST_COND_STATE_EQUAL",
          "param": [
            "7221205",
            "2"
          ],
          "param_str": ""
        }
      ],
      "priority": 4,
      "initDialog": 722120601,
      "npcId": [
        3189
      ],
      "performCfg": "",
      "heroTalk": "TALK_HERO_MAIN",
      "questId": 72212,
      "prePerformCfg": ""
    }
  ]
}