{
  "id": 72246,
  "type": "WQ",
  "titleTextMapHash": 277742511,
  "descTextMapHash": 3789760910,
  "luaPath": "Actor/Quest/WQ72246",
  "showType": "QUEST_HIDDEN",
  "subQuests": [
    {
      "subId": 7224601,
      "mainId": 72246,
      "order": 1,
      "descTextMapHash": 3337561276,
      "showType": "QUEST_HIDDEN",
      "acceptCond": [
        {
          "type": "QUEST_COND_STATE_EQUAL",
          "param": [
            7217320,
            3,
            0,
            0,
            0
          ],
          "param_str": ""
        }
      ],
      "finishCond": [
        {
          "type": "QUEST_CONTENT_TIME_VAR_PASS_DAY",
          "param": [
            72173,
            0
          ],
          "param_str": "1"
        }
      ],
      "failCond": [],
      "guide": {
        "param": []
      },
      "failParentShow": "QUEST_HIDDEN",
      "isRewind": true,
      "finishExec": [],
      "failExec": [],
      "beginExec": []
    },
    {
      "subId": 7224602,
      "mainId": 72246,
      "order": 2,
      "descTextMapHash": 3622500516,
      "showType": "QUEST_HIDDEN",
      "acceptCond": [
        {
          "type": "QUEST_COND_STATE_EQUAL",
          "param": [
            7224601,
            3,
            0,
            0,
            0
          ],
          "param_str": ""
        }
      ],
      "finishCond": [
        {
          "type": "QUEST_CONTENT_COMPLETE_TALK",
          "param": [
            7224601,
            0
          ],
          "param_str": ""
        }
      ],
      "failCond": [],
      "guide": {
        "param": []
      },
      "failParentShow": "QUEST_HIDDEN",
      "isRewind": true,
      "finishExec": [],
      "failExec": [],
      "beginExec": [],
      "exclusiveNpcList": [
        20321,
        20322
      ],
      "exclusiveNpcPriority": 1100
    },
    {
      "subId": 7224603,
      "mainId": 72246,
      "order": 4,
      "descTextMapHash": 2596526348,
      "showType": "QUEST_HIDDEN",
      "acceptCond": [
        {
          "type": "QUEST_COND_STATE_EQUAL",
          "param": [
            7224604,
            3,
            0,
            0,
            0
          ],
          "param_str": ""
        }
      ],
      "finishCond": [
        {
          "type": "QUEST_CONTENT_COMPLETE_TALK",
          "param": [
            7224602,
            0
          ],
          "param_str": ""
        }
      ],
      "failCond": [],
      "guide": {
        "param": []
      },
      "finishParent": true,
      "failParentShow": "QUEST_HIDDEN",
      "isRewind": true,
      "finishExec": [],
      "failExec": [],
      "beginExec": [],
      "exclusiveNpcList": [
        20321,
        20322
      ],
      "exclusiveNpcPriority": 1100
    },
    {
      "subId": 7224604,
      "mainId": 72246,
      "order": 3,
      "descTextMapHash": 3359089756,
      "showType": "QUEST_HIDDEN",
      "acceptCond": [
        {
          "type": "QUEST_COND_STATE_EQUAL",
          "param": [
            7224602,
            3,
            0,
            0,
            0
          ],
          "param_str": ""
        }
      ],
      "finishCond": [
        {
          "type": "QUEST_CONTENT_ENTER_ROOM",
          "param": [
            1004,
            0
          ],
          "param_str": ""
        }
      ],
      "failCond": [],
      "guide": {
        "param": []
      },
      "failParentShow": "QUEST_HIDDEN",
      "isRewind": true,
      "finishExec": [],
      "failExec": [],
      "beginExec": [],
      "exclusiveNpcList": [
        20321,
        20322
      ],
      "exclusiveNpcPriority": 1100
    }
  ],
  "talks": [
    {
      "id": 7224601,
      "beginWay": "TALK_BEGIN_MANUAL",
      "activeMode": "PLAY_MODE_HOST",
      "beginCond": [
        {
          "type": "QUEST_COND_STATE_EQUAL",
          "param": [
            "7224602",
            "2"
          ],
          "param_str": ""
        }
      ],
      "priority": 5,
      "initDialog": 722460101,
      "npcId": [
        20321,
        20322
      ],
      "performCfg": "",
      "questId": 72246,
      "prePerformCfg": ""
    },
    {
      "id": 7224602,
      "beginWay": "TALK_BEGIN_MANUAL",
      "activeMode": "PLAY_MODE_HOST",
      "beginCond": [
        {
          "type": "QUEST_COND_STATE_EQUAL",
          "param": [
            "7224603",
            "2"
          ],
          "param_str": ""
        }
      ],
      "priority": 5,
      "initDialog": 722460201,
      "npcId": [
        20321,
        20322
      ],
      "performCfg": "QuestDialogue/WQ/Inazuma_72173/Q7224602",
      "questId": 72246,
      "prePerformCfg": ""
    },
    {
      "id": 7224603,
      "beginWay": "TALK_BEGIN_MANUAL",
      "activeMode": "PLAY_MODE_HOST",
      "beginCond": [
        {
          "type": "QUEST_COND_STATE_EQUAL",
          "param": [
            "7224604",
            "2"
          ],
          "param_str": ""
        }
      ],
      "priority": 5,
      "initDialog": 722460301,
      "npcId": [
        20322,
        20321
      ],
      "performCfg": "",
      "questId": 72246,
      "prePerformCfg": ""
    },
    {
      "id": 7224604,
      "beginWay": "TALK_BEGIN_MANUAL",
      "activeMode": "PLAY_MODE_HOST",
      "beginCond": [
        {
          "type": "QUEST_COND_STATE_EQUAL",
          "param": [
            "7224603",
            "3"
          ],
          "param_str": ""
        }
      ],
      "priority": 5,
      "initDialog": 722460401,
      "npcId": [
        20321,
        20322
      ],
      "performCfg": "",
      "questId": 72246,
      "prePerformCfg": "",
      "questIdleTalk": true
    }
  ]
}