{
  "id": 72256,
  "type": "WQ",
  "titleTextMapHash": 1547369535,
  "descTextMapHash": 3705252814,
  "luaPath": "Actor/Quest/WQ72256",
  "showType": "QUEST_HIDDEN",
  "subQuests": [
    {
      "subId": 7225601,
      "mainId": 72256,
      "order": 1,
      "descTextMapHash": 3557087628,
      "showType": "QUEST_HIDDEN",
      "acceptCond": [
        {
          "type": "QUEST_COND_STATE_EQUAL",
          "param": [
            7224401,
            3,
            0,
            0,
            0
          ],
          "param_str": ""
        }
      ],
      "finishCond": [
        {
          "type": "QUEST_CONTENT_FINISH_ITEM_GIVING",
          "param": [
            7224405,
            0
          ],
          "param_str": ""
        }
      ],
      "failCond": [],
      "guide": {
        "param": []
      },
      "finishParent": true,
      "isRewind": true,
      "finishExec": [
        {
          "type": "QUEST_EXEC_NOTIFY_GROUP_LUA",
          "param": [
            "5",
            "155006044"
          ],
          "param_str": ""
        }
      ],
      "failExec": [],
      "beginExec": [
        {
          "type": "QUEST_EXEC_ACTIVE_ITEM_GIVING",
          "param": [
            "7224405"
          ],
          "param_str": ""
        }
      ]
    }
  ],
  "talks": [
    {
      "id": 7225601,
      "beginWay": "TALK_BEGIN_MANUAL",
      "activeMode": "PLAY_MODE_HOST",
      "beginCondComb": "LOGIC_AND",
      "beginCond": [
        {
          "type": "QUEST_COND_STATE_EQUAL",
          "param": [
            "7225601",
            "2"
          ],
          "param_str": ""
        },
        {
          "type": "QUEST_COND_ITEM_GIVING_ACTIVED",
          "param": [
            "7224405"
          ],
          "param_str": ""
        }
      ],
      "priority": 5,
      "initDialog": 722560101,
      "npcId": [
        20501
      ],
      "performCfg": "",
      "questId": 72256,
      "prePerformCfg": ""
    }
  ]
}