{
  "id": 72250,
  "type": "WQ",
  "titleTextMapHash": 4022397767,
  "descTextMapHash": 3544167734,
  "luaPath": "Actor/Quest/WQ72250",
  "showType": "QUEST_HIDDEN",
  "subQuests": [
    {
      "subId": 7225001,
      "mainId": 72250,
      "order": 1,
      "descTextMapHash": 3306501852,
      "showType": "QUEST_HIDDEN",
      "acceptCond": [
        {
          "type": "QUEST_COND_STATE_EQUAL",
          "param": [
            7217716,
            3,
            0,
            0,
            0
          ],
          "param_str": ""
        }
      ],
      "finishCondComb": "LOGIC_OR",
      "finishCond": [
        {
          "type": "QUEST_CONTENT_QUEST_STATE_EQUAL",
          "param": [
            7224108,
            3
          ],
          "param_str": ""
        },
        {
          "type": "QUEST_CONTENT_QUEST_STATE_EQUAL",
          "param": [
            7224113,
            3
          ],
          "param_str": ""
        }
      ],
      "failCond": [],
      "guide": {
        "param": []
      },
      "finishParent": true,
      "finishExec": [],
      "failExec": [],
      "beginExec": []
    }
  ],
  "talks": [
    {
      "id": 7225001,
      "beginWay": "TALK_BEGIN_MANUAL",
      "beginCond": [
        {
          "type": "QUEST_COND_STATE_EQUAL",
          "param": [
            "7225001",
            "2"
          ],
          "param_str": ""
        }
      ],
      "priority": 5,
      "initDialog": 722500101,
      "npcId": [
        20358,
        1005
      ],
      "performCfg": "QuestDialogue/WQ/Inazuma_72249/Q7225001",
      "questId": 72250,
      "prePerformCfg": ""
    }
  ]
}