{
  "id": 72267,
  "type": "WQ",
  "titleTextMapHash": 376605551,
  "descTextMapHash": 1422431326,
  "luaPath": "Actor/Quest/WQ72267",
  "showType": "QUEST_HIDDEN",
  "subQuests": [
    {
      "subId": 7226701,
      "mainId": 72267,
      "order": 1,
      "subIdSet": 1,
      "descTextMapHash": 3669897212,
      "showType": "QUEST_HIDDEN",
      "acceptCond": [
        {
          "type": "QUEST_COND_STATE_EQUAL",
          "param": [
            7217716,
            3,
            0,
            0,
            0
          ],
          "param_str": ""
        }
      ],
      "finishCond": [
        {
          "type": "QUEST_CONTENT_LUA_NOTIFY",
          "param": [
            0,
            0
          ],
          "param_str": "72267_MazeSolved",
          "count": 1
        }
      ],
      "failCond": [],
      "guide": {
        "param": []
      },
      "finishExec": [
        {
          "type": "QUEST_EXEC_INC_QUEST_VAR",
          "param": [
            "0",
            "1"
          ],
          "param_str": ""
        }
      ],
      "failExec": [],
      "beginExec": []
    },
    {
      "subId": 7226702,
      "mainId": 72267,
      "order": 2,
      "subIdSet": 1,
      "descTextMapHash": 285489396,
      "showType": "QUEST_HIDDEN",
      "acceptCond": [
        {
          "type": "QUEST_COND_STATE_EQUAL",
          "param": [
            7217716,
            3,
            0,
            0,
            0
          ],
          "param_str": ""
        }
      ],
      "finishCond": [
        {
          "type": "QUEST_CONTENT_LUA_NOTIFY",
          "param": [
            0,
            0
          ],
          "param_str": "72267_MirrorSolved",
          "count": 1
        }
      ],
      "failCond": [],
      "guide": {
        "param": []
      },
      "finishExec": [
        {
          "type": "QUEST_EXEC_INC_QUEST_VAR",
          "param": [
            "0",
            "1"
          ],
          "param_str": ""
        }
      ],
      "failExec": [],
      "beginExec": []
    },
    {
      "subId": 7226703,
      "mainId": 72267,
      "order": 3,
      "descTextMapHash": 4266172524,
      "showType": "QUEST_HIDDEN",
      "acceptCond": [
        {
          "type": "QUEST_COND_STATE_EQUAL",
          "param": [
            7217716,
            3,
            0,
            0,
            0
          ],
          "param_str": ""
        }
      ],
      "finishCond": [
        {
          "type": "QUEST_CONTENT_QUEST_VAR_EQUAL",
          "param": [
            0,
            2
          ],
          "param_str": ""
        }
      ],
      "failCond": [],
      "guide": {
        "param": []
      },
      "finishParent": true,
      "isRewind": true,
      "finishExec": [],
      "failExec": [],
      "beginExec": []
    },
    {
      "subId": 7226704,
      "mainId": 72267,
      "order": 4,
      "descTextMapHash": 3679288940,
      "showType": "QUEST_HIDDEN",
      "acceptCond": [
        {
          "type": "QUEST_COND_STATE_EQUAL",
          "param": [
            7217716,
            3,
            0,
            0,
            0
          ],
          "param_str": ""
        }
      ],
      "finishCond": [
        {
          "type": "QUEST_CONTENT_COMPLETE_TALK",
          "param": [
            7226702,
            0
          ],
          "param_str": ""
        }
      ],
      "failCond": [],
      "guide": {
        "param": []
      },
      "finishExec": [],
      "failExec": [],
      "beginExec": []
    }
  ]
}