{
  "id": 72273,
  "type": "WQ",
  "titleTextMapHash": 3750219399,
  "descTextMapHash": 3565523798,
  "luaPath": "Actor/Quest/WQ72273",
  "showType": "QUEST_HIDDEN",
  "subQuests": [
    {
      "subId": 7227301,
      "mainId": 72273,
      "order": 1,
      "descTextMapHash": 1234722964,
      "showType": "QUEST_HIDDEN",
      "acceptCond": [
        {
          "type": "QUEST_COND_STATE_EQUAL",
          "param": [
            7223309,
            3,
            0,
            0,
            0
          ],
          "param_str": ""
        }
      ],
      "finishCond": [
        {
          "type": "QUEST_CONTENT_LUA_NOTIFY",
          "param": [
            0,
            0
          ],
          "param_str": "7227301",
          "count": 1
        }
      ],
      "failCond": [],
      "guide": {
        "param": []
      },
      "failParentShow": "QUEST_HIDDEN",
      "isRewind": true,
      "finishExec": [],
      "failExec": [],
      "beginExec": []
    },
    {
      "subId": 7227302,
      "mainId": 72273,
      "order": 2,
      "descTextMapHash": 2569207612,
      "showType": "QUEST_HIDDEN",
      "acceptCond": [
        {
          "type": "QUEST_COND_STATE_EQUAL",
          "param": [
            7227301,
            3,
            0,
            0,
            0
          ],
          "param_str": ""
        }
      ],
      "finishCondComb": "LOGIC_OR",
      "finishCond": [
        {
          "type": "QUEST_CONTENT_ENTER_MY_WORLD_SCENE",
          "param": [
            5,
            0
          ],
          "param_str": ""
        },
        {
          "type": "QUEST_CONTENT_LUA_NOTIFY",
          "param": [
            0,
            0
          ],
          "param_str": "7227302",
          "count": 1
        }
      ],
      "failCond": [],
      "guide": {
        "param": []
      },
      "failParentShow": "QUEST_HIDDEN",
      "finishExec": [
        {
          "type": "QUEST_EXEC_UNREGISTER_DYNAMIC_GROUP",
          "param": [
            "155007103",
            "0"
          ],
          "param_str": ""
        },
        {
          "type": "QUEST_EXEC_ROLLBACK_QUEST",
          "param": [
            "7227301"
          ],
          "param_str": ""
        }
      ],
      "failExec": [],
      "beginExec": [
        {
          "type": "QUEST_EXEC_REGISTER_DYNAMIC_GROUP",
          "param": [
            "5",
            "155007103"
          ],
          "param_str": ""
        }
      ]
    },
    {
      "subId": 7227303,
      "mainId": 72273,
      "order": 3,
      "descTextMapHash": 3773892820,
      "showType": "QUEST_HIDDEN",
      "acceptCond": [
        {
          "type": "QUEST_COND_STATE_EQUAL",
          "param": [
            7223309,
            3,
            0,
            0,
            0
          ],
          "param_str": ""
        }
      ],
      "finishCond": [
        {
          "type": "QUEST_CONTENT_LUA_NOTIFY",
          "param": [
            0,
            0
          ],
          "param_str": "7227303",
          "count": 1
        }
      ],
      "failCond": [],
      "guide": {
        "param": []
      },
      "finishParent": true,
      "failParentShow": "QUEST_HIDDEN",
      "finishExec": [],
      "failExec": [],
      "beginExec": []
    }
  ]
}