{
  "id": 72657,
  "type": "WQ",
  "titleTextMapHash": 2771515823,
  "descTextMapHash": 939094334,
  "luaPath": "Actor/Quest/WQ72657",
  "rewardIdList": [
    172657
  ],
  "subQuests": [
    {
      "subId": 7265701,
      "mainId": 72657,
      "order": 1,
      "descTextMapHash": 2435969708,
      "acceptCondComb": "LOGIC_AND",
      "acceptCond": [
        {
          "type": "QUEST_COND_PLAYER_LEVEL_EQUAL_GREATER",
          "param": [
            25,
            0,
            0,
            0,
            0
          ],
          "param_str": ""
        },
        {
          "type": "QUEST_COND_STATE_EQUAL",
          "param": [
            200710,
            3,
            0,
            0,
            0
          ],
          "param_str": ""
        }
      ],
      "finishCond": [
        {
          "type": "QUEST_CONTENT_COMPLETE_TALK",
          "param": [
            7265701,
            0
          ],
          "param_str": ""
        }
      ],
      "failCond": [],
      "guide": {
        "type": "QUEST_GUIDE_NPC",
        "param": [
          "3098"
        ],
        "guideScene": 3,
        "guideStyle": "QUEST_GUIDE_STYLE_START"
      },
      "isRewind": true,
      "finishExec": [],
      "failExec": [],
      "beginExec": [],
      "exclusiveNpcList": [
        3098
      ],
      "exclusiveNpcPriority": 1100
    },
    {
      "subId": 7265702,
      "mainId": 72657,
      "order": 2,
      "descTextMapHash": 2639227196,
      "banType": "BAN_GROUP_TRANSPORT_MAP",
      "acceptCond": [
        {
          "type": "QUEST_COND_STATE_EQUAL",
          "param": [
            7265701,
            3,
            0,
            0,
            0
          ],
          "param_str": ""
        }
      ],
      "finishCond": [
        {
          "type": "QUEST_CONTENT_COMPLETE_TALK",
          "param": [
            7265702,
            0
          ],
          "param_str": ""
        }
      ],
      "failCond": [],
      "guide": {
        "type": "QUEST_GUIDE_NPC",
        "param": [
          "3098"
        ],
        "guideScene": 3
      },
      "finishParent": true,
      "finishExec": [],
      "failExec": [],
      "beginExec": [],
      "exclusiveNpcList": [
        3098
      ],
      "exclusiveNpcPriority": 1100
    }
  ]
}