{
  "id": 72674,
  "type": "WQ",
  "titleTextMapHash": 3353905119,
  "descTextMapHash": 3030334742,
  "luaPath": "Actor/Quest/WQ72674",
  "rewardIdList": [
    172674
  ],
  "subQuests": [
    {
      "subId": 7267401,
      "mainId": 72674,
      "order": 1,
      "descTextMapHash": 2464470540,
      "acceptCond": [
        {
          "type": "QUEST_COND_ACTIVITY_COND",
          "param": [
            5055001,
            1,
            0,
            0,
            0
          ],
          "param_str": ""
        }
      ],
      "finishCond": [
        {
          "type": "QUEST_CONTENT_COMPLETE_TALK",
          "param": [
            7267401,
            0
          ],
          "param_str": ""
        }
      ],
      "failCond": [],
      "guide": {
        "type": "QUEST_GUIDE_NPC",
        "param": [
          "3159"
        ],
        "guideScene": 3,
        "guideStyle": "QUEST_GUIDE_STYLE_TARGET",
        "guideLayer": "QUEST_GUIDE_LAYER_SCENE"
      },
      "isRewind": true,
      "finishExec": [],
      "failExec": [],
      "beginExec": [
        {
          "type": "QUEST_EXEC_SET_QUEST_GLOBAL_VAR",
          "param": [
            "5055",
            "1"
          ],
          "param_str": ""
        }
      ],
      "exclusiveNpcList": [
        3159,
        3160,
        3188,
        3161
      ],
      "exclusiveNpcPriority": 1100
    },
    {
      "subId": 7267402,
      "mainId": 72674,
      "order": 2,
      "descTextMapHash": 4012178276,
      "acceptCond": [
        {
          "type": "QUEST_COND_STATE_EQUAL",
          "param": [
            7267401,
            3,
            0,
            0,
            0
          ],
          "param_str": ""
        }
      ],
      "finishCond": [
        {
          "type": "QUEST_CONTENT_COMPLETE_TALK",
          "param": [
            7267402,
            0
          ],
          "param_str": ""
        }
      ],
      "failCond": [],
      "guide": {
        "type": "QUEST_GUIDE_LOCATION",
        "param": [
          "Q7267402_N3160",
          "15"
        ],
        "guideScene": 3,
        "guideStyle": "QUEST_GUIDE_STYLE_TARGET",
        "guideLayer": "QUEST_GUIDE_LAYER_SCENE"
      },
      "isRewind": true,
      "finishExec": [],
      "failExec": [],
      "beginExec": [],
      "exclusiveNpcList": [
        3159,
        3160,
        3188,
        3161
      ],
      "exclusiveNpcPriority": 1100
    },
    {
      "subId": 7267403,
      "mainId": 72674,
      "order": 3,
      "descTextMapHash": 4150876908,
      "acceptCond": [
        {
          "type": "QUEST_COND_STATE_EQUAL",
          "param": [
            7267402,
            3,
            0,
            0,
            0
          ],
          "param_str": ""
        }
      ],
      "finishCond": [
        {
          "type": "QUEST_CONTENT_COMPLETE_TALK",
          "param": [
            7267403,
            0
          ],
          "param_str": ""
        }
      ],
      "failCond": [],
      "guide": {
        "type": "QUEST_GUIDE_NPC",
        "param": [
          "3159"
        ],
        "guideScene": 3,
        "guideStyle": "QUEST_GUIDE_STYLE_TARGET",
        "guideLayer": "QUEST_GUIDE_LAYER_SCENE"
      },
      "finishParent": true,
      "isRewind": true,
      "finishExec": [],
      "failExec": [],
      "beginExec": [],
      "exclusiveNpcList": [
        3159,
        3160,
        3188,
        3161
      ],
      "exclusiveNpcPriority": 1100
    }
  ],
  "talks": [
    {
      "id": 7267401,
      "beginWay": "TALK_BEGIN_MANUAL",
      "activeMode": "PLAY_MODE_SINGLE",
      "beginCond": [
        {
          "type": "QUEST_COND_STATE_EQUAL",
          "param": [
            "7267401",
            "2"
          ],
          "param_str": ""
        }
      ],
      "priority": 5,
      "initDialog": 726740101,
      "npcId": [
        3159
      ],
      "performCfg": "QuestDialogue/WQ/Inazuma_72674/Q7267401",
      "heroTalk": "TALK_HERO_MAIN",
      "questId": 72674,
      "prePerformCfg": ""
    },
    {
      "id": 7267402,
      "beginWay": "TALK_BEGIN_MANUAL",
      "activeMode": "PLAY_MODE_SINGLE",
      "beginCond": [
        {
          "type": "QUEST_COND_STATE_EQUAL",
          "param": [
            "7267402",
            "2"
          ],
          "param_str": ""
        }
      ],
      "priority": 5,
      "initDialog": 726740201,
      "npcId": [
        3160
      ],
      "performCfg": "QuestDialogue/WQ/Inazuma_72674/Q7267402",
      "heroTalk": "TALK_HERO_MAIN",
      "questId": 72674,
      "prePerformCfg": ""
    },
    {
      "id": 7267403,
      "beginWay": "TALK_BEGIN_MANUAL",
      "activeMode": "PLAY_MODE_SINGLE",
      "beginCond": [
        {
          "type": "QUEST_COND_STATE_EQUAL",
          "param": [
            "7267403",
            "2"
          ],
          "param_str": ""
        }
      ],
      "priority": 5,
      "initDialog": 726740301,
      "npcId": [
        3159
      ],
      "performCfg": "QuestDialogue/WQ/Inazuma_72674/Q7267403",
      "heroTalk": "TALK_HERO_MAIN",
      "questId": 72674,
      "prePerformCfg": ""
    },
    {
      "id": 7267404,
      "beginWay": "TALK_BEGIN_MANUAL",
      "activeMode": "PLAY_MODE_SINGLE",
      "beginCond": [
        {
          "type": "QUEST_COND_STATE_EQUAL",
          "param": [
            "7267402",
            "2"
          ],
          "param_str": ""
        }
      ],
      "priority": 5,
      "initDialog": 726740401,
      "npcId": [
        3159
      ],
      "performCfg": "QuestDialogue/WQ/Inazuma_72674/Q7267404",
      "heroTalk": "TALK_HERO_MAIN",
      "questId": 72674,
      "prePerformCfg": ""
    }
  ]
}