{
  "id": 72694,
  "type": "WQ",
  "titleTextMapHash": 2255522359,
  "descTextMapHash": 210390462,
  "luaPath": "Actor/Quest/WQ72694",
  "rewardIdList": [
    172694
  ],
  "subQuests": [
    {
      "subId": 7269401,
      "mainId": 72694,
      "order": 1,
      "descTextMapHash": 2506762652,
      "acceptCond": [
        {
          "type": "QUEST_COND_ACTIVITY_COND",
          "param": [
            5080001,
            1,
            0,
            0,
            0
          ],
          "param_str": ""
        }
      ],
      "finishCond": [
        {
          "type": "QUEST_CONTENT_COMPLETE_TALK",
          "param": [
            7269401,
            0
          ],
          "param_str": ""
        }
      ],
      "failCond": [],
      "guide": {
        "type": "QUEST_GUIDE_NPC",
        "param": [
          "3004"
        ],
        "guideScene": 3,
        "guideStyle": "QUEST_GUIDE_STYLE_TARGET",
        "guideLayer": "QUEST_GUIDE_LAYER_SCENE"
      },
      "isRewind": true,
      "finishExec": [],
      "failExec": [],
      "beginExec": [],
      "exclusiveNpcList": [
        3004,
        12522
      ],
      "exclusiveNpcPriority": 1100
    },
    {
      "subId": 7269402,
      "mainId": 72694,
      "order": 2,
      "descTextMapHash": 1964402532,
      "acceptCond": [
        {
          "type": "QUEST_COND_STATE_EQUAL",
          "param": [
            7269401,
            3,
            0,
            0,
            0
          ],
          "param_str": ""
        }
      ],
      "finishCond": [
        {
          "type": "QUEST_CONTENT_COMPLETE_TALK",
          "param": [
            7269402,
            0
          ],
          "param_str": ""
        }
      ],
      "failCond": [],
      "guide": {
        "type": "QUEST_GUIDE_NPC",
        "param": [
          "30187"
        ],
        "guideScene": 3,
        "guideStyle": "QUEST_GUIDE_STYLE_TARGET",
        "guideLayer": "QUEST_GUIDE_LAYER_SCENE"
      },
      "isRewind": true,
      "finishExec": [],
      "failExec": [],
      "beginExec": [],
      "exclusiveNpcList": [
        12522
      ],
      "exclusiveNpcPriority": 1100
    },
    {
      "subId": 7269403,
      "mainId": 72694,
      "order": 3,
      "descTextMapHash": 2244421884,
      "acceptCond": [
        {
          "type": "QUEST_COND_STATE_EQUAL",
          "param": [
            7269402,
            3,
            0,
            0,
            0
          ],
          "param_str": ""
        }
      ],
      "finishCond": [
        {
          "type": "QUEST_CONTENT_ACTIVITY_TRIGGER_UPDATE",
          "param": [
            5080,
            101
          ],
          "param_str": "",
          "count": 1
        }
      ],
      "failCond": [],
      "guide": {
        "param": []
      },
      "isRewind": true,
      "finishExec": [],
      "failExec": [],
      "beginExec": [],
      "exclusiveNpcList": [
        12522
      ],
      "exclusiveNpcPriority": 1100
    },
    {
      "subId": 7269404,
      "mainId": 72694,
      "order": 6,
      "descTextMapHash": 1907487932,
      "acceptCond": [
        {
          "type": "QUEST_COND_STATE_EQUAL",
          "param": [
            7269406,
            3,
            0,
            0,
            0
          ],
          "param_str": ""
        }
      ],
      "finishCond": [
        {
          "type": "QUEST_CONTENT_COMPLETE_TALK",
          "param": [
            7269404,
            0
          ],
          "param_str": ""
        }
      ],
      "failCond": [],
      "guide": {
        "type": "QUEST_GUIDE_NPC",
        "param": [
          "30187"
        ],
        "guideScene": 3,
        "guideStyle": "QUEST_GUIDE_STYLE_TARGET",
        "guideLayer": "QUEST_GUIDE_LAYER_SCENE"
      },
      "finishParent": true,
      "isRewind": true,
      "finishExec": [],
      "failExec": [],
      "beginExec": [],
      "exclusiveNpcList": [
        12522
      ],
      "exclusiveNpcPriority": 1100
    },
    {
      "subId": 7269405,
      "mainId": 72694,
      "order": 4,
      "descTextMapHash": 4225019732,
      "acceptCond": [
        {
          "type": "QUEST_COND_STATE_EQUAL",
          "param": [
            7269403,
            3,
            0,
            0,
            0
          ],
          "param_str": ""
        }
      ],
      "finishCond": [
        {
          "type": "QUEST_CONTENT_ACTIVITY_TRIGGER_UPDATE",
          "param": [
            5080,
            102
          ],
          "param_str": "",
          "count": 1
        }
      ],
      "failCond": [],
      "guide": {
        "param": []
      },
      "isRewind": true,
      "finishExec": [],
      "failExec": [],
      "beginExec": [],
      "exclusiveNpcList": [
        12522
      ],
      "exclusiveNpcPriority": 1100
    },
    {
      "subId": 7269406,
      "mainId": 72694,
      "order": 5,
      "descTextMapHash": 2592729636,
      "acceptCond": [
        {
          "type": "QUEST_COND_STATE_EQUAL",
          "param": [
            7269405,
            3,
            0,
            0,
            0
          ],
          "param_str": ""
        }
      ],
      "finishCond": [
        {
          "type": "QUEST_CONTENT_ACTIVITY_TRIGGER_UPDATE",
          "param": [
            5080,
            103
          ],
          "param_str": "",
          "count": 1
        }
      ],
      "failCond": [],
      "guide": {
        "param": []
      },
      "isRewind": true,
      "finishExec": [],
      "failExec": [],
      "beginExec": [],
      "exclusiveNpcList": [
        12522
      ],
      "exclusiveNpcPriority": 1100
    }
  ],
  "talks": [
    {
      "id": 7269401,
      "beginWay": "TALK_BEGIN_MANUAL",
      "activeMode": "PLAY_MODE_HOST",
      "beginCond": [
        {
          "type": "QUEST_COND_STATE_EQUAL",
          "param": [
            "7269401",
            "2"
          ],
          "param_str": ""
        }
      ],
      "priority": 5,
      "initDialog": 726940101,
      "npcId": [
        3004
      ],
      "performCfg": "QuestDialogue/WQ/Inazuma_72694/Q7269401",
      "heroTalk": "TALK_HERO_MAIN",
      "questId": 72694,
      "prePerformCfg": ""
    },
    {
      "id": 7269402,
      "beginWay": "TALK_BEGIN_MANUAL",
      "activeMode": "PLAY_MODE_HOST",
      "beginCond": [
        {
          "type": "QUEST_COND_STATE_EQUAL",
          "param": [
            "7269402",
            "2"
          ],
          "param_str": ""
        }
      ],
      "priority": 5,
      "initDialog": 726940201,
      "npcId": [
        30187
      ],
      "performCfg": "QuestDialogue/WQ/Inazuma_72694/Q7269402",
      "heroTalk": "TALK_HERO_MAIN",
      "questId": 72694,
      "prePerformCfg": ""
    },
    {
      "id": 7269403,
      "beginWay": "TALK_BEGIN_MANUAL",
      "activeMode": "PLAY_MODE_HOST",
      "beginCondComb": "LOGIC_OR",
      "beginCond": [
        {
          "type": "QUEST_COND_STATE_EQUAL",
          "param": [
            "7269403",
            "2"
          ],
          "param_str": ""
        },
        {
          "type": "QUEST_COND_STATE_EQUAL",
          "param": [
            "7269405",
            "2"
          ],
          "param_str": ""
        },
        {
          "type": "QUEST_COND_STATE_EQUAL",
          "param": [
            "7269406",
            "2"
          ],
          "param_str": ""
        }
      ],
      "priority": 5,
      "initDialog": 726940301,
      "npcId": [
        30187
      ],
      "performCfg": "",
      "heroTalk": "TALK_HERO_MAIN",
      "questId": 72694,
      "prePerformCfg": ""
    },
    {
      "id": 7269404,
      "beginWay": "TALK_BEGIN_MANUAL",
      "activeMode": "PLAY_MODE_HOST",
      "beginCond": [
        {
          "type": "QUEST_COND_STATE_EQUAL",
          "param": [
            "7269404",
            "2"
          ],
          "param_str": ""
        }
      ],
      "priority": 5,
      "initDialog": 726940401,
      "npcId": [
        30187
      ],
      "performCfg": "QuestDialogue/WQ/Inazuma_72694/Q7269404",
      "heroTalk": "TALK_HERO_MAIN",
      "questId": 72694,
      "prePerformCfg": ""
    },
    {
      "id": 7269405,
      "beginWay": "TALK_BEGIN_MANUAL",
      "activeMode": "PLAY_MODE_HOST",
      "beginCond": [
        {
          "type": "QUEST_COND_STATE_EQUAL",
          "param": [
            "7269401",
            "2"
          ],
          "param_str": ""
        }
      ],
      "priority": 5,
      "initDialog": 726940501,
      "npcId": [
        30187
      ],
      "performCfg": "",
      "heroTalk": "TALK_HERO_MAIN",
      "questId": 72694,
      "prePerformCfg": ""
    }
  ]
}