{
  "id": 72691,
  "type": "WQ",
  "titleTextMapHash": 1427700351,
  "descTextMapHash": 3638742910,
  "luaPath": "Actor/Quest/WQ72691",
  "rewardIdList": [
    172691
  ],
  "subQuests": [
    {
      "subId": 7269101,
      "mainId": 72691,
      "order": 1,
      "descTextMapHash": 1384396556,
      "acceptCondComb": "LOGIC_AND",
      "acceptCond": [
        {
          "type": "QUEST_COND_ACTIVITY_COND",
          "param": [
            2012008,
            1,
            0,
            0,
            0
          ],
          "param_str": ""
        },
        {
          "type": "QUEST_COND_STATE_EQUAL",
          "param": [
            4005513,
            3,
            0,
            0,
            0
          ],
          "param_str": ""
        }
      ],
      "finishCond": [
        {
          "type": "QUEST_CONTENT_COMPLETE_TALK",
          "param": [
            7269101,
            0
          ],
          "param_str": ""
        }
      ],
      "failCond": [],
      "guide": {
        "type": "QUEST_GUIDE_NPC",
        "param": [
          "30172"
        ],
        "guideScene": 3,
        "guideStyle": "QUEST_GUIDE_STYLE_START",
        "guideLayer": "QUEST_GUIDE_LAYER_SCENE"
      },
      "isRewind": true,
      "finishExec": [],
      "failExec": [],
      "beginExec": [],
      "exclusiveNpcList": [
        30172,
        30173
      ],
      "exclusiveNpcPriority": 1100
    },
    {
      "subId": 7269102,
      "mainId": 72691,
      "order": 2,
      "descTextMapHash": 3148829228,
      "acceptCond": [
        {
          "type": "QUEST_COND_STATE_EQUAL",
          "param": [
            7269101,
            3,
            0,
            0,
            0
          ],
          "param_str": ""
        }
      ],
      "finishCond": [
        {
          "type": "QUEST_CONTENT_IRODORI_POETRY_REACH_MIN_PROGRESS",
          "param": [
            1,
            0
          ],
          "param_str": ""
        }
      ],
      "failCond": [],
      "guide": {
        "type": "QUEST_GUIDE_NPC",
        "param": [
          "30173"
        ],
        "guideScene": 3,
        "guideStyle": "QUEST_GUIDE_STYLE_TARGET",
        "guideLayer": "QUEST_GUIDE_LAYER_SCENE"
      },
      "isRewind": true,
      "finishExec": [],
      "failExec": [],
      "beginExec": [],
      "exclusiveNpcList": [
        30172,
        30173
      ],
      "exclusiveNpcPriority": 1100
    },
    {
      "subId": 7269104,
      "mainId": 72691,
      "order": 3,
      "isMpBlock": true,
      "descTextMapHash": 3618401756,
      "acceptCond": [
        {
          "type": "QUEST_COND_STATE_EQUAL",
          "param": [
            7269102,
            3,
            0,
            0,
            0
          ],
          "param_str": ""
        }
      ],
      "finishCond": [
        {
          "type": "QUEST_CONTENT_IRODORI_POETRY_FINISH_FILL_POETRY",
          "param": [
            1,
            0
          ],
          "param_str": ""
        }
      ],
      "failCond": [],
      "guide": {
        "type": "QUEST_GUIDE_NPC",
        "param": [
          "30173"
        ],
        "guideScene": 3,
        "guideStyle": "QUEST_GUIDE_STYLE_TARGET",
        "guideLayer": "QUEST_GUIDE_LAYER_SCENE"
      },
      "isRewind": true,
      "finishExec": [],
      "failExec": [],
      "beginExec": [],
      "exclusiveNpcList": [
        30172,
        30173
      ],
      "exclusiveNpcPriority": 1100
    },
    {
      "subId": 7269105,
      "mainId": 72691,
      "order": 4,
      "descTextMapHash": 1824037716,
      "acceptCond": [
        {
          "type": "QUEST_COND_STATE_EQUAL",
          "param": [
            7269104,
            3,
            0,
            0,
            0
          ],
          "param_str": ""
        }
      ],
      "finishCond": [
        {
          "type": "QUEST_CONTENT_COMPLETE_TALK",
          "param": [
            7269109,
            0
          ],
          "param_str": ""
        }
      ],
      "failCond": [],
      "guide": {
        "type": "QUEST_GUIDE_NPC",
        "param": [
          "30172"
        ],
        "guideScene": 3,
        "guideStyle": "QUEST_GUIDE_STYLE_FINISH",
        "guideLayer": "QUEST_GUIDE_LAYER_SCENE"
      },
      "finishParent": true,
      "isRewind": true,
      "finishExec": [],
      "failExec": [],
      "beginExec": [],
      "exclusiveNpcList": [
        30172,
        30173
      ],
      "exclusiveNpcPriority": 1100
    }
  ],
  "talks": [
    {
      "id": 7269101,
      "beginWay": "TALK_BEGIN_MANUAL",
      "activeMode": "PLAY_MODE_SINGLE",
      "beginCond": [
        {
          "type": "QUEST_COND_STATE_EQUAL",
          "param": [
            "7269101",
            "2"
          ],
          "param_str": ""
        }
      ],
      "priority": 5,
      "initDialog": 726910101,
      "npcId": [
        30172
      ],
      "performCfg": "QuestDialogue/WQ/Inazuma_72691/Q7269101",
      "heroTalk": "TALK_HERO_MAIN",
      "questId": 72691,
      "prePerformCfg": ""
    },
    {
      "id": 7269102,
      "beginWay": "TALK_BEGIN_MANUAL",
      "activeMode": "PLAY_MODE_SINGLE",
      "beginCond": [
        {
          "type": "QUEST_COND_STATE_EQUAL",
          "param": [
            "7269102",
            "2"
          ],
          "param_str": ""
        }
      ],
      "priority": 5,
      "initDialog": 726910201,
      "npcId": [
        30173
      ],
      "performCfg": "QuestDialogue/WQ/Inazuma_72691/Q7269102",
      "heroTalk": "TALK_HERO_MAIN",
      "questId": 72691,
      "prePerformCfg": "",
      "lowPriority": true
    },
    {
      "id": 7269103,
      "beginWay": "TALK_BEGIN_MANUAL",
      "activeMode": "PLAY_MODE_SINGLE",
      "beginCond": [
        {
          "type": "QUEST_COND_STATE_EQUAL",
          "param": [
            "7269104",
            "2"
          ],
          "param_str": ""
        }
      ],
      "priority": 5,
      "initDialog": 726910301,
      "npcId": [
        30173
      ],
      "performCfg": "QuestDialogue/WQ/Inazuma_72691/Q7269103",
      "heroTalk": "TALK_HERO_MAIN",
      "questId": 72691,
      "prePerformCfg": ""
    },
    {
      "id": 7269104,
      "beginWay": "TALK_BEGIN_MANUAL",
      "activeMode": "PLAY_MODE_SINGLE",
      "beginCondComb": "LOGIC_AND",
      "beginCond": [
        {
          "type": "QUEST_COND_QUEST_VAR_EQUAL",
          "param": [
            "1",
            "1",
            "72691"
          ],
          "param_str": ""
        },
        {
          "type": "QUEST_COND_STATE_EQUAL",
          "param": [
            "7269105",
            "2"
          ],
          "param_str": ""
        }
      ],
      "priority": 5,
      "nextTalks": [
        7269109
      ],
      "initDialog": 726910401,
      "npcId": [
        30172
      ],
      "performCfg": "QuestDialogue/WQ/Inazuma_72691/Q7269104",
      "heroTalk": "TALK_HERO_MAIN",
      "questId": 72691,
      "prePerformCfg": ""
    },
    {
      "id": 7269105,
      "beginWay": "TALK_BEGIN_MANUAL",
      "activeMode": "PLAY_MODE_SINGLE",
      "beginCondComb": "LOGIC_AND",
      "beginCond": [
        {
          "type": "QUEST_COND_QUEST_VAR_EQUAL",
          "param": [
            "1",
            "2",
            "72691"
          ],
          "param_str": ""
        },
        {
          "type": "QUEST_COND_STATE_EQUAL",
          "param": [
            "7269105",
            "2"
          ],
          "param_str": ""
        }
      ],
      "priority": 5,
      "nextTalks": [
        7269109
      ],
      "initDialog": 726910501,
      "npcId": [
        30172
      ],
      "performCfg": "QuestDialogue/WQ/Inazuma_72691/Q7269105",
      "heroTalk": "TALK_HERO_MAIN",
      "questId": 72691,
      "prePerformCfg": ""
    },
    {
      "id": 7269106,
      "beginWay": "TALK_BEGIN_MANUAL",
      "activeMode": "PLAY_MODE_SINGLE",
      "beginCondComb": "LOGIC_AND",
      "beginCond": [
        {
          "type": "QUEST_COND_QUEST_VAR_EQUAL",
          "param": [
            "1",
            "3",
            "72691"
          ],
          "param_str": ""
        },
        {
          "type": "QUEST_COND_STATE_EQUAL",
          "param": [
            "7269105",
            "2"
          ],
          "param_str": ""
        }
      ],
      "priority": 5,
      "nextTalks": [
        7269109
      ],
      "initDialog": 726910601,
      "npcId": [
        30172
      ],
      "performCfg": "QuestDialogue/WQ/Inazuma_72691/Q7269106",
      "heroTalk": "TALK_HERO_MAIN",
      "questId": 72691,
      "prePerformCfg": ""
    },
    {
      "id": 7269107,
      "beginWay": "TALK_BEGIN_MANUAL",
      "activeMode": "PLAY_MODE_SINGLE",
      "beginCondComb": "LOGIC_AND",
      "beginCond": [
        {
          "type": "QUEST_COND_QUEST_VAR_EQUAL",
          "param": [
            "1",
            "4",
            "72691"
          ],
          "param_str": ""
        },
        {
          "type": "QUEST_COND_STATE_EQUAL",
          "param": [
            "7269105",
            "2"
          ],
          "param_str": ""
        }
      ],
      "priority": 5,
      "nextTalks": [
        7269109
      ],
      "initDialog": 726910701,
      "npcId": [
        30172
      ],
      "performCfg": "QuestDialogue/WQ/Inazuma_72691/Q7269107",
      "heroTalk": "TALK_HERO_MAIN",
      "questId": 72691,
      "prePerformCfg": ""
    },
    {
      "id": 7269108,
      "beginWay": "TALK_BEGIN_MANUAL",
      "activeMode": "PLAY_MODE_SINGLE",
      "beginCondComb": "LOGIC_AND",
      "beginCond": [
        {
          "type": "QUEST_COND_QUEST_VAR_EQUAL",
          "param": [
            "1",
            "5",
            "72691"
          ],
          "param_str": ""
        },
        {
          "type": "QUEST_COND_STATE_EQUAL",
          "param": [
            "7269105",
            "2"
          ],
          "param_str": ""
        }
      ],
      "priority": 5,
      "nextTalks": [
        7269109
      ],
      "initDialog": 726910801,
      "npcId": [
        30172
      ],
      "performCfg": "QuestDialogue/WQ/Inazuma_72691/Q7269108",
      "heroTalk": "TALK_HERO_MAIN",
      "questId": 72691,
      "prePerformCfg": ""
    },
    {
      "id": 7269109,
      "activeMode": "PLAY_MODE_SINGLE",
      "beginCond": [
        {
          "type": "QUEST_COND_STATE_EQUAL",
          "param": [
            "7269105",
            "2"
          ],
          "param_str": ""
        }
      ],
      "priority": 5,
      "initDialog": 726910901,
      "npcId": [
        30172
      ],
      "performCfg": "QuestDialogue/WQ/Inazuma_72691/Q7269109",
      "heroTalk": "TALK_HERO_MAIN",
      "questId": 72691,
      "prePerformCfg": ""
    }
  ]
}