{
  "id": 72707,
  "type": "WQ",
  "titleTextMapHash": 174613807,
  "descTextMapHash": 3811767646,
  "luaPath": "Actor/Quest/WQ72707",
  "subQuests": [
    {
      "subId": 7270701,
      "mainId": 72707,
      "order": 1,
      "descTextMapHash": 888124764,
      "acceptCond": [
        {
          "type": "QUEST_COND_CITY_REPUTATION_REQUEST",
          "param": [
            0,
            0,
            0,
            0,
            0
          ],
          "param_str": ""
        }
      ],
      "finishCond": [
        {
          "type": "QUEST_CONTENT_LUA_NOTIFY",
          "param": [
            0,
            0
          ],
          "param_str": "133213192",
          "count": 1
        }
      ],
      "failCond": [],
      "guide": {
        "type": "QUEST_GUIDE_LOCATION",
        "param": [
          "Q3_72707_0",
          "30"
        ],
        "guideScene": 3,
        "guideStyle": "QUEST_GUIDE_STYLE_TARGET",
        "guideLayer": "QUEST_GUIDE_LAYER_SCENE"
      },
      "finishParent": true,
      "isRewind": true,
      "finishExec": [
        {
          "type": "QUEST_EXEC_UNREGISTER_DYNAMIC_GROUP",
          "param": [
            "133213192"
          ],
          "param_str": ""
        }
      ],
      "failExec": [],
      "beginExec": [
        {
          "type": "QUEST_EXEC_REGISTER_DYNAMIC_GROUP",
          "param": [
            "3",
            "133213192"
          ],
          "param_str": ""
        }
      ]
    }
  ]
}