{
  "id": 72701,
  "type": "WQ",
  "titleTextMapHash": 1658714583,
  "descTextMapHash": 507144862,
  "luaPath": "Actor/Quest/WQ72701",
  "subQuests": [
    {
      "subId": 7270101,
      "mainId": 72701,
      "order": 1,
      "descTextMapHash": 2980069740,
      "acceptCond": [
        {
          "type": "QUEST_COND_CITY_REPUTATION_REQUEST",
          "param": [
            0,
            0,
            0,
            0,
            0
          ],
          "param_str": ""
        }
      ],
      "finishCond": [
        {
          "type": "QUEST_CONTENT_LUA_NOTIFY",
          "param": [
            0,
            0
          ],
          "param_str": "133220250",
          "count": 1
        }
      ],
      "failCond": [],
      "guide": {
        "type": "QUEST_GUIDE_LOCATION",
        "param": [
          "Q3_72701_0",
          "20"
        ],
        "guideScene": 3,
        "guideStyle": "QUEST_GUIDE_STYLE_TARGET",
        "guideLayer": "QUEST_GUIDE_LAYER_SCENE"
      },
      "finishParent": true,
      "isRewind": true,
      "finishExec": [
        {
          "type": "QUEST_EXEC_UNREGISTER_DYNAMIC_GROUP",
          "param": [
            "133220250"
          ],
          "param_str": ""
        }
      ],
      "failExec": [],
      "beginExec": [
        {
          "type": "QUEST_EXEC_REGISTER_DYNAMIC_GROUP",
          "param": [
            "3",
            "133220250"
          ],
          "param_str": ""
        }
      ]
    }
  ]
}