{
  "id": 72718,
  "type": "WQ",
  "titleTextMapHash": 707646055,
  "descTextMapHash": 3548967566,
  "luaPath": "Actor/Quest/WQ72718",
  "subQuests": [
    {
      "subId": 7271801,
      "mainId": 72718,
      "order": 1,
      "descTextMapHash": 623235476,
      "acceptCond": [
        {
          "type": "QUEST_COND_CITY_REPUTATION_REQUEST",
          "param": [
            0,
            0,
            0,
            0,
            0
          ],
          "param_str": ""
        }
      ],
      "finishCond": [
        {
          "type": "QUEST_CONTENT_FINISH_ITEM_GIVING",
          "param": [
            7271801,
            0
          ],
          "param_str": ""
        }
      ],
      "failCond": [],
      "guide": {
        "type": "QUEST_GUIDE_NPC",
        "param": [
          "3018"
        ],
        "guideScene": 3,
        "guideStyle": "QUEST_GUIDE_STYLE_TARGET",
        "guideLayer": "QUEST_GUIDE_LAYER_SCENE"
      },
      "isRewind": true,
      "finishExec": [],
      "failExec": [],
      "beginExec": [
        {
          "type": "QUEST_EXEC_ACTIVE_ITEM_GIVING",
          "param": [
            "7271801"
          ],
          "param_str": ""
        }
      ],
      "exclusiveNpcList": [
        3018
      ],
      "exclusiveNpcPriority": 1100
    },
    {
      "subId": 7271802,
      "mainId": 72718,
      "order": 2,
      "descTextMapHash": 2635090324,
      "acceptCond": [
        {
          "type": "QUEST_COND_STATE_EQUAL",
          "param": [
            7271801,
            3,
            0,
            0,
            0
          ],
          "param_str": ""
        }
      ],
      "finishCond": [
        {
          "type": "QUEST_CONTENT_COMPLETE_TALK",
          "param": [
            7271802,
            0
          ],
          "param_str": ""
        }
      ],
      "failCond": [],
      "guide": {
        "type": "QUEST_GUIDE_NPC",
        "param": [
          "3018"
        ],
        "guideScene": 3,
        "guideStyle": "QUEST_GUIDE_STYLE_TARGET",
        "guideLayer": "QUEST_GUIDE_LAYER_SCENE"
      },
      "finishParent": true,
      "isRewind": true,
      "finishExec": [],
      "failExec": [],
      "beginExec": [],
      "exclusiveNpcList": [
        3018
      ],
      "exclusiveNpcPriority": 1100
    }
  ],
  "talks": [
    {
      "id": 7271801,
      "activeMode": "PLAY_MODE_SINGLE",
      "beginCondComb": "LOGIC_AND",
      "beginCond": [
        {
          "type": "QUEST_COND_STATE_EQUAL",
          "param": [
            "7271801",
            "2"
          ],
          "param_str": ""
        },
        {
          "type": "QUEST_COND_ITEM_GIVING_ACTIVED",
          "param": [
            "7271801"
          ],
          "param_str": ""
        }
      ],
      "priority": 5,
      "initDialog": 727180101,
      "npcId": [
        3018
      ],
      "performCfg": "",
      "questId": 72718,
      "dontBlockDaily": true,
      "prePerformCfg": ""
    },
    {
      "id": 7271802,
      "beginWay": "TALK_BEGIN_AUTO",
      "activeMode": "PLAY_MODE_SINGLE",
      "beginCond": [
        {
          "type": "QUEST_COND_STATE_EQUAL",
          "param": [
            "7271802",
            "2"
          ],
          "param_str": ""
        }
      ],
      "priority": 5,
      "initDialog": 727180201,
      "npcId": [
        3018
      ],
      "performCfg": "",
      "questId": 72718,
      "prePerformCfg": ""
    }
  ]
}