{
  "id": 72734,
  "type": "WQ",
  "series": 72730,
  "titleTextMapHash": 1204875687,
  "descTextMapHash": 1297876318,
  "luaPath": "Actor/Quest/WQ72734",
  "showType": "QUEST_HIDDEN",
  "subQuests": [
    {
      "mainId": 72734,
      "subId": 7273401,
      "order": 1,
      "showType": "QUEST_HIDDEN",
      "descTextMapHash": 1679660932,
      "acceptCond": [
        {
          "type": "QUEST_COND_UNKNOWN",
          "param": [
            0,
            0
          ]
        }
      ],
      "finishCond": [],
      "failCond": [],
      "guide": {
        "type": "QUEST_GUIDE_NPC",
        "param": [
          "13089"
        ],
        "guideScene": 3,
        "guideStyle": "QUEST_GUIDE_STYLE_TARGET",
        "guideLayer": "QUEST_GUIDE_LAYER_SCENE"
      },
      "finishExec": [],
      "failExec": [],
      "beginExec": []
    }
  ],
  "talks": [
    {
      "id": 7273401,
      "beginWay": "TALK_BEGIN_MANUAL",
      "activeMode": "PLAY_MODE_SINGLE",
      "beginCond": [
        {
          "type": "QUEST_COND_STATE_EQUAL",
          "param": [
            "7273401",
            "2"
          ],
          "param_str": ""
        }
      ],
      "priority": 5,
      "initDialog": 727340101,
      "npcId": [
        13089
      ],
      "performCfg": "QuestDialogue/WQ/Daoqi_72734/Q7273401",
      "heroTalk": "TALK_HERO_MAIN",
      "questId": 72734,
      "prePerformCfg": ""
    }
  ]
}