{
  "id": 72910,
  "type": "WQ",
  "titleTextMapHash": 310693863,
  "descTextMapHash": 3392728302,
  "luaPath": "",
  "showType": "QUEST_HIDDEN",
  "rewardIdList": [
    553009
  ],
  "subQuests": [
    {
      "subId": 7291001,
      "mainId": 72910,
      "order": 1,
      "descTextMapHash": 3727883372,
      "showType": "QUEST_HIDDEN",
      "acceptCondComb": "LOGIC_OR",
      "acceptCond": [
        {
          "type": "QUEST_COND_COMPLETE_TALK",
          "param": [
            7291001,
            0,
            0,
            0,
            0
          ],
          "param_str": ""
        }
      ],
      "finishCond": [
        {
          "type": "QUEST_CONTENT_COMPLETE_TALK",
          "param": [
            7291001,
            0
          ],
          "param_str": ""
        }
      ],
      "failCond": [],
      "guide": {
        "param": []
      },
      "finishParent": true,
      "finishExec": [],
      "failExec": [],
      "beginExec": []
    }
  ]
}