{
  "id": 72928,
  "type": "WQ",
  "titleTextMapHash": 2954690639,
  "descTextMapHash": 4108715614,
  "luaPath": "",
  "showType": "QUEST_HIDDEN",
  "rewardIdList": [
    553036
  ],
  "subQuests": [
    {
      "subId": 7292801,
      "mainId": 72928,
      "order": 1,
      "descTextMapHash": 1773006980,
      "showType": "QUEST_HIDDEN",
      "acceptCondComb": "LOGIC_OR",
      "acceptCond": [
        {
          "type": "QUEST_COND_COMPLETE_TALK",
          "param": [
            7292801,
            0,
            0,
            0,
            0
          ],
          "param_str": ""
        }
      ],
      "finishCond": [
        {
          "type": "QUEST_CONTENT_COMPLETE_TALK",
          "param": [
            7292801,
            0
          ],
          "param_str": ""
        }
      ],
      "failCond": [],
      "guide": {
        "param": []
      },
      "finishParent": true,
      "finishExec": [],
      "failExec": [],
      "beginExec": []
    }
  ]
}