{
  "id": 72933,
  "type": "WQ",
  "titleTextMapHash": 2437012415,
  "descTextMapHash": 2109763990,
  "luaPath": "",
  "showType": "QUEST_HIDDEN",
  "rewardIdList": [
    553010
  ],
  "subQuests": [
    {
      "subId": 7293301,
      "mainId": 72933,
      "order": 1,
      "descTextMapHash": 3811619124,
      "showType": "QUEST_HIDDEN",
      "acceptCondComb": "LOGIC_OR",
      "acceptCond": [
        {
          "type": "QUEST_COND_COMPLETE_TALK",
          "param": [
            6308609,
            0,
            0,
            0,
            0
          ],
          "param_str": ""
        },
        {
          "type": "QUEST_COND_COMPLETE_TALK",
          "param": [
            7293301,
            0,
            0,
            0,
            0
          ],
          "param_str": ""
        }
      ],
      "finishCondComb": "LOGIC_OR",
      "finishCond": [
        {
          "type": "QUEST_CONTENT_COMPLETE_TALK",
          "param": [
            6308609,
            0
          ],
          "param_str": ""
        },
        {
          "type": "QUEST_CONTENT_COMPLETE_TALK",
          "param": [
            7293301,
            0
          ],
          "param_str": ""
        }
      ],
      "failCond": [],
      "guide": {
        "param": []
      },
      "finishParent": true,
      "finishExec": [],
      "failExec": [],
      "beginExec": []
    }
  ]
}