{
  "id": 73006,
  "type": "WQ",
  "titleTextMapHash": 2063269847,
  "descTextMapHash": 337250358,
  "luaPath": "Actor/Quest/WQ73006",
  "chapterId": 10083,
  "subQuests": [
    {
      "mainId": 73006,
      "subId": 7300601,
      "order": 1,
      "showType": "QUEST_HIDDEN",
      "descTextMapHash": 2707773508,
      "acceptCond": [
        {
          "type": "QUEST_COND_UNKNOWN",
          "param": [
            0,
            0
          ]
        }
      ],
      "finishCond": [],
      "failCond": [],
      "guide": {},
      "finishExec": [],
      "failExec": [],
      "beginExec": []
    },
    {
      "mainId": 73006,
      "subId": 7300602,
      "order": 2,
      "showType": "QUEST_HIDDEN",
      "descTextMapHash": 1070289236,
      "acceptCond": [
        {
          "type": "QUEST_COND_UNKNOWN",
          "param": [
            0,
            0
          ]
        }
      ],
      "finishCond": [],
      "failCond": [],
      "guide": {},
      "finishExec": [],
      "failExec": [],
      "beginExec": []
    },
    {
      "mainId": 73006,
      "subId": 7300603,
      "order": 3,
      "showType": "QUEST_HIDDEN",
      "descTextMapHash": 2608175748,
      "acceptCond": [
        {
          "type": "QUEST_COND_UNKNOWN",
          "param": [
            0,
            0
          ]
        }
      ],
      "finishCond": [],
      "failCond": [],
      "guide": {
        "type": "QUEST_GUIDE_NPC",
        "autoGuide": "QUEST_GUIDE_AUTO_ENABLE",
        "param": [
          "20577"
        ],
        "guideScene": 3,
        "guideStyle": "QUEST_GUIDE_STYLE_POINT",
        "guideLayer": "QUEST_GUIDE_LAYER_UI"
      },
      "finishExec": [],
      "failExec": [],
      "beginExec": []
    },
    {
      "mainId": 73006,
      "subId": 7300604,
      "order": 4,
      "showType": "QUEST_HIDDEN",
      "descTextMapHash": 426020548,
      "acceptCond": [
        {
          "type": "QUEST_COND_UNKNOWN",
          "param": [
            0,
            0
          ]
        }
      ],
      "finishCond": [],
      "failCond": [],
      "guide": {
        "type": "QUEST_GUIDE_NPC",
        "autoGuide": "QUEST_GUIDE_AUTO_ENABLE",
        "param": [
          "20577"
        ],
        "guideScene": 3,
        "guideStyle": "QUEST_GUIDE_STYLE_POINT",
        "guideLayer": "QUEST_GUIDE_LAYER_UI"
      },
      "finishExec": [],
      "failExec": [],
      "beginExec": []
    },
    {
      "mainId": 73006,
      "subId": 7300605,
      "order": 5,
      "descTextMapHash": 2818887316,
      "acceptCond": [
        {
          "type": "QUEST_COND_UNKNOWN",
          "param": [
            0,
            0
          ]
        }
      ],
      "finishCond": [],
      "failCond": [],
      "guide": {
        "type": "QUEST_GUIDE_LOCATION",
        "autoGuide": "QUEST_GUIDE_AUTO_ENABLE",
        "param": [
          "Q7300605_687",
          "30"
        ],
        "guideScene": 3,
        "guideStyle": "QUEST_GUIDE_STYLE_POINT",
        "guideLayer": "QUEST_GUIDE_LAYER_UI"
      },
      "finishExec": [],
      "failExec": [],
      "beginExec": []
    },
    {
      "mainId": 73006,
      "subId": 7300606,
      "order": 7,
      "descTextMapHash": 3841858860,
      "acceptCond": [
        {
          "type": "QUEST_COND_UNKNOWN",
          "param": [
            0,
            0
          ]
        }
      ],
      "finishCond": [],
      "failCond": [],
      "guide": {
        "type": "QUEST_GUIDE_LOCATION",
        "autoGuide": "QUEST_GUIDE_AUTO_ENABLE",
        "param": [
          "Q7300606_guide",
          "30"
        ],
        "guideScene": 3,
        "guideStyle": "QUEST_GUIDE_STYLE_POINT",
        "guideLayer": "QUEST_GUIDE_LAYER_UI"
      },
      "finishExec": [],
      "failExec": [],
      "beginExec": []
    },
    {
      "mainId": 73006,
      "subId": 7300607,
      "order": 9,
      "descTextMapHash": 3685222364,
      "acceptCond": [
        {
          "type": "QUEST_COND_UNKNOWN",
          "param": [
            0,
            0
          ]
        }
      ],
      "finishCond": [],
      "failCond": [],
      "guide": {
        "type": "QUEST_GUIDE_NPC",
        "autoGuide": "QUEST_GUIDE_AUTO_ENABLE",
        "param": [
          "20577"
        ],
        "guideScene": 3,
        "guideStyle": "QUEST_GUIDE_STYLE_POINT",
        "guideLayer": "QUEST_GUIDE_LAYER_UI"
      },
      "finishExec": [],
      "failExec": [],
      "beginExec": []
    },
    {
      "mainId": 73006,
      "subId": 7300608,
      "order": 10,
      "descTextMapHash": 284945884,
      "acceptCond": [
        {
          "type": "QUEST_COND_UNKNOWN",
          "param": [
            0,
            0
          ]
        }
      ],
      "finishCond": [],
      "failCond": [],
      "guide": {
        "type": "QUEST_GUIDE_LOCATION",
        "autoGuide": "QUEST_GUIDE_AUTO_ENABLE",
        "param": [
          "Q7300608",
          "30"
        ],
        "guideScene": 3,
        "guideStyle": "QUEST_GUIDE_STYLE_POINT",
        "guideLayer": "QUEST_GUIDE_LAYER_UI"
      },
      "finishExec": [],
      "failExec": [],
      "beginExec": []
    },
    {
      "mainId": 73006,
      "subId": 7300609,
      "order": 11,
      "descTextMapHash": 2173182388,
      "acceptCond": [
        {
          "type": "QUEST_COND_UNKNOWN",
          "param": [
            0,
            0
          ]
        }
      ],
      "finishCond": [],
      "failCond": [],
      "guide": {
        "type": "QUEST_GUIDE_NPC",
        "autoGuide": "QUEST_GUIDE_AUTO_ENABLE",
        "param": [
          "20577"
        ],
        "guideScene": 3,
        "guideStyle": "QUEST_GUIDE_STYLE_POINT",
        "guideLayer": "QUEST_GUIDE_LAYER_UI"
      },
      "finishExec": [],
      "failExec": [],
      "beginExec": []
    },
    {
      "mainId": 73006,
      "subId": 7300610,
      "order": 12,
      "descTextMapHash": 2100524796,
      "acceptCond": [
        {
          "type": "QUEST_COND_UNKNOWN",
          "param": [
            0,
            0
          ]
        }
      ],
      "finishCond": [],
      "failCond": [],
      "guide": {
        "type": "QUEST_GUIDE_LOCATION",
        "autoGuide": "QUEST_GUIDE_AUTO_ENABLE",
        "param": [
          "Q7300610_guide",
          "30"
        ],
        "guideScene": 3,
        "guideStyle": "QUEST_GUIDE_STYLE_POINT",
        "guideLayer": "QUEST_GUIDE_LAYER_UI"
      },
      "finishExec": [],
      "failExec": [],
      "beginExec": []
    },
    {
      "mainId": 73006,
      "subId": 7300611,
      "order": 14,
      "descTextMapHash": 1243067020,
      "acceptCond": [
        {
          "type": "QUEST_COND_UNKNOWN",
          "param": [
            0,
            0
          ]
        }
      ],
      "finishCond": [],
      "failCond": [],
      "guide": {
        "type": "QUEST_GUIDE_NPC",
        "autoGuide": "QUEST_GUIDE_AUTO_ENABLE",
        "param": [
          "20577"
        ],
        "guideScene": 3,
        "guideStyle": "QUEST_GUIDE_STYLE_POINT",
        "guideLayer": "QUEST_GUIDE_LAYER_UI"
      },
      "finishExec": [],
      "failExec": [],
      "beginExec": []
    },
    {
      "mainId": 73006,
      "subId": 7300612,
      "order": 8,
      "descTextMapHash": 3906864572,
      "acceptCond": [
        {
          "type": "QUEST_COND_UNKNOWN",
          "param": [
            0,
            0
          ]
        }
      ],
      "finishCond": [],
      "failCond": [],
      "guide": {
        "type": "QUEST_GUIDE_LOCATION",
        "autoGuide": "QUEST_GUIDE_AUTO_ENABLE",
        "param": [
          "Q7300612_guide",
          "30"
        ],
        "guideScene": 3,
        "guideStyle": "QUEST_GUIDE_STYLE_POINT",
        "guideLayer": "QUEST_GUIDE_LAYER_UI"
      },
      "finishExec": [],
      "failExec": [],
      "beginExec": []
    },
    {
      "mainId": 73006,
      "subId": 7300613,
      "order": 13,
      "descTextMapHash": 230953476,
      "acceptCond": [
        {
          "type": "QUEST_COND_UNKNOWN",
          "param": [
            0,
            0
          ]
        }
      ],
      "finishCond": [],
      "failCond": [],
      "guide": {},
      "finishExec": [],
      "failExec": [],
      "beginExec": []
    },
    {
      "mainId": 73006,
      "subId": 7300614,
      "order": 6,
      "descTextMapHash": 223961788,
      "acceptCond": [
        {
          "type": "QUEST_COND_UNKNOWN",
          "param": [
            0,
            0
          ]
        }
      ],
      "finishCond": [],
      "failCond": [],
      "guide": {
        "type": "QUEST_GUIDE_NPC",
        "autoGuide": "QUEST_GUIDE_AUTO_ENABLE",
        "param": [
          "20577"
        ],
        "guideScene": 3,
        "guideStyle": "QUEST_GUIDE_STYLE_POINT",
        "guideLayer": "QUEST_GUIDE_LAYER_UI"
      },
      "finishExec": [],
      "failExec": [],
      "beginExec": []
    }
  ],
  "talks": [
    {
      "id": 7300601,
      "priority": 5,
      "performCfg": "",
      "questId": 73006,
      "prePerformCfg": ""
    },
    {
      "id": 7300602,
      "priority": 5,
      "performCfg": "",
      "questId": 73006,
      "prePerformCfg": ""
    },
    {
      "id": 7300603,
      "beginWay": "TALK_BEGIN_MANUAL",
      "beginCondComb": "LOGIC_AND",
      "beginCond": [
        {
          "type": "QUEST_COND_STATE_EQUAL",
          "param": [
            "7300603",
            "2"
          ],
          "param_str": ""
        },
        {
          "type": "QUEST_COND_STATE_EQUAL",
          "param": [
            "7300601",
            "2"
          ],
          "param_str": ""
        },
        {
          "type": "QUEST_COND_STATE_EQUAL",
          "param": [
            "7300602",
            "2"
          ],
          "param_str": ""
        }
      ],
      "priority": 5,
      "initDialog": 730060301,
      "npcId": [
        20577
      ],
      "performCfg": "",
      "questId": 73006,
      "prePerformCfg": "",
      "lockGameTime": true,
      "talkMarkType": "TALK_MARK_COMMON"
    },
    {
      "id": 7300604,
      "beginWay": "TALK_BEGIN_MANUAL",
      "beginCond": [
        {
          "type": "QUEST_COND_STATE_EQUAL",
          "param": [
            "7300604",
            "2"
          ],
          "param_str": ""
        }
      ],
      "priority": 5,
      "initDialog": 730060401,
      "npcId": [
        20577
      ],
      "performCfg": "",
      "questId": 73006,
      "prePerformCfg": "",
      "enableCameraDisplacement": true,
      "lockGameTime": true,
      "talkMarkType": "TALK_MARK_COMMON"
    },
    {
      "id": 7300605,
      "priority": 5,
      "performCfg": "",
      "questId": 73006,
      "prePerformCfg": ""
    },
    {
      "id": 7300606,
      "priority": 5,
      "performCfg": "",
      "questId": 73006,
      "prePerformCfg": ""
    },
    {
      "id": 7300607,
      "beginWay": "TALK_BEGIN_MANUAL",
      "beginCond": [
        {
          "type": "QUEST_COND_STATE_EQUAL",
          "param": [
            "7300607",
            "2"
          ],
          "param_str": ""
        }
      ],
      "priority": 5,
      "initDialog": 730060701,
      "npcId": [
        20577
      ],
      "performCfg": "",
      "questId": 73006,
      "prePerformCfg": "",
      "enableCameraDisplacement": true,
      "lockGameTime": true,
      "talkMarkType": "TALK_MARK_COMMON"
    },
    {
      "id": 7300608,
      "priority": 5,
      "performCfg": "",
      "questId": 73006,
      "prePerformCfg": ""
    },
    {
      "id": 7300609,
      "beginWay": "TALK_BEGIN_MANUAL",
      "beginCond": [
        {
          "type": "QUEST_COND_STATE_EQUAL",
          "param": [
            "7300609",
            "2"
          ],
          "param_str": ""
        }
      ],
      "priority": 5,
      "initDialog": 730060901,
      "npcId": [
        20577
      ],
      "performCfg": "",
      "questId": 73006,
      "prePerformCfg": "",
      "enableCameraDisplacement": true,
      "lockGameTime": true
    },
    {
      "id": 7300610,
      "beginCond": [
        {
          "type": "QUEST_COND_STATE_EQUAL",
          "param": [
            "7300610",
            "2"
          ],
          "param_str": ""
        }
      ],
      "priority": 5,
      "performCfg": "",
      "questId": 73006,
      "prePerformCfg": ""
    },
    {
      "id": 7300611,
      "beginWay": "TALK_BEGIN_MANUAL",
      "beginCond": [
        {
          "type": "QUEST_COND_STATE_EQUAL",
          "param": [
            "7300611",
            "2"
          ],
          "param_str": ""
        }
      ],
      "priority": 5,
      "initDialog": 730061101,
      "npcId": [
        20577
      ],
      "performCfg": "",
      "questId": 73006,
      "prePerformCfg": "",
      "stayFreeStyle": true,
      "enableCameraDisplacement": true
    },
    {
      "id": 7300612,
      "beginCond": [
        {
          "type": "QUEST_COND_STATE_EQUAL",
          "param": [
            "7300611",
            "2"
          ],
          "param_str": ""
        }
      ],
      "priority": 5,
      "npcId": [
        20577
      ],
      "performCfg": "",
      "questId": 73006,
      "prePerformCfg": ""
    },
    {
      "id": 7300613,
      "beginWay": "TALK_BEGIN_MANUAL",
      "beginCond": [
        {
          "type": "QUEST_COND_STATE_EQUAL",
          "param": [
            "7300614",
            "2"
          ],
          "param_str": ""
        }
      ],
      "priority": 5,
      "initDialog": 730061301,
      "npcId": [
        20577
      ],
      "performCfg": "",
      "questId": 73006,
      "prePerformCfg": ""
    }
  ]
}