{
  "id": 73008,
  "type": "WQ",
  "titleTextMapHash": 3585031791,
  "descTextMapHash": 1589517246,
  "luaPath": "Actor/Quest/WQ73008",
  "chapterId": 10083,
  "subQuests": [
    {
      "mainId": 73008,
      "subId": 7300801,
      "order": 1,
      "descTextMapHash": 4286180020,
      "acceptCond": [
        {
          "type": "QUEST_COND_UNKNOWN",
          "param": [
            0,
            0
          ]
        }
      ],
      "finishCond": [],
      "failCond": [],
      "guide": {
        "type": "QUEST_GUIDE_LOCATION",
        "autoGuide": "QUEST_GUIDE_AUTO_ENABLE",
        "param": [
          "Q7300705",
          "30"
        ],
        "guideScene": 3,
        "guideStyle": "QUEST_GUIDE_STYLE_POINT",
        "guideLayer": "QUEST_GUIDE_LAYER_UI"
      },
      "finishExec": [],
      "failExec": [],
      "beginExec": []
    },
    {
      "mainId": 73008,
      "subId": 7300802,
      "order": 2,
      "descTextMapHash": 2841766268,
      "acceptCond": [
        {
          "type": "QUEST_COND_UNKNOWN",
          "param": [
            0,
            0
          ]
        }
      ],
      "finishCond": [],
      "failCond": [],
      "guide": {
        "type": "QUEST_GUIDE_LOCATION",
        "autoGuide": "QUEST_GUIDE_AUTO_ENABLE",
        "param": [
          "Q7300705",
          "30"
        ],
        "guideScene": 3,
        "guideStyle": "QUEST_GUIDE_STYLE_POINT",
        "guideLayer": "QUEST_GUIDE_LAYER_UI"
      },
      "finishExec": [],
      "failExec": [],
      "beginExec": []
    },
    {
      "mainId": 73008,
      "subId": 7300803,
      "order": 4,
      "descTextMapHash": 2050231060,
      "acceptCond": [
        {
          "type": "QUEST_COND_UNKNOWN",
          "param": [
            0,
            0
          ]
        }
      ],
      "finishCond": [],
      "failCond": [],
      "guide": {
        "type": "QUEST_GUIDE_LOCATION",
        "autoGuide": "QUEST_GUIDE_AUTO_ENABLE",
        "param": [
          "Q7300803_guide",
          "30"
        ],
        "guideScene": 3,
        "guideStyle": "QUEST_GUIDE_STYLE_POINT",
        "guideLayer": "QUEST_GUIDE_LAYER_UI"
      },
      "finishExec": [],
      "failExec": [],
      "beginExec": []
    },
    {
      "mainId": 73008,
      "subId": 7300804,
      "order": 5,
      "descTextMapHash": 4108036340,
      "acceptCond": [
        {
          "type": "QUEST_COND_UNKNOWN",
          "param": [
            0,
            0
          ]
        }
      ],
      "finishCond": [],
      "failCond": [],
      "guide": {
        "type": "QUEST_GUIDE_LOCATION",
        "autoGuide": "QUEST_GUIDE_AUTO_ENABLE",
        "param": [
          "Q7300804_guide",
          "30"
        ],
        "guideScene": 3,
        "guideStyle": "QUEST_GUIDE_STYLE_POINT",
        "guideLayer": "QUEST_GUIDE_LAYER_UI"
      },
      "finishExec": [],
      "failExec": [],
      "beginExec": []
    },
    {
      "mainId": 73008,
      "subId": 7300805,
      "order": 8,
      "descTextMapHash": 3484866564,
      "acceptCond": [
        {
          "type": "QUEST_COND_UNKNOWN",
          "param": [
            0,
            0
          ]
        }
      ],
      "finishCond": [],
      "failCond": [],
      "guide": {
        "type": "QUEST_GUIDE_LOCATION",
        "autoGuide": "QUEST_GUIDE_AUTO_ENABLE",
        "param": [
          "Q7300801",
          "30"
        ],
        "guideScene": 3,
        "guideStyle": "QUEST_GUIDE_STYLE_POINT",
        "guideLayer": "QUEST_GUIDE_LAYER_UI"
      },
      "finishExec": [],
      "failExec": [],
      "beginExec": []
    },
    {
      "mainId": 73008,
      "subId": 7300806,
      "order": 6,
      "descTextMapHash": 4133760956,
      "acceptCond": [
        {
          "type": "QUEST_COND_UNKNOWN",
          "param": [
            0,
            0
          ]
        }
      ],
      "finishCond": [],
      "failCond": [],
      "guide": {
        "type": "QUEST_GUIDE_LOCATION",
        "autoGuide": "QUEST_GUIDE_AUTO_ENABLE",
        "param": [
          "Q7300806_guide",
          "30"
        ],
        "guideScene": 3,
        "guideStyle": "QUEST_GUIDE_STYLE_POINT",
        "guideLayer": "QUEST_GUIDE_LAYER_UI"
      },
      "finishExec": [],
      "failExec": [],
      "beginExec": []
    },
    {
      "mainId": 73008,
      "subId": 7300807,
      "order": 7,
      "descTextMapHash": 4133860772,
      "acceptCond": [
        {
          "type": "QUEST_COND_UNKNOWN",
          "param": [
            0,
            0
          ]
        }
      ],
      "finishCond": [],
      "failCond": [],
      "guide": {},
      "finishExec": [],
      "failExec": [],
      "beginExec": []
    },
    {
      "mainId": 73008,
      "subId": 7300808,
      "order": 3,
      "descTextMapHash": 1044477140,
      "acceptCond": [
        {
          "type": "QUEST_COND_UNKNOWN",
          "param": [
            0,
            0
          ]
        }
      ],
      "finishCond": [],
      "failCond": [],
      "guide": {},
      "finishExec": [],
      "failExec": [],
      "beginExec": []
    }
  ],
  "talks": [
    {
      "id": 7300801,
      "beginWay": "TALK_BEGIN_MANUAL",
      "beginCond": [
        {
          "type": "QUEST_COND_STATE_EQUAL",
          "param": [
            "7300801",
            "2"
          ],
          "param_str": ""
        }
      ],
      "priority": 5,
      "initDialog": 730080101,
      "npcId": [
        20576
      ],
      "performCfg": "",
      "questId": 73008,
      "prePerformCfg": ""
    },
    {
      "id": 7300802,
      "beginWay": "TALK_BEGIN_MANUAL",
      "beginCond": [
        {
          "type": "QUEST_COND_STATE_EQUAL",
          "param": [
            "7300802",
            "2"
          ],
          "param_str": ""
        }
      ],
      "priority": 5,
      "initDialog": 730080201,
      "npcId": [
        20643
      ],
      "performCfg": "",
      "questId": 73008,
      "prePerformCfg": "",
      "enableCameraDisplacement": true,
      "lockGameTime": true
    },
    {
      "id": 7300803,
      "beginCond": [
        {
          "type": "QUEST_COND_STATE_EQUAL",
          "param": [
            "7300808",
            "2"
          ],
          "param_str": ""
        }
      ],
      "priority": 5,
      "performCfg": "",
      "questId": 73008,
      "prePerformCfg": ""
    },
    {
      "id": 7300804,
      "beginCond": [
        {
          "type": "QUEST_COND_STATE_EQUAL",
          "param": [
            "7300803",
            "2"
          ],
          "param_str": ""
        }
      ],
      "priority": 5,
      "performCfg": "",
      "questId": 73008,
      "prePerformCfg": ""
    },
    {
      "id": 7300805,
      "beginWay": "TALK_BEGIN_MANUAL",
      "beginCond": [
        {
          "type": "QUEST_COND_STATE_EQUAL",
          "param": [
            "7300805",
            "2"
          ],
          "param_str": ""
        }
      ],
      "priority": 5,
      "initDialog": 730080501,
      "npcId": [
        20576
      ],
      "performCfg": "",
      "questId": 73008,
      "prePerformCfg": "",
      "talkMarkHideList": [
        20576
      ]
    },
    {
      "id": 7300806,
      "beginCond": [
        {
          "type": "QUEST_COND_STATE_EQUAL",
          "param": [
            "7300806",
            "2"
          ],
          "param_str": ""
        }
      ],
      "priority": 5,
      "performCfg": "",
      "questId": 73008,
      "prePerformCfg": ""
    },
    {
      "id": 7300807,
      "beginCond": [
        {
          "type": "QUEST_COND_STATE_EQUAL",
          "param": [
            "7300807",
            "2"
          ],
          "param_str": ""
        }
      ],
      "priority": 5,
      "performCfg": "",
      "questId": 73008,
      "prePerformCfg": ""
    },
    {
      "id": 7300808,
      "beginCond": [
        {
          "type": "QUEST_COND_STATE_EQUAL",
          "param": [
            "7300805",
            "2"
          ],
          "param_str": ""
        }
      ],
      "priority": 5,
      "performCfg": "",
      "questId": 73008,
      "prePerformCfg": ""
    }
  ]
}