{
  "id": 73037,
  "type": "WQ",
  "series": 73037,
  "titleTextMapHash": 252798087,
  "descTextMapHash": 1367809278,
  "luaPath": "Actor/Quest/WQ73037",
  "suggestTrackMainQuestList": [
    73038
  ],
  "rewardIdList": [
    173037
  ],
  "chapterId": 10079,
  "subQuests": [
    {
      "mainId": 73037,
      "subId": 7303701,
      "order": 97,
      "descTextMapHash": 3374835444,
      "acceptCond": [
        {
          "type": "QUEST_COND_UNKNOWN",
          "param": [
            0,
            0
          ]
        }
      ],
      "finishCond": [],
      "failCond": [],
      "guide": {
        "type": "QUEST_GUIDE_LOCATION",
        "autoGuide": "QUEST_GUIDE_AUTO_ENABLE",
        "param": [
          "Q7303619_guide"
        ],
        "guideScene": 3,
        "guideStyle": "QUEST_GUIDE_STYLE_POINT",
        "guideLayer": "QUEST_GUIDE_LAYER_SCENE"
      },
      "finishExec": [],
      "failExec": [],
      "beginExec": []
    },
    {
      "mainId": 73037,
      "subId": 7303702,
      "order": 2,
      "descTextMapHash": 1631851836,
      "acceptCond": [
        {
          "type": "QUEST_COND_UNKNOWN",
          "param": [
            0,
            0
          ]
        }
      ],
      "finishCond": [],
      "failCond": [],
      "guide": {
        "type": "QUEST_GUIDE_LOCATION",
        "autoGuide": "QUEST_GUIDE_AUTO_ENABLE",
        "param": [
          "Q7303638_guide"
        ],
        "guideScene": 3,
        "guideStyle": "QUEST_GUIDE_STYLE_POINT",
        "guideLayer": "QUEST_GUIDE_LAYER_SCENE"
      },
      "finishExec": [],
      "failExec": [],
      "beginExec": []
    },
    {
      "mainId": 73037,
      "subId": 7303703,
      "order": 3,
      "showType": "QUEST_HIDDEN",
      "descTextMapHash": 51388884,
      "acceptCond": [
        {
          "type": "QUEST_COND_UNKNOWN",
          "param": [
            0,
            0
          ]
        }
      ],
      "finishCond": [],
      "failCond": [],
      "guide": {
        "type": "QUEST_GUIDE_NPC",
        "autoGuide": "QUEST_GUIDE_AUTO_ENABLE",
        "param": [
          "20646"
        ],
        "guideScene": 3,
        "guideStyle": "QUEST_GUIDE_STYLE_TARGET",
        "guideLayer": "QUEST_GUIDE_LAYER_SCENE"
      },
      "finishExec": [],
      "failExec": [],
      "beginExec": []
    },
    {
      "mainId": 73037,
      "subId": 7303704,
      "order": 5,
      "descTextMapHash": 3677685012,
      "acceptCond": [
        {
          "type": "QUEST_COND_UNKNOWN",
          "param": [
            0,
            0
          ]
        }
      ],
      "finishCond": [],
      "failCond": [],
      "guide": {},
      "finishExec": [],
      "failExec": [],
      "beginExec": []
    },
    {
      "mainId": 73037,
      "subId": 7303705,
      "order": 6,
      "descTextMapHash": 466690260,
      "acceptCond": [
        {
          "type": "QUEST_COND_UNKNOWN",
          "param": [
            0,
            0
          ]
        }
      ],
      "finishCond": [],
      "failCond": [],
      "guide": {},
      "finishExec": [],
      "failExec": [],
      "beginExec": []
    },
    {
      "mainId": 73037,
      "subId": 7303706,
      "order": 7,
      "descTextMapHash": 368226580,
      "acceptCond": [
        {
          "type": "QUEST_COND_UNKNOWN",
          "param": [
            0,
            0
          ]
        }
      ],
      "finishCond": [],
      "failCond": [],
      "guide": {},
      "finishExec": [],
      "failExec": [],
      "beginExec": []
    },
    {
      "mainId": 73037,
      "subId": 7303707,
      "order": 98,
      "descTextMapHash": 2942845484,
      "acceptCond": [
        {
          "type": "QUEST_COND_UNKNOWN",
          "param": [
            0,
            0
          ]
        }
      ],
      "finishCond": [],
      "failCond": [],
      "guide": {},
      "finishExec": [],
      "failExec": [],
      "beginExec": []
    },
    {
      "mainId": 73037,
      "subId": 7303708,
      "order": 9,
      "descTextMapHash": 2050175108,
      "acceptCond": [
        {
          "type": "QUEST_COND_UNKNOWN",
          "param": [
            0,
            0
          ]
        }
      ],
      "finishCond": [],
      "failCond": [],
      "guide": {
        "type": "QUEST_GUIDE_NPC",
        "param": [
          "20646"
        ],
        "guideScene": 3,
        "guideStyle": "QUEST_GUIDE_STYLE_TARGET"
      },
      "finishExec": [],
      "failExec": [],
      "beginExec": []
    },
    {
      "mainId": 73037,
      "subId": 7303709,
      "order": 10,
      "descTextMapHash": 153450676,
      "acceptCond": [
        {
          "type": "QUEST_COND_UNKNOWN",
          "param": [
            0,
            0
          ]
        }
      ],
      "finishCond": [],
      "failCond": [],
      "guide": {},
      "finishExec": [],
      "failExec": [],
      "beginExec": []
    },
    {
      "mainId": 73037,
      "subId": 7303710,
      "order": 12,
      "descTextMapHash": 3024202452,
      "acceptCond": [
        {
          "type": "QUEST_COND_UNKNOWN",
          "param": [
            0,
            0
          ]
        }
      ],
      "finishCond": [],
      "failCond": [],
      "guide": {
        "type": "QUEST_GUIDE_LOCATION",
        "param": [
          "Q7303710_guide"
        ],
        "guideScene": 3,
        "guideStyle": "QUEST_GUIDE_STYLE_POINT"
      },
      "finishExec": [],
      "failExec": [],
      "beginExec": []
    },
    {
      "mainId": 73037,
      "subId": 7303711,
      "order": 13,
      "showType": "QUEST_HIDDEN",
      "acceptCond": [
        {
          "type": "QUEST_COND_UNKNOWN",
          "param": [
            0,
            0
          ]
        }
      ],
      "finishCond": [],
      "failCond": [],
      "guide": {},
      "finishExec": [],
      "failExec": [],
      "beginExec": []
    },
    {
      "mainId": 73037,
      "subId": 7303712,
      "order": 11,
      "descTextMapHash": 1025544732,
      "acceptCond": [
        {
          "type": "QUEST_COND_UNKNOWN",
          "param": [
            0,
            0
          ]
        }
      ],
      "finishCond": [],
      "failCond": [],
      "guide": {},
      "finishExec": [],
      "failExec": [],
      "beginExec": []
    },
    {
      "mainId": 73037,
      "subId": 7303713,
      "order": 99,
      "descTextMapHash": 3425660788,
      "acceptCond": [
        {
          "type": "QUEST_COND_UNKNOWN",
          "param": [
            0,
            0
          ]
        }
      ],
      "finishCond": [],
      "failCond": [],
      "guide": {},
      "finishExec": [],
      "failExec": [],
      "beginExec": []
    }
  ],
  "talks": [
    {
      "id": 7303701,
      "beginWay": "TALK_BEGIN_MANUAL",
      "activeMode": "PLAY_MODE_SINGLE",
      "beginCondComb": "LOGIC_AND",
      "beginCond": [
        {
          "type": "QUEST_COND_STATE_EQUAL",
          "param": [
            "7303703",
            "2"
          ],
          "param_str": ""
        },
        {
          "type": "QUEST_COND_PLAYER_CHOOSE_MALE",
          "param": [
            "1"
          ],
          "param_str": ""
        }
      ],
      "priority": 5,
      "initDialog": 730370101,
      "npcId": [
        1005,
        20646
      ],
      "performCfg": "QuestDialogue/WQ/Sumeru_73037/Q7303701",
      "questId": 73037,
      "prePerformCfg": "",
      "finishExec": [
        {
          "type": "TALK_EXEC_SET_QUEST_VAR",
          "param": [
            "0",
            "1",
            "73037"
          ],
          "param_str": ""
        }
      ]
    },
    {
      "id": 7303702,
      "beginWay": "TALK_BEGIN_MANUAL",
      "activeMode": "PLAY_MODE_SINGLE",
      "beginCondComb": "LOGIC_AND",
      "beginCond": [
        {
          "type": "QUEST_COND_STATE_EQUAL",
          "param": [
            "7303708",
            "2"
          ],
          "param_str": ""
        },
        {
          "type": "QUEST_COND_QUEST_GLOBAL_VAR_EQUAL",
          "param": [
            "302821",
            "0"
          ],
          "param_str": ""
        }
      ],
      "priority": 5,
      "initDialog": 730370201,
      "npcId": [
        20646,
        1005,
        20647
      ],
      "performCfg": "QuestDialogue/WQ/Sumeru_73037/Q7303702",
      "questId": 73037,
      "prePerformCfg": ""
    },
    {
      "id": 7303703,
      "beginWay": "TALK_BEGIN_MANUAL",
      "activeMode": "PLAY_MODE_SINGLE",
      "beginCond": [
        {
          "type": "QUEST_COND_STATE_EQUAL",
          "param": [
            "7303712",
            "2"
          ],
          "param_str": ""
        }
      ],
      "priority": 5,
      "initDialog": 730370301,
      "npcId": [
        1005,
        20647
      ],
      "performCfg": "QuestDialogue/WQ/Sumeru_73037/Q7303703",
      "questId": 73037,
      "prePerformCfg": ""
    },
    {
      "id": 7303704,
      "beginWay": "TALK_BEGIN_MANUAL",
      "activeMode": "PLAY_MODE_SINGLE",
      "beginCond": [
        {
          "type": "QUEST_COND_STATE_EQUAL",
          "param": [
            "7303711",
            "2"
          ],
          "param_str": ""
        }
      ],
      "priority": 5,
      "initDialog": 730370401,
      "npcId": [
        1005,
        20647
      ],
      "performCfg": "QuestDialogue/WQ/Sumeru_73037/Q7303704",
      "questId": 73037,
      "prePerformCfg": ""
    },
    {
      "id": 7303705,
      "beginWay": "TALK_BEGIN_MANUAL",
      "activeMode": "PLAY_MODE_SINGLE",
      "beginCondComb": "LOGIC_AND",
      "beginCond": [
        {
          "type": "QUEST_COND_STATE_EQUAL",
          "param": [
            "7303708",
            "2"
          ],
          "param_str": ""
        },
        {
          "type": "QUEST_COND_QUEST_GLOBAL_VAR_EQUAL",
          "param": [
            "302821",
            "1"
          ],
          "param_str": ""
        }
      ],
      "priority": 5,
      "initDialog": 730370501,
      "npcId": [
        20646,
        20647
      ],
      "performCfg": "QuestDialogue/WQ/Sumeru_73037/Q7303705",
      "questId": 73037,
      "prePerformCfg": ""
    },
    {
      "id": 7303708,
      "beginWay": "TALK_BEGIN_MANUAL",
      "activeMode": "PLAY_MODE_SINGLE",
      "beginCond": [
        {
          "type": "QUEST_COND_STATE_EQUAL",
          "param": [
            "7303710",
            "2"
          ],
          "param_str": ""
        }
      ],
      "priority": 5,
      "initDialog": 730370801,
      "npcId": [
        20647
      ],
      "performCfg": "",
      "questId": 73037,
      "prePerformCfg": ""
    },
    {
      "id": 7303711,
      "beginWay": "TALK_BEGIN_MANUAL",
      "activeMode": "PLAY_MODE_SINGLE",
      "beginCondComb": "LOGIC_AND",
      "beginCond": [
        {
          "type": "QUEST_COND_STATE_EQUAL",
          "param": [
            "7303703",
            "2"
          ],
          "param_str": ""
        },
        {
          "type": "QUEST_COND_PLAYER_CHOOSE_MALE",
          "param": [
            "0"
          ],
          "param_str": ""
        }
      ],
      "priority": 5,
      "initDialog": 730370101,
      "npcId": [
        1005,
        20646
      ],
      "performCfg": "QuestDialogue/WQ/Sumeru_73037/Q7303701",
      "questId": 73037,
      "prePerformCfg": "",
      "finishExec": [
        {
          "type": "TALK_EXEC_SET_QUEST_VAR",
          "param": [
            "0",
            "2",
            "73037"
          ],
          "param_str": ""
        }
      ]
    }
  ]
}