{
  "id": 73082,
  "type": "WQ",
  "titleTextMapHash": 3264759831,
  "descTextMapHash": 1761336198,
  "luaPath": "Actor/Quest/WQ73082",
  "showType": "QUEST_HIDDEN",
  "rewardIdList": [
    210005
  ],
  "subQuests": [
    {
      "mainId": 73082,
      "subId": 7308201,
      "order": 1,
      "showType": "QUEST_HIDDEN",
      "descTextMapHash": 1048498108,
      "acceptCond": [
        {
          "type": "QUEST_COND_UNKNOWN",
          "param": [
            0,
            0
          ]
        }
      ],
      "finishCond": [],
      "failCond": [],
      "guide": {},
      "finishExec": [],
      "failExec": [],
      "beginExec": []
    },
    {
      "mainId": 73082,
      "subId": 7308202,
      "order": 4,
      "showType": "QUEST_HIDDEN",
      "descTextMapHash": 3159388812,
      "acceptCond": [
        {
          "type": "QUEST_COND_UNKNOWN",
          "param": [
            0,
            0
          ]
        }
      ],
      "finishCond": [],
      "failCond": [],
      "guide": {},
      "finishExec": [],
      "failExec": [],
      "beginExec": []
    },
    {
      "mainId": 73082,
      "subId": 7308203,
      "order": 5,
      "showType": "QUEST_HIDDEN",
      "descTextMapHash": 3300482276,
      "acceptCond": [
        {
          "type": "QUEST_COND_UNKNOWN",
          "param": [
            0,
            0
          ]
        }
      ],
      "finishCond": [],
      "failCond": [],
      "guide": {},
      "finishExec": [],
      "failExec": [],
      "beginExec": []
    },
    {
      "mainId": 73082,
      "subId": 7308204,
      "order": 2,
      "showType": "QUEST_HIDDEN",
      "descTextMapHash": 2334401660,
      "acceptCond": [
        {
          "type": "QUEST_COND_UNKNOWN",
          "param": [
            0,
            0
          ]
        }
      ],
      "finishCond": [],
      "failCond": [],
      "guide": {},
      "finishExec": [],
      "failExec": [],
      "beginExec": []
    },
    {
      "mainId": 73082,
      "subId": 7308205,
      "order": 3,
      "showType": "QUEST_HIDDEN",
      "descTextMapHash": 3430337676,
      "acceptCond": [
        {
          "type": "QUEST_COND_UNKNOWN",
          "param": [
            0,
            0
          ]
        }
      ],
      "finishCond": [],
      "failCond": [],
      "guide": {},
      "finishExec": [],
      "failExec": [],
      "beginExec": []
    }
  ],
  "talks": [
    {
      "id": 7308202,
      "beginWay": "TALK_BEGIN_MANUAL",
      "beginCond": [
        {
          "type": "QUEST_COND_STATE_EQUAL",
          "param": [
            "7308202",
            "3"
          ],
          "param_str": ""
        }
      ],
      "priority": 5,
      "initDialog": 730820201,
      "npcId": [
        20671
      ],
      "performCfg": "",
      "heroTalk": "TALK_HERO_MAIN",
      "questId": 73082,
      "prePerformCfg": ""
    }
  ]
}