{
  "id": 73092,
  "type": "WQ",
  "titleTextMapHash": 2207324631,
  "descTextMapHash": 3919793278,
  "luaPath": "Actor/Quest/WQ73092",
  "showType": "QUEST_HIDDEN",
  "subQuests": [
    {
      "mainId": 73092,
      "subId": 7309201,
      "order": 1,
      "showType": "QUEST_HIDDEN",
      "acceptCond": [
        {
          "type": "QUEST_COND_UNKNOWN",
          "param": [
            0,
            0
          ]
        }
      ],
      "finishCond": [],
      "failCond": [],
      "guide": {},
      "finishExec": [],
      "failExec": [],
      "beginExec": []
    },
    {
      "mainId": 73092,
      "subId": 7309202,
      "order": 2,
      "showType": "QUEST_HIDDEN",
      "acceptCond": [
        {
          "type": "QUEST_COND_UNKNOWN",
          "param": [
            0,
            0
          ]
        }
      ],
      "finishCond": [],
      "failCond": [],
      "guide": {},
      "finishExec": [],
      "failExec": [],
      "beginExec": []
    }
  ]
}