{
  "id": 73097,
  "type": "WQ",
  "titleTextMapHash": 2395438479,
  "descTextMapHash": 2892522006,
  "luaPath": "Actor/Quest/WQ73097",
  "showType": "QUEST_HIDDEN",
  "subQuests": [
    {
      "mainId": 73097,
      "subId": 7309701,
      "order": 1,
      "showType": "QUEST_HIDDEN",
      "acceptCond": [
        {
          "type": "QUEST_COND_UNKNOWN",
          "param": [
            0,
            0
          ]
        }
      ],
      "finishCond": [],
      "failCond": [],
      "guide": {},
      "finishExec": [],
      "failExec": [],
      "beginExec": []
    },
    {
      "mainId": 73097,
      "subId": 7309702,
      "order": 2,
      "showType": "QUEST_HIDDEN",
      "acceptCond": [
        {
          "type": "QUEST_COND_UNKNOWN",
          "param": [
            0,
            0
          ]
        }
      ],
      "finishCond": [],
      "failCond": [],
      "guide": {},
      "finishExec": [],
      "failExec": [],
      "beginExec": []
    }
  ]
}