{
  "id": 73107,
  "type": "WQ",
  "titleTextMapHash": 1805642455,
  "descTextMapHash": 706300030,
  "luaPath": "Actor/Quest/WQ73107",
  "showType": "QUEST_HIDDEN",
  "subQuests": [
    {
      "mainId": 73107,
      "subId": 7310701,
      "order": 2,
      "showType": "QUEST_HIDDEN",
      "descTextMapHash": 1264373284,
      "acceptCond": [
        {
          "type": "QUEST_COND_UNKNOWN",
          "param": [
            0,
            0
          ]
        }
      ],
      "finishCond": [],
      "failCond": [],
      "guide": {},
      "finishExec": [],
      "failExec": [],
      "beginExec": []
    },
    {
      "mainId": 73107,
      "subId": 7310702,
      "order": 3,
      "showType": "QUEST_HIDDEN",
      "descTextMapHash": 3671074140,
      "acceptCond": [
        {
          "type": "QUEST_COND_UNKNOWN",
          "param": [
            0,
            0
          ]
        }
      ],
      "finishCond": [],
      "failCond": [],
      "guide": {},
      "finishExec": [],
      "failExec": [],
      "beginExec": []
    },
    {
      "mainId": 73107,
      "subId": 7310703,
      "order": 4,
      "showType": "QUEST_HIDDEN",
      "descTextMapHash": 1800236740,
      "acceptCond": [
        {
          "type": "QUEST_COND_UNKNOWN",
          "param": [
            0,
            0
          ]
        }
      ],
      "finishCond": [],
      "failCond": [],
      "guide": {},
      "finishExec": [],
      "failExec": [],
      "beginExec": []
    },
    {
      "mainId": 73107,
      "subId": 7310704,
      "order": 5,
      "showType": "QUEST_HIDDEN",
      "descTextMapHash": 2659199388,
      "acceptCond": [
        {
          "type": "QUEST_COND_UNKNOWN",
          "param": [
            0,
            0
          ]
        }
      ],
      "finishCond": [],
      "failCond": [],
      "guide": {},
      "finishExec": [],
      "failExec": [],
      "beginExec": []
    },
    {
      "mainId": 73107,
      "subId": 7310705,
      "order": 6,
      "showType": "QUEST_HIDDEN",
      "descTextMapHash": 2050858468,
      "acceptCond": [
        {
          "type": "QUEST_COND_UNKNOWN",
          "param": [
            0,
            0
          ]
        }
      ],
      "finishCond": [],
      "failCond": [],
      "guide": {},
      "finishExec": [],
      "failExec": [],
      "beginExec": []
    },
    {
      "mainId": 73107,
      "subId": 7310706,
      "order": 7,
      "showType": "QUEST_HIDDEN",
      "descTextMapHash": 4153842852,
      "acceptCond": [
        {
          "type": "QUEST_COND_UNKNOWN",
          "param": [
            0,
            0
          ]
        }
      ],
      "finishCond": [],
      "failCond": [],
      "guide": {},
      "finishExec": [],
      "failExec": [],
      "beginExec": []
    },
    {
      "mainId": 73107,
      "subId": 7310707,
      "order": 8,
      "showType": "QUEST_HIDDEN",
      "descTextMapHash": 607774772,
      "acceptCond": [
        {
          "type": "QUEST_COND_UNKNOWN",
          "param": [
            0,
            0
          ]
        }
      ],
      "finishCond": [],
      "failCond": [],
      "guide": {},
      "finishExec": [],
      "failExec": [],
      "beginExec": []
    },
    {
      "mainId": 73107,
      "subId": 7310708,
      "order": 9,
      "showType": "QUEST_HIDDEN",
      "descTextMapHash": 3028372116,
      "acceptCond": [
        {
          "type": "QUEST_COND_UNKNOWN",
          "param": [
            0,
            0
          ]
        }
      ],
      "finishCond": [],
      "failCond": [],
      "guide": {},
      "finishExec": [],
      "failExec": [],
      "beginExec": []
    },
    {
      "mainId": 73107,
      "subId": 7310709,
      "order": 10,
      "showType": "QUEST_HIDDEN",
      "descTextMapHash": 3130134796,
      "acceptCond": [
        {
          "type": "QUEST_COND_UNKNOWN",
          "param": [
            0,
            0
          ]
        }
      ],
      "finishCond": [],
      "failCond": [],
      "guide": {},
      "finishExec": [],
      "failExec": [],
      "beginExec": []
    },
    {
      "mainId": 73107,
      "subId": 7310710,
      "order": 1,
      "showType": "QUEST_HIDDEN",
      "descTextMapHash": 3515566236,
      "acceptCond": [
        {
          "type": "QUEST_COND_UNKNOWN",
          "param": [
            0,
            0
          ]
        }
      ],
      "finishCond": [],
      "failCond": [],
      "guide": {},
      "finishExec": [],
      "failExec": [],
      "beginExec": []
    }
  ]
}