{
  "id": 73138,
  "type": "WQ",
  "titleTextMapHash": 325020535,
  "descTextMapHash": 101995310,
  "luaPath": "Actor/Quest/WQ73138",
  "showType": "QUEST_HIDDEN",
  "rewardIdList": [
    210009
  ],
  "subQuests": [
    {
      "mainId": 73138,
      "subId": 7313801,
      "order": 1,
      "showType": "QUEST_HIDDEN",
      "acceptCond": [
        {
          "type": "QUEST_COND_UNKNOWN",
          "param": [
            0,
            0
          ]
        }
      ],
      "finishCond": [],
      "failCond": [],
      "guide": {},
      "finishExec": [],
      "failExec": [],
      "beginExec": []
    },
    {
      "mainId": 73138,
      "subId": 7313802,
      "order": 2,
      "showType": "QUEST_HIDDEN",
      "acceptCond": [
        {
          "type": "QUEST_COND_UNKNOWN",
          "param": [
            0,
            0
          ]
        }
      ],
      "finishCond": [],
      "failCond": [],
      "guide": {},
      "finishExec": [],
      "failExec": [],
      "beginExec": []
    },
    {
      "mainId": 73138,
      "subId": 7313803,
      "order": 3,
      "showType": "QUEST_HIDDEN",
      "acceptCond": [
        {
          "type": "QUEST_COND_UNKNOWN",
          "param": [
            0,
            0
          ]
        }
      ],
      "finishCond": [],
      "failCond": [],
      "guide": {},
      "finishExec": [],
      "failExec": [],
      "beginExec": []
    }
  ],
  "talks": [
    {
      "id": 7313801,
      "beginWay": "TALK_BEGIN_MANUAL",
      "beginCond": [
        {
          "type": "QUEST_COND_STATE_EQUAL",
          "param": [
            "7313802",
            "3"
          ],
          "param_str": ""
        }
      ],
      "priority": 5,
      "initDialog": 731380101,
      "npcId": [
        20678
      ],
      "performCfg": "",
      "heroTalk": "TALK_HERO_MAIN",
      "questId": 73138,
      "prePerformCfg": ""
    }
  ]
}