{
  "id": 73134,
  "type": "WQ",
  "titleTextMapHash": 3571628463,
  "descTextMapHash": 198545374,
  "luaPath": "Actor/Quest/WQ73134",
  "showType": "QUEST_HIDDEN",
  "rewardIdList": [
    210011
  ],
  "subQuests": [
    {
      "mainId": 73134,
      "subId": 7313401,
      "order": 1,
      "showType": "QUEST_HIDDEN",
      "acceptCond": [
        {
          "type": "QUEST_COND_UNKNOWN",
          "param": [
            0,
            0
          ]
        }
      ],
      "finishCond": [],
      "failCond": [],
      "guide": {},
      "finishExec": [],
      "failExec": [],
      "beginExec": []
    },
    {
      "mainId": 73134,
      "subId": 7313402,
      "order": 2,
      "showType": "QUEST_HIDDEN",
      "acceptCond": [
        {
          "type": "QUEST_COND_UNKNOWN",
          "param": [
            0,
            0
          ]
        }
      ],
      "finishCond": [],
      "failCond": [],
      "guide": {},
      "finishExec": [],
      "failExec": [],
      "beginExec": []
    },
    {
      "mainId": 73134,
      "subId": 7313403,
      "order": 3,
      "showType": "QUEST_HIDDEN",
      "acceptCond": [
        {
          "type": "QUEST_COND_UNKNOWN",
          "param": [
            0,
            0
          ]
        }
      ],
      "finishCond": [],
      "failCond": [],
      "guide": {},
      "finishExec": [],
      "failExec": [],
      "beginExec": []
    }
  ],
  "talks": [
    {
      "id": 7313401,
      "beginWay": "TALK_BEGIN_MANUAL",
      "beginCond": [
        {
          "type": "QUEST_COND_STATE_EQUAL",
          "param": [
            "7313402",
            "3"
          ],
          "param_str": ""
        }
      ],
      "priority": 5,
      "initDialog": 731340101,
      "npcId": [
        20674
      ],
      "performCfg": "",
      "heroTalk": "TALK_HERO_MAIN",
      "questId": 73134,
      "prePerformCfg": ""
    }
  ]
}