{
  "id": 73144,
  "type": "WQ",
  "titleTextMapHash": 1149589839,
  "descTextMapHash": 3626640414,
  "luaPath": "Actor/Quest/WQ73144",
  "showType": "QUEST_HIDDEN",
  "rewardIdList": [
    210003
  ],
  "subQuests": [
    {
      "mainId": 73144,
      "subId": 7314401,
      "order": 1,
      "showType": "QUEST_HIDDEN",
      "acceptCond": [
        {
          "type": "QUEST_COND_UNKNOWN",
          "param": [
            0,
            0
          ]
        }
      ],
      "finishCond": [],
      "failCond": [],
      "guide": {},
      "finishExec": [],
      "failExec": [],
      "beginExec": []
    },
    {
      "mainId": 73144,
      "subId": 7314402,
      "order": 2,
      "showType": "QUEST_HIDDEN",
      "acceptCond": [
        {
          "type": "QUEST_COND_UNKNOWN",
          "param": [
            0,
            0
          ]
        }
      ],
      "finishCond": [],
      "failCond": [],
      "guide": {},
      "finishExec": [],
      "failExec": [],
      "beginExec": []
    },
    {
      "mainId": 73144,
      "subId": 7314403,
      "order": 3,
      "showType": "QUEST_HIDDEN",
      "acceptCond": [
        {
          "type": "QUEST_COND_UNKNOWN",
          "param": [
            0,
            0
          ]
        }
      ],
      "finishCond": [],
      "failCond": [],
      "guide": {},
      "finishExec": [],
      "failExec": [],
      "beginExec": []
    }
  ],
  "talks": [
    {
      "id": 7314401,
      "beginWay": "TALK_BEGIN_MANUAL",
      "beginCond": [
        {
          "type": "QUEST_COND_STATE_EQUAL",
          "param": [
            "7314402",
            "3"
          ],
          "param_str": ""
        }
      ],
      "priority": 5,
      "initDialog": 731440101,
      "npcId": [
        20684
      ],
      "performCfg": "",
      "heroTalk": "TALK_HERO_MAIN",
      "questId": 73144,
      "prePerformCfg": ""
    }
  ]
}