{
  "id": 73146,
  "type": "WQ",
  "titleTextMapHash": 2279208007,
  "descTextMapHash": 4105362070,
  "luaPath": "Actor/Quest/WQ73146",
  "showType": "QUEST_HIDDEN",
  "subQuests": [
    {
      "mainId": 73146,
      "subId": 7314601,
      "order": 1,
      "showType": "QUEST_HIDDEN",
      "descTextMapHash": 795530732,
      "acceptCond": [
        {
          "type": "QUEST_COND_UNKNOWN",
          "param": [
            0,
            0
          ]
        }
      ],
      "finishCond": [],
      "failCond": [],
      "guide": {},
      "finishExec": [],
      "failExec": [],
      "beginExec": []
    },
    {
      "mainId": 73146,
      "subId": 7314602,
      "order": 2,
      "showType": "QUEST_HIDDEN",
      "descTextMapHash": 2435197060,
      "acceptCond": [
        {
          "type": "QUEST_COND_UNKNOWN",
          "param": [
            0,
            0
          ]
        }
      ],
      "finishCond": [],
      "failCond": [],
      "guide": {},
      "finishExec": [],
      "failExec": [],
      "beginExec": []
    }
  ]
}