{
  "id": 73156,
  "type": "WQ",
  "titleTextMapHash": 2840099639,
  "descTextMapHash": 4136581198,
  "luaPath": "Actor/Quest/WQ73156",
  "showType": "QUEST_HIDDEN",
  "subQuests": [
    {
      "mainId": 73156,
      "subId": 7315601,
      "order": 1,
      "showType": "QUEST_HIDDEN",
      "descTextMapHash": 3285910044,
      "acceptCond": [
        {
          "type": "QUEST_COND_UNKNOWN",
          "param": [
            0,
            0
          ]
        }
      ],
      "finishCond": [],
      "failCond": [],
      "guide": {},
      "finishExec": [],
      "failExec": [],
      "beginExec": []
    },
    {
      "mainId": 73156,
      "subId": 7315602,
      "order": 2,
      "showType": "QUEST_HIDDEN",
      "descTextMapHash": 3871930764,
      "acceptCond": [
        {
          "type": "QUEST_COND_UNKNOWN",
          "param": [
            0,
            0
          ]
        }
      ],
      "finishCond": [],
      "failCond": [],
      "guide": {},
      "finishExec": [],
      "failExec": [],
      "beginExec": []
    }
  ]
}