{
  "id": 73181,
  "type": "WQ",
  "titleTextMapHash": 2080424991,
  "descTextMapHash": 3142759062,
  "luaPath": "Actor/Quest/WQ73181",
  "showType": "QUEST_HIDDEN",
  "rewardIdList": [
    210012
  ],
  "subQuests": [
    {
      "mainId": 73181,
      "subId": 7318101,
      "order": 1,
      "showType": "QUEST_HIDDEN",
      "acceptCond": [
        {
          "type": "QUEST_COND_UNKNOWN",
          "param": [
            0,
            0
          ]
        }
      ],
      "finishCond": [],
      "failCond": [],
      "guide": {},
      "finishExec": [],
      "failExec": [],
      "beginExec": []
    },
    {
      "mainId": 73181,
      "subId": 7318102,
      "order": 2,
      "showType": "QUEST_HIDDEN",
      "acceptCond": [
        {
          "type": "QUEST_COND_UNKNOWN",
          "param": [
            0,
            0
          ]
        }
      ],
      "finishCond": [],
      "failCond": [],
      "guide": {},
      "finishExec": [],
      "failExec": [],
      "beginExec": []
    },
    {
      "mainId": 73181,
      "subId": 7318103,
      "order": 3,
      "showType": "QUEST_HIDDEN",
      "acceptCond": [
        {
          "type": "QUEST_COND_UNKNOWN",
          "param": [
            0,
            0
          ]
        }
      ],
      "finishCond": [],
      "failCond": [],
      "guide": {},
      "finishExec": [],
      "failExec": [],
      "beginExec": []
    }
  ],
  "talks": [
    {
      "id": 7318101,
      "beginWay": "TALK_BEGIN_MANUAL",
      "beginCond": [
        {
          "type": "QUEST_COND_STATE_EQUAL",
          "param": [
            "7318102",
            "3"
          ],
          "param_str": ""
        }
      ],
      "priority": 5,
      "initDialog": 731810101,
      "npcId": [
        20808
      ],
      "performCfg": "",
      "heroTalk": "TALK_HERO_MAIN",
      "questId": 73181,
      "prePerformCfg": ""
    }
  ]
}