{
  "id": 73207,
  "type": "WQ",
  "series": 73193,
  "titleTextMapHash": 3837361495,
  "descTextMapHash": 1296052534,
  "luaPath": "Actor/Quest/WQ73207",
  "rewardIdList": [
    173207
  ],
  "subQuests": [
    {
      "mainId": 73207,
      "subId": 7320701,
      "order": 6,
      "showType": "QUEST_HIDDEN",
      "descTextMapHash": 254927372,
      "acceptCond": [
        {
          "type": "QUEST_COND_UNKNOWN",
          "param": [
            0,
            0
          ]
        }
      ],
      "finishCond": [],
      "failCond": [],
      "guide": {
        "type": "QUEST_GUIDE_NPC",
        "param": [
          "4233"
        ],
        "guideScene": 3,
        "guideStyle": "QUEST_GUIDE_STYLE_TARGET",
        "guideLayer": "QUEST_GUIDE_LAYER_SCENE"
      },
      "finishExec": [],
      "failExec": [],
      "beginExec": []
    },
    {
      "mainId": 73207,
      "subId": 7320702,
      "order": 7,
      "descTextMapHash": 2495011820,
      "acceptCond": [
        {
          "type": "QUEST_COND_UNKNOWN",
          "param": [
            0,
            0
          ]
        }
      ],
      "finishCond": [],
      "failCond": [],
      "guide": {
        "type": "QUEST_GUIDE_LOCATION",
        "param": [
          "Q7320901_Player",
          "25"
        ],
        "guideScene": 3,
        "guideStyle": "QUEST_GUIDE_STYLE_POINT",
        "guideLayer": "QUEST_GUIDE_LAYER_SCENE"
      },
      "finishExec": [],
      "failExec": [],
      "beginExec": []
    },
    {
      "mainId": 73207,
      "subId": 7320703,
      "order": 8,
      "descTextMapHash": 1015772,
      "acceptCond": [
        {
          "type": "QUEST_COND_UNKNOWN",
          "param": [
            0,
            0
          ]
        }
      ],
      "finishCond": [],
      "failCond": [],
      "guide": {
        "type": "QUEST_GUIDE_NPC",
        "param": [
          "4233"
        ],
        "guideScene": 3,
        "guideStyle": "QUEST_GUIDE_STYLE_TARGET",
        "guideLayer": "QUEST_GUIDE_LAYER_SCENE"
      },
      "finishExec": [],
      "failExec": [],
      "beginExec": []
    },
    {
      "mainId": 73207,
      "subId": 7320704,
      "order": 99,
      "descTextMapHash": 3183366428,
      "acceptCond": [
        {
          "type": "QUEST_COND_UNKNOWN",
          "param": [
            0,
            0
          ]
        }
      ],
      "finishCond": [],
      "failCond": [],
      "guide": {
        "type": "QUEST_GUIDE_LOCATION",
        "param": [
          "Q7320901_Player",
          "10"
        ],
        "guideScene": 3,
        "guideStyle": "QUEST_GUIDE_STYLE_POINT",
        "guideLayer": "QUEST_GUIDE_LAYER_SCENE"
      },
      "finishExec": [],
      "failExec": [],
      "beginExec": []
    },
    {
      "mainId": 73207,
      "subId": 7320705,
      "order": 98,
      "descTextMapHash": 310017972,
      "acceptCond": [
        {
          "type": "QUEST_COND_UNKNOWN",
          "param": [
            0,
            0
          ]
        }
      ],
      "finishCond": [],
      "failCond": [],
      "guide": {
        "type": "QUEST_GUIDE_LOCATION",
        "param": [
          "Q7320901_Player",
          "10"
        ],
        "guideScene": 3,
        "guideStyle": "QUEST_GUIDE_STYLE_POINT",
        "guideLayer": "QUEST_GUIDE_LAYER_SCENE"
      },
      "finishExec": [],
      "failExec": [],
      "beginExec": []
    },
    {
      "mainId": 73207,
      "subId": 7320706,
      "order": 2,
      "showType": "QUEST_HIDDEN",
      "descTextMapHash": 1576125780,
      "acceptCond": [
        {
          "type": "QUEST_COND_UNKNOWN",
          "param": [
            0,
            0
          ]
        }
      ],
      "finishCond": [],
      "failCond": [],
      "guide": {
        "type": "QUEST_GUIDE_NPC",
        "param": [
          "4233"
        ],
        "guideScene": 3,
        "guideStyle": "QUEST_GUIDE_STYLE_TARGET",
        "guideLayer": "QUEST_GUIDE_LAYER_SCENE"
      },
      "finishExec": [],
      "failExec": [],
      "beginExec": []
    },
    {
      "mainId": 73207,
      "subId": 7320707,
      "order": 4,
      "showType": "QUEST_HIDDEN",
      "descTextMapHash": 2852580716,
      "acceptCond": [
        {
          "type": "QUEST_COND_UNKNOWN",
          "param": [
            0,
            0
          ]
        }
      ],
      "finishCond": [],
      "failCond": [],
      "guide": {},
      "finishExec": [],
      "failExec": [],
      "beginExec": []
    },
    {
      "mainId": 73207,
      "subId": 7320708,
      "order": 3,
      "showType": "QUEST_HIDDEN",
      "descTextMapHash": 4107101332,
      "acceptCond": [
        {
          "type": "QUEST_COND_UNKNOWN",
          "param": [
            0,
            0
          ]
        }
      ],
      "finishCond": [],
      "failCond": [],
      "guide": {
        "type": "QUEST_GUIDE_NPC",
        "param": [
          "4232"
        ],
        "guideScene": 3,
        "guideStyle": "QUEST_GUIDE_STYLE_TARGET",
        "guideLayer": "QUEST_GUIDE_LAYER_SCENE"
      },
      "finishExec": [],
      "failExec": [],
      "beginExec": []
    },
    {
      "mainId": 73207,
      "subId": 7320709,
      "order": 1,
      "showType": "QUEST_HIDDEN",
      "descTextMapHash": 2297908660,
      "acceptCond": [
        {
          "type": "QUEST_COND_UNKNOWN",
          "param": [
            0,
            0
          ]
        }
      ],
      "finishCond": [],
      "failCond": [],
      "guide": {},
      "finishExec": [],
      "failExec": [],
      "beginExec": []
    },
    {
      "mainId": 73207,
      "subId": 7320710,
      "order": 9,
      "showType": "QUEST_HIDDEN",
      "descTextMapHash": 2351898372,
      "acceptCond": [
        {
          "type": "QUEST_COND_UNKNOWN",
          "param": [
            0,
            0
          ]
        }
      ],
      "finishCond": [],
      "failCond": [],
      "guide": {},
      "finishExec": [],
      "failExec": [],
      "beginExec": []
    },
    {
      "mainId": 73207,
      "subId": 7320711,
      "order": 5,
      "showType": "QUEST_HIDDEN",
      "descTextMapHash": 3430662540,
      "acceptCond": [
        {
          "type": "QUEST_COND_UNKNOWN",
          "param": [
            0,
            0
          ]
        }
      ],
      "finishCond": [],
      "failCond": [],
      "guide": {},
      "finishExec": [],
      "failExec": [],
      "beginExec": []
    }
  ],
  "talks": [
    {
      "id": 7320306,
      "beginWay": "TALK_BEGIN_MANUAL",
      "activeMode": "PLAY_MODE_HOST",
      "beginCond": [
        {
          "type": "QUEST_COND_STATE_EQUAL",
          "param": [
            "7320709",
            "2"
          ],
          "param_str": ""
        }
      ],
      "priority": 4,
      "initDialog": 732030602,
      "npcId": [
        4232
      ],
      "performCfg": "",
      "heroTalk": "TALK_HERO_MAIN",
      "questId": 73207,
      "prePerformCfg": "",
      "lowPriority": true
    },
    {
      "id": 7320307,
      "beginWay": "TALK_BEGIN_MANUAL",
      "activeMode": "PLAY_MODE_HOST",
      "beginCond": [
        {
          "type": "QUEST_COND_STATE_EQUAL",
          "param": [
            "7320709",
            "2"
          ],
          "param_str": ""
        }
      ],
      "priority": 6,
      "nextTalks": [
        7329001,
        7320604,
        7320308,
        7320309
      ],
      "initDialog": 732030701,
      "npcId": [
        4232
      ],
      "performCfg": "",
      "heroTalk": "TALK_HERO_MAIN",
      "questId": 73207,
      "prePerformCfg": ""
    },
    {
      "id": 7320308,
      "beginWay": "TALK_BEGIN_MANUAL",
      "activeMode": "PLAY_MODE_HOST",
      "beginCond": [
        {
          "type": "QUEST_COND_STATE_EQUAL",
          "param": [
            "7320709",
            "2"
          ],
          "param_str": ""
        }
      ],
      "priority": 4,
      "initDialog": 732030605,
      "npcId": [
        4232
      ],
      "performCfg": "",
      "heroTalk": "TALK_HERO_MAIN",
      "questId": 73207,
      "prePerformCfg": "",
      "lowPriority": true
    },
    {
      "id": 7320309,
      "beginWay": "TALK_BEGIN_MANUAL",
      "activeMode": "PLAY_MODE_HOST",
      "beginCond": [
        {
          "type": "QUEST_COND_STATE_EQUAL",
          "param": [
            "7320709",
            "2"
          ],
          "param_str": ""
        }
      ],
      "priority": 4,
      "initDialog": 732030619,
      "npcId": [
        4232
      ],
      "performCfg": "",
      "heroTalk": "TALK_HERO_MAIN",
      "questId": 73207,
      "prePerformCfg": "",
      "lowPriority": true
    },
    {
      "id": 7320604,
      "beginWay": "TALK_BEGIN_MANUAL",
      "activeMode": "PLAY_MODE_HOST",
      "beginCond": [
        {
          "type": "QUEST_COND_STATE_EQUAL",
          "param": [
            "7320708",
            "2"
          ],
          "param_str": ""
        }
      ],
      "priority": 5,
      "initDialog": 732060402,
      "npcId": [
        4232
      ],
      "performCfg": "",
      "heroTalk": "TALK_HERO_MAIN",
      "questId": 73207,
      "prePerformCfg": ""
    },
    {
      "id": 7320606,
      "beginWay": "TALK_BEGIN_MANUAL",
      "activeMode": "PLAY_MODE_HOST",
      "beginCondComb": "LOGIC_AND",
      "beginCond": [
        {
          "type": "QUEST_COND_STATE_EQUAL",
          "param": [
            "7320603",
            "3"
          ],
          "param_str": ""
        },
        {
          "type": "QUEST_COND_QUEST_NOT_RECEIVE",
          "param": [
            "7320701",
            "1"
          ],
          "param_str": ""
        }
      ],
      "priority": 5,
      "initDialog": 732060601,
      "npcId": [
        4233
      ],
      "performCfg": "QuestDialogue/WQ/Sumeru_73206/Q7320606",
      "heroTalk": "TALK_HERO_MAIN",
      "questId": 73207,
      "prePerformCfg": "",
      "questIdleTalk": true
    },
    {
      "id": 7320701,
      "beginWay": "TALK_BEGIN_AUTO",
      "activeMode": "PLAY_MODE_HOST",
      "beginCond": [
        {
          "type": "QUEST_COND_STATE_EQUAL",
          "param": [
            "7320701",
            "2"
          ],
          "param_str": ""
        }
      ],
      "priority": 5,
      "initDialog": 732070101,
      "npcId": [
        4233
      ],
      "performCfg": "QuestDialogue/WQ/Sumeru_73207/Q7320701",
      "heroTalk": "TALK_HERO_MAIN",
      "questId": 73207,
      "prePerformCfg": "",
      "talkMarkType": "TALK_MARK_COMMON"
    },
    {
      "id": 7320703,
      "beginWay": "TALK_BEGIN_MANUAL",
      "activeMode": "PLAY_MODE_HOST",
      "beginCond": [
        {
          "type": "QUEST_COND_STATE_EQUAL",
          "param": [
            "7320703",
            "2"
          ],
          "param_str": ""
        }
      ],
      "priority": 5,
      "initDialog": 732070321,
      "npcId": [
        4233,
        4232
      ],
      "performCfg": "QuestDialogue/WQ/Sumeru_73207/Q7320703",
      "heroTalk": "TALK_HERO_MAIN",
      "questId": 73207,
      "prePerformCfg": ""
    },
    {
      "id": 7320704,
      "beginWay": "TALK_BEGIN_MANUAL",
      "activeMode": "PLAY_MODE_HOST",
      "beginCondComb": "LOGIC_OR",
      "beginCond": [
        {
          "type": "QUEST_COND_STATE_EQUAL",
          "param": [
            "7320702",
            "2"
          ],
          "param_str": ""
        },
        {
          "type": "QUEST_COND_STATE_EQUAL",
          "param": [
            "7320704",
            "2"
          ],
          "param_str": ""
        },
        {
          "type": "QUEST_COND_STATE_EQUAL",
          "param": [
            "7320705",
            "2"
          ],
          "param_str": ""
        }
      ],
      "priority": 4,
      "initDialog": 732070401,
      "npcId": [
        4232
      ],
      "performCfg": "",
      "heroTalk": "TALK_HERO_MAIN",
      "questId": 73207,
      "prePerformCfg": "",
      "lowPriority": true
    },
    {
      "id": 7320705,
      "beginWay": "TALK_BEGIN_MANUAL",
      "activeMode": "PLAY_MODE_HOST",
      "beginCondComb": "LOGIC_OR",
      "beginCond": [
        {
          "type": "QUEST_COND_STATE_EQUAL",
          "param": [
            "7320702",
            "2"
          ],
          "param_str": ""
        },
        {
          "type": "QUEST_COND_STATE_EQUAL",
          "param": [
            "7320704",
            "2"
          ],
          "param_str": ""
        },
        {
          "type": "QUEST_COND_STATE_EQUAL",
          "param": [
            "7320705",
            "2"
          ],
          "param_str": ""
        }
      ],
      "priority": 4,
      "initDialog": 732070501,
      "npcId": [
        4233
      ],
      "performCfg": "",
      "heroTalk": "TALK_HERO_MAIN",
      "questId": 73207,
      "prePerformCfg": "",
      "lowPriority": true
    },
    {
      "id": 7329001,
      "beginWay": "TALK_BEGIN_MANUAL",
      "activeMode": "PLAY_MODE_HOST",
      "beginCondComb": "LOGIC_AND",
      "beginCond": [
        {
          "type": "QUEST_COND_STATE_EQUAL",
          "param": [
            "7329001",
            "2"
          ],
          "param_str": ""
        },
        {
          "type": "QUEST_COND_ITEM_GIVING_ACTIVED",
          "param": [
            "7329001"
          ],
          "param_str": ""
        },
        {
          "type": "QUEST_COND_STATE_EQUAL",
          "param": [
            "7320709",
            "2"
          ],
          "param_str": ""
        }
      ],
      "priority": 4,
      "initDialog": 732900101,
      "npcId": [
        4232
      ],
      "performCfg": "",
      "heroTalk": "TALK_HERO_MAIN",
      "questId": 73207,
      "prePerformCfg": "",
      "lowPriority": true
    },
    {
      "id": 7329002,
      "beginWay": "TALK_BEGIN_AUTO",
      "activeMode": "PLAY_MODE_HOST",
      "beginCond": [
        {
          "type": "QUEST_COND_STATE_EQUAL",
          "param": [
            "7329002",
            "2"
          ],
          "param_str": ""
        }
      ],
      "priority": 8,
      "initDialog": 732900201,
      "npcId": [
        4232
      ],
      "performCfg": "",
      "heroTalk": "TALK_HERO_MAIN",
      "questId": 73207,
      "prePerformCfg": ""
    }
  ]
}