{
  "id": 73212,
  "type": "WQ",
  "series": 73212,
  "titleTextMapHash": 840791151,
  "descTextMapHash": 2341836398,
  "luaPath": "Actor/Quest/WQ73212",
  "suggestTrackMainQuestList": [
    73264
  ],
  "rewardIdList": [
    173212
  ],
  "chapterId": 10120,
  "subQuests": [
    {
      "mainId": 73212,
      "subId": 7321201,
      "order": 1,
      "showType": "QUEST_HIDDEN",
      "descTextMapHash": 592044092,
      "acceptCond": [
        {
          "type": "QUEST_COND_UNKNOWN",
          "param": [
            0,
            0
          ]
        }
      ],
      "finishCond": [],
      "failCond": [],
      "guide": {},
      "finishExec": [],
      "failExec": [],
      "beginExec": []
    },
    {
      "mainId": 73212,
      "subId": 7321202,
      "order": 2,
      "descTextMapHash": 2539083188,
      "acceptCond": [
        {
          "type": "QUEST_COND_UNKNOWN",
          "param": [
            0,
            0
          ]
        }
      ],
      "finishCond": [],
      "failCond": [],
      "guide": {
        "type": "QUEST_GUIDE_LOCATION",
        "param": [
          "Q7321202_guide",
          "30"
        ],
        "guideScene": 3
      },
      "finishExec": [],
      "failExec": [],
      "beginExec": []
    },
    {
      "mainId": 73212,
      "subId": 7321203,
      "order": 3,
      "descTextMapHash": 4245095772,
      "acceptCond": [
        {
          "type": "QUEST_COND_UNKNOWN",
          "param": [
            0,
            0
          ]
        }
      ],
      "finishCond": [],
      "failCond": [],
      "guide": {
        "type": "QUEST_GUIDE_LOCATION",
        "param": [
          "Q7321202_guide",
          "30"
        ],
        "guideScene": 3
      },
      "finishExec": [],
      "failExec": [],
      "beginExec": []
    },
    {
      "mainId": 73212,
      "subId": 7321204,
      "order": 4,
      "descTextMapHash": 2908702428,
      "acceptCond": [
        {
          "type": "QUEST_COND_UNKNOWN",
          "param": [
            0,
            0
          ]
        }
      ],
      "finishCond": [],
      "failCond": [],
      "guide": {
        "type": "QUEST_GUIDE_LOCATION",
        "param": [
          "Q7321204_guide",
          "30"
        ],
        "guideScene": 3
      },
      "finishExec": [],
      "failExec": [],
      "beginExec": []
    },
    {
      "mainId": 73212,
      "subId": 7321205,
      "order": 8,
      "descTextMapHash": 477302748,
      "acceptCond": [
        {
          "type": "QUEST_COND_UNKNOWN",
          "param": [
            0,
            0
          ]
        }
      ],
      "finishCond": [],
      "failCond": [],
      "guide": {
        "type": "QUEST_GUIDE_LOCATION",
        "param": [
          "Q7321205_guide_2281",
          "30"
        ],
        "guideScene": 3
      },
      "finishExec": [],
      "failExec": [],
      "beginExec": []
    },
    {
      "mainId": 73212,
      "subId": 7321206,
      "order": 10,
      "descTextMapHash": 943531732,
      "acceptCond": [
        {
          "type": "QUEST_COND_UNKNOWN",
          "param": [
            0,
            0
          ]
        }
      ],
      "finishCond": [],
      "failCond": [],
      "guide": {},
      "finishExec": [],
      "failExec": [],
      "beginExec": []
    },
    {
      "mainId": 73212,
      "subId": 7321207,
      "order": 11,
      "descTextMapHash": 3769394508,
      "acceptCond": [
        {
          "type": "QUEST_COND_UNKNOWN",
          "param": [
            0,
            0
          ]
        }
      ],
      "finishCond": [],
      "failCond": [],
      "guide": {
        "guideScene": 3,
        "guideStyle": "QUEST_GUIDE_STYLE_TARGET"
      },
      "finishExec": [],
      "failExec": [],
      "beginExec": []
    },
    {
      "mainId": 73212,
      "subId": 7321208,
      "order": 12,
      "descTextMapHash": 4056926500,
      "acceptCond": [
        {
          "type": "QUEST_COND_UNKNOWN",
          "param": [
            0,
            0
          ]
        }
      ],
      "finishCond": [],
      "failCond": [],
      "guide": {
        "type": "QUEST_GUIDE_LOCATION",
        "param": [
          "Q7321208_guide",
          "20"
        ],
        "guideScene": 3
      },
      "finishExec": [],
      "failExec": [],
      "beginExec": []
    },
    {
      "mainId": 73212,
      "subId": 7321209,
      "order": 14,
      "descTextMapHash": 3937720244,
      "acceptCond": [
        {
          "type": "QUEST_COND_UNKNOWN",
          "param": [
            0,
            0
          ]
        }
      ],
      "finishCond": [],
      "failCond": [],
      "guide": {
        "type": "QUEST_GUIDE_LOCATION",
        "param": [
          "N1005_T7321209",
          "30"
        ],
        "guideScene": 3
      },
      "finishExec": [],
      "failExec": [],
      "beginExec": []
    },
    {
      "mainId": 73212,
      "subId": 7321210,
      "order": 15,
      "descTextMapHash": 3484128388,
      "acceptCond": [
        {
          "type": "QUEST_COND_UNKNOWN",
          "param": [
            0,
            0
          ]
        }
      ],
      "finishCond": [],
      "failCond": [],
      "guide": {
        "type": "QUEST_GUIDE_NPC",
        "autoGuide": "QUEST_GUIDE_AUTO_ENABLE",
        "param": [
          "4294"
        ],
        "guideScene": 3
      },
      "finishExec": [],
      "failExec": [],
      "beginExec": []
    },
    {
      "mainId": 73212,
      "subId": 7321211,
      "order": 16,
      "descTextMapHash": 471811764,
      "acceptCond": [
        {
          "type": "QUEST_COND_UNKNOWN",
          "param": [
            0,
            0
          ]
        }
      ],
      "finishCond": [],
      "failCond": [],
      "guide": {
        "type": "QUEST_GUIDE_NPC",
        "param": [
          "4291"
        ],
        "guideScene": 3
      },
      "finishExec": [],
      "failExec": [],
      "beginExec": []
    },
    {
      "mainId": 73212,
      "subId": 7321212,
      "order": 9,
      "descTextMapHash": 265875300,
      "acceptCond": [
        {
          "type": "QUEST_COND_UNKNOWN",
          "param": [
            0,
            0
          ]
        }
      ],
      "finishCond": [],
      "failCond": [],
      "guide": {
        "type": "QUEST_GUIDE_LOCATION",
        "autoGuide": "QUEST_GUIDE_AUTO_ENABLE",
        "param": [
          "Q7321207_N20932"
        ],
        "guideScene": 3,
        "guideStyle": "QUEST_GUIDE_STYLE_TARGET",
        "guideLayer": "QUEST_GUIDE_LAYER_SCENE"
      },
      "finishExec": [],
      "failExec": [],
      "beginExec": []
    },
    {
      "mainId": 73212,
      "subId": 7321213,
      "order": 7,
      "descTextMapHash": 1960763676,
      "acceptCond": [
        {
          "type": "QUEST_COND_UNKNOWN",
          "param": [
            0,
            0
          ]
        }
      ],
      "finishCond": [],
      "failCond": [],
      "guide": {
        "type": "QUEST_GUIDE_LOCATION",
        "param": [
          "Q7321213_guide_2986",
          "30"
        ],
        "guideScene": 3
      },
      "finishExec": [],
      "failExec": [],
      "beginExec": []
    },
    {
      "mainId": 73212,
      "subId": 7321214,
      "order": 5,
      "descTextMapHash": 1511687132,
      "acceptCond": [
        {
          "type": "QUEST_COND_UNKNOWN",
          "param": [
            0,
            0
          ]
        }
      ],
      "finishCond": [],
      "failCond": [],
      "guide": {
        "type": "QUEST_GUIDE_LOCATION",
        "param": [
          "Q7321214_guide",
          "40"
        ],
        "guideScene": 3
      },
      "finishExec": [],
      "failExec": [],
      "beginExec": []
    },
    {
      "mainId": 73212,
      "subId": 7321215,
      "order": 6,
      "showType": "QUEST_HIDDEN",
      "descTextMapHash": 155921484,
      "acceptCond": [
        {
          "type": "QUEST_COND_UNKNOWN",
          "param": [
            0,
            0
          ]
        }
      ],
      "finishCond": [],
      "failCond": [],
      "guide": {
        "type": "QUEST_GUIDE_LOCATION",
        "param": [
          "Q7321214_guide",
          "30"
        ],
        "guideScene": 3
      },
      "finishExec": [],
      "failExec": [],
      "beginExec": []
    },
    {
      "mainId": 73212,
      "subId": 7321216,
      "order": 13,
      "descTextMapHash": 3785625156,
      "acceptCond": [
        {
          "type": "QUEST_COND_UNKNOWN",
          "param": [
            0,
            0
          ]
        }
      ],
      "finishCond": [],
      "failCond": [],
      "guide": {
        "type": "QUEST_GUIDE_LOCATION",
        "param": [
          "N1005_T7321209",
          "30"
        ]
      },
      "finishExec": [],
      "failExec": [],
      "beginExec": []
    }
  ],
  "talks": [
    {
      "id": 7321201,
      "beginWay": "TALK_BEGIN_MANUAL",
      "activeMode": "PLAY_MODE_HOST",
      "beginCond": [
        {
          "type": "QUEST_COND_STATE_EQUAL",
          "param": [
            "7321201",
            "2"
          ],
          "param_str": ""
        }
      ],
      "priority": 5,
      "initDialog": 732120101,
      "npcId": [
        4294
      ],
      "performCfg": "QuestDialogue/WQ/Sumeru_73212/Q7321201",
      "heroTalk": "TALK_HERO_MAIN",
      "questId": 73212,
      "prePerformCfg": "",
      "talkMarkType": "TALK_MARK_COMMON"
    },
    {
      "id": 7321203,
      "beginWay": "TALK_BEGIN_MANUAL",
      "activeMode": "PLAY_MODE_HOST",
      "beginCondComb": "LOGIC_AND",
      "beginCond": [
        {
          "type": "QUEST_COND_STATE_EQUAL",
          "param": [
            "7321201",
            "3"
          ],
          "param_str": ""
        }
      ],
      "priority": 3,
      "initDialog": 732120301,
      "npcId": [
        4294
      ],
      "performCfg": "",
      "heroTalk": "TALK_HERO_MAIN",
      "questId": 73212,
      "prePerformCfg": ""
    },
    {
      "id": 7321204,
      "beginWay": "TALK_BEGIN_MANUAL",
      "activeMode": "PLAY_MODE_HOST",
      "beginCondComb": "LOGIC_AND",
      "beginCond": [
        {
          "type": "QUEST_COND_STATE_EQUAL",
          "param": [
            "7321201",
            "3"
          ],
          "param_str": ""
        }
      ],
      "priority": 3,
      "initDialog": 732120401,
      "npcId": [
        4296
      ],
      "performCfg": "",
      "heroTalk": "TALK_HERO_MAIN",
      "questId": 73212,
      "prePerformCfg": ""
    },
    {
      "id": 7321205,
      "beginWay": "TALK_BEGIN_MANUAL",
      "activeMode": "PLAY_MODE_HOST",
      "beginCondComb": "LOGIC_AND",
      "beginCond": [
        {
          "type": "QUEST_COND_STATE_EQUAL",
          "param": [
            "7321203",
            "2"
          ],
          "param_str": ""
        },
        {
          "type": "QUEST_COND_STATE_EQUAL",
          "param": [
            "7321202",
            "3"
          ],
          "param_str": ""
        }
      ],
      "priority": 5,
      "initDialog": 732120501,
      "npcId": [
        20932
      ],
      "performCfg": "QuestDialogue/WQ/Sumeru_73212/Q7321205",
      "heroTalk": "TALK_HERO_MAIN",
      "questId": 73212,
      "prePerformCfg": ""
    },
    {
      "id": 7321206,
      "beginWay": "TALK_BEGIN_MANUAL",
      "activeMode": "PLAY_MODE_HOST",
      "beginCondComb": "LOGIC_AND",
      "beginCond": [
        {
          "type": "QUEST_COND_STATE_EQUAL",
          "param": [
            "7321204",
            "2"
          ],
          "param_str": ""
        },
        {
          "type": "QUEST_COND_STATE_EQUAL",
          "param": [
            "7321203",
            "3"
          ],
          "param_str": ""
        }
      ],
      "priority": 5,
      "initDialog": 732120601,
      "npcId": [
        20932
      ],
      "performCfg": "QuestDialogue/WQ/Sumeru_73212/Q7321206",
      "heroTalk": "TALK_HERO_MAIN",
      "questId": 73212,
      "prePerformCfg": ""
    },
    {
      "id": 7321208,
      "beginWay": "TALK_BEGIN_MANUAL",
      "activeMode": "PLAY_MODE_HOST",
      "beginCond": [
        {
          "type": "QUEST_COND_STATE_EQUAL",
          "param": [
            "7321205",
            "2"
          ],
          "param_str": ""
        }
      ],
      "priority": 5,
      "initDialog": 732120801,
      "npcId": [
        20932
      ],
      "performCfg": "QuestDialogue/WQ/Sumeru_73212/Q7321208",
      "heroTalk": "TALK_HERO_MAIN",
      "questId": 73212,
      "prePerformCfg": ""
    },
    {
      "id": 7321209,
      "beginWay": "TALK_BEGIN_AUTO",
      "activeMode": "PLAY_MODE_HOST",
      "beginCond": [
        {
          "type": "QUEST_COND_STATE_EQUAL",
          "param": [
            "7321209",
            "2"
          ],
          "param_str": ""
        }
      ],
      "priority": 5,
      "initDialog": 732120901,
      "npcId": [
        1005
      ],
      "performCfg": "QuestDialogue/WQ/Sumeru_73212/Q7321209",
      "heroTalk": "TALK_HERO_MAIN",
      "questId": 73212,
      "prePerformCfg": ""
    },
    {
      "id": 7321210,
      "beginWay": "TALK_BEGIN_MANUAL",
      "activeMode": "PLAY_MODE_HOST",
      "beginCond": [
        {
          "type": "QUEST_COND_STATE_EQUAL",
          "param": [
            "7321210",
            "2"
          ],
          "param_str": ""
        }
      ],
      "priority": 5,
      "initDialog": 732121001,
      "npcId": [
        4294
      ],
      "performCfg": "QuestDialogue/WQ/Sumeru_73212/Q7321210",
      "heroTalk": "TALK_HERO_MAIN",
      "questId": 73212,
      "prePerformCfg": ""
    },
    {
      "id": 7321211,
      "beginWay": "TALK_BEGIN_MANUAL",
      "activeMode": "PLAY_MODE_HOST",
      "beginCond": [
        {
          "type": "QUEST_COND_STATE_EQUAL",
          "param": [
            "7321211",
            "2"
          ],
          "param_str": ""
        }
      ],
      "priority": 5,
      "initDialog": 732121101,
      "npcId": [
        4291
      ],
      "performCfg": "QuestDialogue/WQ/Sumeru_73212/Q7321211",
      "heroTalk": "TALK_HERO_MAIN",
      "questId": 73212,
      "prePerformCfg": ""
    },
    {
      "id": 7321215,
      "beginWay": "TALK_BEGIN_MANUAL",
      "activeMode": "PLAY_MODE_HOST",
      "beginCond": [
        {
          "type": "QUEST_COND_STATE_EQUAL",
          "param": [
            "7321210",
            "3"
          ],
          "param_str": ""
        },
        {
          "type": "QUEST_COND_STATE_EQUAL",
          "param": [
            "7321211",
            "2"
          ],
          "param_str": ""
        }
      ],
      "priority": 5,
      "initDialog": 732121501,
      "npcId": [
        4294
      ],
      "performCfg": "",
      "heroTalk": "TALK_HERO_MAIN",
      "questId": 73212,
      "prePerformCfg": "",
      "questIdleTalk": true
    },
    {
      "id": 7321216,
      "beginWay": "TALK_BEGIN_MANUAL",
      "activeMode": "PLAY_MODE_HOST",
      "beginCond": [
        {
          "type": "QUEST_COND_STATE_EQUAL",
          "param": [
            "7321213",
            "2"
          ],
          "param_str": ""
        }
      ],
      "priority": 5,
      "initDialog": 732121601,
      "npcId": [
        20932
      ],
      "performCfg": "QuestDialogue/WQ/Sumeru_73212/Q7321216",
      "heroTalk": "TALK_HERO_MAIN",
      "questId": 73212,
      "prePerformCfg": ""
    },
    {
      "id": 7321217,
      "beginWay": "TALK_BEGIN_MANUAL",
      "activeMode": "PLAY_MODE_HOST",
      "beginCond": [
        {
          "type": "QUEST_COND_STATE_EQUAL",
          "param": [
            "7321211",
            "3"
          ],
          "param_str": ""
        },
        {
          "type": "QUEST_COND_STATE_EQUAL",
          "param": [
            "7326422",
            "2"
          ],
          "param_str": ""
        }
      ],
      "priority": 3,
      "initDialog": 732121701,
      "npcId": [
        4291
      ],
      "performCfg": "",
      "heroTalk": "TALK_HERO_MAIN",
      "questId": 73212,
      "prePerformCfg": "",
      "questIdleTalk": true
    }
  ]
}