{
  "id": 73222,
  "type": "WQ",
  "titleTextMapHash": 534753671,
  "descTextMapHash": 419247462,
  "luaPath": "Actor/Quest/WQ73222",
  "showType": "QUEST_HIDDEN",
  "subQuests": [
    {
      "mainId": 73222,
      "subId": 7322201,
      "order": 1,
      "showType": "QUEST_HIDDEN",
      "acceptCond": [
        {
          "type": "QUEST_COND_UNKNOWN",
          "param": [
            0,
            0
          ]
        }
      ],
      "finishCond": [],
      "failCond": [],
      "guide": {},
      "finishExec": [],
      "failExec": [],
      "beginExec": []
    }
  ]
}