{
  "id": 73264,
  "type": "WQ",
  "series": 73212,
  "titleTextMapHash": 1662528375,
  "descTextMapHash": 3705033286,
  "luaPath": "Actor/Quest/WQ73264",
  "suggestTrackMainQuestList": [
    73225
  ],
  "rewardIdList": [
    173264
  ],
  "chapterId": 10120,
  "subQuests": [
    {
      "mainId": 73264,
      "subId": 7326401,
      "order": 2,
      "descTextMapHash": 1081335828,
      "acceptCond": [
        {
          "type": "QUEST_COND_UNKNOWN",
          "param": [
            0,
            0
          ]
        }
      ],
      "finishCond": [],
      "failCond": [],
      "guide": {
        "type": "QUEST_GUIDE_NPC",
        "param": [
          "4291"
        ],
        "guideScene": 3,
        "guideStyle": "QUEST_GUIDE_STYLE_TARGET",
        "guideLayer": "QUEST_GUIDE_LAYER_SCENE"
      },
      "finishExec": [],
      "failExec": [],
      "beginExec": []
    },
    {
      "mainId": 73264,
      "subId": 7326402,
      "order": 5,
      "descTextMapHash": 1128477004,
      "acceptCond": [
        {
          "type": "QUEST_COND_UNKNOWN",
          "param": [
            0,
            0
          ]
        }
      ],
      "finishCond": [],
      "failCond": [],
      "guide": {
        "type": "QUEST_GUIDE_LOCATION",
        "param": [
          "Q7326402_guide",
          "30"
        ],
        "guideScene": 3
      },
      "finishExec": [],
      "failExec": [],
      "beginExec": []
    },
    {
      "mainId": 73264,
      "subId": 7326403,
      "order": 6,
      "descTextMapHash": 2793782148,
      "acceptCond": [
        {
          "type": "QUEST_COND_UNKNOWN",
          "param": [
            0,
            0
          ]
        }
      ],
      "finishCond": [],
      "failCond": [],
      "guide": {
        "type": "QUEST_GUIDE_LOCATION",
        "param": [
          "Q7326402_guide",
          "30"
        ],
        "guideScene": 3
      },
      "finishExec": [],
      "failExec": [],
      "beginExec": []
    },
    {
      "mainId": 73264,
      "subId": 7326404,
      "order": 7,
      "descTextMapHash": 1757665572,
      "acceptCond": [
        {
          "type": "QUEST_COND_UNKNOWN",
          "param": [
            0,
            0
          ]
        }
      ],
      "finishCond": [],
      "failCond": [],
      "guide": {
        "type": "QUEST_GUIDE_LOCATION",
        "param": [
          "Q7326402_guide",
          "20"
        ],
        "guideScene": 3
      },
      "finishExec": [],
      "failExec": [],
      "beginExec": []
    },
    {
      "mainId": 73264,
      "subId": 7326405,
      "order": 10,
      "showType": "QUEST_HIDDEN",
      "descTextMapHash": 3816028356,
      "acceptCond": [
        {
          "type": "QUEST_COND_UNKNOWN",
          "param": [
            0,
            0
          ]
        }
      ],
      "finishCond": [],
      "failCond": [],
      "guide": {
        "type": "QUEST_GUIDE_LOCATION",
        "param": [
          "Q7326406_guide",
          "70"
        ],
        "guideScene": 3,
        "guideStyle": "QUEST_GUIDE_STYLE_TARGET",
        "guideLayer": "QUEST_GUIDE_LAYER_SCENE"
      },
      "finishExec": [],
      "failExec": [],
      "beginExec": []
    },
    {
      "mainId": 73264,
      "subId": 7326406,
      "order": 25,
      "descTextMapHash": 4092021972,
      "acceptCond": [
        {
          "type": "QUEST_COND_UNKNOWN",
          "param": [
            0,
            0
          ]
        }
      ],
      "finishCond": [],
      "failCond": [],
      "guide": {},
      "finishExec": [],
      "failExec": [],
      "beginExec": []
    },
    {
      "mainId": 73264,
      "subId": 7326407,
      "order": 11,
      "descTextMapHash": 1430586004,
      "acceptCond": [
        {
          "type": "QUEST_COND_UNKNOWN",
          "param": [
            0,
            0
          ]
        }
      ],
      "finishCond": [],
      "failCond": [],
      "guide": {
        "type": "QUEST_GUIDE_LOCATION",
        "param": [
          "Q7326406_guide",
          "95"
        ],
        "guideScene": 3
      },
      "finishExec": [],
      "failExec": [],
      "beginExec": []
    },
    {
      "mainId": 73264,
      "subId": 7326408,
      "order": 13,
      "descTextMapHash": 3429039260,
      "acceptCond": [
        {
          "type": "QUEST_COND_UNKNOWN",
          "param": [
            0,
            0
          ]
        }
      ],
      "finishCond": [],
      "failCond": [],
      "guide": {
        "type": "QUEST_GUIDE_LOCATION",
        "param": [
          "Q7326405_N20936",
          "20"
        ],
        "guideScene": 3
      },
      "finishExec": [],
      "failExec": [],
      "beginExec": []
    },
    {
      "mainId": 73264,
      "subId": 7326409,
      "order": 15,
      "descTextMapHash": 2900507644,
      "acceptCond": [
        {
          "type": "QUEST_COND_UNKNOWN",
          "param": [
            0,
            0
          ]
        }
      ],
      "finishCond": [],
      "failCond": [],
      "guide": {
        "type": "QUEST_GUIDE_LOCATION",
        "param": [
          "Q7326416_guide",
          "40"
        ],
        "guideScene": 3
      },
      "finishExec": [],
      "failExec": [],
      "beginExec": []
    },
    {
      "mainId": 73264,
      "subId": 7326410,
      "order": 16,
      "descTextMapHash": 3618864692,
      "acceptCond": [
        {
          "type": "QUEST_COND_UNKNOWN",
          "param": [
            0,
            0
          ]
        }
      ],
      "finishCond": [],
      "failCond": [],
      "guide": {
        "type": "QUEST_GUIDE_LOCATION",
        "param": [
          "Q7326410",
          "30"
        ],
        "guideScene": 3
      },
      "finishExec": [],
      "failExec": [],
      "beginExec": []
    },
    {
      "mainId": 73264,
      "subId": 7326411,
      "order": 17,
      "descTextMapHash": 921746732,
      "acceptCond": [
        {
          "type": "QUEST_COND_UNKNOWN",
          "param": [
            0,
            0
          ]
        }
      ],
      "finishCond": [],
      "failCond": [],
      "guide": {
        "type": "QUEST_GUIDE_LOCATION",
        "param": [
          "Q7326410",
          "40"
        ],
        "guideScene": 3
      },
      "finishExec": [],
      "failExec": [],
      "beginExec": []
    },
    {
      "mainId": 73264,
      "subId": 7326412,
      "order": 18,
      "descTextMapHash": 3024232948,
      "acceptCond": [
        {
          "type": "QUEST_COND_UNKNOWN",
          "param": [
            0,
            0
          ]
        }
      ],
      "finishCond": [],
      "failCond": [],
      "guide": {
        "type": "QUEST_GUIDE_LOCATION",
        "param": [
          "Q7326410",
          "20"
        ],
        "guideScene": 3
      },
      "finishExec": [],
      "failExec": [],
      "beginExec": []
    },
    {
      "mainId": 73264,
      "subId": 7326413,
      "order": 23,
      "descTextMapHash": 2076264252,
      "acceptCond": [
        {
          "type": "QUEST_COND_UNKNOWN",
          "param": [
            0,
            0
          ]
        }
      ],
      "finishCond": [],
      "failCond": [],
      "guide": {
        "type": "QUEST_GUIDE_LOCATION",
        "param": [
          "Q7326419_N20949",
          "30"
        ],
        "guideScene": 3
      },
      "finishExec": [],
      "failExec": [],
      "beginExec": []
    },
    {
      "mainId": 73264,
      "subId": 7326414,
      "order": 24,
      "showType": "QUEST_HIDDEN",
      "descTextMapHash": 2124913988,
      "acceptCond": [
        {
          "type": "QUEST_COND_UNKNOWN",
          "param": [
            0,
            0
          ]
        }
      ],
      "finishCond": [],
      "failCond": [],
      "guide": {},
      "finishExec": [],
      "failExec": [],
      "beginExec": []
    },
    {
      "mainId": 73264,
      "subId": 7326415,
      "order": 12,
      "descTextMapHash": 145526156,
      "acceptCond": [
        {
          "type": "QUEST_COND_UNKNOWN",
          "param": [
            0,
            0
          ]
        }
      ],
      "finishCond": [],
      "failCond": [],
      "guide": {
        "type": "QUEST_GUIDE_NPC",
        "param": [
          "20936"
        ],
        "guideScene": 3
      },
      "finishExec": [],
      "failExec": [],
      "beginExec": []
    },
    {
      "mainId": 73264,
      "subId": 7326416,
      "order": 14,
      "descTextMapHash": 1934151388,
      "acceptCond": [
        {
          "type": "QUEST_COND_UNKNOWN",
          "param": [
            0,
            0
          ]
        }
      ],
      "finishCond": [],
      "failCond": [],
      "guide": {
        "type": "QUEST_GUIDE_LOCATION",
        "param": [
          "Q7326416_guide",
          "30"
        ],
        "guideScene": 3
      },
      "finishExec": [],
      "failExec": [],
      "beginExec": []
    },
    {
      "mainId": 73264,
      "subId": 7326417,
      "order": 19,
      "descTextMapHash": 3738028316,
      "acceptCond": [
        {
          "type": "QUEST_COND_UNKNOWN",
          "param": [
            0,
            0
          ]
        }
      ],
      "finishCond": [],
      "failCond": [],
      "guide": {
        "type": "QUEST_GUIDE_LOCATION",
        "param": [
          "Q7326410",
          "40"
        ],
        "guideScene": 3
      },
      "finishExec": [],
      "failExec": [],
      "beginExec": []
    },
    {
      "mainId": 73264,
      "subId": 7326418,
      "order": 21,
      "showType": "QUEST_HIDDEN",
      "descTextMapHash": 3427784244,
      "acceptCond": [
        {
          "type": "QUEST_COND_UNKNOWN",
          "param": [
            0,
            0
          ]
        }
      ],
      "finishCond": [],
      "failCond": [],
      "guide": {},
      "finishExec": [],
      "failExec": [],
      "beginExec": []
    },
    {
      "mainId": 73264,
      "subId": 7326419,
      "order": 20,
      "showType": "QUEST_HIDDEN",
      "descTextMapHash": 3904618236,
      "acceptCond": [
        {
          "type": "QUEST_COND_UNKNOWN",
          "param": [
            0,
            0
          ]
        }
      ],
      "finishCond": [],
      "failCond": [],
      "guide": {},
      "finishExec": [],
      "failExec": [],
      "beginExec": []
    },
    {
      "mainId": 73264,
      "subId": 7326420,
      "order": 8,
      "showType": "QUEST_HIDDEN",
      "descTextMapHash": 1677212148,
      "acceptCond": [
        {
          "type": "QUEST_COND_UNKNOWN",
          "param": [
            0,
            0
          ]
        }
      ],
      "finishCond": [],
      "failCond": [],
      "guide": {},
      "finishExec": [],
      "failExec": [],
      "beginExec": []
    },
    {
      "mainId": 73264,
      "subId": 7326421,
      "order": 9,
      "showType": "QUEST_HIDDEN",
      "descTextMapHash": 408879396,
      "acceptCond": [
        {
          "type": "QUEST_COND_UNKNOWN",
          "param": [
            0,
            0
          ]
        }
      ],
      "finishCond": [],
      "failCond": [],
      "guide": {},
      "finishExec": [],
      "failExec": [],
      "beginExec": []
    },
    {
      "mainId": 73264,
      "subId": 7326422,
      "order": 1,
      "descTextMapHash": 785299804,
      "acceptCond": [
        {
          "type": "QUEST_COND_UNKNOWN",
          "param": [
            0,
            0
          ]
        }
      ],
      "finishCond": [],
      "failCond": [],
      "guide": {},
      "finishExec": [],
      "failExec": [],
      "beginExec": []
    },
    {
      "mainId": 73264,
      "subId": 7326423,
      "order": 3,
      "descTextMapHash": 3680828580,
      "acceptCond": [
        {
          "type": "QUEST_COND_UNKNOWN",
          "param": [
            0,
            0
          ]
        }
      ],
      "finishCond": [],
      "failCond": [],
      "guide": {
        "type": "QUEST_GUIDE_LOCATION",
        "param": [
          "Q7326423_guide"
        ],
        "guideScene": 3,
        "guideStyle": "QUEST_GUIDE_STYLE_POINT"
      },
      "finishExec": [],
      "failExec": [],
      "beginExec": []
    },
    {
      "mainId": 73264,
      "subId": 7326424,
      "order": 4,
      "descTextMapHash": 2801124412,
      "acceptCond": [
        {
          "type": "QUEST_COND_UNKNOWN",
          "param": [
            0,
            0
          ]
        }
      ],
      "finishCond": [],
      "failCond": [],
      "guide": {
        "type": "QUEST_GUIDE_LOCATION",
        "param": [
          "Q7326424_guide"
        ],
        "guideScene": 3,
        "guideStyle": "QUEST_GUIDE_STYLE_POINT"
      },
      "finishExec": [],
      "failExec": [],
      "beginExec": []
    },
    {
      "mainId": 73264,
      "subId": 7326425,
      "order": 22,
      "descTextMapHash": 1580097924,
      "acceptCond": [
        {
          "type": "QUEST_COND_UNKNOWN",
          "param": [
            0,
            0
          ]
        }
      ],
      "finishCond": [],
      "failCond": [],
      "guide": {
        "type": "QUEST_GUIDE_LOCATION",
        "param": [
          "Q7326419_N20949",
          "30"
        ],
        "guideScene": 3
      },
      "finishExec": [],
      "failExec": [],
      "beginExec": []
    }
  ],
  "talks": [
    {
      "id": 7326401,
      "beginWay": "TALK_BEGIN_MANUAL",
      "activeMode": "PLAY_MODE_HOST",
      "beginCond": [
        {
          "type": "QUEST_COND_STATE_EQUAL",
          "param": [
            "7326401",
            "2"
          ],
          "param_str": ""
        }
      ],
      "priority": 5,
      "initDialog": 732640101,
      "npcId": [
        4291
      ],
      "performCfg": "QuestDialogue/WQ/Sumeru_73264/Q7326401",
      "heroTalk": "TALK_HERO_MAIN",
      "questId": 73264,
      "prePerformCfg": "",
      "talkMarkType": "TALK_MARK_COMMON"
    },
    {
      "id": 7326402,
      "beginWay": "TALK_BEGIN_MANUAL",
      "activeMode": "PLAY_MODE_HOST",
      "beginCondComb": "LOGIC_AND",
      "beginCond": [
        {
          "type": "QUEST_COND_STATE_EQUAL",
          "param": [
            "7326401",
            "3"
          ],
          "param_str": ""
        }
      ],
      "priority": 3,
      "initDialog": 732640201,
      "npcId": [
        4294
      ],
      "performCfg": "",
      "heroTalk": "TALK_HERO_MAIN",
      "questId": 73264,
      "prePerformCfg": "",
      "lowPriority": true
    },
    {
      "id": 7326403,
      "beginWay": "TALK_BEGIN_MANUAL",
      "activeMode": "PLAY_MODE_HOST",
      "beginCondComb": "LOGIC_AND",
      "beginCond": [
        {
          "type": "QUEST_COND_STATE_EQUAL",
          "param": [
            "7326404",
            "2"
          ],
          "param_str": ""
        }
      ],
      "priority": 5,
      "initDialog": 732640301,
      "npcId": [
        20932
      ],
      "performCfg": "QuestDialogue/WQ/Sumeru_73264/Q7326403",
      "heroTalk": "TALK_HERO_MAIN",
      "questId": 73264,
      "prePerformCfg": ""
    },
    {
      "id": 7326404,
      "beginWay": "TALK_BEGIN_MANUAL",
      "activeMode": "PLAY_MODE_HOST",
      "beginCond": [
        {
          "type": "QUEST_COND_STATE_EQUAL",
          "param": [
            "7326405",
            "2"
          ],
          "param_str": ""
        }
      ],
      "priority": 5,
      "initDialog": 732640402,
      "npcId": [
        20945
      ],
      "performCfg": "QuestDialogue/WQ/Sumeru_73264/Q7326404",
      "heroTalk": "TALK_HERO_MAIN",
      "questId": 73264,
      "prePerformCfg": ""
    },
    {
      "id": 7326405,
      "beginWay": "TALK_BEGIN_MANUAL",
      "activeMode": "PLAY_MODE_HOST",
      "beginCond": [
        {
          "type": "QUEST_COND_STATE_EQUAL",
          "param": [
            "7326420",
            "2"
          ],
          "param_str": ""
        }
      ],
      "priority": 5,
      "initDialog": 732640502,
      "npcId": [
        20946
      ],
      "performCfg": "QuestDialogue/WQ/Sumeru_73264/Q7326405",
      "heroTalk": "TALK_HERO_MAIN",
      "questId": 73264,
      "prePerformCfg": ""
    },
    {
      "id": 7326406,
      "beginWay": "TALK_BEGIN_MANUAL",
      "activeMode": "PLAY_MODE_HOST",
      "beginCond": [
        {
          "type": "QUEST_COND_STATE_EQUAL",
          "param": [
            "7326421",
            "2"
          ],
          "param_str": ""
        }
      ],
      "priority": 5,
      "initDialog": 732640602,
      "npcId": [
        20947
      ],
      "performCfg": "QuestDialogue/WQ/Sumeru_73264/Q7326406",
      "heroTalk": "TALK_HERO_MAIN",
      "questId": 73264,
      "prePerformCfg": "",
      "finishExec": [
        {
          "type": "TALK_EXEC_SET_QUEST_VAR",
          "param": [
            "0",
            "1",
            "73264"
          ],
          "param_str": ""
        }
      ]
    },
    {
      "id": 7326407,
      "beginWay": "TALK_BEGIN_AUTO",
      "activeMode": "PLAY_MODE_HOST",
      "beginCondComb": "LOGIC_AND",
      "beginCond": [
        {
          "type": "QUEST_COND_STATE_EQUAL",
          "param": [
            "7326415",
            "2"
          ],
          "param_str": ""
        },
        {
          "type": "QUEST_COND_QUEST_VAR_EQUAL",
          "param": [
            "0",
            "0",
            "73264"
          ],
          "param_str": ""
        }
      ],
      "priority": 5,
      "initDialog": 732640701,
      "npcId": [
        20935,
        20936
      ],
      "performCfg": "QuestDialogue/WQ/Sumeru_73264/Q7326407",
      "heroTalk": "TALK_HERO_MAIN",
      "questId": 73264,
      "prePerformCfg": ""
    },
    {
      "id": 7326408,
      "beginWay": "TALK_BEGIN_AUTO",
      "activeMode": "PLAY_MODE_HOST",
      "beginCondComb": "LOGIC_AND",
      "beginCond": [
        {
          "type": "QUEST_COND_QUEST_VAR_EQUAL",
          "param": [
            "0",
            "1",
            "73264"
          ],
          "param_str": ""
        },
        {
          "type": "QUEST_COND_STATE_EQUAL",
          "param": [
            "7326415",
            "2"
          ],
          "param_str": ""
        }
      ],
      "priority": 5,
      "initDialog": 732640801,
      "npcId": [
        20935,
        20936
      ],
      "performCfg": "QuestDialogue/WQ/Sumeru_73264/Q7326408",
      "heroTalk": "TALK_HERO_MAIN",
      "questId": 73264,
      "prePerformCfg": ""
    },
    {
      "id": 7326409,
      "beginWay": "TALK_BEGIN_AUTO",
      "activeMode": "PLAY_MODE_HOST",
      "beginCond": [
        {
          "type": "QUEST_COND_STATE_EQUAL",
          "param": [
            "7326409",
            "2"
          ],
          "param_str": ""
        }
      ],
      "priority": 5,
      "initDialog": 732640962,
      "npcId": [
        20939
      ],
      "performCfg": "QuestDialogue/WQ/Sumeru_73264/Q7326409",
      "heroTalk": "TALK_HERO_MAIN",
      "questId": 73264,
      "prePerformCfg": ""
    },
    {
      "id": 7326413,
      "beginWay": "TALK_BEGIN_AUTO",
      "activeMode": "PLAY_MODE_HOST",
      "beginCond": [
        {
          "type": "QUEST_COND_STATE_EQUAL",
          "param": [
            "7326413",
            "2"
          ],
          "param_str": ""
        }
      ],
      "priority": 5,
      "initDialog": 732641301,
      "npcId": [
        1005
      ],
      "performCfg": "QuestDialogue/WQ/Sumeru_73264/Q7326413",
      "heroTalk": "TALK_HERO_MAIN",
      "questId": 73264,
      "prePerformCfg": ""
    },
    {
      "id": 7326414,
      "beginWay": "TALK_BEGIN_MANUAL",
      "activeMode": "PLAY_MODE_HOST",
      "beginCond": [
        {
          "type": "QUEST_COND_STATE_EQUAL",
          "param": [
            "7326401",
            "3"
          ],
          "param_str": ""
        }
      ],
      "priority": 3,
      "initDialog": 732641401,
      "npcId": [
        4291
      ],
      "performCfg": "",
      "heroTalk": "TALK_HERO_MAIN",
      "questId": 73264,
      "prePerformCfg": ""
    },
    {
      "id": 7326415,
      "beginWay": "TALK_BEGIN_MANUAL",
      "activeMode": "PLAY_MODE_HOST",
      "beginCondComb": "LOGIC_AND",
      "beginCond": [
        {
          "type": "QUEST_COND_STATE_EQUAL",
          "param": [
            "7326418",
            "2"
          ],
          "param_str": ""
        },
        {
          "type": "QUEST_COND_QUEST_VAR_EQUAL",
          "param": [
            "4",
            "0",
            "73264"
          ],
          "param_str": ""
        }
      ],
      "priority": 5,
      "initDialog": 732641501,
      "npcId": [
        20950
      ],
      "performCfg": "QuestDialogue/WQ/Sumeru_73264/Q7326415",
      "heroTalk": "TALK_HERO_MAIN",
      "questId": 73264,
      "prePerformCfg": "",
      "finishExec": [
        {
          "type": "TALK_EXEC_SET_QUEST_VAR",
          "param": [
            "4",
            "1",
            "73264"
          ],
          "param_str": ""
        }
      ]
    },
    {
      "id": 7326416,
      "beginWay": "TALK_BEGIN_MANUAL",
      "activeMode": "PLAY_MODE_HOST",
      "beginCondComb": "LOGIC_AND",
      "beginCond": [
        {
          "type": "QUEST_COND_STATE_EQUAL",
          "param": [
            "7326418",
            "2"
          ],
          "param_str": ""
        },
        {
          "type": "QUEST_COND_QUEST_VAR_EQUAL",
          "param": [
            "4",
            "1",
            "73264"
          ],
          "param_str": ""
        }
      ],
      "priority": 5,
      "initDialog": 732641601,
      "npcId": [
        20950
      ],
      "performCfg": "QuestDialogue/WQ/Sumeru_73264/Q7326416",
      "heroTalk": "TALK_HERO_MAIN",
      "questId": 73264,
      "prePerformCfg": ""
    },
    {
      "id": 7326417,
      "beginWay": "TALK_BEGIN_MANUAL",
      "activeMode": "PLAY_MODE_HOST",
      "beginCondComb": "LOGIC_AND",
      "beginCond": [
        {
          "type": "QUEST_COND_STATE_EQUAL",
          "param": [
            "7326419",
            "2"
          ],
          "param_str": ""
        },
        {
          "type": "QUEST_COND_QUEST_VAR_EQUAL",
          "param": [
            "4",
            "0",
            "73264"
          ],
          "param_str": ""
        }
      ],
      "priority": 5,
      "initDialog": 732641701,
      "npcId": [
        20949
      ],
      "performCfg": "QuestDialogue/WQ/Sumeru_73264/Q7326417",
      "heroTalk": "TALK_HERO_MAIN",
      "questId": 73264,
      "prePerformCfg": "",
      "finishExec": [
        {
          "type": "TALK_EXEC_SET_QUEST_VAR",
          "param": [
            "4",
            "1",
            "73264"
          ],
          "param_str": ""
        }
      ]
    },
    {
      "id": 7326418,
      "beginWay": "TALK_BEGIN_MANUAL",
      "activeMode": "PLAY_MODE_HOST",
      "beginCondComb": "LOGIC_AND",
      "beginCond": [
        {
          "type": "QUEST_COND_STATE_EQUAL",
          "param": [
            "7326419",
            "2"
          ],
          "param_str": ""
        },
        {
          "type": "QUEST_COND_QUEST_VAR_EQUAL",
          "param": [
            "4",
            "1",
            "73264"
          ],
          "param_str": ""
        }
      ],
      "priority": 5,
      "initDialog": 732641801,
      "npcId": [
        20949
      ],
      "performCfg": "QuestDialogue/WQ/Sumeru_73264/Q7326418",
      "heroTalk": "TALK_HERO_MAIN",
      "questId": 73264,
      "prePerformCfg": ""
    },
    {
      "id": 7326419,
      "beginWay": "TALK_BEGIN_MANUAL",
      "activeMode": "PLAY_MODE_HOST",
      "beginCond": [
        {
          "type": "QUEST_COND_STATE_EQUAL",
          "param": [
            "7326412",
            "2"
          ],
          "param_str": ""
        }
      ],
      "priority": 5,
      "initDialog": 732641902,
      "npcId": [
        20932
      ],
      "performCfg": "QuestDialogue/WQ/Sumeru_73264/Q7326419",
      "heroTalk": "TALK_HERO_MAIN",
      "questId": 73264,
      "prePerformCfg": ""
    },
    {
      "id": 7326438,
      "beginWay": "TALK_BEGIN_MANUAL",
      "activeMode": "PLAY_MODE_HOST",
      "beginCondComb": "LOGIC_AND",
      "beginCond": [
        {
          "type": "QUEST_COND_STATE_EQUAL",
          "param": [
            "7326413",
            "3"
          ],
          "param_str": ""
        },
        {
          "type": "QUEST_COND_STATE_EQUAL",
          "param": [
            "7322501",
            "2"
          ],
          "param_str": ""
        }
      ],
      "priority": 4,
      "initDialog": 732643801,
      "npcId": [
        4291
      ],
      "performCfg": "",
      "heroTalk": "TALK_HERO_MAIN",
      "questId": 73264,
      "prePerformCfg": "",
      "questIdleTalk": true
    }
  ]
}