{
  "id": 73263,
  "type": "WQ",
  "series": 73081,
  "titleTextMapHash": 4138803143,
  "descTextMapHash": 3717274822,
  "luaPath": "Actor/Quest/WQ73263",
  "showType": "QUEST_HIDDEN",
  "rewardIdList": [
    173263
  ],
  "subQuests": [
    {
      "mainId": 73263,
      "subId": 7326301,
      "order": 1,
      "showType": "QUEST_HIDDEN",
      "descTextMapHash": 3576786516,
      "acceptCond": [
        {
          "type": "QUEST_COND_UNKNOWN",
          "param": [
            0,
            0
          ]
        }
      ],
      "finishCond": [],
      "failCond": [],
      "guide": {
        "type": "QUEST_GUIDE_LOCATION"
      },
      "finishExec": [],
      "failExec": [],
      "beginExec": []
    },
    {
      "mainId": 73263,
      "subId": 7326302,
      "order": 2,
      "showType": "QUEST_HIDDEN",
      "descTextMapHash": 958627828,
      "acceptCond": [
        {
          "type": "QUEST_COND_UNKNOWN",
          "param": [
            0,
            0
          ]
        }
      ],
      "finishCond": [],
      "failCond": [],
      "guide": {},
      "finishExec": [],
      "failExec": [],
      "beginExec": []
    },
    {
      "mainId": 73263,
      "subId": 7326303,
      "order": 3,
      "showType": "QUEST_HIDDEN",
      "descTextMapHash": 2544961540,
      "acceptCond": [
        {
          "type": "QUEST_COND_UNKNOWN",
          "param": [
            0,
            0
          ]
        }
      ],
      "finishCond": [],
      "failCond": [],
      "guide": {},
      "finishExec": [],
      "failExec": [],
      "beginExec": []
    },
    {
      "mainId": 73263,
      "subId": 7326304,
      "order": 4,
      "showType": "QUEST_HIDDEN",
      "descTextMapHash": 2270802724,
      "acceptCond": [
        {
          "type": "QUEST_COND_UNKNOWN",
          "param": [
            0,
            0
          ]
        }
      ],
      "finishCond": [],
      "failCond": [],
      "guide": {},
      "finishExec": [],
      "failExec": [],
      "beginExec": []
    },
    {
      "mainId": 73263,
      "subId": 7326305,
      "order": 5,
      "showType": "QUEST_HIDDEN",
      "descTextMapHash": 982041196,
      "acceptCond": [
        {
          "type": "QUEST_COND_UNKNOWN",
          "param": [
            0,
            0
          ]
        }
      ],
      "finishCond": [],
      "failCond": [],
      "guide": {},
      "finishExec": [],
      "failExec": [],
      "beginExec": []
    }
  ],
  "talks": [
    {
      "id": 7326301,
      "beginWay": "TALK_BEGIN_MANUAL",
      "beginCond": [
        {
          "type": "QUEST_COND_STATE_EQUAL",
          "param": [
            "7326301",
            "2"
          ],
          "param_str": ""
        }
      ],
      "priority": 5,
      "initDialog": 732630101,
      "npcId": [
        20656
      ],
      "performCfg": "",
      "questId": 73263,
      "prePerformCfg": ""
    }
  ]
}