{
  "id": 73322,
  "type": "WQ",
  "titleTextMapHash": 1989961191,
  "descTextMapHash": 1865446734,
  "luaPath": "Actor/Quest/WQ73322",
  "showType": "QUEST_HIDDEN",
  "rewardIdList": [
    173322
  ],
  "subQuests": [
    {
      "mainId": 73322,
      "subId": 7332207,
      "order": 1,
      "showType": "QUEST_HIDDEN",
      "descTextMapHash": 1524383988,
      "acceptCond": [
        {
          "type": "QUEST_COND_UNKNOWN",
          "param": [
            0,
            0
          ]
        }
      ],
      "finishCond": [],
      "failCond": [],
      "guide": {
        "type": "QUEST_GUIDE_NPC",
        "param": [
          "4441"
        ],
        "guideScene": 3,
        "guideLayer": "QUEST_GUIDE_LAYER_SCENE"
      },
      "finishExec": [],
      "failExec": [],
      "beginExec": []
    },
    {
      "mainId": 73322,
      "subId": 7332208,
      "order": 2,
      "showType": "QUEST_HIDDEN",
      "descTextMapHash": 1456501708,
      "acceptCond": [
        {
          "type": "QUEST_COND_UNKNOWN",
          "param": [
            0,
            0
          ]
        }
      ],
      "finishCond": [],
      "failCond": [],
      "guide": {
        "type": "QUEST_GUIDE_NPC",
        "param": [
          "4441"
        ],
        "guideScene": 3,
        "guideLayer": "QUEST_GUIDE_LAYER_SCENE"
      },
      "finishExec": [],
      "failExec": [],
      "beginExec": []
    },
    {
      "mainId": 73322,
      "subId": 7332210,
      "order": 3,
      "showType": "QUEST_HIDDEN",
      "descTextMapHash": 689919756,
      "acceptCond": [
        {
          "type": "QUEST_COND_UNKNOWN",
          "param": [
            0,
            0
          ]
        }
      ],
      "finishCond": [],
      "failCond": [],
      "guide": {
        "type": "QUEST_GUIDE_NPC",
        "param": [
          "4441"
        ],
        "guideScene": 3,
        "guideLayer": "QUEST_GUIDE_LAYER_SCENE"
      },
      "finishExec": [],
      "failExec": [],
      "beginExec": []
    }
  ],
  "talks": [
    {
      "id": 7332208,
      "beginWay": "TALK_BEGIN_MANUAL",
      "activeMode": "PLAY_MODE_HOST",
      "beginCondComb": "LOGIC_AND",
      "beginCond": [
        {
          "type": "QUEST_COND_STATE_EQUAL",
          "param": [
            "7332208",
            "2"
          ],
          "param_str": ""
        },
        {
          "type": "QUEST_COND_QUEST_GLOBAL_VAR_EQUAL",
          "param": [
            "7323201",
            "0"
          ],
          "param_str": ""
        }
      ],
      "priority": 5,
      "initDialog": 733220801,
      "npcId": [
        4441,
        20987
      ],
      "performCfg": "QuestDialogue/WQ/Sumeru_73322/Q7332208",
      "heroTalk": "TALK_HERO_MAIN",
      "questId": 73322,
      "prePerformCfg": ""
    },
    {
      "id": 7332209,
      "beginWay": "TALK_BEGIN_MANUAL",
      "activeMode": "PLAY_MODE_HOST",
      "beginCondComb": "LOGIC_AND",
      "beginCond": [
        {
          "type": "QUEST_COND_STATE_EQUAL",
          "param": [
            "7332208",
            "2"
          ],
          "param_str": ""
        },
        {
          "type": "QUEST_COND_QUEST_GLOBAL_VAR_EQUAL",
          "param": [
            "7323201",
            "1"
          ],
          "param_str": ""
        }
      ],
      "priority": 5,
      "initDialog": 733220901,
      "npcId": [
        4441,
        20987
      ],
      "performCfg": "QuestDialogue/WQ/Sumeru_73322/Q7332209",
      "heroTalk": "TALK_HERO_MAIN",
      "questId": 73322,
      "prePerformCfg": ""
    },
    {
      "id": 7332210,
      "beginWay": "TALK_BEGIN_MANUAL",
      "activeMode": "PLAY_MODE_HOST",
      "beginCondComb": "LOGIC_AND",
      "beginCond": [
        {
          "type": "QUEST_COND_STATE_EQUAL",
          "param": [
            "7332210",
            "2"
          ],
          "param_str": ""
        },
        {
          "type": "QUEST_COND_QUEST_GLOBAL_VAR_EQUAL",
          "param": [
            "7323201",
            "0"
          ],
          "param_str": ""
        }
      ],
      "priority": 5,
      "initDialog": 733221001,
      "npcId": [
        4441,
        20987
      ],
      "performCfg": "QuestDialogue/WQ/Sumeru_73322/Q7332210",
      "heroTalk": "TALK_HERO_MAIN",
      "questId": 73322,
      "prePerformCfg": ""
    },
    {
      "id": 7332211,
      "beginWay": "TALK_BEGIN_MANUAL",
      "activeMode": "PLAY_MODE_HOST",
      "beginCondComb": "LOGIC_AND",
      "beginCond": [
        {
          "type": "QUEST_COND_STATE_EQUAL",
          "param": [
            "7332210",
            "2"
          ],
          "param_str": ""
        },
        {
          "type": "QUEST_COND_QUEST_GLOBAL_VAR_EQUAL",
          "param": [
            "7323201",
            "1"
          ],
          "param_str": ""
        }
      ],
      "priority": 5,
      "initDialog": 733221101,
      "npcId": [
        4441,
        20987
      ],
      "performCfg": "QuestDialogue/WQ/Sumeru_73322/Q7332211",
      "heroTalk": "TALK_HERO_MAIN",
      "questId": 73322,
      "prePerformCfg": ""
    },
    {
      "id": 7332212,
      "beginWay": "TALK_BEGIN_MANUAL",
      "activeMode": "PLAY_MODE_HOST",
      "beginCondComb": "LOGIC_AND",
      "beginCond": [
        {
          "type": "QUEST_COND_STATE_EQUAL",
          "param": [
            "7332207",
            "3"
          ],
          "param_str": ""
        },
        {
          "type": "QUEST_COND_QUEST_GLOBAL_VAR_LESS",
          "param": [
            "7332201",
            "3"
          ],
          "param_str": ""
        }
      ],
      "priority": 4,
      "initDialog": 733221201,
      "npcId": [
        4441
      ],
      "performCfg": "",
      "questId": 73322,
      "prePerformCfg": ""
    }
  ]
}