{
  "id": 73323,
  "type": "WQ",
  "titleTextMapHash": 793479047,
  "descTextMapHash": 3656630158,
  "luaPath": "Actor/Quest/WQ73323",
  "showType": "QUEST_HIDDEN",
  "rewardIdList": [
    173323
  ],
  "subQuests": [
    {
      "mainId": 73323,
      "subId": 7332301,
      "order": 1,
      "showType": "QUEST_HIDDEN",
      "descTextMapHash": 2551674076,
      "acceptCond": [
        {
          "type": "QUEST_COND_UNKNOWN",
          "param": [
            0,
            0
          ]
        }
      ],
      "finishCond": [],
      "failCond": [],
      "guide": {},
      "finishExec": [],
      "failExec": [],
      "beginExec": []
    }
  ]
}