{
  "id": 73347,
  "type": "WQ",
  "titleTextMapHash": 1506757151,
  "descTextMapHash": 1400690294,
  "luaPath": "Actor/Quest/WQ73347",
  "showType": "QUEST_HIDDEN",
  "rewardIdList": [
    173347
  ],
  "subQuests": [
    {
      "mainId": 73347,
      "subId": 7334701,
      "order": 1,
      "showType": "QUEST_HIDDEN",
      "acceptCond": [
        {
          "type": "QUEST_COND_UNKNOWN",
          "param": [
            0,
            0
          ]
        }
      ],
      "finishCond": [],
      "failCond": [],
      "guide": {},
      "finishExec": [],
      "failExec": [],
      "beginExec": []
    }
  ]
}