{
  "id": 73522,
  "type": "WQ",
  "series": 73520,
  "titleTextMapHash": 436099943,
  "descTextMapHash": 19967806,
  "luaPath": "Actor/Quest/WQ73522",
  "rewardIdList": [
    173522
  ],
  "subQuests": [
    {
      "mainId": 73522,
      "subId": 7352201,
      "order": 1,
      "descTextMapHash": 4135021740,
      "acceptCond": [
        {
          "type": "QUEST_COND_UNKNOWN",
          "param": [
            0,
            0
          ]
        }
      ],
      "finishCond": [],
      "failCond": [],
      "guide": {
        "type": "QUEST_GUIDE_NPC",
        "param": [
          "1055"
        ],
        "guideScene": 3,
        "guideStyle": "QUEST_GUIDE_STYLE_TARGET",
        "guideLayer": "QUEST_GUIDE_LAYER_SCENE"
      },
      "finishExec": [],
      "failExec": [],
      "beginExec": []
    },
    {
      "mainId": 73522,
      "subId": 7352202,
      "order": 2,
      "descTextMapHash": 1662268396,
      "acceptCond": [
        {
          "type": "QUEST_COND_UNKNOWN",
          "param": [
            0,
            0
          ]
        }
      ],
      "finishCond": [],
      "failCond": [],
      "guide": {
        "type": "QUEST_GUIDE_NPC",
        "param": [
          "30356"
        ],
        "guideScene": 3,
        "guideStyle": "QUEST_GUIDE_STYLE_TARGET",
        "guideLayer": "QUEST_GUIDE_LAYER_SCENE"
      },
      "finishExec": [],
      "failExec": [],
      "beginExec": []
    }
  ],
  "talks": [
    {
      "id": 7352201,
      "beginWay": "TALK_BEGIN_MANUAL",
      "activeMode": "PLAY_MODE_SINGLE",
      "beginCond": [
        {
          "type": "QUEST_COND_STATE_EQUAL",
          "param": [
            "7352201",
            "2"
          ],
          "param_str": ""
        }
      ],
      "priority": 5,
      "initDialog": 735220101,
      "npcId": [
        1055
      ],
      "performCfg": "QuestDialogue/WQ/Sumeru_73522/Q7352201",
      "heroTalk": "TALK_HERO_MAIN",
      "questId": 73522,
      "prePerformCfg": ""
    },
    {
      "id": 7352202,
      "beginWay": "TALK_BEGIN_MANUAL",
      "activeMode": "PLAY_MODE_SINGLE",
      "beginCond": [
        {
          "type": "QUEST_COND_STATE_EQUAL",
          "param": [
            "7352202",
            "2"
          ],
          "param_str": ""
        }
      ],
      "priority": 5,
      "initDialog": 735220201,
      "npcId": [
        30356
      ],
      "performCfg": "QuestDialogue/WQ/Sumeru_73522/Q7352202",
      "heroTalk": "TALK_HERO_MAIN",
      "questId": 73522,
      "prePerformCfg": ""
    },
    {
      "id": 7352203,
      "beginWay": "TALK_BEGIN_MANUAL",
      "activeMode": "PLAY_MODE_SINGLE",
      "beginCond": [
        {
          "type": "QUEST_COND_STATE_EQUAL",
          "param": [
            "7352202",
            "2"
          ],
          "param_str": ""
        }
      ],
      "priority": 5,
      "initDialog": 735220301,
      "npcId": [
        1055
      ],
      "performCfg": "QuestDialogue/WQ/Sumeru_73522/Q7352203",
      "heroTalk": "TALK_HERO_MAIN",
      "questId": 73522,
      "prePerformCfg": ""
    }
  ]
}