{
  "id": 73668,
  "type": "WQ",
  "titleTextMapHash": 2250356575,
  "descTextMapHash": 3418201310,
  "luaPath": "Actor/Quest/WQ73668",
  "subQuests": [
    {
      "mainId": 73668,
      "subId": 7366801,
      "order": 1,
      "descTextMapHash": 123501668,
      "acceptCond": [
        {
          "type": "QUEST_COND_UNKNOWN",
          "param": [
            0,
            0
          ]
        }
      ],
      "finishCond": [],
      "failCond": [],
      "guide": {
        "type": "QUEST_GUIDE_LOCATION",
        "param": [
          "Q7366801",
          "30"
        ],
        "guideScene": 3,
        "guideStyle": "QUEST_GUIDE_STYLE_TARGET",
        "guideLayer": "QUEST_GUIDE_LAYER_SCENE"
      },
      "finishExec": [],
      "failExec": [],
      "beginExec": []
    }
  ]
}