{
  "id": 73677,
  "type": "WQ",
  "titleTextMapHash": 4222536143,
  "descTextMapHash": 3043168718,
  "luaPath": "Actor/Quest/WQ73677",
  "rewardIdList": [
    173677
  ],
  "subQuests": [
    {
      "mainId": 73677,
      "subId": 7367701,
      "order": 1,
      "descTextMapHash": 1529449852,
      "acceptCond": [
        {
          "type": "QUEST_COND_UNKNOWN",
          "param": [
            0,
            0
          ]
        }
      ],
      "finishCond": [],
      "failCond": [],
      "guide": {
        "type": "QUEST_GUIDE_NPC",
        "param": [
          "30245"
        ],
        "guideScene": 3,
        "guideStyle": "QUEST_GUIDE_STYLE_TARGET",
        "guideLayer": "QUEST_GUIDE_LAYER_SCENE"
      },
      "finishExec": [],
      "failExec": [],
      "beginExec": []
    },
    {
      "mainId": 73677,
      "subId": 7367702,
      "order": 2,
      "descTextMapHash": 113249884,
      "acceptCond": [
        {
          "type": "QUEST_COND_UNKNOWN",
          "param": [
            0,
            0
          ]
        }
      ],
      "finishCond": [],
      "failCond": [],
      "guide": {
        "type": "QUEST_GUIDE_NPC",
        "param": [
          "30245"
        ],
        "guideScene": 3,
        "guideStyle": "QUEST_GUIDE_STYLE_TARGET",
        "guideLayer": "QUEST_GUIDE_LAYER_SCENE"
      },
      "finishExec": [],
      "failExec": [],
      "beginExec": []
    }
  ],
  "talks": [
    {
      "id": 7367701,
      "beginWay": "TALK_BEGIN_MANUAL",
      "activeMode": "PLAY_MODE_SINGLE",
      "beginCondComb": "LOGIC_AND",
      "beginCond": [
        {
          "type": "QUEST_COND_STATE_EQUAL",
          "param": [
            "7367701",
            "2"
          ],
          "param_str": ""
        },
        {
          "type": "QUEST_COND_ACTIVITY_CLIENT_COND",
          "param": [
            "2016",
            "2016015",
            "1"
          ],
          "param_str": ""
        }
      ],
      "priority": 5,
      "initDialog": 736770101,
      "npcId": [
        30245
      ],
      "performCfg": "QuestDialogue/WQ/Mengde_73677/Q7367701",
      "heroTalk": "TALK_HERO_MAIN",
      "questId": 73677,
      "prePerformCfg": ""
    }
  ]
}