{
  "id": 73685,
  "type": "WQ",
  "titleTextMapHash": 2959886015,
  "descTextMapHash": 464290622,
  "luaPath": "",
  "showType": "QUEST_HIDDEN",
  "subQuests": [
    {
      "mainId": 73685,
      "subId": 7368501,
      "order": 1,
      "showType": "QUEST_HIDDEN",
      "descTextMapHash": 101402924,
      "acceptCond": [
        {
          "type": "QUEST_COND_UNKNOWN",
          "param": [
            0,
            0
          ]
        }
      ],
      "finishCond": [],
      "failCond": [],
      "guide": {},
      "finishExec": [],
      "failExec": [],
      "beginExec": []
    }
  ]
}