{
  "id": 73688,
  "type": "WQ",
  "titleTextMapHash": 643567919,
  "descTextMapHash": 2493813286,
  "luaPath": "Actor/Quest/WQ73688",
  "rewardIdList": [
    173688
  ],
  "subQuests": [
    {
      "mainId": 73688,
      "subId": 7368801,
      "order": 1,
      "descTextMapHash": 1603304156,
      "acceptCond": [
        {
          "type": "QUEST_COND_UNKNOWN",
          "param": [
            0,
            0
          ]
        }
      ],
      "finishCond": [],
      "failCond": [],
      "guide": {
        "type": "QUEST_GUIDE_LOCATION",
        "autoGuide": "QUEST_GUIDE_AUTO_ENABLE",
        "param": [
          "Q2012Check02"
        ],
        "guideScene": 3,
        "guideStyle": "QUEST_GUIDE_STYLE_POINT",
        "guideLayer": "QUEST_GUIDE_LAYER_SCENE"
      },
      "finishExec": [],
      "failExec": [],
      "beginExec": []
    },
    {
      "mainId": 73688,
      "subId": 7368802,
      "order": 2,
      "descTextMapHash": 2007638404,
      "acceptCond": [
        {
          "type": "QUEST_COND_UNKNOWN",
          "param": [
            0,
            0
          ]
        }
      ],
      "finishCond": [],
      "failCond": [],
      "guide": {
        "guideScene": 3,
        "guideLayer": "QUEST_GUIDE_LAYER_SCENE"
      },
      "finishExec": [],
      "failExec": [],
      "beginExec": []
    },
    {
      "mainId": 73688,
      "subId": 7368803,
      "order": 3,
      "descTextMapHash": 3462660548,
      "acceptCond": [
        {
          "type": "QUEST_COND_UNKNOWN",
          "param": [
            0,
            0
          ]
        }
      ],
      "finishCond": [],
      "failCond": [],
      "guide": {
        "type": "QUEST_GUIDE_LOCATION",
        "autoGuide": "QUEST_GUIDE_AUTO_ENABLE",
        "param": [
          "Q7368803Hongda",
          "13"
        ],
        "guideScene": 3,
        "guideStyle": "QUEST_GUIDE_STYLE_TARGET",
        "guideLayer": "QUEST_GUIDE_LAYER_SCENE"
      },
      "finishExec": [],
      "failExec": [],
      "beginExec": []
    },
    {
      "mainId": 73688,
      "subId": 7368804,
      "order": 5,
      "descTextMapHash": 3121979444,
      "acceptCond": [
        {
          "type": "QUEST_COND_UNKNOWN",
          "param": [
            0,
            0
          ]
        }
      ],
      "finishCond": [],
      "failCond": [],
      "guide": {
        "type": "QUEST_GUIDE_LOCATION",
        "autoGuide": "QUEST_GUIDE_AUTO_ENABLE",
        "param": [
          "Q4005505_guide_YuanGuoJianSi",
          "15"
        ],
        "guideScene": 3,
        "guideStyle": "QUEST_GUIDE_STYLE_TARGET",
        "guideLayer": "QUEST_GUIDE_LAYER_SCENE"
      },
      "finishExec": [],
      "failExec": [],
      "beginExec": []
    },
    {
      "mainId": 73688,
      "subId": 7368805,
      "order": 8,
      "descTextMapHash": 706919516,
      "acceptCond": [
        {
          "type": "QUEST_COND_UNKNOWN",
          "param": [
            0,
            0
          ]
        }
      ],
      "finishCond": [],
      "failCond": [],
      "guide": {
        "type": "QUEST_GUIDE_LOCATION",
        "autoGuide": "QUEST_GUIDE_AUTO_ENABLE",
        "param": [
          "Q7368606StageTalkAyaka"
        ],
        "guideScene": 47307,
        "guideStyle": "QUEST_GUIDE_STYLE_POINT",
        "guideLayer": "QUEST_GUIDE_LAYER_SCENE"
      },
      "finishExec": [],
      "failExec": [],
      "beginExec": []
    },
    {
      "mainId": 73688,
      "subId": 7368806,
      "order": 10,
      "descTextMapHash": 2325408372,
      "acceptCond": [
        {
          "type": "QUEST_COND_UNKNOWN",
          "param": [
            0,
            0
          ]
        }
      ],
      "finishCond": [],
      "failCond": [],
      "guide": {
        "type": "QUEST_GUIDE_LOCATION",
        "autoGuide": "QUEST_GUIDE_AUTO_ENABLE",
        "param": [
          "Q2012Check02"
        ],
        "guideScene": 3,
        "guideStyle": "QUEST_GUIDE_STYLE_POINT",
        "guideLayer": "QUEST_GUIDE_LAYER_SCENE"
      },
      "finishExec": [],
      "failExec": [],
      "beginExec": []
    },
    {
      "mainId": 73688,
      "subId": 7368807,
      "order": 7,
      "descTextMapHash": 4120133924,
      "acceptCond": [
        {
          "type": "QUEST_COND_UNKNOWN",
          "param": [
            0,
            0
          ]
        }
      ],
      "finishCond": [],
      "failCond": [],
      "guide": {
        "type": "QUEST_GUIDE_LOCATION",
        "autoGuide": "QUEST_GUIDE_AUTO_ENABLE",
        "param": [
          "Q7368606StageTalkAyaka"
        ],
        "guideScene": 47307,
        "guideStyle": "QUEST_GUIDE_STYLE_POINT",
        "guideLayer": "QUEST_GUIDE_LAYER_SCENE"
      },
      "finishExec": [],
      "failExec": [],
      "beginExec": []
    },
    {
      "mainId": 73688,
      "subId": 7368808,
      "order": 6,
      "descTextMapHash": 4036180228,
      "acceptCond": [
        {
          "type": "QUEST_COND_UNKNOWN",
          "param": [
            0,
            0
          ]
        }
      ],
      "finishCond": [],
      "failCond": [],
      "guide": {
        "type": "QUEST_GUIDE_LOCATION",
        "autoGuide": "QUEST_GUIDE_AUTO_ENABLE",
        "param": [
          "Q4005505_N3190"
        ],
        "guideScene": 3,
        "guideStyle": "QUEST_GUIDE_STYLE_POINT",
        "guideLayer": "QUEST_GUIDE_LAYER_SCENE"
      },
      "finishExec": [],
      "failExec": [],
      "beginExec": []
    },
    {
      "mainId": 73688,
      "subId": 7368809,
      "order": 9,
      "descTextMapHash": 1514122772,
      "acceptCond": [
        {
          "type": "QUEST_COND_UNKNOWN",
          "param": [
            0,
            0
          ]
        }
      ],
      "finishCond": [],
      "failCond": [],
      "guide": {
        "type": "QUEST_GUIDE_LOCATION",
        "autoGuide": "QUEST_GUIDE_AUTO_ENABLE",
        "param": [
          "Q7368606StageTalkAyaka"
        ],
        "guideScene": 47307,
        "guideStyle": "QUEST_GUIDE_STYLE_POINT",
        "guideLayer": "QUEST_GUIDE_LAYER_SCENE"
      },
      "finishExec": [],
      "failExec": [],
      "beginExec": []
    }
  ],
  "talks": [
    {
      "id": 7368801,
      "beginWay": "TALK_BEGIN_MANUAL",
      "activeMode": "PLAY_MODE_SINGLE",
      "beginCond": [
        {
          "type": "QUEST_COND_STATE_EQUAL",
          "param": [
            "7368801",
            "2"
          ],
          "param_str": ""
        }
      ],
      "priority": 5,
      "initDialog": 736880101,
      "npcId": [
        1013
      ],
      "performCfg": "QuestDialogue/WQ/Pindao_73688/Q7368801",
      "heroTalk": "TALK_HERO_MAIN",
      "questId": 73688,
      "prePerformCfg": ""
    },
    {
      "id": 7368802,
      "beginWay": "TALK_BEGIN_MANUAL",
      "activeMode": "PLAY_MODE_SINGLE",
      "beginCond": [
        {
          "type": "QUEST_COND_STATE_EQUAL",
          "param": [
            "7368803",
            "2"
          ],
          "param_str": ""
        }
      ],
      "priority": 5,
      "initDialog": 736880201,
      "npcId": [
        3099,
        2604
      ],
      "performCfg": "QuestDialogue/WQ/Pindao_73688/Q7368802",
      "heroTalk": "TALK_HERO_MAIN",
      "questId": 73688,
      "prePerformCfg": "",
      "lockGameTime": true
    },
    {
      "id": 7368803,
      "beginWay": "TALK_BEGIN_MANUAL",
      "activeMode": "PLAY_MODE_SINGLE",
      "beginCondComb": "LOGIC_AND",
      "beginCond": [
        {
          "type": "QUEST_COND_STATE_EQUAL",
          "param": [
            "7368804",
            "2"
          ],
          "param_str": ""
        },
        {
          "type": "QUEST_COND_QUEST_VAR_EQUAL",
          "param": [
            "0",
            "0",
            "73688"
          ],
          "param_str": ""
        }
      ],
      "priority": 5,
      "initDialog": 736880301,
      "npcId": [
        2604
      ],
      "performCfg": "QuestDialogue/WQ/Pindao_73688/Q7368803",
      "heroTalk": "TALK_HERO_MAIN",
      "questId": 73688,
      "prePerformCfg": "",
      "finishExec": [
        {
          "type": "TALK_EXEC_SET_QUEST_VAR",
          "param": [
            "0",
            "1",
            "73688"
          ],
          "param_str": ""
        }
      ]
    },
    {
      "id": 7368804,
      "beginWay": "TALK_BEGIN_MANUAL",
      "activeMode": "PLAY_MODE_SINGLE",
      "beginCond": [
        {
          "type": "QUEST_COND_STATE_EQUAL",
          "param": [
            "7368806",
            "2"
          ],
          "param_str": ""
        }
      ],
      "priority": 5,
      "initDialog": 736880401,
      "npcId": [
        2604
      ],
      "performCfg": "QuestDialogue/WQ/Pindao_73688/Q7368804",
      "heroTalk": "TALK_HERO_MAIN",
      "questId": 73688,
      "prePerformCfg": "",
      "lockGameTime": true
    },
    {
      "id": 7368805,
      "beginWay": "TALK_BEGIN_MANUAL",
      "activeMode": "PLAY_MODE_SINGLE",
      "beginCondComb": "LOGIC_OR",
      "beginCond": [
        {
          "type": "QUEST_COND_STATE_EQUAL",
          "param": [
            "7368808",
            "2"
          ],
          "param_str": ""
        },
        {
          "type": "QUEST_COND_STATE_EQUAL",
          "param": [
            "7368806",
            "2"
          ],
          "param_str": ""
        },
        {
          "type": "QUEST_COND_STATE_EQUAL",
          "param": [
            "7368804",
            "2"
          ],
          "param_str": ""
        }
      ],
      "priority": 5,
      "initDialog": 736880501,
      "npcId": [
        13073
      ],
      "performCfg": "QuestDialogue/WQ/Pindao_73688/Q7368805",
      "heroTalk": "TALK_HERO_MAIN",
      "questId": 73688,
      "prePerformCfg": ""
    },
    {
      "id": 7368806,
      "beginWay": "TALK_BEGIN_MANUAL",
      "activeMode": "PLAY_MODE_SINGLE",
      "beginCondComb": "LOGIC_OR",
      "beginCond": [
        {
          "type": "QUEST_COND_STATE_EQUAL",
          "param": [
            "7368804",
            "2"
          ],
          "param_str": ""
        },
        {
          "type": "QUEST_COND_STATE_EQUAL",
          "param": [
            "7368808",
            "2"
          ],
          "param_str": ""
        }
      ],
      "priority": 5,
      "initDialog": 736880601,
      "npcId": [
        13080
      ],
      "performCfg": "QuestDialogue/WQ/Pindao_73688/Q7368806",
      "heroTalk": "TALK_HERO_MAIN",
      "questId": 73688,
      "prePerformCfg": ""
    },
    {
      "id": 7368807,
      "beginWay": "TALK_BEGIN_MANUAL",
      "activeMode": "PLAY_MODE_SINGLE",
      "beginCondComb": "LOGIC_OR",
      "beginCond": [
        {
          "type": "QUEST_COND_STATE_EQUAL",
          "param": [
            "7368804",
            "2"
          ],
          "param_str": ""
        },
        {
          "type": "QUEST_COND_STATE_EQUAL",
          "param": [
            "7368808",
            "2"
          ],
          "param_str": ""
        }
      ],
      "priority": 5,
      "initDialog": 736880701,
      "npcId": [
        13081
      ],
      "performCfg": "QuestDialogue/WQ/Pindao_73688/Q7368807",
      "heroTalk": "TALK_HERO_MAIN",
      "questId": 73688,
      "prePerformCfg": ""
    },
    {
      "id": 7368808,
      "beginWay": "TALK_BEGIN_MANUAL",
      "activeMode": "PLAY_MODE_SINGLE",
      "beginCondComb": "LOGIC_OR",
      "beginCond": [
        {
          "type": "QUEST_COND_STATE_EQUAL",
          "param": [
            "7368808",
            "2"
          ],
          "param_str": ""
        },
        {
          "type": "QUEST_COND_STATE_EQUAL",
          "param": [
            "7368806",
            "2"
          ],
          "param_str": ""
        },
        {
          "type": "QUEST_COND_STATE_EQUAL",
          "param": [
            "7368804",
            "2"
          ],
          "param_str": ""
        }
      ],
      "priority": 5,
      "initDialog": 736880801,
      "npcId": [
        13084
      ],
      "performCfg": "QuestDialogue/WQ/Pindao_73688/Q7368808",
      "heroTalk": "TALK_HERO_MAIN",
      "questId": 73688,
      "prePerformCfg": ""
    },
    {
      "id": 7368809,
      "beginWay": "TALK_BEGIN_MANUAL",
      "activeMode": "PLAY_MODE_SINGLE",
      "beginCondComb": "LOGIC_AND",
      "beginCond": [
        {
          "type": "QUEST_COND_STATE_EQUAL",
          "param": [
            "7368804",
            "2"
          ],
          "param_str": ""
        },
        {
          "type": "QUEST_COND_QUEST_VAR_EQUAL",
          "param": [
            "0",
            "1",
            "73688"
          ],
          "param_str": ""
        }
      ],
      "priority": 5,
      "initDialog": 736880901,
      "npcId": [
        2604
      ],
      "performCfg": "QuestDialogue/WQ/Pindao_73688/Q7368809",
      "heroTalk": "TALK_HERO_MAIN",
      "questId": 73688,
      "prePerformCfg": ""
    },
    {
      "id": 7368810,
      "beginWay": "TALK_BEGIN_MANUAL",
      "activeMode": "PLAY_MODE_SINGLE",
      "beginCond": [
        {
          "type": "QUEST_COND_STATE_EQUAL",
          "param": [
            "7368804",
            "2"
          ],
          "param_str": ""
        }
      ],
      "priority": 5,
      "initDialog": 736881001,
      "npcId": [
        3099
      ],
      "performCfg": "QuestDialogue/WQ/Pindao_73688/Q7368810",
      "heroTalk": "TALK_HERO_MAIN",
      "questId": 73688,
      "prePerformCfg": ""
    },
    {
      "id": 7368811,
      "beginWay": "TALK_BEGIN_MANUAL",
      "activeMode": "PLAY_MODE_SINGLE",
      "beginCond": [
        {
          "type": "QUEST_COND_STATE_EQUAL",
          "param": [
            "7368807",
            "2"
          ],
          "param_str": ""
        }
      ],
      "priority": 5,
      "initDialog": 736881101,
      "npcId": [
        2604
      ],
      "performCfg": "QuestDialogue/WQ/Pindao_73688/Q7368811",
      "heroTalk": "TALK_HERO_MAIN",
      "questId": 73688,
      "prePerformCfg": ""
    }
  ]
}