{
  "id": 73915,
  "type": "WQ",
  "titleTextMapHash": 1549225383,
  "descTextMapHash": 2220155710,
  "luaPath": "",
  "showType": "QUEST_HIDDEN",
  "rewardIdList": [
    554039
  ],
  "subQuests": [
    {
      "mainId": 73915,
      "subId": 7391501,
      "order": 1,
      "showType": "QUEST_HIDDEN",
      "acceptCond": [
        {
          "type": "QUEST_COND_UNKNOWN",
          "param": [
            0,
            0
          ]
        }
      ],
      "finishCond": [],
      "failCond": [],
      "guide": {},
      "finishExec": [],
      "failExec": [],
      "beginExec": []
    }
  ]
}