{
  "id": 73949,
  "type": "WQ",
  "titleTextMapHash": 332995895,
  "descTextMapHash": 2987054110,
  "luaPath": "",
  "showType": "QUEST_HIDDEN",
  "rewardIdList": [
    554050
  ],
  "subQuests": [
    {
      "mainId": 73949,
      "subId": 7394901,
      "order": 1,
      "showType": "QUEST_HIDDEN",
      "acceptCond": [
        {
          "type": "QUEST_COND_UNKNOWN",
          "param": [
            0,
            0
          ]
        }
      ],
      "finishCond": [],
      "failCond": [],
      "guide": {},
      "finishExec": [],
      "failExec": [],
      "beginExec": []
    }
  ]
}