{
  "id": 73974,
  "type": "WQ",
  "titleTextMapHash": 1909489711,
  "descTextMapHash": 349260702,
  "luaPath": "",
  "showType": "QUEST_HIDDEN",
  "rewardIdList": [
    554071
  ],
  "subQuests": [
    {
      "mainId": 73974,
      "subId": 7397401,
      "order": 1,
      "showType": "QUEST_HIDDEN",
      "acceptCond": [
        {
          "type": "QUEST_COND_UNKNOWN",
          "param": [
            0,
            0
          ]
        }
      ],
      "finishCond": [],
      "failCond": [],
      "guide": {},
      "finishExec": [],
      "failExec": [],
      "beginExec": []
    }
  ]
}