{
  "id": 8005,
  "series": 1206,
  "titleTextMapHash": 1238138367,
  "descTextMapHash": 237031694,
  "luaPath": "Actor/Quest/AQ8005",
  "suggestTrackMainQuestList": [
    8006
  ],
  "rewardIdList": [
    108005
  ],
  "chapterId": 1206,
  "subQuests": [
    {
      "subId": 800501,
      "mainId": 8005,
      "order": 1,
      "descTextMapHash": 2620018868,
      "acceptCondComb": "LOGIC_OR",
      "acceptCond": [
        {
          "type": "QUEST_COND_STATE_EQUAL",
          "param": [
            800404,
            3,
            0,
            0,
            0
          ],
          "param_str": ""
        },
        {
          "type": "QUEST_COND_STATE_EQUAL",
          "param": [
            800403,
            3,
            0,
            0,
            0
          ],
          "param_str": ""
        }
      ],
      "finishCond": [
        {
          "type": "QUEST_CONTENT_COMPLETE_TALK",
          "param": [
            800501,
            0
          ],
          "param_str": ""
        }
      ],
      "failCond": [],
      "guide": {
        "type": "QUEST_GUIDE_LOCATION",
        "param": [
          "Q800501_guide",
          "20"
        ],
        "guideScene": 6,
        "guideStyle": "QUEST_GUIDE_STYLE_TARGET",
        "guideLayer": "QUEST_GUIDE_LAYER_SCENE"
      },
      "isRewind": true,
      "finishExec": [],
      "failExec": [],
      "beginExec": [
        {
          "type": "QUEST_EXEC_REGISTER_DYNAMIC_GROUP",
          "param": [
            "6",
            "166001123"
          ],
          "param_str": ""
        },
        {
          "type": "QUEST_EXEC_REGISTER_DYNAMIC_GROUP",
          "param": [
            "6",
            "166001674"
          ],
          "param_str": ""
        }
      ],
      "exclusiveNpcList": [
        1022,
        12427,
        12429,
        12452
      ],
      "exclusiveNpcPriority": 1000
    },
    {
      "subId": 800502,
      "mainId": 8005,
      "order": 2,
      "descTextMapHash": 123559972,
      "acceptCond": [
        {
          "type": "QUEST_COND_STATE_EQUAL",
          "param": [
            800501,
            3,
            0,
            0,
            0
          ],
          "param_str": ""
        }
      ],
      "finishCond": [
        {
          "type": "QUEST_CONTENT_LUA_NOTIFY",
          "param": [
            0,
            0
          ],
          "param_str": "166001123",
          "count": 1
        }
      ],
      "failCondComb": "LOGIC_OR",
      "failCond": [
        {
          "type": "QUEST_CONTENT_TEAM_DEAD",
          "param": [
            0,
            0
          ],
          "param_str": ""
        },
        {
          "type": "QUEST_CONTENT_LEAVE_SCENE_RANGE",
          "param": [
            6,
            50
          ],
          "param_str": "Q800501_T800501_N1022"
        }
      ],
      "guide": {
        "type": "QUEST_GUIDE_LOCATION",
        "param": [
          "Q800501_T800501_N1022",
          "20"
        ],
        "guideScene": 6,
        "guideStyle": "QUEST_GUIDE_STYLE_TARGET",
        "guideLayer": "QUEST_GUIDE_LAYER_SCENE"
      },
      "finishExec": [],
      "failExec": [
        {
          "type": "QUEST_EXEC_ROLLBACK_QUEST",
          "param": [
            "800501"
          ],
          "param_str": ""
        }
      ],
      "beginExec": [
        {
          "type": "QUEST_EXEC_REGISTER_DYNAMIC_GROUP_ONLY",
          "param": [
            "166001123"
          ],
          "param_str": ""
        },
        {
          "type": "QUEST_EXEC_NOTIFY_GROUP_LUA",
          "param": [
            "6",
            "166001123"
          ],
          "param_str": ""
        },
        {
          "type": "QUEST_EXEC_REGISTER_DYNAMIC_GROUP",
          "param": [
            "6",
            "166001674"
          ],
          "param_str": ""
        }
      ],
      "exclusiveNpcList": [
        1022
      ],
      "exclusiveNpcPriority": 1000
    },
    {
      "subId": 800503,
      "mainId": 8005,
      "order": 3,
      "descTextMapHash": 1368205116,
      "acceptCond": [
        {
          "type": "QUEST_COND_STATE_EQUAL",
          "param": [
            800502,
            3,
            0,
            0,
            0
          ],
          "param_str": ""
        }
      ],
      "finishCond": [
        {
          "type": "QUEST_CONTENT_COMPLETE_TALK",
          "param": [
            800503,
            0
          ],
          "param_str": ""
        }
      ],
      "failCond": [],
      "guide": {
        "type": "QUEST_GUIDE_NPC",
        "param": [
          "1022"
        ],
        "guideScene": 6,
        "guideStyle": "QUEST_GUIDE_STYLE_TARGET",
        "guideLayer": "QUEST_GUIDE_LAYER_SCENE"
      },
      "isRewind": true,
      "finishExec": [],
      "failExec": [],
      "beginExec": [
        {
          "type": "QUEST_EXEC_REGISTER_DYNAMIC_GROUP_ONLY",
          "param": [
            "166001123"
          ],
          "param_str": ""
        },
        {
          "type": "QUEST_EXEC_REGISTER_DYNAMIC_GROUP",
          "param": [
            "6",
            "166001674"
          ],
          "param_str": ""
        }
      ],
      "exclusiveNpcList": [
        1022
      ],
      "exclusiveNpcPriority": 1000
    },
    {
      "subId": 800504,
      "mainId": 8005,
      "order": 4,
      "isMpBlock": true,
      "descTextMapHash": 3548691572,
      "acceptCond": [
        {
          "type": "QUEST_COND_STATE_EQUAL",
          "param": [
            800503,
            3,
            0,
            0,
            0
          ],
          "param_str": ""
        }
      ],
      "finishCond": [
        {
          "type": "QUEST_CONTENT_COMPLETE_TALK",
          "param": [
            800504,
            0
          ],
          "param_str": ""
        }
      ],
      "failCond": [],
      "guide": {
        "type": "QUEST_GUIDE_LOCATION",
        "param": [
          "Q800504_T800504_N1022"
        ],
        "guideScene": 6,
        "guideStyle": "QUEST_GUIDE_STYLE_POINT",
        "guideLayer": "QUEST_GUIDE_LAYER_SCENE"
      },
      "isRewind": true,
      "finishExec": [],
      "failExec": [],
      "beginExec": [
        {
          "type": "QUEST_EXEC_REGISTER_DYNAMIC_GROUP_ONLY",
          "param": [
            "166001123"
          ],
          "param_str": ""
        },
        {
          "type": "QUEST_EXEC_REGISTER_DYNAMIC_GROUP",
          "param": [
            "6",
            "166001674"
          ],
          "param_str": ""
        },
        {
          "type": "QUEST_EXEC_DEL_SCENE_TAG",
          "param": [
            "6",
            "1062"
          ],
          "param_str": ""
        },
        {
          "type": "QUEST_EXEC_ADD_SCENE_TAG",
          "param": [
            "6",
            "1061"
          ],
          "param_str": ""
        }
      ],
      "exclusiveNpcList": [
        1022,
        12427
      ],
      "exclusiveNpcPriority": 1000
    },
    {
      "subId": 800505,
      "mainId": 8005,
      "order": 6,
      "descTextMapHash": 1695993156,
      "acceptCond": [
        {
          "type": "QUEST_COND_STATE_EQUAL",
          "param": [
            800504,
            3,
            0,
            0,
            0
          ],
          "param_str": ""
        }
      ],
      "finishCond": [
        {
          "type": "QUEST_CONTENT_COMPLETE_TALK",
          "param": [
            800505,
            0
          ],
          "param_str": ""
        }
      ],
      "failCond": [],
      "guide": {
        "type": "QUEST_GUIDE_LOCATION",
        "param": [
          "Q800506_guide",
          "20"
        ],
        "guideScene": 6,
        "guideStyle": "QUEST_GUIDE_STYLE_TARGET",
        "guideLayer": "QUEST_GUIDE_LAYER_SCENE"
      },
      "isRewind": true,
      "finishExec": [
        {
          "type": "QUEST_EXEC_UNREGISTER_DYNAMIC_GROUP",
          "param": [
            "166001123"
          ],
          "param_str": ""
        }
      ],
      "failExec": [],
      "beginExec": [
        {
          "type": "QUEST_EXEC_REGISTER_DYNAMIC_GROUP_ONLY",
          "param": [
            "166001123"
          ],
          "param_str": ""
        },
        {
          "type": "QUEST_EXEC_REGISTER_DYNAMIC_GROUP",
          "param": [
            "6",
            "166001303"
          ],
          "param_str": ""
        },
        {
          "type": "QUEST_EXEC_UNREGISTER_DYNAMIC_GROUP",
          "param": [
            "166001124"
          ],
          "param_str": ""
        },
        {
          "type": "QUEST_EXEC_REGISTER_DYNAMIC_GROUP",
          "param": [
            "6",
            "166001674"
          ],
          "param_str": ""
        }
      ],
      "exclusiveNpcList": [
        1022,
        12427,
        12429,
        12453
      ],
      "exclusiveNpcPriority": 1000
    },
    {
      "subId": 800506,
      "mainId": 8005,
      "order": 7,
      "descTextMapHash": 2393293452,
      "acceptCond": [
        {
          "type": "QUEST_COND_STATE_EQUAL",
          "param": [
            800505,
            3,
            0,
            0,
            0
          ],
          "param_str": ""
        }
      ],
      "finishCond": [
        {
          "type": "QUEST_CONTENT_LUA_NOTIFY",
          "param": [
            0,
            0
          ],
          "param_str": "166001124",
          "count": 1
        }
      ],
      "failCondComb": "LOGIC_OR",
      "failCond": [
        {
          "type": "QUEST_CONTENT_TEAM_DEAD",
          "param": [
            0,
            0
          ],
          "param_str": ""
        },
        {
          "type": "QUEST_CONTENT_LEAVE_SCENE_RANGE",
          "param": [
            6,
            40
          ],
          "param_str": "Q800506_guide"
        }
      ],
      "guide": {
        "type": "QUEST_GUIDE_LOCATION",
        "param": [
          "Q800506_guide",
          "20"
        ],
        "guideScene": 6,
        "guideStyle": "QUEST_GUIDE_STYLE_POINT",
        "guideLayer": "QUEST_GUIDE_LAYER_SCENE"
      },
      "finishExec": [
        {
          "type": "QUEST_EXEC_UNREGISTER_DYNAMIC_GROUP",
          "param": [
            "166001124"
          ],
          "param_str": ""
        }
      ],
      "failExec": [
        {
          "type": "QUEST_EXEC_ROLLBACK_QUEST",
          "param": [
            "800505"
          ],
          "param_str": ""
        }
      ],
      "beginExec": [
        {
          "type": "QUEST_EXEC_REGISTER_DYNAMIC_GROUP",
          "param": [
            "6",
            "166001124"
          ],
          "param_str": ""
        },
        {
          "type": "QUEST_EXEC_REGISTER_DYNAMIC_GROUP",
          "param": [
            "6",
            "166001303"
          ],
          "param_str": ""
        },
        {
          "type": "QUEST_EXEC_REGISTER_DYNAMIC_GROUP",
          "param": [
            "6",
            "166001674"
          ],
          "param_str": ""
        }
      ],
      "exclusiveNpcList": [
        1022
      ],
      "exclusiveNpcPriority": 1000
    },
    {
      "subId": 800508,
      "mainId": 8005,
      "order": 8,
      "descTextMapHash": 1185760676,
      "acceptCond": [
        {
          "type": "QUEST_COND_STATE_EQUAL",
          "param": [
            800506,
            3,
            0,
            0,
            0
          ],
          "param_str": ""
        }
      ],
      "finishCond": [
        {
          "type": "QUEST_CONTENT_COMPLETE_TALK",
          "param": [
            800508,
            0
          ],
          "param_str": ""
        }
      ],
      "failCond": [],
      "guide": {
        "type": "QUEST_GUIDE_LOCATION",
        "param": [
          "Q800508_guide"
        ],
        "guideScene": 6,
        "guideStyle": "QUEST_GUIDE_STYLE_POINT",
        "guideLayer": "QUEST_GUIDE_LAYER_SCENE"
      },
      "isRewind": true,
      "finishExec": [],
      "failExec": [],
      "beginExec": [
        {
          "type": "QUEST_EXEC_REGISTER_DYNAMIC_GROUP",
          "param": [
            "6",
            "166001248"
          ],
          "param_str": ""
        },
        {
          "type": "QUEST_EXEC_REGISTER_DYNAMIC_GROUP",
          "param": [
            "6",
            "166001303"
          ],
          "param_str": ""
        },
        {
          "type": "QUEST_EXEC_UNREGISTER_DYNAMIC_GROUP",
          "param": [
            "166001125"
          ],
          "param_str": ""
        },
        {
          "type": "QUEST_EXEC_REGISTER_DYNAMIC_GROUP",
          "param": [
            "6",
            "166001674"
          ],
          "param_str": ""
        }
      ],
      "exclusiveNpcList": [
        1022,
        12427,
        12429,
        12452,
        12453
      ],
      "exclusiveNpcPriority": 1000
    },
    {
      "subId": 800509,
      "mainId": 8005,
      "order": 9,
      "descTextMapHash": 2820112340,
      "acceptCond": [
        {
          "type": "QUEST_COND_STATE_EQUAL",
          "param": [
            800508,
            3,
            0,
            0,
            0
          ],
          "param_str": ""
        }
      ],
      "finishCond": [
        {
          "type": "QUEST_CONTENT_LUA_NOTIFY",
          "param": [
            0,
            0
          ],
          "param_str": "166001125",
          "count": 1
        }
      ],
      "failCondComb": "LOGIC_OR",
      "failCond": [
        {
          "type": "QUEST_CONTENT_TEAM_DEAD",
          "param": [
            0,
            0
          ],
          "param_str": ""
        },
        {
          "type": "QUEST_CONTENT_LEAVE_SCENE_RANGE",
          "param": [
            6,
            40
          ],
          "param_str": "Q800509_guide"
        }
      ],
      "guide": {
        "type": "QUEST_GUIDE_LOCATION",
        "param": [
          "Q800509_guide",
          "20"
        ],
        "guideScene": 6,
        "guideStyle": "QUEST_GUIDE_STYLE_POINT",
        "guideLayer": "QUEST_GUIDE_LAYER_SCENE"
      },
      "finishExec": [
        {
          "type": "QUEST_EXEC_UNREGISTER_DYNAMIC_GROUP",
          "param": [
            "166001125"
          ],
          "param_str": ""
        }
      ],
      "failExec": [
        {
          "type": "QUEST_EXEC_ROLLBACK_QUEST",
          "param": [
            "800508"
          ],
          "param_str": ""
        }
      ],
      "beginExec": [
        {
          "type": "QUEST_EXEC_REGISTER_DYNAMIC_GROUP",
          "param": [
            "6",
            "166001125"
          ],
          "param_str": ""
        },
        {
          "type": "QUEST_EXEC_REGISTER_DYNAMIC_GROUP",
          "param": [
            "6",
            "166001248"
          ],
          "param_str": ""
        },
        {
          "type": "QUEST_EXEC_REGISTER_DYNAMIC_GROUP",
          "param": [
            "6",
            "166001303"
          ],
          "param_str": ""
        },
        {
          "type": "QUEST_EXEC_REGISTER_DYNAMIC_GROUP",
          "param": [
            "6",
            "166001674"
          ],
          "param_str": ""
        }
      ],
      "exclusiveNpcList": [
        1022
      ],
      "exclusiveNpcPriority": 1000
    },
    {
      "subId": 800510,
      "mainId": 8005,
      "order": 10,
      "descTextMapHash": 3822860140,
      "acceptCond": [
        {
          "type": "QUEST_COND_STATE_EQUAL",
          "param": [
            800509,
            3,
            0,
            0,
            0
          ],
          "param_str": ""
        }
      ],
      "finishCond": [
        {
          "type": "QUEST_CONTENT_COMPLETE_TALK",
          "param": [
            800510,
            0
          ],
          "param_str": ""
        }
      ],
      "failCond": [],
      "guide": {
        "type": "QUEST_GUIDE_LOCATION",
        "param": [
          "T800520_N12454"
        ],
        "guideScene": 6,
        "guideStyle": "QUEST_GUIDE_STYLE_POINT",
        "guideLayer": "QUEST_GUIDE_LAYER_SCENE"
      },
      "isRewind": true,
      "finishExec": [
        {
          "type": "QUEST_EXEC_UNREGISTER_DYNAMIC_GROUP",
          "param": [
            "166001674"
          ],
          "param_str": ""
        }
      ],
      "failExec": [],
      "beginExec": [
        {
          "type": "QUEST_EXEC_REGISTER_DYNAMIC_GROUP",
          "param": [
            "6",
            "166001248"
          ],
          "param_str": ""
        },
        {
          "type": "QUEST_EXEC_REGISTER_DYNAMIC_GROUP",
          "param": [
            "6",
            "166001303"
          ],
          "param_str": ""
        },
        {
          "type": "QUEST_EXEC_REGISTER_DYNAMIC_GROUP",
          "param": [
            "6",
            "166001674"
          ],
          "param_str": ""
        }
      ],
      "exclusiveNpcList": [
        1022,
        12427,
        12429,
        12452,
        12453,
        12514
      ],
      "exclusiveNpcPriority": 1000
    },
    {
      "subId": 800511,
      "mainId": 8005,
      "order": 11,
      "descTextMapHash": 1938572396,
      "acceptCond": [
        {
          "type": "QUEST_COND_STATE_EQUAL",
          "param": [
            800510,
            3,
            0,
            0,
            0
          ],
          "param_str": ""
        }
      ],
      "finishCond": [
        {
          "type": "QUEST_CONTENT_FINISH_PLOT",
          "param": [
            800511,
            0
          ],
          "param_str": ""
        }
      ],
      "failCond": [
        {
          "type": "QUEST_CONTENT_QUEST_STATE_EQUAL",
          "param": [
            800516,
            3
          ],
          "param_str": ""
        }
      ],
      "guide": {
        "type": "QUEST_GUIDE_LOCATION",
        "param": [
          "Q800511_guide"
        ],
        "guideScene": 6,
        "guideStyle": "QUEST_GUIDE_STYLE_POINT",
        "guideLayer": "QUEST_GUIDE_LAYER_SCENE"
      },
      "isRewind": true,
      "finishExec": [],
      "failExec": [],
      "beginExec": [
        {
          "type": "QUEST_EXEC_REGISTER_DYNAMIC_GROUP",
          "param": [
            "6",
            "166001248"
          ],
          "param_str": ""
        },
        {
          "type": "QUEST_EXEC_REGISTER_DYNAMIC_GROUP",
          "param": [
            "6",
            "166001303"
          ],
          "param_str": ""
        }
      ],
      "exclusiveNpcList": [
        1022,
        12454,
        12455,
        12456,
        12457
      ],
      "exclusiveNpcPriority": 1000
    },
    {
      "subId": 800512,
      "mainId": 8005,
      "order": 12,
      "descTextMapHash": 1970045108,
      "acceptCond": [
        {
          "type": "QUEST_COND_STATE_EQUAL",
          "param": [
            800511,
            3,
            0,
            0,
            0
          ],
          "param_str": ""
        }
      ],
      "finishCond": [
        {
          "type": "QUEST_CONTENT_FINISH_PLOT",
          "param": [
            800512,
            0
          ],
          "param_str": ""
        }
      ],
      "failCond": [
        {
          "type": "QUEST_CONTENT_QUEST_STATE_EQUAL",
          "param": [
            800516,
            3
          ],
          "param_str": ""
        }
      ],
      "guide": {
        "type": "QUEST_GUIDE_LOCATION",
        "param": [
          "Q800512_guide"
        ],
        "guideScene": 6,
        "guideStyle": "QUEST_GUIDE_STYLE_POINT",
        "guideLayer": "QUEST_GUIDE_LAYER_SCENE"
      },
      "isRewind": true,
      "finishExec": [],
      "failExec": [],
      "beginExec": [
        {
          "type": "QUEST_EXEC_REGISTER_DYNAMIC_GROUP",
          "param": [
            "6",
            "166001248"
          ],
          "param_str": ""
        },
        {
          "type": "QUEST_EXEC_REGISTER_DYNAMIC_GROUP",
          "param": [
            "6",
            "166001303"
          ],
          "param_str": ""
        }
      ],
      "exclusiveNpcList": [
        1022,
        12454,
        12455,
        12456,
        12457
      ],
      "exclusiveNpcPriority": 1000
    },
    {
      "subId": 800513,
      "mainId": 8005,
      "order": 13,
      "descTextMapHash": 3134566996,
      "acceptCond": [
        {
          "type": "QUEST_COND_STATE_EQUAL",
          "param": [
            800512,
            3,
            0,
            0,
            0
          ],
          "param_str": ""
        }
      ],
      "finishCond": [
        {
          "type": "QUEST_CONTENT_FINISH_PLOT",
          "param": [
            800513,
            0
          ],
          "param_str": ""
        }
      ],
      "failCond": [
        {
          "type": "QUEST_CONTENT_QUEST_STATE_EQUAL",
          "param": [
            800516,
            3
          ],
          "param_str": ""
        }
      ],
      "guide": {
        "type": "QUEST_GUIDE_LOCATION",
        "param": [
          "Q800513_guide"
        ],
        "guideScene": 6,
        "guideStyle": "QUEST_GUIDE_STYLE_POINT",
        "guideLayer": "QUEST_GUIDE_LAYER_SCENE"
      },
      "isRewind": true,
      "finishExec": [],
      "failExec": [],
      "beginExec": [
        {
          "type": "QUEST_EXEC_REGISTER_DYNAMIC_GROUP",
          "param": [
            "6",
            "166001248"
          ],
          "param_str": ""
        },
        {
          "type": "QUEST_EXEC_REGISTER_DYNAMIC_GROUP",
          "param": [
            "6",
            "166001303"
          ],
          "param_str": ""
        }
      ],
      "exclusiveNpcList": [
        1022,
        12454,
        12455,
        12456,
        12457
      ],
      "exclusiveNpcPriority": 1000
    },
    {
      "subId": 800514,
      "mainId": 8005,
      "order": 14,
      "descTextMapHash": 2113577924,
      "acceptCond": [
        {
          "type": "QUEST_COND_STATE_EQUAL",
          "param": [
            800513,
            3,
            0,
            0,
            0
          ],
          "param_str": ""
        }
      ],
      "finishCond": [
        {
          "type": "QUEST_CONTENT_COMPLETE_TALK",
          "param": [
            800514,
            0
          ],
          "param_str": ""
        }
      ],
      "failCond": [
        {
          "type": "QUEST_CONTENT_QUEST_STATE_EQUAL",
          "param": [
            800516,
            3
          ],
          "param_str": ""
        }
      ],
      "guide": {
        "type": "QUEST_GUIDE_LOCATION",
        "param": [
          "Q800514_guide"
        ],
        "guideScene": 6,
        "guideStyle": "QUEST_GUIDE_STYLE_POINT",
        "guideLayer": "QUEST_GUIDE_LAYER_SCENE"
      },
      "isRewind": true,
      "finishExec": [],
      "failExec": [],
      "beginExec": [
        {
          "type": "QUEST_EXEC_REGISTER_DYNAMIC_GROUP",
          "param": [
            "6",
            "166001248"
          ],
          "param_str": ""
        },
        {
          "type": "QUEST_EXEC_REGISTER_DYNAMIC_GROUP",
          "param": [
            "6",
            "166001303"
          ],
          "param_str": ""
        }
      ],
      "exclusiveNpcList": [
        1022,
        12427,
        12454,
        12455,
        12456,
        12457
      ],
      "exclusiveNpcPriority": 1000
    },
    {
      "subId": 800515,
      "mainId": 8005,
      "order": 17,
      "descTextMapHash": 3929433940,
      "acceptCond": [
        {
          "type": "QUEST_COND_STATE_EQUAL",
          "param": [
            800514,
            3,
            0,
            0,
            0
          ],
          "param_str": ""
        }
      ],
      "finishCond": [
        {
          "type": "QUEST_CONTENT_COMPLETE_TALK",
          "param": [
            800515,
            0
          ],
          "param_str": ""
        }
      ],
      "failCond": [],
      "guide": {
        "type": "QUEST_GUIDE_LOCATION",
        "param": [
          "Q800515_guide"
        ],
        "guideScene": 6,
        "guideStyle": "QUEST_GUIDE_STYLE_POINT",
        "guideLayer": "QUEST_GUIDE_LAYER_SCENE"
      },
      "finishParent": true,
      "isRewind": true,
      "finishExec": [
        {
          "type": "QUEST_EXEC_UNREGISTER_DYNAMIC_GROUP",
          "param": [
            "166001303"
          ],
          "param_str": ""
        }
      ],
      "failExec": [],
      "beginExec": [
        {
          "type": "QUEST_EXEC_REGISTER_DYNAMIC_GROUP",
          "param": [
            "6",
            "166001248"
          ],
          "param_str": ""
        },
        {
          "type": "QUEST_EXEC_REGISTER_DYNAMIC_GROUP",
          "param": [
            "6",
            "166001303"
          ],
          "param_str": ""
        }
      ],
      "exclusiveNpcList": [
        1022,
        12424,
        12427,
        12454,
        12455,
        12456,
        12457
      ],
      "exclusiveNpcPriority": 1000
    },
    {
      "subId": 800516,
      "mainId": 8005,
      "order": 15,
      "descTextMapHash": 3839397684,
      "showType": "QUEST_HIDDEN",
      "acceptCond": [
        {
          "type": "QUEST_COND_STATE_EQUAL",
          "param": [
            800510,
            3,
            0,
            0,
            0
          ],
          "param_str": ""
        }
      ],
      "finishCond": [
        {
          "type": "QUEST_CONTENT_COMPLETE_TALK",
          "param": [
            800516,
            0
          ],
          "param_str": ""
        }
      ],
      "failCond": [
        {
          "type": "QUEST_CONTENT_QUEST_STATE_EQUAL",
          "param": [
            800514,
            3
          ],
          "param_str": ""
        }
      ],
      "guide": {
        "param": []
      },
      "finishExec": [
        {
          "type": "QUEST_EXEC_UNREGISTER_DYNAMIC_GROUP",
          "param": [
            "166001303"
          ],
          "param_str": ""
        }
      ],
      "failExec": [],
      "beginExec": [
        {
          "type": "QUEST_EXEC_REGISTER_DYNAMIC_GROUP",
          "param": [
            "6",
            "166001303"
          ],
          "param_str": ""
        }
      ],
      "exclusiveNpcList": [
        1022,
        12424,
        12458
      ],
      "exclusiveNpcPriority": 1000
    },
    {
      "subId": 800517,
      "mainId": 8005,
      "order": 18,
      "descTextMapHash": 737032788,
      "showType": "QUEST_HIDDEN",
      "acceptCond": [
        {
          "type": "QUEST_COND_STATE_EQUAL",
          "param": [
            800510,
            3,
            0,
            0,
            0
          ],
          "param_str": ""
        }
      ],
      "finishCond": [
        {
          "type": "QUEST_CONTENT_FINISH_PLOT",
          "param": [
            800517,
            0
          ],
          "param_str": ""
        }
      ],
      "failCond": [],
      "guide": {
        "param": []
      },
      "finishExec": [
        {
          "type": "QUEST_EXEC_NOTIFY_GROUP_LUA",
          "param": [
            "6",
            "166001303"
          ],
          "param_str": ""
        }
      ],
      "failExec": [],
      "beginExec": [],
      "exclusiveNpcList": [
        1022
      ],
      "exclusiveNpcPriority": 1000
    },
    {
      "subId": 800518,
      "mainId": 8005,
      "order": 16,
      "descTextMapHash": 2804690324,
      "showType": "QUEST_HIDDEN",
      "acceptCond": [
        {
          "type": "QUEST_COND_STATE_EQUAL",
          "param": [
            800516,
            3,
            0,
            0,
            0
          ],
          "param_str": ""
        }
      ],
      "finishCond": [
        {
          "type": "QUEST_CONTENT_FINISH_PLOT",
          "param": [
            800518,
            0
          ],
          "param_str": ""
        }
      ],
      "failCond": [],
      "guide": {
        "param": []
      },
      "finishParent": true,
      "isRewind": true,
      "finishExec": [
        {
          "type": "QUEST_EXEC_UNREGISTER_DYNAMIC_GROUP",
          "param": [
            "166001303"
          ],
          "param_str": ""
        }
      ],
      "failExec": [],
      "beginExec": [],
      "exclusiveNpcList": [
        1022,
        12424
      ],
      "exclusiveNpcPriority": 1000
    },
    {
      "subId": 800519,
      "mainId": 8005,
      "order": 19,
      "descTextMapHash": 3683290620,
      "showType": "QUEST_HIDDEN",
      "acceptCond": [
        {
          "type": "QUEST_COND_STATE_EQUAL",
          "param": [
            800510,
            3,
            0,
            0,
            0
          ],
          "param_str": ""
        }
      ],
      "finishCond": [
        {
          "type": "QUEST_CONTENT_FINISH_PLOT",
          "param": [
            800519,
            0
          ],
          "param_str": ""
        }
      ],
      "failCond": [],
      "guide": {
        "param": []
      },
      "finishExec": [
        {
          "type": "QUEST_EXEC_NOTIFY_GROUP_LUA",
          "param": [
            "6",
            "166001303"
          ],
          "param_str": ""
        }
      ],
      "failExec": [],
      "beginExec": [],
      "exclusiveNpcList": [
        1022
      ],
      "exclusiveNpcPriority": 1000
    },
    {
      "subId": 800520,
      "mainId": 8005,
      "order": 5,
      "descTextMapHash": 3488080028,
      "showType": "QUEST_HIDDEN",
      "acceptCond": [
        {
          "type": "QUEST_COND_STATE_EQUAL",
          "param": [
            800503,
            3,
            0,
            0,
            0
          ],
          "param_str": ""
        }
      ],
      "finishCond": [
        {
          "type": "QUEST_CONTENT_FINISH_PLOT",
          "param": [
            800520,
            0
          ],
          "param_str": ""
        }
      ],
      "failCond": [],
      "guide": {
        "param": []
      },
      "finishExec": [
        {
          "type": "QUEST_EXEC_DEL_SCENE_TAG",
          "param": [
            "6",
            "1061"
          ],
          "param_str": ""
        },
        {
          "type": "QUEST_EXEC_ADD_SCENE_TAG",
          "param": [
            "6",
            "1062"
          ],
          "param_str": ""
        }
      ],
      "failExec": [],
      "beginExec": []
    }
  ],
  "talks": [
    {
      "id": 800501,
      "beginWay": "TALK_BEGIN_MANUAL",
      "activeMode": "PLAY_MODE_SINGLE",
      "beginCond": [
        {
          "type": "QUEST_COND_STATE_EQUAL",
          "param": [
            "800501",
            "2"
          ],
          "param_str": ""
        }
      ],
      "priority": 5,
      "initDialog": 80050101,
      "npcId": [
        12427
      ],
      "performCfg": "QuestDialogue/AQ/Twins2_8005/Q800501",
      "heroTalk": "TALK_HERO_MAIN",
      "questId": 8005,
      "prePerformCfg": ""
    },
    {
      "id": 800503,
      "beginWay": "TALK_BEGIN_MANUAL",
      "activeMode": "PLAY_MODE_SINGLE",
      "beginCond": [
        {
          "type": "QUEST_COND_STATE_EQUAL",
          "param": [
            "800503",
            "2"
          ],
          "param_str": ""
        }
      ],
      "priority": 5,
      "initDialog": 80050301,
      "npcId": [
        1022
      ],
      "performCfg": "QuestDialogue/AQ/Twins2_8005/Q800503",
      "heroTalk": "TALK_HERO_MAIN",
      "questId": 8005,
      "prePerformCfg": ""
    },
    {
      "id": 800504,
      "beginWay": "TALK_BEGIN_AUTO",
      "activeMode": "PLAY_MODE_SINGLE",
      "beginCond": [
        {
          "type": "QUEST_COND_STATE_EQUAL",
          "param": [
            "800504",
            "2"
          ],
          "param_str": ""
        }
      ],
      "priority": 5,
      "initDialog": 80050401,
      "npcId": [
        12427
      ],
      "performCfg": "QuestDialogue/AQ/Twins2_8005/Q800504",
      "heroTalk": "TALK_HERO_MAIN",
      "questId": 8005,
      "prePerformCfg": ""
    },
    {
      "id": 800505,
      "beginWay": "TALK_BEGIN_MANUAL",
      "activeMode": "PLAY_MODE_SINGLE",
      "beginCond": [
        {
          "type": "QUEST_COND_STATE_EQUAL",
          "param": [
            "800505",
            "2"
          ],
          "param_str": ""
        }
      ],
      "priority": 5,
      "initDialog": 80050501,
      "npcId": [
        12427
      ],
      "performCfg": "QuestDialogue/AQ/Twins2_8005/Q800505",
      "heroTalk": "TALK_HERO_MAIN",
      "questId": 8005,
      "prePerformCfg": ""
    },
    {
      "id": 800508,
      "beginWay": "TALK_BEGIN_MANUAL",
      "activeMode": "PLAY_MODE_SINGLE",
      "beginCond": [
        {
          "type": "QUEST_COND_STATE_EQUAL",
          "param": [
            "800508",
            "2"
          ],
          "param_str": ""
        }
      ],
      "priority": 5,
      "initDialog": 80050801,
      "npcId": [
        12427
      ],
      "performCfg": "QuestDialogue/AQ/Twins2_8005/Q800508",
      "heroTalk": "TALK_HERO_MAIN",
      "questId": 8005,
      "prePerformCfg": ""
    },
    {
      "id": 800510,
      "beginWay": "TALK_BEGIN_MANUAL",
      "activeMode": "PLAY_MODE_SINGLE",
      "beginCond": [
        {
          "type": "QUEST_COND_STATE_EQUAL",
          "param": [
            "800510",
            "2"
          ],
          "param_str": ""
        }
      ],
      "priority": 5,
      "initDialog": 80051001,
      "npcId": [
        12427
      ],
      "performCfg": "QuestDialogue/AQ/Twins2_8005/Q800510",
      "heroTalk": "TALK_HERO_MAIN",
      "questId": 8005,
      "prePerformCfg": ""
    },
    {
      "id": 800514,
      "beginWay": "TALK_BEGIN_AUTO",
      "activeMode": "PLAY_MODE_SINGLE",
      "beginCond": [
        {
          "type": "QUEST_COND_STATE_EQUAL",
          "param": [
            "800514",
            "2"
          ],
          "param_str": ""
        }
      ],
      "priority": 5,
      "initDialog": 80051401,
      "npcId": [
        12427
      ],
      "performCfg": "QuestDialogue/AQ/Twins2_8005/Q800514",
      "heroTalk": "TALK_HERO_MAIN",
      "questId": 8005,
      "prePerformCfg": ""
    },
    {
      "id": 800515,
      "beginWay": "TALK_BEGIN_MANUAL",
      "activeMode": "PLAY_MODE_SINGLE",
      "beginCond": [
        {
          "type": "QUEST_COND_STATE_EQUAL",
          "param": [
            "800515",
            "2"
          ],
          "param_str": ""
        }
      ],
      "priority": 5,
      "initDialog": 80051501,
      "npcId": [
        12427
      ],
      "performCfg": "QuestDialogue/AQ/Twins2_8005/Q800515",
      "heroTalk": "TALK_HERO_MAIN",
      "questId": 8005,
      "prePerformCfg": ""
    },
    {
      "id": 800516,
      "beginWay": "TALK_BEGIN_MANUAL",
      "activeMode": "PLAY_MODE_SINGLE",
      "beginCond": [
        {
          "type": "QUEST_COND_STATE_EQUAL",
          "param": [
            "800516",
            "2"
          ],
          "param_str": ""
        }
      ],
      "priority": 5,
      "initDialog": 80051501,
      "npcId": [
        12458
      ],
      "performCfg": "QuestDialogue/AQ/Twins2_8005/Q800515",
      "heroTalk": "TALK_HERO_MAIN",
      "questId": 8005,
      "prePerformCfg": ""
    },
    {
      "id": 800520,
      "beginWay": "TALK_BEGIN_MANUAL",
      "activeMode": "PLAY_MODE_SINGLE",
      "beginCondComb": "LOGIC_OR",
      "beginCond": [
        {
          "type": "QUEST_COND_STATE_EQUAL",
          "param": [
            "800511",
            "2"
          ],
          "param_str": ""
        },
        {
          "type": "QUEST_COND_STATE_EQUAL",
          "param": [
            "800512",
            "2"
          ],
          "param_str": ""
        },
        {
          "type": "QUEST_COND_STATE_EQUAL",
          "param": [
            "800513",
            "1"
          ],
          "param_str": ""
        },
        {
          "type": "QUEST_COND_STATE_EQUAL",
          "param": [
            "800514",
            "2"
          ],
          "param_str": ""
        },
        {
          "type": "QUEST_COND_STATE_EQUAL",
          "param": [
            "800515",
            "2"
          ],
          "param_str": ""
        }
      ],
      "priority": 5,
      "initDialog": 80052001,
      "npcId": [
        12454
      ],
      "performCfg": "QuestDialogue/AQ/Twins2_8005/Q800520",
      "heroTalk": "TALK_HERO_MAIN",
      "questId": 8005,
      "prePerformCfg": ""
    },
    {
      "id": 800521,
      "beginWay": "TALK_BEGIN_MANUAL",
      "activeMode": "PLAY_MODE_SINGLE",
      "beginCondComb": "LOGIC_OR",
      "beginCond": [
        {
          "type": "QUEST_COND_STATE_EQUAL",
          "param": [
            "800511",
            "2"
          ],
          "param_str": ""
        },
        {
          "type": "QUEST_COND_STATE_EQUAL",
          "param": [
            "800512",
            "2"
          ],
          "param_str": ""
        },
        {
          "type": "QUEST_COND_STATE_EQUAL",
          "param": [
            "800513",
            "1"
          ],
          "param_str": ""
        },
        {
          "type": "QUEST_COND_STATE_EQUAL",
          "param": [
            "800514",
            "2"
          ],
          "param_str": ""
        },
        {
          "type": "QUEST_COND_STATE_EQUAL",
          "param": [
            "800515",
            "2"
          ],
          "param_str": ""
        }
      ],
      "priority": 5,
      "initDialog": 80052101,
      "npcId": [
        12455
      ],
      "performCfg": "QuestDialogue/AQ/Twins2_8005/Q800521",
      "heroTalk": "TALK_HERO_MAIN",
      "questId": 8005,
      "prePerformCfg": ""
    },
    {
      "id": 800522,
      "beginWay": "TALK_BEGIN_MANUAL",
      "activeMode": "PLAY_MODE_SINGLE",
      "beginCondComb": "LOGIC_OR",
      "beginCond": [
        {
          "type": "QUEST_COND_STATE_EQUAL",
          "param": [
            "800511",
            "2"
          ],
          "param_str": ""
        },
        {
          "type": "QUEST_COND_STATE_EQUAL",
          "param": [
            "800512",
            "2"
          ],
          "param_str": ""
        },
        {
          "type": "QUEST_COND_STATE_EQUAL",
          "param": [
            "800513",
            "1"
          ],
          "param_str": ""
        },
        {
          "type": "QUEST_COND_STATE_EQUAL",
          "param": [
            "800514",
            "2"
          ],
          "param_str": ""
        },
        {
          "type": "QUEST_COND_STATE_EQUAL",
          "param": [
            "800515",
            "2"
          ],
          "param_str": ""
        }
      ],
      "priority": 5,
      "initDialog": 80052201,
      "npcId": [
        12456
      ],
      "performCfg": "QuestDialogue/AQ/Twins2_8005/Q800522",
      "heroTalk": "TALK_HERO_MAIN",
      "questId": 8005,
      "prePerformCfg": ""
    },
    {
      "id": 800523,
      "beginWay": "TALK_BEGIN_MANUAL",
      "activeMode": "PLAY_MODE_SINGLE",
      "beginCondComb": "LOGIC_OR",
      "beginCond": [
        {
          "type": "QUEST_COND_STATE_EQUAL",
          "param": [
            "800511",
            "2"
          ],
          "param_str": ""
        },
        {
          "type": "QUEST_COND_STATE_EQUAL",
          "param": [
            "800512",
            "2"
          ],
          "param_str": ""
        },
        {
          "type": "QUEST_COND_STATE_EQUAL",
          "param": [
            "800513",
            "1"
          ],
          "param_str": ""
        },
        {
          "type": "QUEST_COND_STATE_EQUAL",
          "param": [
            "800514",
            "2"
          ],
          "param_str": ""
        },
        {
          "type": "QUEST_COND_STATE_EQUAL",
          "param": [
            "800515",
            "2"
          ],
          "param_str": ""
        }
      ],
      "priority": 5,
      "initDialog": 80052301,
      "npcId": [
        12457
      ],
      "performCfg": "QuestDialogue/AQ/Twins2_8005/Q800523",
      "heroTalk": "TALK_HERO_MAIN",
      "questId": 8005,
      "prePerformCfg": ""
    }
  ]
}