[
  {
    "Default": {
      "$type": "ConfigAbility",
      "abilityName": "Activity_WinterCamp_TeamAbility",
      "abilityMixins": [
        {
          "$type": "AttachModifierToSelfGlobalValueMixin",
          "globalValueKey": "WinterCamp_RocketJump",
          "defaultGlobalValueOnCreate": 0.0,
          "valueSteps": [-0.5, 0.5, 1.5],
          "modifierNameSteps": ["Blank", "UNIQUE_WinterCamp_RocketJump"]
        },
        {
          "$type": "AttachModifierToSelfGlobalValueMixin",
          "globalValueKey": "WinterCamp_Shield",
          "defaultGlobalValueOnCreate": 0.0,
          "valueSteps": [-0.5, 0.5, 1.5],
          "modifierNameSteps": ["Blank", "UNIQUE_WinterCamp_Shield"]
        }
      ],
      "modifiers": {
        "Blank": {
          "modifierName": "",
          "bonusCriticalHurt": 100.0
        },
        "UNIQUE_WinterCamp_CameraFixDelay": {
          "stacking": "Unique",
          "modifierName": "",
          "isUnique": true,
          "duration": 2.25,
          "bonusCriticalHurt": 100.0,
          "onRemoved": [
            {
              "$type": "ApplyModifier",
              "modifierName": "UNIQUE_WinterCamp_CameraFix"
            }
          ]
        },
        "UNIQUE_WinterCamp_CameraFix": {
          "stacking": "Unique",
          "modifierName": "",
          "isUnique": true,
          "bonusCriticalHurt": 100.0,
          "modifierMixins": [
            {
              "$type": "ModifyCameraMaxDistanceMixin",
              "HNFHDMELLMB": 10.0,
              "MKLEOEDKEGK": true,
              "MCMIFAIAHHG": 0.5,
              "IAALLPEDOCO": 2.0
            }
          ]
        },
        "UNIQUE_WinterCamp_RocketJump": {
          "stacking": "Unique",
          "modifierName": "",
          "isUnique": true,
          "bonusCriticalHurt": 100.0,
          "modifierMixins": [
            {
              "$type": "CurLocalAvatarMixinV2",
              "modifierName": "WinterCamp_RocketJump_Avator"
            }
          ]
        },
        "UNIQUE_WinterCamp_Shield": {
          "stacking": "Unique",
          "modifierName": "",
          "isUnique": true,
          "bonusCriticalHurt": 100.0,
          "modifierMixins": [
            {
              "$type": "CurLocalAvatarMixinV2",
              "modifierName": "WinterCamp_Shield_Avator"
            }
          ]
        },
        "WinterCamp_RocketJump_Avator": {
          "modifierName": "",
          "bonusCriticalHurt": 100.0,
          "onAdded": [
            {
              "$type": "EnableRocketJump",
              "canBeHandledOnRecover": true,
              "type": "DungeonJump",
              "enable": true,
              "extention": {
                "xzMultiplier": 2.299999952316284,
                "yMultiplier": 5.0
              },
              "MDMNNJEOPEO": true
            },
            {
              "$type": "AttachEffect",
              "healLimitedByCasterMaxHPRatio": "Eff_SceneObj_JumpUp_01_Buff",
              "effectTempleteID": -1.0
            },
            {
              "$type": "ChangePlayMode",
              "RotationDampTime": true,
              "muteRemoteAction": true,
              "toPlayMode": "WinterCampRace"
            }
          ],
          "onRemoved": [
            {
              "$type": "EnableRocketJump",
              "RotationDampTime": true,
              "canBeHandledOnRecover": true,
              "type": "DungeonJump",
              "MDMNNJEOPEO": true
            },
            {
              "$type": "ChangePlayMode",
              "RotationDampTime": true,
              "muteRemoteAction": true
            }
          ]
        },
        "WinterCamp_DenyShield_Attack": {
          "modifierName": "",
          "duration": 1.0,
          "bonusCriticalHurt": 100.0,
          "onAdded": [
            {
              "$type": "SetGlobalValue",
              "ratio": 1.0,
              "key": "WinterCamp_Deny_Hit",
              "maxValue": 0.0,
              "minValue": 0.0
            }
          ],
          "onRemoved": [
            {
              "$type": "SetGlobalValue",
              "ratio": 0.0,
              "key": "WinterCamp_Deny_Hit",
              "maxValue": 0.0,
              "minValue": 0.0
            }
          ]
        },
        "WinterCamp_Shield_Avator": {
          "modifierName": "",
          "bonusCriticalHurt": 100.0,
          "thinkInterval": 0.10000000149011612,
          "onAdded": [
            {
              "$type": "AttachEffect",
              "RotationDampTime": true,
              "healLimitedByCasterMaxHPRatio": "Eff_SceneObj_ShieldPower_01_Buff",
              "effectTempleteID": -1.0
            }
          ],
          "onThinkInterval": [
            {
              "$type": "Predicated",
              "otherTargets": {
                "$type": "SelectTargetsByShape",
                "shapeName": "CircleR2H8",
                "campTargetType": "Enemy",
                "OBHNBNDMPFN": 1.0
              },
              "targetPredicates": [
                {
                  "$type": "ByEntityTypes",
                  "entityTypes": ["Monster"]
                },
                {
                  "$type": "ByTargetGlobalValue",
                  "key": "WinterCamp_Deny_Hit",
                  "ratio": 0.0,
                  "compareType": "NoneOrEqual"
                }
              ],
              "failActions": [
                {
                  "$type": "Predicated",
                  "target": "Other",
                  "targetPredicates": [
                    {
                      "$type": "ByTargetGlobalValue",
                      "key": "_IS_PARKOUR_BREAKABLE",
                      "ratio": 1.0
                    }
                  ],
                  "successActions": [
                    {
                      "$type": "DamageByAttackValue",
                      "target": "Other",
                      "attackInfo": {
                        "attackTag": "WinterCamp_ShieldAttack",
                        "attenuationTag": "",
                        "attenuationGroup": "default",
                        "attackProperty": {
                          "damagePercentage": 0.0,
                          "damagePercentageRatio": 0.0,
                          "bonusCriticalHurt": 0.0,
                          "strikeType": "Default",
                          "enBreak": 800.0,
                          "ignoreLevelDiff": true
                        },
                        "hitPattern": {
                          "onHitEffectName": "none",
                          "hitImpulseType": "LV0",
                          "hitHaltTimeScale": 0.009999999776482582,
                          "muteHitText": true
                        }
                      }
                    }
                  ]
                }
              ]
            }
          ]
        }
      },
      "onAdded": [
        {
          "$type": "SetGlobalValue",
          "ratio": 0.0,
          "key": "WinterCamp_RocketJump",
          "maxValue": 0.0,
          "minValue": 0.0
        },
        {
          "$type": "SetGlobalValue",
          "ratio": 0.0,
          "key": "WinterCamp_Shield",
          "maxValue": 0.0,
          "minValue": 0.0
        },
        {
          "$type": "SetGlobalValue",
          "ratio": 0.0,
          "key": "WinterCamp_Stamina",
          "maxValue": 0.0,
          "minValue": 0.0
        },
        {
          "$type": "ApplyModifier",
          "modifierName": "UNIQUE_WinterCamp_CameraFixDelay"
        }
      ],
      "onRemoved": [
        {
          "$type": "RemoveModifier",
          "modifierName": "UNIQUE_WinterCamp_CameraFix"
        }
      ]
    }
  },
  {
    "Default": {
      "$type": "ConfigAbility",
      "abilityName": "Activity_WinterCamp_BattleCampTeam",
      "abilityMixins": [
        {
          "$type": "AttachModifierToSelfGlobalValueMixin",
          "globalValueKey": "SGV_WinterCamp_PlayerBuff",
          "defaultGlobalValueOnCreate": 0.0,
          "valueSteps": [0.5, 1.5],
          "modifierNameSteps": ["UNIQUE_ActivityAbility_WinterCamp_BattleCamp"]
        }
      ],
      "abilitySpecials": {
        "ReviveEnergy": 2.5,
        "DamagePercentage": 23.5,
        "LevelEntity_AvatarDot_SystemValue": 1.0
      },
      "modifiers": {
        "UNIQUE_ActivityAbility_WinterCamp_BattleCamp": {
          "stacking": "Unique",
          "modifierName": "",
          "isUnique": true,
          "bonusCriticalHurt": 100.0,
          "modifierMixins": [
            {
              "$type": "CurLocalAvatarMixinV2",
              "modifierName": "ActivityAbility_WinterCamp_AvatarBuff_Explode"
            },
            {
              "$type": "CurLocalAvatarMixinV2",
              "modifierName": "ActivityAbility_WinterCamp_AvatarBuff_Energy"
            }
          ]
        },
        "ActivityAbility_WinterCamp_AvatarBuff_Energy": {
          "modifierName": "",
          "bonusCriticalHurt": 100.0,
          "thinkInterval": 1.0,
          "onThinkInterval": [
            {
              "$type": "ReviveElemEnergy",
              "RotationDampTime": true,
              "ratio": "ReviveEnergy"
            }
          ]
        },
        "ActivityAbility_WinterCamp_Monster_SendPos": {
          "modifierName": "",
          "bonusCriticalHurt": 100.0,
          "onAdded": [
            {
              "$type": "Predicated",
              "target": "Other",
              "otherTargets": {
                "$type": "SelectTargetsByShape",
                "shapeName": "CircleR40",
                "campTargetType": "AllExceptSelf",
                "OBHNBNDMPFN": 1.0
              },
              "predicates": [
                {
                  "$type": "ByTargetGlobalValue",
                  "key": "IS_MAIN_DEVICE",
                  "ratio": 1.0
                }
              ],
              "successActions": [
                {
                  "$type": "SetGlobalPos",
                  "target": "Other",
                  "key": "_Ability_WinterCamp_AoePos_Final",
                  "born": {
                    "$type": "ConfigBornBySelf",
                    "offset": {
                      "x": 0.0,
                      "y": 0.0,
                      "z": 0.0
                    },
                    "DAPKLNIFPID": true
                  }
                },
                {
                  "$type": "TriggerAbility",
                  "target": "Other",
                  "abilityName": "LjxsCampMainDevice_01_Explode",
                  "abilitySpecials": {
                    "LevelEntity_AvatarDot_SystemValue": "LevelEntity_AvatarDot_SystemValue"
                  }
                },
                {
                  "$type": "RemoveModifier",
                  "modifierName": "ActivityAbility_WinterCamp_Monster_SendPos"
                }
              ]
            }
          ]
        },
        "ActivityAbility_WinterCamp_AvatarBuff_Explode": {
          "modifierName": "",
          "bonusCriticalHurt": 100.0,
          "onAdded": [
            {
              "$type": "SetSystemValueToOverrideMap",
              "key": "LevelEntity_AvatarDot_SystemValue",
              "type": "ElementLevelCo"
            }
          ],
          "onAttackLanded": [
            {
              "$type": "Predicated",
              "target": "Other",
              "targetPredicates": [
                {
                  "$type": "ByAny",
                  "predicates": [
                    {
                      "$type": "ByTargetGlobalValue",
                      "target": "CurLocalAvatar",
                      "key": "HAS_BLOOD_BUFF_MARK",
                      "ratio": 1.0
                    },
                    {
                      "$type": "ByTargetGlobalValue",
                      "target": "CurLocalAvatar",
                      "key": "HAS_BLOOD_BUFF_MARK_NORMAL",
                      "ratio": 1.0
                    }
                  ]
                },
                {
                  "$type": "ByTargetGlobalValue",
                  "target": "Team",
                  "key": "Can_Trigger_Aoe",
                  "ratio": 1.0
                },
                {
                  "$type": "ByEntityTypes",
                  "entityTypes": ["Monster"]
                },
                {
                  "$type": "LCCMCDGDKGI",
                  "attackTags": [
                    "NormalAttack_01",
                    "NormalAttack_02",
                    "NormalAttack_03",
                    "NormalAttack_04",
                    "NormalAttack_05",
                    "NormalAttack_06",
                    "ExtraAttack",
                    "FallingAttack",
                    "Elemental_Art",
                    "Elemental_Art_Hold",
                    "Elemental_Art_Extra",
                    "Elemental_Burst"
                  ]
                }
              ],
              "successActions": [
                {
                  "$type": "ApplyModifier",
                  "target": "Other",
                  "modifierName": "ActivityAbility_WinterCamp_Monster_SendPos"
                },
                {
                  "$type": "SetGlobalValue",
                  "target": "Team",
                  "ratio": 0.0,
                  "key": "Can_Trigger_Aoe",
                  "maxValue": 0.0,
                  "minValue": 0.0
                }
              ]
            }
          ],
          "isLimitedProperties": true
        }
      },
      "onAdded": [
        {
          "$type": "SetGlobalValue",
          "target": "Team",
          "ratio": 0.0,
          "key": "_ActivityAbility_WinterCamp_BattleCamp_CD",
          "maxValue": 0.0,
          "minValue": 0.0
        }
      ],
      "isDynamicAbility": true
    }
  },
  {
    "Default": {
      "$type": "ConfigAbility",
      "abilityName": "Activity_WinterCamp_BattleCampAvatar",
      "abilityMixins": [
        {
          "$type": "AttachModifierToSelfGlobalValueMixin",
          "globalValueKey": "HAS_BLOOD_BUFF_MARK_NORMAL",
          "defaultGlobalValueOnCreate": 0.0,
          "valueSteps": [-0.5, 0.5, 1.5],
          "modifierNameSteps": ["MuteTriggerAoe", "CanTriggerAoe"]
        }
      ],
      "modifiers": {
        "MuteTriggerAoe": {
          "modifierName": "",
          "bonusCriticalHurt": 100.0
        },
        "CanTriggerAoe": {
          "modifierName": "",
          "bonusCriticalHurt": 100.0,
          "onAdded": [
            {
              "$type": "SetGlobalValue",
              "target": "Team",
              "ratio": 1.0,
              "key": "Can_Trigger_Aoe",
              "maxValue": 0.0,
              "minValue": 0.0
            }
          ]
        }
      },
      "isDynamicAbility": true
    }
  },
  {
    "Default": {
      "$type": "ConfigAbility",
      "abilityName": "ActivityAbility_WinterCampMimik_WatcherHandler_BrokenFruitKick",
      "isDynamicAbility": true
    }
  },
  {
    "Default": {
      "$type": "ConfigAbility",
      "abilityName": "ActivityAbility_WinterCampMimik_WatcherHandler_EnergyChitInteract",
      "isDynamicAbility": true
    }
  }
]
