{
  "common": {
    "effectAttachShape": {
      "$type": "ConfigEffectAttachSkinnedMesh",
      "mesh": "EffectMesh"
    },
    "mass": 20.0,
    "height": 2.4000000953674316,
    "modelHeight": 2.4000000953674316,
    "affectedByWorld": true,
    "checkInSurface": true,
    "scale": 1.2999999523162842,
    "useGrassDisplacement": true,
    "clearAnimatorOnSetLightDeactive": true,
    "clearAIOnSetLightDeactive": true,
    "KJCBJDCKPND": true,
    "NCCLLKFLJGL": true
  },
  "dither": {
    "showDitherDuration": 2.0
  },
  "globalValue": {
    "serverGlobalValues": [
      "SGV_Apep_Underling_AttackMode",
      "SGV_Apep_Underling_Underground"
    ],
    "initServerGlobalValues": {
      "SGV_Apep_Underling_AttackMode": 2.0,
      "SGV_Apep_Underling_Underground": 0.0
    }
  },
  "combat": {
    "property": {
      "endureType": "Monster_Minion",
      "weight": 75.0
    },
    "beHit": {
      "hitBloodEffect": ""
    },
    "combatLock": {
      "lockShape": "CircleLockEnemy",
      "lockType": "Avatar&Monster_Lv4"
    },
    "die": {
      "dieForceDisappearTime": 0.0,
      "dieDisappearEffect": "Eff_Monster_Apep_Underling_SeedOfKarna_Die",
      "OCGODEHJPME": true,
      "MFJBKFECLNJ": true,
      "IMEEBMBJPGJ": true,
      "ICHFPLMNCLC": true,
      "MBHMAGEPJFH": true,
      "CFHPDHFKMEP": true
    },
    "animEvents": {
      "MeleeAttack": {
        "attackPattern": {
          "$type": "MHDMMPENLGB",
          "triggerType": "TriggerNoRepeat",
          "born": {
            "$type": "ConfigBornBySelf",
            "offset": {
              "x": 0.0,
              "y": 0.0,
              "z": 0.699999988079071
            }
          },
          "radius": 1.5
        },
        "attackInfo": {
          "attackTag": "Apep_UnderlingAttack_Type1",
          "attenuationTag": "",
          "attenuationGroup": "default",
          "attackProperty": {
            "damagePercentage": 0.6000000238418579,
            "MKLAMNDEDGB": 0.0,
            "bonusCriticalHurt": 100.0,
            "strikeType": "Slash",
            "enBreak": 100.0,
            "attackType": "Melee"
          },
          "hitPattern": {
            "onHitEffectName": "default",
            "hitImpulseType": "LV4"
          },
          "forceCameraShake": true,
          "cameraShake": {
            "shakeType": "CustomVector",
            "shakeRange": 0.03999999910593033,
            "shakeTime": 0.09000000357627869,
            "shakeDir": {
              "x": 1.0,
              "z": 1.0
            }
          }
        }
      },
      "MeleeAttack_Enhanced": {
        "attackPattern": {
          "$type": "MHDMMPENLGB",
          "triggerType": "TriggerNoRepeat",
          "born": {
            "$type": "ConfigBornBySelf",
            "offset": {
              "x": 0.0,
              "y": 0.0,
              "z": 0.800000011920929
            }
          },
          "radius": 2.0
        },
        "attackInfo": {
          "attackTag": "Apep_UnderlingAttack_Type2",
          "attenuationTag": "",
          "attenuationGroup": "default",
          "attackProperty": {
            "damagePercentage": 1.0,
            "MKLAMNDEDGB": 0.0,
            "bonusCriticalHurt": 100.0,
            "strikeType": "Slash",
            "enBreak": 100.0,
            "attackType": "Melee"
          },
          "hitPattern": {
            "onHitEffectName": "default",
            "hitImpulseType": "LV4"
          },
          "forceCameraShake": true,
          "cameraShake": {
            "shakeType": "CustomVector",
            "shakeRange": 0.03999999910593033,
            "shakeTime": 0.09000000357627869,
            "shakeDir": {
              "x": 1.0,
              "z": 1.0
            }
          }
        }
      }
    }
  },
  "abilities": [
    {
      "abilityID": "",
      "abilityName": "Monster_Apep_Underling_Core_Halo",
      "abilityOverride": ""
    },
    {
      "abilityID": "",
      "abilityName": "Monster_Apep_Underling_Broadcast",
      "abilityOverride": ""
    },
    {
      "abilityID": "",
      "abilityName": "Monster_Apep_Underling_Summon_Underground",
      "abilityOverride": ""
    },
    {
      "abilityID": "",
      "abilityName": "Monster_Apep_Underling_SeedOfKarna_CommonState",
      "abilityOverride": ""
    },
    {
      "abilityID": "",
      "abilityName": "Monster_Apep_Underling_SeedOfKarna_SpecialState",
      "abilityOverride": ""
    },
    {
      "abilityID": "",
      "abilityName": "Monster_Apep_Underling_SeedOfKarna_RangeAttack",
      "abilityOverride": ""
    }
  ],
  "stateLayers": {
    "defaultLayer": {
      "$type": "ConfigNormalStateLayer",
      "FNPGDAEJAPJ": "",
      "stateIDs": {
        "Born": {
          "$type": "ConfigMonsterStateIDInfo",
          "animatorStates": {
            "Born": ["Audio_monster_Apep_Underling_SeedOfKarna_Born"],
            "Born_Underground": []
          },
          "canSyncMove": true,
          "resetAnimatorTriggerOnExit": ["DoSkill"]
        },
        "NormalIdle": {
          "$type": "ConfigMonsterStateIDInfo",
          "animatorStates": {
            "Standby": []
          },
          "canDoSkill": true,
          "canSyncMove": true,
          "resetAnimatorTriggerOnExit": ["DoSkill"]
        },
        "NormalMove": {
          "$type": "ConfigMonsterStateIDInfo",
          "animatorStates": {
            "Run": []
          },
          "canDoSkill": true,
          "canSyncMove": true,
          "resetAnimatorTriggerOnExit": ["DoSkill"],
          "BHEPAJIOBDN": true
        },
        "BeHit": {
          "$type": "ConfigMonsterStateIDInfo",
          "animatorStates": {
            "Hit_L": [],
            "Hit_H": ["Audio_monster_Apep_Underling_SeedOfKarna_hit_h"]
          },
          "resetAnimatorTriggerOnEnter": ["BeHit"],
          "resetAnimatorTriggerOnExit": ["DoSkill"]
        },
        "BeHitThrow": {
          "$type": "ConfigMonsterStateIDInfo",
          "animatorStates": {
            "HitThrow": [],
            "HitThrowDrop": [],
            "HitThrowToGround": [
              "Audio_monster_Apep_Underling_SeedOfKarna_hitThrowToGround"
            ]
          },
          "resetAnimatorTriggerOnEnter": ["BeHit", "HitAir2HitDrop"],
          "resetAnimatorTriggerOnExit": ["DoSkill"]
        },
        "Struggle": {
          "$type": "ConfigMonsterStateIDInfo",
          "animatorStates": {
            "Struggle": []
          },
          "resetAnimatorTriggerOnEnter": ["BeHit", "HitAir2HitDrop"],
          "resetAnimatorTriggerOnExit": ["DoSkill"]
        },
        "Die": {
          "$type": "ConfigMonsterStateIDInfo",
          "animatorStates": {
            "Die": []
          },
          "resetAnimatorTriggerOnEnter": ["DoSkill"]
        },
        "MeleeAttack": {
          "$type": "ConfigMonsterStateIDInfo",
          "animatorStates": {
            "MeleeAttack": [
              "Monster_Apep_Underling_SeedOfKarna_MeleeAttack",
              "Audio_monster_Apep_Underling_SeedOfKarna_meleeAttack"
            ]
          },
          "resetAnimatorTriggerOnExit": ["BeHit", "DoSkill"],
          "BHEPAJIOBDN": true
        },
        "RangeAttack_BS": {
          "$type": "ConfigMonsterStateIDInfo",
          "animatorStates": {
            "RangeAttack_BS1": [
              "Audio_monster_Apep_Underling_SeedOfKarna_rangeAttack_BS1"
            ],
            "RangeAttack_BS2": []
          },
          "resetAnimatorTriggerOnExit": ["BeHit", "DoSkill"],
          "BHEPAJIOBDN": true
        },
        "RangeAttack": {
          "$type": "ConfigMonsterStateIDInfo",
          "animatorStates": {
            "RangeAttack_Loop": [],
            "RangeAttack_Attack_BS": [],
            "RangeAttack_Attack1": [],
            "RangeAttack_Attack2": [
              "Monster_Apep_Underling_SeedOfKarna_RangeAttack_Attack"
            ],
            "RangeAttack_AS": [
              "Audio_monster_Apep_Underling_SeedOfKarna_rangeAttack_AS"
            ]
          },
          "resetAnimatorTriggerOnExit": ["BeHit", "DoSkill"]
        }
      }
    }
  },
  "billboard": {
    "$type": "NCBABGPMMPL",
    "EBBHBMFMOGD": "BillboardAttach",
    "offset": {
      "x": 0.03999999910593033
    },
    "BFOMIIKCOGI": "Character",
    "OELDMANLPDM": 0.10000000149011612,
    "ANGKJBLILKJ": true
  },
  "initialPoses": {
    "Default": {}
  },
  "aibeta": {
    "enable": true,
    "sensing": {
      "settings": {
        "DefaultSetting": {
          "viewRange": 40.0,
          "feelRange": 10.0
        }
      },
      "templates": {
        "DefaultTemplate": {
          "DefaultPoses": "DefaultSetting"
        }
      }
    },
    "neurons": {
      "DefaultSetting": ["HIT"],
      "NeverCombat": []
    },
    "threat": {
      "clearThreatByLostPath": true,
      "viewAttenuation": [
        {
          "x": 10.0,
          "y": 2.0
        },
        {
          "x": 15.0,
          "y": 0.800000011920929
        },
        {
          "x": 20.0,
          "y": 0.5
        },
        {
          "x": 25.0,
          "y": 0.30000001192092896
        },
        {
          "x": 30.0,
          "y": 0.20000000298023224
        }
      ],
      "resistTauntLevel": "Monster_TauntLevel_2"
    },
    "defendArea": {
      "defendRange": 50.0
    },
    "profiling": {
      "staticPoses": [301, 401]
    },
    "skillSetting": {},
    "skills": {
      "201": {
        "name": "MeleeAttack",
        "castCondition": {
          "pose": [101],
          "pickRangeMax": 3.4000000953674316
        },
        "cd": 5.0,
        "initialCD": 5.0,
        "publicCDGroup": "",
        "stateIDs": ["MeleeAttack"],
        "flagTargetReachable": "11",
        "flagSelfOnTemplateCollider": "01",
        "flagSelfInZone": "11",
        "flagTargetInZone": "11"
      },
      "211": {
        "name": "RangeAttack",
        "castCondition": {
          "pose": [102],
          "needReInitCD": true
        },
        "cd": 10.0,
        "initialCDUpperRange": 3.0,
        "publicCDGroup": "",
        "stateIDs": ["RangeAttack_BS", "RangeAttack"],
        "flagTargetReachable": "11",
        "flagSelfOnTemplateCollider": "01",
        "flagSelfInZone": "11",
        "flagTargetInZone": "11"
      }
    },
    "skillGCD": 5.0,
    "returnToBornTactic": {
      "enable": true,
      "defaultSetting": {}
    },
    "meleeChargeTactic": {
      "enable": true,
      "condition": {
        "pose": [101]
      },
      "defaultSetting": {
        "startDistanceMin": 3.4000000953674316,
        "startDistanceMax": 99.0,
        "stopDistance": 3.4000000953674316,
        "innerDistance": 0.0
      }
    }
  },
  "inputKeys": [
    {
      "keyID": 201,
      "inputKeyCode": 257,
      "abilityName": ""
    },
    {
      "keyID": 211,
      "inputKeyCode": 258,
      "abilityName": ""
    }
  ],
  "move": {
    "$type": "PLMNMICDOHN",
    "BCBPBHLKCPB": "ForwardBackward"
  },
  "audio": {
    "NCOGLLMIJGO": "",
    "animAudio": {
      "onTransitionIn": [
        {
          "currentStateName": "Run",
          "audioEvent": {
            "text": "Play_sfx_monster_Apep_Underling_SeedOfKarna_run_LP"
          },
          "otherStateNames": ["Run"],
          "usage": "Except"
        },
        {
          "currentStateName": "RangeAttack_Loop",
          "audioEvent": {
            "text": "Play_sfx_monster_Apep_Underling_SeedOfKarna_rangeAttack_02_LP"
          }
        },
        {
          "currentStateName": "RangeAttack_Attack2",
          "audioEvent": {
            "text": "Play_sfx_monster_Apep_Underling_SeedOfKarna_rangeAttack_02_LP"
          }
        }
      ],
      "onTransitionOut": [
        {
          "currentStateName": "Run",
          "audioEvent": {
            "text": "Stop_sfx_monster_Apep_Underling_SeedOfKarna_run_LP"
          },
          "otherStateNames": ["Run"],
          "usage": "Except"
        },
        {
          "currentStateName": "RangeAttack_Loop",
          "audioEvent": {
            "text": "Stop_sfx_monster_Apep_Underling_SeedOfKarna_rangeAttack_02_LP"
          },
          "otherStateNames": ["RangeAttack_Loop"]
        },
        {
          "currentStateName": "RangeAttack_Attack2",
          "audioEvent": {
            "text": "Stop_sfx_monster_Apep_Underling_SeedOfKarna_rangeAttack_02_LP"
          }
        }
      ]
    }
  }
}
