{
  "common": {
    "effectAttachShape": {
      "$type": "ConfigEffectAttachSkinnedMesh",
      "mesh": "EffectMesh"
    },
    "mass": 10000.0,
    "height": 1.7999999523162842,
    "modelHeight": 2.700000047683716,
    "viewSize": 1.600000023841858,
    "affectedByWorld": true,
    "checkInSurface": true,
    "scale": 0.8999999761581421,
    "shouldPauseAnimatorBeforeReady": true,
    "useGrassDisplacement": true,
    "hasAfterImage": true,
    "clearAnimatorOnSetLightDeactive": true,
    "clearAIOnSetLightDeactive": true
  },
  "headControl": {
    "$type": "GAAIKCFIJMM",
    "useHeadControl": true,
    "KBBNEKBLPFA": 20.0,
    "FJOGFHEFPHN": 5.0,
    "FCDMCPDGFCL": [
      "NormalIdle/Standby",
      "NormalMove/WalkForward",
      "NormalMove/WalkBack",
      "NormalMove/WalkRight",
      "NormalMove/WalkLeft",
      "TurnLeft/TurnLeft",
      "TurnRight/TurnRight"
    ]
  },
  "model": {
    "bornEffect": "Eff_Monster_Common_Born",
    "attachEffect": ""
  },
  "dither": {
    "showDitherDuration": 2.0
  },
  "combat": {
    "property": {
      "endureType": "Monster_Grunt_Humanoid",
      "weight": 110.0
    },
    "beHit": {
      "hitBloodEffect": ""
    },
    "combatLock": {
      "lockShape": "CircleLockEnemy",
      "lockType": "Avatar&Monster_Lv4"
    },
    "die": {
      "hasAnimatorDie": true,
      "dieEndTime": 2.5,
      "dieForceDisappearTime": 3.0,
      "dieDisappearEffect": "Eff_Death_Avatar_Common",
      "dieShaderData": "AvatarDie",
      "OCGODEHJPME": true,
      "MFJBKFECLNJ": true,
      "IMEEBMBJPGJ": true,
      "MBHMAGEPJFH": true,
      "CFHPDHFKMEP": true
    },
    "animEvents": {
      "MeleeAtk1": {
        "attackPattern": {
          "$type": "NAMPOMPBMHC",
          "triggerType": "TriggerNoRepeat",
          "JGCLJPCGHMC": true,
          "born": {
            "$type": "ConfigBornBySelf",
            "offset": {
              "x": 0.0,
              "y": 1.5,
              "z": 0.0
            }
          },
          "size": {
            "x": 2.0,
            "y": 2.5,
            "z": 2.5
          }
        },
        "attackInfo": {
          "attackTag": "",
          "attenuationTag": "",
          "attenuationGroup": "default",
          "attackProperty": {
            "damagePercentage": 1.0,
            "MKLAMNDEDGB": 0.0,
            "bonusCriticalHurt": 100.0,
            "strikeType": "Slash",
            "enBreak": 50.0,
            "attackType": "Melee"
          },
          "hitPattern": {
            "onHitEffectName": "default",
            "hitImpulseType": "LV2",
            "canBeDefenceHalt": true
          }
        }
      },
      "MeleeAtk2": {
        "attackPattern": {
          "$type": "NAMPOMPBMHC",
          "triggerType": "TriggerNoRepeat",
          "JGCLJPCGHMC": true,
          "born": {
            "$type": "ConfigBornBySelf",
            "offset": {
              "x": 0.0,
              "y": 1.5,
              "z": 0.0
            }
          },
          "size": {
            "x": 2.0,
            "y": 2.5,
            "z": 2.5
          }
        },
        "attackInfo": {
          "attackTag": "",
          "attenuationTag": "",
          "attenuationGroup": "default",
          "attackProperty": {
            "damagePercentage": 1.0,
            "MKLAMNDEDGB": 0.0,
            "bonusCriticalHurt": 100.0,
            "strikeType": "Slash",
            "enBreak": 50.0,
            "attackType": "Melee"
          },
          "hitPattern": {
            "onHitEffectName": "default",
            "hitImpulseType": "LV3",
            "canBeDefenceHalt": true
          }
        }
      },
      "RushAtk": {
        "attackPattern": {
          "$type": "NAMPOMPBMHC",
          "triggerType": "TriggerNoRepeat",
          "JGCLJPCGHMC": true,
          "born": {
            "$type": "ConfigBornBySelf",
            "offset": {
              "x": 0.0,
              "y": 1.5,
              "z": -3.0
            }
          },
          "size": {
            "x": 2.0,
            "y": 2.5,
            "z": 12.0
          }
        },
        "attackInfo": {
          "attackTag": "",
          "attenuationTag": "",
          "attenuationGroup": "Regisvine_Common",
          "attackProperty": {
            "damagePercentage": 1.5,
            "MKLAMNDEDGB": 0.0,
            "bonusCriticalHurt": 100.0,
            "strikeType": "Slash",
            "enBreak": 100.0,
            "attackType": "Melee"
          },
          "hitPattern": {
            "onHitEffectName": "default",
            "hitImpulseType": "LV4",
            "retreatType": "ByHitDirection",
            "canBeDefenceHalt": true
          }
        }
      },
      "ChargeAttack": {
        "attackPattern": {
          "$type": "NAMPOMPBMHC",
          "triggerType": "TriggerNoRepeat",
          "JGCLJPCGHMC": true,
          "born": {
            "$type": "ConfigBornBySelf",
            "offset": {
              "x": 0.0,
              "y": 1.5,
              "z": -0.5
            }
          },
          "size": {
            "x": 4.0,
            "y": 3.0,
            "z": 4.0
          }
        },
        "attackInfo": {
          "attackTag": "",
          "attenuationTag": "",
          "attenuationGroup": "default",
          "attackProperty": {
            "damagePercentage": 1.0625,
            "MKLAMNDEDGB": 0.0,
            "bonusCriticalHurt": 50.0,
            "strikeType": "Slash",
            "enBreak": 100.0,
            "attackType": "Melee"
          },
          "hitPattern": {
            "onHitEffectName": "default",
            "hitImpulseType": "LV3",
            "retreatType": "ByHitDirection",
            "canBeDefenceHalt": true
          }
        }
      },
      "PowerAtk1_1": {
        "attackPattern": {
          "$type": "NAMPOMPBMHC",
          "triggerType": "TriggerNoRepeat",
          "JGCLJPCGHMC": true,
          "born": {
            "$type": "ConfigBornBySelf",
            "offset": {
              "x": 0.0,
              "y": 1.25,
              "z": 0.0
            }
          },
          "size": {
            "x": 1.2000000476837158,
            "y": 2.5,
            "z": 2.5
          }
        },
        "attackInfo": {
          "attackTag": "",
          "attenuationTag": "",
          "attenuationGroup": "default",
          "attackProperty": {
            "damagePercentage": 0.5,
            "MKLAMNDEDGB": 0.0,
            "bonusCriticalHurt": 50.0,
            "strikeType": "Slash",
            "enBreak": 100.0,
            "attackType": "Melee"
          },
          "hitPattern": {
            "onHitEffectName": "default",
            "hitImpulseType": "LV3",
            "retreatType": "ByHitDirection",
            "canBeDefenceHalt": true
          }
        }
      },
      "PowerAtk1_2": {
        "attackPattern": {
          "$type": "NAMPOMPBMHC",
          "triggerType": "TriggerNoRepeat",
          "JGCLJPCGHMC": true,
          "born": {
            "$type": "ConfigBornBySelf",
            "offset": {
              "x": 0.0,
              "y": 1.25,
              "z": 0.0
            }
          },
          "size": {
            "x": 2.5,
            "y": 2.5,
            "z": 2.700000047683716
          }
        },
        "attackInfo": {
          "attackTag": "",
          "attenuationTag": "",
          "attenuationGroup": "default",
          "attackProperty": {
            "damagePercentage": 1.0,
            "MKLAMNDEDGB": 0.0,
            "bonusCriticalHurt": 50.0,
            "strikeType": "Slash",
            "enBreak": 100.0,
            "attackType": "Melee"
          },
          "hitPattern": {
            "onHitEffectName": "default",
            "hitImpulseType": "LV3",
            "retreatType": "ByHitDirection",
            "canBeDefenceHalt": true
          }
        }
      },
      "PowerAtk2": {
        "attackPattern": {
          "$type": "NAMPOMPBMHC",
          "triggerType": "TriggerNoRepeat",
          "JGCLJPCGHMC": true,
          "born": {
            "$type": "ConfigBornBySelf",
            "offset": {
              "x": 0.0,
              "y": 1.25,
              "z": 0.0
            }
          },
          "size": {
            "x": 2.5,
            "y": 2.5,
            "z": 2.5
          }
        },
        "attackInfo": {
          "attackTag": "",
          "attenuationTag": "",
          "attenuationGroup": "default",
          "attackProperty": {
            "damagePercentage": 0.75,
            "MKLAMNDEDGB": 0.0,
            "bonusCriticalHurt": 50.0,
            "strikeType": "Slash",
            "enBreak": 100.0,
            "attackType": "Melee"
          },
          "hitPattern": {
            "onHitEffectName": "default",
            "hitImpulseType": "LV3",
            "retreatType": "ByHitDirection",
            "canBeDefenceHalt": true
          }
        }
      },
      "BurstAttack": {
        "attackPattern": {
          "$type": "NAMPOMPBMHC",
          "triggerType": "TriggerNoRepeat",
          "JGCLJPCGHMC": true,
          "born": {
            "$type": "ConfigBornBySelf",
            "offset": {
              "x": 0.0,
              "y": 1.5,
              "z": -0.5
            }
          },
          "size": {
            "x": 2.0,
            "y": 2.5,
            "z": 3.0
          }
        },
        "attackInfo": {
          "attackTag": "",
          "attenuationTag": "",
          "attenuationGroup": "default",
          "attackProperty": {
            "damagePercentage": 1.875,
            "MKLAMNDEDGB": 0.0,
            "bonusCriticalHurt": 50.0,
            "strikeType": "Slash",
            "enBreak": 100.0,
            "attackType": "Melee"
          },
          "hitPattern": {
            "onHitEffectName": "default",
            "hitImpulseType": "LV5",
            "retreatType": "ByHitDirection",
            "canBeDefenceHalt": true
          }
        }
      }
    }
  },
  "equipController": {
    "sheathPoint": "",
    "attachPoints": {
      "equip01": "WeaponR",
      "equip02": "WeaponL"
    }
  },
  "abilities": [
    {
      "abilityID": "",
      "abilityName": "Monster_Samurai_Ronin_Alert",
      "abilityOverride": ""
    },
    {
      "abilityID": "",
      "abilityName": "Monster_Samurai_Ronin_01_Steer",
      "abilityOverride": ""
    },
    {
      "abilityID": "",
      "abilityName": "Monster_Samurai_Ronin_01_RushAttack",
      "abilityOverride": ""
    },
    {
      "abilityID": "",
      "abilityName": "Monster_Samurai_Ronin_ForceDodge",
      "abilityOverride": "",
      "KCBHAAMMIGC": true
    },
    {
      "abilityID": "",
      "abilityName": "Monster_Samurai_Ronin_OutOfBattle",
      "abilityOverride": "",
      "KCBHAAMMIGC": true
    },
    {
      "abilityID": "",
      "abilityName": "Monster_Samurai_Ronin_PowderAttack",
      "abilityOverride": "",
      "KCBHAAMMIGC": true
    },
    {
      "abilityID": "",
      "abilityName": "Monster_Samurai_Ronin_Shoot",
      "abilityOverride": ""
    },
    {
      "abilityID": "",
      "abilityName": "Monster_Samurai_EnsureVisible",
      "abilityOverride": "",
      "KCBHAAMMIGC": true
    },
    {
      "abilityID": "",
      "abilityName": "Monster_Samurai_Ronin_SevenBlade_Affix",
      "abilityOverride": "",
      "KCBHAAMMIGC": true
    }
  ],
  "stateLayers": {
    "defaultLayer": {
      "$type": "ConfigNormalStateLayer",
      "FNPGDAEJAPJ": "",
      "stateIDs": {
        "NormalIdle": {
          "$type": "ConfigMonsterStateIDInfo",
          "animatorStates": {
            "Standby": [],
            "Born": []
          },
          "canDoSkill": true,
          "canSyncMove": true,
          "resetAnimatorTriggerOnExit": ["DoSkill"]
        },
        "Practice": {
          "$type": "ConfigMonsterStateIDInfo",
          "animatorStates": {
            "Practice": []
          },
          "canDoSkill": true,
          "resetAnimatorTriggerOnExit": ["DoSkill"]
        },
        "Turn": {
          "$type": "ConfigMonsterStateIDInfo",
          "animatorStates": {
            "TurnLeft": [],
            "TurnRight": []
          },
          "canDoSkill": true,
          "canSyncMove": true,
          "resetAnimatorTriggerOnExit": ["DoSkill"]
        },
        "NormalMove": {
          "$type": "ConfigMonsterStateIDInfo",
          "animatorStates": {
            "WalkForward": ["Audio_Samurai_Ronin_Wlak"],
            "WalkBack": ["Audio_Samurai_Ronin_Wlak"],
            "WalkRight": ["Audio_Samurai_Ronin_Wlak"],
            "WalkLeft": ["Audio_Samurai_Ronin_Wlak"],
            "WalkFree": ["Audio_Samurai_Ronin_Wlak"]
          },
          "canDoSkill": true,
          "canSyncMove": true,
          "resetAnimatorTriggerOnExit": ["DoSkill"],
          "BHEPAJIOBDN": true
        },
        "BeHit": {
          "$type": "ConfigMonsterStateIDInfo",
          "animatorStates": {
            "Hit_L": ["Audio_Samurai_Ronin_Hit_L_VO"],
            "Hit_H": ["Audio_Samurai_Ronin_Hit_H_VO"]
          },
          "resetAnimatorTriggerOnEnter": ["BeHit"],
          "resetAnimatorTriggerOnExit": ["DoSkill"]
        },
        "Run": {
          "$type": "ConfigMonsterStateIDInfo",
          "animatorStates": {
            "Run": ["Monster_Samurai_Ronin_FootStep", "Audio_Samurai_Ronin_Run"]
          },
          "canDoSkill": true,
          "canSyncMove": true,
          "resetAnimatorTriggerOnExit": ["DoSkill"],
          "BHEPAJIOBDN": true
        },
        "RunFree": {
          "$type": "ConfigMonsterStateIDInfo",
          "animatorStates": {
            "RunFree": [
              "Monster_Samurai_Ronin_FootStep",
              "Audio_Samurai_Ronin_RunFree"
            ]
          },
          "canDoSkill": true,
          "canSyncMove": true,
          "resetAnimatorTriggerOnExit": ["DoSkill"],
          "BHEPAJIOBDN": true
        },
        "BeHitThrow": {
          "$type": "ConfigMonsterStateIDInfo",
          "animatorStates": {
            "HitThrow": [],
            "HitThrowDrop": [],
            "HitThrowToGround": ["Audio_Samurai_Ronin_HitThrowToGround"]
          },
          "resetAnimatorTriggerOnEnter": ["BeHit", "HitAir2HitDrop"],
          "resetAnimatorTriggerOnExit": ["DoSkill"]
        },
        "Struggle": {
          "$type": "ConfigMonsterStateIDInfo",
          "animatorStates": {
            "Struggle": []
          },
          "resetAnimatorTriggerOnEnter": ["BeHit", "HitAir2HitDrop"],
          "resetAnimatorTriggerOnExit": ["DoSkill"]
        },
        "Die": {
          "$type": "ConfigMonsterStateIDInfo",
          "animatorStates": {
            "Die": ["Monster_Samurai_Ronin_Die", "Audio_Samurai_Ronin_Die"],
            "SwimDie": [],
            "SwimDie_AS": []
          }
        },
        "Die_RagDoll": {
          "$type": "ConfigMonsterStateIDInfo",
          "animatorStates": {
            "AirDie": ["Monster_Skirmisher_Male_Strong_Gloves_Wind_Die"]
          },
          "HCCMMNBMCMA": true
        },
        "Alert": {
          "$type": "ConfigMonsterStateIDInfo",
          "animatorStates": {
            "Alert": [
              "Monster_Samurai_Ronin_Alert",
              "Audio_Samurai_Ronin_Alert"
            ]
          },
          "resetAnimatorTriggerOnExit": ["BeHit", "DoSkill"],
          "BHEPAJIOBDN": true
        },
        "MeleeAtk1": {
          "$type": "ConfigMonsterStateIDInfo",
          "animatorStates": {
            "MeleeAttack1": [
              "Monster_Samurai_Ronin_MeleeAttack01",
              "Audio_Samurai_Ronin_MeleeAtk1"
            ]
          },
          "resetAnimatorTriggerOnEnter": ["DoSkill"],
          "resetAnimatorTriggerOnExit": ["BeHit", "DoSkill"],
          "BHEPAJIOBDN": true
        },
        "MeleeAtk2": {
          "$type": "ConfigMonsterStateIDInfo",
          "animatorStates": {
            "MeleeAttack2": [
              "Monster_Samurai_Ronin_MeleeAttack02",
              "Audio_Samurai_Ronin_MeleeAtk2"
            ]
          },
          "resetAnimatorTriggerOnEnter": ["DoSkill"],
          "resetAnimatorTriggerOnExit": ["BeHit", "DoSkill"],
          "BHEPAJIOBDN": true
        },
        "RushAtk": {
          "$type": "ConfigMonsterStateIDInfo",
          "animatorStates": {
            "RushAtk": [
              "Monster_Samurai_Ronin_RushAtk",
              "Audio_Samurai_Ronin_DodgeAtk"
            ],
            "DodgeAttack": [
              "Monster_Samurai_Ronin_RushAtk",
              "Audio_Samurai_Ronin_DodgeAtk"
            ]
          },
          "BFDKJHMDDML": 0.0,
          "resetAnimatorTriggerOnExit": ["BeHit", "DoSkill"],
          "OHBBKPNFOFG": true,
          "BHEPAJIOBDN": true
        },
        "BurstAttack": {
          "$type": "ConfigMonsterStateIDInfo",
          "animatorStates": {
            "BurstAttack": ["Audio_Samurai_Ronin_BurstAtk"]
          },
          "resetAnimatorTriggerOnExit": ["BeHit", "DoSkill"],
          "BHEPAJIOBDN": true
        },
        "Shoot": {
          "$type": "ConfigMonsterStateIDInfo",
          "animatorStates": {
            "Shoot": [
              "Monster_Samurai_Ronin_Shoot",
              "Audio_Samurai_Ronin_Shoot"
            ]
          },
          "resetAnimatorTriggerOnExit": ["BeHit", "DoSkill"],
          "BHEPAJIOBDN": true
        },
        "ChargeAttack": {
          "$type": "ConfigMonsterStateIDInfo",
          "animatorStates": {
            "ChargeAttack": ["Audio_Samurai_Ronin_ChargeAtk"]
          },
          "BFDKJHMDDML": 0.0,
          "resetAnimatorTriggerOnExit": ["BeHit", "DoSkill"],
          "BHEPAJIOBDN": true
        },
        "PowerAtk1": {
          "$type": "ConfigMonsterStateIDInfo",
          "animatorStates": {
            "PowerAtk1": ["Audio_Samurai_Ronin_PowerAtk1"]
          },
          "resetAnimatorTriggerOnExit": ["BeHit", "DoSkill"],
          "BHEPAJIOBDN": true
        },
        "PowerAtk2": {
          "$type": "ConfigMonsterStateIDInfo",
          "animatorStates": {
            "PowerAtk2": ["Audio_Samurai_Ronin_PowerAtk2"]
          },
          "resetAnimatorTriggerOnExit": ["BeHit", "DoSkill"],
          "BHEPAJIOBDN": true
        },
        "PowderAttack": {
          "$type": "ConfigMonsterStateIDInfo",
          "animatorStates": {
            "PowderAttack": [
              "Monster_Samurai_Ronin_PowderAttack",
              "Audio_Samurai_Ronin_powderAtk"
            ]
          },
          "resetAnimatorTriggerOnExit": ["BeHit", "DoSkill"],
          "BHEPAJIOBDN": true
        },
        "Dodge": {
          "$type": "ConfigMonsterStateIDInfo",
          "animatorStates": {
            "Dodge": ["Audio_Samurai_Ronin_Dodge"],
            "ForceDodge": ["Audio_Samurai_Ronin_Dodge"]
          },
          "resetAnimatorTriggerOnExit": ["BeHit", "DoSkill"],
          "BHEPAJIOBDN": true
        },
        "Provoke": {
          "$type": "ConfigMonsterStateIDInfo",
          "animatorStates": {
            "Provoke": ["Audio_Samurai_Ronin_Provoke"]
          },
          "resetAnimatorTriggerOnExit": ["BeHit", "DoSkill"],
          "BHEPAJIOBDN": true
        },
        "OutOfBattle": {
          "$type": "ConfigMonsterStateIDInfo",
          "animatorStates": {
            "OutOfBattle": ["Audio_Samurai_Ronin_OutOfBattle"]
          },
          "resetAnimatorTriggerOnExit": ["BeHit", "DoSkill"]
        },
        "SitDrink": {
          "$type": "ConfigMonsterStateIDInfo",
          "animatorStates": {
            "SitDrink": []
          },
          "canDoSkill": true,
          "resetAnimatorTriggerOnExit": ["BeHit", "DoSkill"]
        },
        "SitSleep": {
          "$type": "ConfigMonsterStateIDInfo",
          "animatorStates": {
            "SitSleep": []
          },
          "canDoSkill": true,
          "resetAnimatorTriggerOnExit": ["BeHit", "DoSkill"]
        }
      }
    }
  },
  "billboard": {
    "$type": "NCBABGPMMPL",
    "EBBHBMFMOGD": "BillboardAttach",
    "BFOMIIKCOGI": "Character",
    "ANGKJBLILKJ": true,
    "HLGCEAGHFGH": 50.0
  },
  "initialPoses": {
    "Default": {
      "initialPoseID": 1
    },
    "Lie": {
      "initialPoseID": 1001,
      "initialPoseParams": {
        "boolParams": {
          "Lie": "true"
        }
      }
    },
    "Sit": {
      "initialPoseID": 1003,
      "initialPoseParams": {
        "boolParams": {
          "Sit": "true"
        }
      }
    },
    "SitDrink": {
      "initialPoseID": 1004,
      "initialPoseParams": {
        "boolParams": {
          "SitDrink": "true"
        }
      }
    },
    "SitSleep": {
      "initialPoseID": 1005,
      "initialPoseParams": {
        "boolParams": {
          "SitSleep": "true"
        }
      }
    },
    "Practice": {
      "initialPoseID": 1006,
      "initialPoseParams": {
        "boolParams": {
          "Practice": "true"
        }
      }
    }
  },
  "aibeta": {
    "enable": true,
    "sensing": {
      "settings": {
        "DefaultSetting": {
          "viewRange": 25.0,
          "feelRange": 10.0
        },
        "NeverCombat": {
          "enableVision": false,
          "hearAttractionRange": 0.0,
          "feelRange": 0.0
        },
        "LowAlert": {
          "viewRange": 5.0
        }
      },
      "templates": {
        "DefaultTemplate": {
          "DefaultPoses": "DefaultSetting",
          "1001": "DefaultSetting",
          "1003": "DefaultSetting",
          "1004": "LowAlert",
          "1005": "LowAlert",
          "1006": "DefaultSetting"
        },
        "NeverCombatTemplate": {
          "DefaultPoses": "NeverCombat"
        }
      }
    },
    "neurons": {
      "DefaultSetting": ["HIT"],
      "NeverCombat": []
    },
    "threat": {
      "clearThreatByLostPath": true,
      "clearThreatTimerByLostPath": 11.0,
      "viewAttenuation": [
        {
          "x": 10.0,
          "y": 2.0
        },
        {
          "x": 15.0,
          "y": 0.800000011920929
        },
        {
          "x": 20.0,
          "y": 0.5
        },
        {
          "x": 25.0,
          "y": 0.30000001192092896
        },
        {
          "x": 30.0,
          "y": 0.20000000298023224
        }
      ],
      "resistTauntLevel": "Monster_TauntLevel_2"
    },
    "defendArea": {
      "defendRange": 30.0
    },
    "skillGroupCDConfigs": [
      {
        "skillGroupCDID": 0,
        "skillGroupCDTime": 5.0
      },
      {
        "skillGroupCDID": 1,
        "skillGroupCDTime": 10.0
      },
      {
        "skillGroupCDID": 2,
        "skillGroupCDTime": 15.0
      }
    ],
    "skills": {
      "1": {
        "name": "OnAlert",
        "skillType": "OnAlert",
        "faceTarget": true,
        "publicCDGroup": "",
        "ignoreGCD": true,
        "triggerGCD": false,
        "stateIDs": ["Alert"],
        "skillQueryingTime": 3.0,
        "flagTargetReachable": "10",
        "flagSelfOnTemplateCollider": "01",
        "flagSelfInZone": "10",
        "flagTargetInZone": "11"
      },
      "2": {
        "name": "SitDrink",
        "skillType": "Free",
        "castCondition": {
          "pose": [1004]
        },
        "cd": 5.0,
        "cdUpperRange": 5.0,
        "initialCD": 1.0,
        "publicCDGroup": "",
        "stateIDs": ["SitDrink"],
        "flagTargetReachable": "10",
        "flagSelfOnTemplateCollider": "01",
        "flagSelfInZone": "10",
        "flagTargetInZone": "11"
      },
      "3": {
        "name": "SitSleep",
        "skillType": "Free",
        "castCondition": {
          "pose": [1005]
        },
        "cd": 5.0,
        "cdUpperRange": 5.0,
        "initialCD": 1.0,
        "publicCDGroup": "",
        "stateIDs": ["SitSleep"],
        "flagTargetReachable": "10",
        "flagSelfOnTemplateCollider": "01",
        "flagSelfInZone": "10",
        "flagTargetInZone": "11"
      },
      "101": {
        "name": "MeleeAtk1",
        "priority": 2,
        "castCondition": {
          "pose": [101],
          "maxTargetAngleXZ": 90.0,
          "pickRangeMax": 3.0
        },
        "cd": 2.0,
        "cdUpperRange": 5.0,
        "initialCD": 1.0,
        "initialCDUpperRange": 5.0,
        "publicCDGroup": "Samurai_Kairagi_PowerAttack",
        "stateIDs": ["MeleeAtk1"],
        "flagTargetReachable": "10",
        "flagSelfOnTemplateCollider": "01",
        "flagSelfInZone": "10",
        "flagTargetInZone": "11"
      },
      "201": {
        "name": "MeleeAtk2",
        "priority": 2,
        "castCondition": {
          "pose": [101],
          "maxTargetAngleXZ": 90.0,
          "pickRangeMax": 3.0
        },
        "cd": 2.0,
        "cdUpperRange": 5.0,
        "initialCD": 1.0,
        "initialCDUpperRange": 5.0,
        "publicCDGroup": "Samurai_Kairagi_PowerAttack",
        "stateIDs": ["MeleeAtk2"],
        "skillQueryingTime": 2.0,
        "flagTargetReachable": "11",
        "flagSelfOnTemplateCollider": "01",
        "flagSelfInZone": "11",
        "flagTargetInZone": "11"
      },
      "301": {
        "name": "RushAtk",
        "priority": 1,
        "castCondition": {
          "pose": [101],
          "maxTargetAngleXZ": 90.0,
          "pickRangeMin": 5.0,
          "pickRangeMax": 9.0
        },
        "cd": 5.0,
        "cdUpperRange": 5.0,
        "initialCD": 1.0,
        "initialCDUpperRange": 5.0,
        "publicCDGroup": "Samurai_Kairagi_PowerAttack",
        "ignoreGCD": true,
        "stateIDs": ["RushAtk"],
        "skillQueryingTime": 2.0,
        "flagTargetReachable": "10",
        "flagSelfOnTemplateCollider": "01",
        "flagSelfInZone": "11",
        "flagTargetInZone": "11"
      },
      "501": {
        "name": "Shoot",
        "priority": 2,
        "castCondition": {
          "pose": [101],
          "maxTargetAngleXZ": 90.0,
          "pickRangeMin": 10.0,
          "pickRangeMax": 20.0
        },
        "cd": 5.0,
        "cdUpperRange": 2.5,
        "initialCD": 1.0,
        "publicCDGroup": "",
        "stateIDs": ["Shoot"],
        "skillQueryingTime": 2.0,
        "flagTargetReachable": "11",
        "flagSelfOnTemplateCollider": "01",
        "flagSelfInZone": "11",
        "flagTargetInZone": "11"
      },
      "1002": {
        "name": "Provoke",
        "priority": 4,
        "castCondition": {
          "pose": [101],
          "maxTargetAngleXZ": 90.0,
          "pickRangeMin": 5.0,
          "pickRangeMax": 10.0
        },
        "cd": 20.0,
        "cdUpperRange": 5.0,
        "initialCD": 5.0,
        "initialCDUpperRange": 10.0,
        "publicCDGroup": "Samurai_Samurai_Provoke",
        "ignoreGCD": true,
        "triggerGCD": false,
        "stateIDs": ["Provoke"],
        "flagTargetReachable": "11",
        "flagSelfOnTemplateCollider": "01",
        "flagSelfInZone": "11",
        "flagTargetInZone": "11"
      }
    },
    "skillGCD": 3.0,
    "returnToBornTactic": {
      "enable": true,
      "defaultSetting": {
        "KLHLJGGBMEL": 5.0
      }
    },
    "wanderTactic": {
      "enable": true,
      "condition": {
        "pose": [1]
      },
      "defaultSetting": {
        "cdMax": 5.0,
        "cdMin": 2.5,
        "distanceFromBorn": 15.0,
        "distanceFromCurrentMin": 5.0,
        "distanceFromCurrentMax": 7.5
      }
    },
    "meleeChargeTactic": {
      "enable": true,
      "condition": {
        "pose": [101]
      },
      "defaultSetting": {
        "startDistanceMin": 10.0,
        "startDistanceMax": 99.0,
        "stopDistance": 5.0,
        "innerDistance": 0.0
      }
    },
    "facingMoveTactic": {
      "enable": true,
      "condition": {
        "pose": [101]
      },
      "defaultSetting": {
        "rangeMin": 0.0,
        "rangeMax": 5.0,
        "restTimeMin": 2.0,
        "restTimeMax": 3.0,
        "facingMoveTurnInterval": 1.0,
        "obstacleDetectRange": 1.0,
        "facingMoveWeight": {
          "stop": 0.0,
          "forward": 0.0,
          "back": 0.0
        },
        "PDOKGBAJNEP": "1111",
        "NGLJBMGMGKF": "1111"
      }
    }
  },
  "inputKeys": [
    {
      "keyID": 101,
      "inputKeyCode": 257,
      "abilityName": ""
    },
    {
      "keyID": 201,
      "inputKeyCode": 258,
      "abilityName": ""
    },
    {
      "keyID": 301,
      "inputKeyCode": 259,
      "abilityName": ""
    },
    {
      "keyID": 401,
      "inputKeyCode": 260,
      "abilityName": ""
    },
    {
      "keyID": 501,
      "inputKeyCode": 261,
      "abilityName": ""
    },
    {
      "keyID": 601,
      "inputKeyCode": 262,
      "abilityName": ""
    },
    {
      "keyID": 701,
      "inputKeyCode": 263,
      "abilityName": ""
    },
    {
      "keyID": 801,
      "inputKeyCode": 264,
      "abilityName": ""
    },
    {
      "keyID": 901,
      "inputKeyCode": 265,
      "abilityName": ""
    },
    {
      "keyID": 1002,
      "inputKeyCode": 266,
      "abilityName": ""
    },
    {
      "keyID": 1003,
      "inputKeyCode": 267,
      "abilityName": ""
    },
    {
      "keyID": 1004,
      "inputKeyCode": 268,
      "abilityName": ""
    },
    {
      "keyID": 1005,
      "inputKeyCode": 269,
      "abilityName": ""
    }
  ],
  "move": {
    "$type": "PLMNMICDOHN",
    "BCBPBHLKCPB": "FourDirection",
    "NGNIGPNNLAI": "NormalHumanoidType"
  },
  "audio": {
    "NCOGLLMIJGO": "",
    "animAudio": {
      "onTransitionIn": [
        {
          "currentStateName": "Weak_Loop",
          "audioEvent": {
            "text": "Play_sfx_monster_gloves_wind_weak_Loop"
          }
        },
        {
          "currentStateName": "Block_Loop",
          "audioEvent": {
            "text": "Play_sfx_monster_gloves_wind_block_Loop"
          }
        }
      ],
      "onTransitionOut": [
        {
          "currentStateName": "Weak_Loop",
          "audioEvent": {
            "text": "Stop_sfx_monster_gloves_wind_weak_Loop"
          }
        },
        {
          "currentStateName": "Block_Loop",
          "audioEvent": {
            "text": "Stop_sfx_monster_gloves_wind_block_Loop"
          }
        }
      ]
    },
    "disableEvent": {
      "text": ""
    },
    "destroyEvent": {
      "text": ""
    }
  }
}
