{
  "common": {
    "effectAttachShape": {
      "$type": "ConfigEffectAttachSkinnedMesh",
      "mesh": "EffectMesh"
    },
    "mass": 9999999.0,
    "height": 1.0,
    "viewSize": 1.5,
    "affectedByWorld": true,
    "checkInSurface": true,
    "scale": 1.5,
    "canTriggerElementReactionText": false,
    "useGrassDisplacement": true,
    "clearAnimatorOnSetLightDeactive": true,
    "clearAIOnSetLightDeactive": true
  },
  "model": {
    "bornEffect": "",
    "attachEffect": "",
    "canBakeMesh": false
  },
  "dither": {
    "showDitherDuration": 1.0
  },
  "combat": {
    "property": {
      "endureType": "Monster_Minion",
      "weight": 101.0,
      "isInvincible": true
    },
    "beHit": {
      "hitBloodEffect": "",
      "muteAllHit": true,
      "muteAllHitText": true
    },
    "combatLock": {
      "lockShape": "CircleLockEnemy",
      "lockType": "Animal_Lv2"
    },
    "die": {
      "dieEndTime": 1.7999999523162842,
      "dieForceDisappearTime": 2.0,
      "dieDisappearEffect": ""
    },
    "animEvents": {
      "QuakeAtk01": {
        "attackPattern": {
          "$type": "ConfigAttackCircle",
          "triggerType": "TriggerNoRepeat",
          "born": {
            "$type": "ConfigBornBySelf",
            "offset": {
              "x": 0.0,
              "y": -0.5,
              "z": 0.0
            }
          },
          "height": 1.0,
          "fanAngle": 180.0,
          "radius": 1.5
        },
        "attackInfo": {
          "attackTag": "Electrohercules_QuakeAttack",
          "attenuationTag": "",
          "attenuationGroup": "default",
          "attackProperty": {
            "damagePercentage": 0.0,
            "MKLAMNDEDGB": 0.0,
            "bonusCriticalHurt": 100.0,
            "strikeType": "Blunt",
            "enBreak": 0.0,
            "attackType": "Melee"
          }
        }
      },
      "QuakeAtk_EnterExtraState": {
        "attackPattern": {
          "$type": "ConfigAttackCircle",
          "triggerType": "TriggerNoRepeat",
          "born": {
            "$type": "ConfigBornBySelf",
            "offset": {
              "x": 0.0,
              "y": -0.5,
              "z": 0.0
            }
          },
          "height": 1.0,
          "fanAngle": 180.0,
          "radius": 1.5
        },
        "attackInfo": {
          "attackTag": "",
          "attenuationTag": "",
          "attenuationGroup": "default",
          "attackProperty": {
            "damagePercentage": 0.0,
            "MKLAMNDEDGB": 0.0,
            "bonusCriticalHurt": 100.0,
            "strikeType": "Blunt",
            "enBreak": 0.0,
            "attackType": "Melee"
          }
        }
      }
    }
  },
  "abilities": [
    {
      "abilityID": "",
      "abilityName": "Animal_Electrohercules_Properties_06",
      "abilityOverride": ""
    },
    {
      "abilityID": "",
      "abilityName": "Animal_Electrohercules_BattleStateHandler",
      "abilityOverride": ""
    },
    {
      "abilityID": "",
      "abilityName": "Animal_Electrohercules_PositionLogicHandler",
      "abilityOverride": ""
    },
    {
      "abilityID": "",
      "abilityName": "Animal_Electrohercules_06_ExtraStateHandler",
      "abilityOverride": ""
    },
    {
      "abilityID": "",
      "abilityName": "Animal_Electrohercules_PlayAlert",
      "abilityOverride": ""
    },
    {
      "abilityID": "",
      "abilityName": "Animal_Electrohercules_Enemy04_SkillManager",
      "abilityOverride": ""
    },
    {
      "abilityID": "",
      "abilityName": "Animal_Electrohercules_HeavyStateHandler",
      "abilityOverride": ""
    },
    {
      "abilityID": "",
      "abilityName": "Animal_Electrohercules_Enemy_RangedAttack01_ExLongRange",
      "abilityOverride": ""
    },
    {
      "abilityID": "",
      "abilityName": "Animal_Electrohercules_Enemy_RangedAttack01_LongRange",
      "abilityOverride": ""
    },
    {
      "abilityID": "",
      "abilityName": "Animal_Electrohercules_Enemy_RangedAttack01_MidRange",
      "abilityOverride": ""
    },
    {
      "abilityID": "",
      "abilityName": "Animal_Electrohercules_Enemy_RangedAttack01_Chasing",
      "abilityOverride": ""
    },
    {
      "abilityID": "",
      "abilityName": "Animal_Electrohercules_Enemy_CreateElectricBall_MidRange",
      "abilityOverride": ""
    },
    {
      "abilityID": "",
      "abilityName": "Animal_Electrohercules_Enemy_RangedAttack01_WavePattern01",
      "abilityOverride": ""
    },
    {
      "abilityID": "",
      "abilityName": "Animal_Electrohercules_Enemy_RangedAttack01_WavePattern02",
      "abilityOverride": ""
    },
    {
      "abilityID": "",
      "abilityName": "Animal_Electrohercules_Enemy_RangedAttack01_CloseRange",
      "abilityOverride": ""
    },
    {
      "abilityID": "",
      "abilityName": "Animal_Electrohercules_06_ChangeCameraTarget",
      "abilityOverride": ""
    },
    {
      "abilityID": "",
      "abilityName": "Animal_Electrohercules_TryBreakRangedAttack",
      "abilityOverride": ""
    }
  ],
  "stateLayers": {
    "defaultLayer": {
      "$type": "ConfigNormalStateLayer",
      "FNPGDAEJAPJ": "",
      "stateIDs": {
        "Born": {
          "$type": "ConfigMonsterStateIDInfo",
          "animatorStates": {
            "Born": []
          },
          "resetAnimatorTriggerOnExit": ["DoSkill"]
        },
        "NormalIdle": {
          "$type": "ConfigMonsterStateIDInfo",
          "animatorStates": {
            "Standby": []
          },
          "canDoSkill": true,
          "canSyncMove": true,
          "resetAnimatorTriggerOnEnter": ["IsCharging"],
          "resetAnimatorTriggerOnExit": ["DoSkill"]
        },
        "NormalMove": {
          "$type": "ConfigMonsterStateIDInfo",
          "animatorStates": {
            "WalkForward": [],
            "WalkBack": []
          },
          "canDoSkill": true,
          "resetAnimatorTriggerOnExit": ["DoSkill"]
        },
        "BeHit": {
          "$type": "ConfigMonsterStateIDInfo",
          "animatorStates": {
            "Hit_L": ["Audio_Animal_Electrohercules_01_Hit_L_Large"],
            "Hit_H": ["Audio_Animal_Electrohercules_01_Hit_H_Large"]
          },
          "resetAnimatorTriggerOnEnter": ["BeHit"],
          "resetAnimatorTriggerOnExit": ["DoSkill"]
        },
        "BeHitThrow": {
          "$type": "ConfigMonsterStateIDInfo",
          "animatorStates": {
            "HitThrow": [],
            "HitThrowDrop": [],
            "HitThrowToGround": []
          },
          "resetAnimatorTriggerOnEnter": ["BeHit", "HitAir2HitDrop"],
          "resetAnimatorTriggerOnExit": ["DoSkill"]
        },
        "Struggle": {
          "$type": "ConfigMonsterStateIDInfo",
          "animatorStates": {
            "Struggle": []
          },
          "resetAnimatorTriggerOnEnter": ["BeHit", "HitAir2HitDrop"],
          "resetAnimatorTriggerOnExit": ["DoSkill"]
        },
        "Die": {
          "$type": "ConfigMonsterStateIDInfo",
          "animatorStates": {
            "Die": ["Audio_Animal_Electrohercules_01_Die_Large"]
          }
        },
        "Warning": {
          "$type": "ConfigMonsterStateIDInfo",
          "animatorStates": {
            "Alert": ["Audio_Animal_Electrohercules_01_Alert_Large"]
          },
          "canSyncMove": true,
          "resetAnimatorTriggerOnExit": ["BeHit", "DoSkill"],
          "BHEPAJIOBDN": true
        },
        "MeleeAttack01_BS": {
          "$type": "ConfigMonsterStateIDInfo",
          "animatorStates": {
            "MeleeAttack01_BS": [
              "Animal_Electrohercules_01_JumpForward_Charging",
              "Animal_Electrohercules_04_MeleeAttack01_BS"
            ],
            "MeleeAttack01_BSLoop": []
          },
          "resetAnimatorTriggerOnExit": ["BeHit", "DoSkill"]
        },
        "MeleeAttack01": {
          "$type": "ConfigMonsterStateIDInfo",
          "animatorStates": {
            "MeleeAttack01": [
              "Animal_Electrohercules_01_JumpForward",
              "Audio_Animal_Electrohercules_01_JumpForward"
            ],
            "MeleeAttack01_AS": []
          },
          "resetAnimatorTriggerOnExit": ["BeHit", "DoSkill"]
        },
        "JumpBack": {
          "$type": "ConfigMonsterStateIDInfo",
          "animatorStates": {
            "JumpBack": ["Audio_Animal_Electrohercules_01_Jump"]
          },
          "resetAnimatorTriggerOnExit": ["BeHit", "DoSkill"]
        },
        "RangedAttack01": {
          "$type": "ConfigMonsterStateIDInfo",
          "animatorStates": {
            "RangedAttack01_BS": ["Animal_Electrohercules_05_RangedAttack01"],
            "RangedAttack01_Loop": [],
            "RangedAttack01_AS": []
          },
          "resetAnimatorTriggerOnExit": ["BeHit", "DoSkill"]
        },
        "RangedAttack_Wave01": {
          "$type": "ConfigMonsterStateIDInfo",
          "animatorStates": {
            "RangedAttack_Wave01_BS": [
              "Animal_Electrohercules_05_RangedAttack_Wave01"
            ],
            "RangedAttack_Wave01_Loop": [],
            "RangedAttack_Wave01_AS": []
          },
          "resetAnimatorTriggerOnExit": ["BeHit", "DoSkill"]
        },
        "RangedAttack_Wave02": {
          "$type": "ConfigMonsterStateIDInfo",
          "animatorStates": {
            "RangedAttack_Wave02_BS": [
              "Animal_Electrohercules_05_RangedAttack_Wave02"
            ],
            "RangedAttack_Wave02_Loop": [],
            "RangedAttack_Wave02_AS": []
          },
          "resetAnimatorTriggerOnExit": ["BeHit", "DoSkill"]
        },
        "CreateElectricBall01": {
          "$type": "ConfigMonsterStateIDInfo",
          "animatorStates": {
            "CreateElectricBall01_BS": [],
            "CreateElectricBall01_Loop": [],
            "CreateElectricBall01_AS": [
              "Animal_Electrohercules_05_CreateElectricBall01"
            ],
            "CreateElectricBall01_AS02": [],
            "CreateElectricBall01_AS03": [],
            "CreateElectricBall01_AS04": [
              "Animal_Electrohercules_06_CreateElectricBall_AS"
            ],
            "CreateElectricBall01_AS05": [],
            "CreateElectricBall01_AS06": []
          },
          "resetAnimatorTriggerOnExit": ["BeHit", "DoSkill"]
        },
        "QuakeAttack": {
          "$type": "ConfigMonsterStateIDInfo",
          "animatorStates": {
            "QuakeAttack02_BS": ["Animal_Electrohercules_04_QuakeAttack_Alert"],
            "QuakeAttack02_AS": ["Animal_Electrohercules_04_QuakeAttack"]
          },
          "resetAnimatorTriggerOnExit": ["BeHit", "DoSkill"]
        },
        "EnterHeavyState": {
          "$type": "ConfigMonsterStateIDInfo",
          "animatorStates": {
            "EnterHeavyState": [
              "Animal_Electrohercules_EnterHeavyState",
              "Audio_Animal_Electrohercules_01_HeavyState_Enter_Large"
            ]
          },
          "resetAnimatorTriggerOnExit": ["BeHit", "DoSkill"]
        },
        "EnterExtraState": {
          "$type": "ConfigMonsterStateIDInfo",
          "animatorStates": {
            "EnterExtraState": [
              "Animal_Electrohercules_EnterExtraState",
              "Audio_Animal_Electrohercules_01_HeavyState_Enter_Large"
            ]
          },
          "resetAnimatorTriggerOnExit": ["BeHit", "DoSkill"]
        },
        "Recoil": {
          "$type": "ConfigMonsterStateIDInfo",
          "animatorStates": {
            "Recoil": []
          },
          "resetAnimatorTriggerOnExit": ["BeHit", "DoSkill", "CriticalTrigger"]
        },
        "Taunt01": {
          "$type": "ConfigMonsterStateIDInfo",
          "animatorStates": {
            "Taunt01": ["Audio_Animal_Electrohercules_01_Alert_Large"]
          },
          "resetAnimatorTriggerOnExit": ["BeHit", "DoSkill"]
        },
        "Taunt02": {
          "$type": "ConfigMonsterStateIDInfo",
          "animatorStates": {
            "Taunt02": ["Audio_Animal_Electrohercules_01_Taunt_Large"]
          },
          "resetAnimatorTriggerOnExit": ["BeHit", "DoSkill"]
        }
      }
    }
  },
  "initialPoses": {
    "Default": {
      "initialPoseID": 1,
      "initialPoseParams": {
        "intParams": {
          "ActionState": "0"
        }
      }
    }
  },
  "aibeta": {
    "enable": true,
    "sensing": {
      "settings": {
        "DefaultSetting": {
          "viewRange": 25.0,
          "viewPanoramic": true,
          "feelRange": 25.0
        }
      }
    },
    "neurons": {
      "DefaultSetting": []
    },
    "threat": {
      "clearThreatTimerByDistance": 1.0,
      "threatDecreaseSpeed": 500.0
    },
    "defendArea": {
      "defendRange": 50.0
    },
    "ui": {
      "hasDirectionIndicator": false
    },
    "skillGroupCDConfigs": [
      {
        "skillGroupCDID": 1,
        "skillGroupCDTime": 9.0
      }
    ],
    "skillSetting": {
      "skillEliteSet": {
        "1": [1014, 1015],
        "2": [],
        "3": [1025]
      }
    },
    "skills": {
      "1011": {
        "name": "MeleeAttack01",
        "castCondition": {
          "pose": [101],
          "pickRangeMax": 2.799999952316284,
          "SkillAnchorRangeMax": 8.0
        },
        "cd": 5.0,
        "initialCD": 5.0,
        "publicCDGroup": "",
        "stateIDs": ["MeleeAttack01_BS", "MeleeAttack01"],
        "flagTargetReachable": "11",
        "flagSelfOnTemplateCollider": "01",
        "flagSelfInZone": "10",
        "flagTargetInZone": "11"
      },
      "1211": {
        "name": "MeleeAttack01",
        "castCondition": {
          "pose": [121],
          "pickRangeMax": 2.799999952316284,
          "SkillAnchorRangeMax": 3.0
        },
        "initialCD": 5.0,
        "publicCDGroup": "",
        "stateIDs": ["MeleeAttack01_BS", "MeleeAttack01"],
        "flagTargetReachable": "11",
        "flagSelfOnTemplateCollider": "01",
        "flagSelfInZone": "10",
        "flagTargetInZone": "11"
      },
      "1012": {
        "name": "RangedAttack01",
        "castCondition": {
          "pose": [101, 121],
          "pickRangeMin": 1.5,
          "pickRangeMax": 5.0
        },
        "cd": 10.0,
        "initialCD": 5.0,
        "publicCDGroup": "",
        "stateIDs": ["RangedAttack01"],
        "flagTargetReachable": "11",
        "flagSelfOnTemplateCollider": "01",
        "flagSelfInZone": "10",
        "flagTargetInZone": "11"
      },
      "1112": {
        "name": "RangedAttack01",
        "castCondition": {
          "pose": [111],
          "pickRangeMin": 1.5,
          "pickRangeMax": 5.0
        },
        "cd": 6.0,
        "publicCDGroup": "",
        "stateIDs": ["RangedAttack01"],
        "flagTargetReachable": "11",
        "flagSelfOnTemplateCollider": "01",
        "flagSelfInZone": "10",
        "flagTargetInZone": "11"
      },
      "1013": {
        "name": "QuakeAttack",
        "castCondition": {
          "pose": [101, 111, 121],
          "pickRangeMax": 1.5
        },
        "cd": 5.0,
        "initialCD": 5.0,
        "publicCDGroup": "",
        "stateIDs": ["QuakeAttack"],
        "flagTargetReachable": "11",
        "flagSelfOnTemplateCollider": "01",
        "flagSelfInZone": "10",
        "flagTargetInZone": "11"
      },
      "1014": {
        "name": "EnterHeavyState",
        "priority": 1,
        "castCondition": {
          "pose": [101, 111, 121, 102]
        },
        "initialCD": 5.0,
        "initialCDUpperRange": 2.0,
        "publicCDGroup": "",
        "stateIDs": ["EnterHeavyState"],
        "flagTargetReachable": "11",
        "flagSelfOnTemplateCollider": "01",
        "flagSelfInZone": "10",
        "flagTargetInZone": "11"
      },
      "1018": {
        "name": "Taunt01",
        "castCondition": {
          "pose": [101],
          "pickRangeMin": 2.0,
          "pickRangeMax": 99.0
        },
        "cd": 8.0,
        "initialCD": 5.0,
        "publicCDGroup": "",
        "ignoreGCD": true,
        "skillGroupCDID": 1,
        "stateIDs": ["Taunt01"],
        "flagTargetReachable": "11",
        "flagSelfOnTemplateCollider": "01",
        "flagSelfInZone": "10",
        "flagTargetInZone": "11"
      },
      "1021": {
        "name": "RangedAttack_Wave01",
        "castCondition": {
          "pose": [102],
          "needReInitCD": true,
          "pickRangeMin": 4.0,
          "pickRangeMax": 99.0
        },
        "cd": 10.0,
        "publicCDGroup": "",
        "ignoreGCD": true,
        "triggerCDOnStart": true,
        "stateIDs": ["RangedAttack_Wave01"],
        "flagTargetReachable": "11",
        "flagSelfOnTemplateCollider": "01",
        "flagSelfInZone": "10",
        "flagTargetInZone": "11"
      },
      "1023": {
        "name": "CreateBallCombo",
        "castCondition": {
          "pose": [102],
          "needReInitCD": true,
          "pickRangeMin": 2.0,
          "pickRangeMax": 4.0
        },
        "publicCDGroup": "",
        "ignoreGCD": true,
        "stateIDs": ["CreateElectricBall01"],
        "flagTargetReachable": "11",
        "flagSelfOnTemplateCollider": "01",
        "flagSelfInZone": "10",
        "flagTargetInZone": "11"
      },
      "1024": {
        "name": "QuakeAttack",
        "castCondition": {
          "pose": [102],
          "pickRangeMax": 2.0
        },
        "publicCDGroup": "",
        "stateIDs": ["QuakeAttack"],
        "flagTargetReachable": "11",
        "flagSelfOnTemplateCollider": "01",
        "flagSelfInZone": "10",
        "flagTargetInZone": "11"
      },
      "1025": {
        "name": "EnterExtraState",
        "priority": 1,
        "castCondition": {
          "pose": [102],
          "pickRangeMax": 99.0
        },
        "publicCDGroup": "",
        "ignoreGCD": true,
        "triggerGCD": false,
        "stateIDs": ["EnterExtraState"],
        "flagTargetReachable": "11",
        "flagSelfOnTemplateCollider": "01",
        "flagSelfInZone": "10",
        "flagTargetInZone": "11"
      }
    },
    "facingMoveTactic": {
      "enable": true,
      "condition": {
        "pose": [101, 111, 121]
      },
      "defaultSetting": {
        "rangeMin": 1.4500000476837158,
        "rangeMax": 1.850000023841858,
        "restTimeMin": 2.0,
        "restTimeMax": 4.0,
        "facingMoveTurnInterval": 3.0,
        "facingMoveWeight": {
          "stop": 0.0,
          "left": 0.0,
          "right": 0.0
        },
        "PBHGMADNDOC": false,
        "PDOKGBAJNEP": "1111",
        "NGLJBMGMGKF": "1111"
      },
      "specification": {
        "111": {
          "rangeMin": 1.4500000476837158,
          "rangeMax": 3.950000047683716,
          "restTimeMin": 2.0,
          "restTimeMax": 4.0,
          "facingMoveTurnInterval": 3.0,
          "facingMoveWeight": {
            "stop": 0.0,
            "left": 0.0,
            "right": 0.0
          },
          "PBHGMADNDOC": false,
          "PDOKGBAJNEP": "1111",
          "NGLJBMGMGKF": "1111"
        },
        "121": {
          "rangeMin": 0.949999988079071,
          "rangeMax": 1.25,
          "restTimeMin": 2.0,
          "restTimeMax": 4.0,
          "facingMoveTurnInterval": 0.5,
          "facingMoveWeight": {
            "stop": 0.0,
            "back": 0.0,
            "left": 0.0,
            "right": 0.0
          },
          "PBHGMADNDOC": false,
          "PDOKGBAJNEP": "1111",
          "NGLJBMGMGKF": "1111"
        }
      }
    }
  },
  "inputKeys": [
    {
      "keyID": 1,
      "inputKeyCode": 257,
      "abilityName": ""
    },
    {
      "keyID": 1023,
      "inputKeyCode": 258,
      "abilityName": ""
    },
    {
      "keyID": 1012,
      "inputKeyCode": 259,
      "abilityName": ""
    },
    {
      "keyID": 1013,
      "inputKeyCode": 260,
      "abilityName": ""
    },
    {
      "keyID": 1014,
      "inputKeyCode": 261,
      "abilityName": ""
    },
    {
      "keyID": 1021,
      "inputKeyCode": 262,
      "abilityName": ""
    },
    {
      "keyID": 1016,
      "inputKeyCode": 263,
      "abilityName": ""
    },
    {
      "keyID": 1017,
      "inputKeyCode": 264,
      "abilityName": ""
    },
    {
      "keyID": 1018,
      "inputKeyCode": 265,
      "abilityName": ""
    }
  ],
  "move": {
    "$type": "PLMNMICDOHN",
    "BCBPBHLKCPB": "ForwardBackward"
  },
  "audio": {
    "NCOGLLMIJGO": "",
    "animAudio": {
      "onTransitionIn": [
        {
          "currentStateName": "WalkBack",
          "audioEvent": {
            "text": "Play_sfx_animal_electrohercules_walk_Loop"
          }
        },
        {
          "currentStateName": "WalkForward",
          "audioEvent": {
            "text": "Play_sfx_animal_electrohercules_walk_Loop"
          }
        }
      ],
      "onTransitionOut": [
        {
          "currentStateName": "WalkBack",
          "audioEvent": {
            "text": "Stop_sfx_animal_electrohercules_walk_Loop"
          }
        },
        {
          "currentStateName": "WalkForward",
          "audioEvent": {
            "text": "Stop_sfx_animal_electrohercules_walk_Loop"
          }
        }
      ]
    }
  },
  "animal": {
    "tickAbilityElement": false
  }
}
