{
  "common": {
    "effectAttachShape": {
      "$type": "ConfigEffectAttachSkinnedMesh",
      "mesh": "EffectMesh"
    },
    "mass": 10000.0,
    "height": 2.700000047683716,
    "modelHeight": 2.700000047683716,
    "viewSize": 2.0,
    "affectedByWorld": true,
    "checkInSurface": true,
    "scale": 1.100000023841858,
    "useGrassDisplacement": true,
    "hasAfterImage": true,
    "clearAnimatorOnSetLightDeactive": true,
    "clearAIOnSetLightDeactive": true
  },
  "headControl": {
    "$type": "GAAIKCFIJMM",
    "useHeadControl": true,
    "KBBNEKBLPFA": 20.0,
    "FJOGFHEFPHN": 5.0,
    "FCDMCPDGFCL": [
      "NormalIdle/Standby",
      "NormalMove/WalkForward",
      "NormalMove/WalkBack",
      "NormalMove/WalkRight",
      "NormalMove/WalkLeft",
      "TurnLeft/TurnLeft",
      "TurnRight/TurnRight"
    ]
  },
  "dither": {
    "showDitherDuration": 2.0
  },
  "combat": {
    "property": {
      "endureType": "Monster_Demiboss_Humanoid",
      "weight": 120.0
    },
    "beHit": {
      "hitBloodEffect": ""
    },
    "combatLock": {
      "lockShape": "CircleLockEnemy",
      "lockType": "Avatar&Monster_Lv4"
    },
    "die": {
      "hasAnimatorDie": true,
      "dieEndTime": 2.0,
      "dieForceDisappearTime": 2.0,
      "dieDisappearEffect": "Eff_Death_Avatar_Common",
      "dieShaderData": "AvatarDie",
      "useRagDoll": true,
      "ragDollDieEndTimeDelay": 1.0,
      "OCGODEHJPME": true,
      "MFJBKFECLNJ": true,
      "IMEEBMBJPGJ": true,
      "ICHFPLMNCLC": true,
      "MBHMAGEPJFH": true,
      "CFHPDHFKMEP": true
    },
    "animEvents": {
      "MeleeAtk": {
        "attackPattern": {
          "$type": "NAMPOMPBMHC",
          "triggerType": "TriggerNoRepeat",
          "JGCLJPCGHMC": true,
          "born": {
            "$type": "ConfigBornBySelf",
            "offset": {
              "x": 0.0,
              "y": 1.5,
              "z": 1.0
            }
          },
          "size": {
            "x": 2.0,
            "y": 2.5,
            "z": 3.5
          }
        },
        "attackInfo": {
          "attackTag": "",
          "attenuationTag": "",
          "attenuationGroup": "default",
          "attackProperty": {
            "damagePercentage": 0.3330000042915344,
            "MKLAMNDEDGB": 0.0,
            "bonusCriticalHurt": 50.0,
            "strikeType": "Blunt",
            "enBreak": 100.0,
            "attackType": "Melee"
          },
          "hitPattern": {
            "onHitEffectName": "default",
            "hitImpulseType": "LV5",
            "canBeDefenceHalt": true
          }
        }
      },
      "PunchRushAttack": {
        "attackPattern": {
          "$type": "NAMPOMPBMHC",
          "triggerType": "TriggerNoRepeat",
          "JGCLJPCGHMC": true,
          "born": {
            "$type": "ConfigBornBySelf",
            "offset": {
              "x": 0.0,
              "y": 1.5,
              "z": -0.5
            }
          },
          "size": {
            "x": 2.0,
            "y": 2.5,
            "z": 4.0
          }
        },
        "attackInfo": {
          "attackTag": "",
          "attenuationTag": "",
          "attenuationGroup": "default",
          "attackProperty": {
            "damagePercentage": 0.3330000042915344,
            "MKLAMNDEDGB": 0.0,
            "bonusCriticalHurt": 50.0,
            "strikeType": "Blunt",
            "enBreak": 100.0,
            "attackType": "Melee"
          },
          "hitPattern": {
            "onHitEffectName": "default",
            "hitImpulseType": "LV5",
            "retreatType": "ByHitDirection",
            "canBeDefenceHalt": true
          }
        }
      }
    }
  },
  "equipController": {
    "sheathPoint": "",
    "attachPoints": {
      "equip01": "WeaponR",
      "equip02": "WeaponL"
    }
  },
  "abilities": [
    {
      "abilityID": "Rush",
      "abilityName": "Monster_Skirmisher_Male_Strong_Gloves_Wind_PunchRush",
      "abilityOverride": ""
    },
    {
      "abilityID": "Steer",
      "abilityName": "Monster_Skirmisher_Strong_Gloves_Wind_Steer",
      "abilityOverride": ""
    },
    {
      "abilityID": "PunchWind",
      "abilityName": "Monster_Skirmisher_Strong_Gloves_Wind_Punch_Drag",
      "abilityOverride": ""
    },
    {
      "abilityID": "Block_Punch_Damage",
      "abilityName": "Monster_Skirmisher_Male_Strong_Glove_Wind_PowerPunchDamage",
      "abilityOverride": ""
    },
    {
      "abilityID": "Block_Punch_Effect",
      "abilityName": "Monster_Skirmisher_Male_Strong_Glove_Wind_BlockAttackBS",
      "abilityOverride": ""
    },
    {
      "abilityID": "Block_Punch_AttackEffect",
      "abilityName": "Monster_Skirmisher_Male_Strong_Glove_Wind_BlockAttackEffect",
      "abilityOverride": ""
    },
    {
      "abilityID": "Block_During",
      "abilityName": "Monster_Skirmisher_Strong_Gloves_Wind_BlockDuring",
      "abilityOverride": ""
    },
    {
      "abilityID": "SecondWind",
      "abilityName": "Monster_Skirmisher_Strong_Gloves_Wind_SecondWind",
      "abilityOverride": ""
    },
    {
      "abilityID": "CheckAliance",
      "abilityName": "Monster_Skirmisher_Strong_Gloves_Wind_CheckAlliance",
      "abilityOverride": ""
    },
    {
      "abilityID": "IsReachTarget",
      "abilityName": "Monster_Skirmisher_Strong_Gloves_Wind_DistanceToTarget",
      "abilityOverride": ""
    },
    {
      "abilityID": "RushBuddyPrepareRun",
      "abilityName": "Monster_Skirmisher_Strong_Gloves_Wind_RushBuddyPrepare",
      "abilityOverride": ""
    },
    {
      "abilityID": "WindEyeEffect",
      "abilityName": "Monster_Skirmisher_Male_Strong_Gloves_Wind_EyeEffect",
      "abilityOverride": ""
    },
    {
      "abilityID": "StruggleHideWeapon",
      "abilityName": "Monster_Skirmisher_Strong_Gloves_Wind_StruggleHideWeapon",
      "abilityOverride": ""
    },
    {
      "abilityID": "WeaponSpecialEffect",
      "abilityName": "Monster_Skirmisher_Strong_Gloves_Wind_WeaponSpecialState",
      "abilityOverride": ""
    },
    {
      "abilityID": "PreCombatReset",
      "abilityName": "Monster_Skirmisher_Rifle_Fire_PreCombatRecover",
      "abilityOverride": ""
    },
    {
      "abilityID": "Monster_Skirmisher_Male_Strong_Gloves_Wind_FixedRush",
      "abilityName": "Monster_Skirmisher_Male_Strong_Gloves_Wind_FixedRush",
      "abilityOverride": ""
    }
  ],
  "stateLayers": {
    "defaultLayer": {
      "$type": "ConfigNormalStateLayer",
      "FNPGDAEJAPJ": "",
      "stateIDs": {
        "NormalIdle": {
          "$type": "ConfigMonsterStateIDInfo",
          "animatorStates": {
            "Standby": [],
            "Born": []
          },
          "canDoSkill": true,
          "canSyncMove": true,
          "resetAnimatorTriggerOnExit": ["DoSkill"]
        },
        "NormalMove": {
          "$type": "ConfigMonsterStateIDInfo",
          "animatorStates": {
            "WalkForward": ["Audio_Monster_Strong_Gloves_Wind_Walk_Footstep"],
            "WalkBack": ["Audio_Monster_Strong_Gloves_Wind_Walk_Footstep"],
            "WalkRight": ["Audio_Monster_Strong_Gloves_Wind_Walk_Footstep"],
            "WalkLeft": ["Audio_Monster_Strong_Gloves_Wind_Walk_Footstep"]
          },
          "canDoSkill": true,
          "canSyncMove": true,
          "resetAnimatorTriggerOnExit": ["DoSkill"],
          "BHEPAJIOBDN": true
        },
        "Turn": {
          "$type": "ConfigMonsterStateIDInfo",
          "animatorStates": {
            "TurnLeft": ["Audio_Monster_Strong_Gloves_Wind_Walk_Footstep"],
            "TurnRight": ["Audio_Monster_Strong_Gloves_Wind_Walk_Footstep"]
          },
          "canDoSkill": true,
          "canSyncMove": true,
          "resetAnimatorTriggerOnExit": ["DoSkill"],
          "BHEPAJIOBDN": true
        },
        "BeHit": {
          "$type": "ConfigMonsterStateIDInfo",
          "animatorStates": {
            "Hit_L": ["Audio_Monster_Strong_Gloves_Wind_Hit_L"],
            "Hit_H": ["Audio_Monster_Strong_Gloves_Wind_Hit_H"]
          },
          "resetAnimatorTriggerOnEnter": ["BeHit"],
          "resetAnimatorTriggerOnExit": ["DoSkill"]
        },
        "Run": {
          "$type": "ConfigMonsterStateIDInfo",
          "animatorStates": {
            "Run": ["Audio_Monster_Strong_Gloves_Wind_Walk_Footstep"]
          },
          "canDoSkill": true,
          "canSyncMove": true,
          "resetAnimatorTriggerOnExit": ["DoSkill"],
          "BHEPAJIOBDN": true
        },
        "BeHitThrow": {
          "$type": "ConfigMonsterStateIDInfo",
          "animatorStates": {
            "HitThrow": [],
            "HitThrowDrop": [],
            "HitThrowToGround": [
              "Audio_Monster_Strong_Gloves_Wind_HitThrowToGround"
            ]
          },
          "resetAnimatorTriggerOnEnter": ["BeHit", "HitAir2HitDrop"],
          "resetAnimatorTriggerOnExit": ["DoSkill"]
        },
        "Struggle": {
          "$type": "ConfigMonsterStateIDInfo",
          "animatorStates": {
            "Struggle": []
          },
          "resetAnimatorTriggerOnEnter": ["BeHit", "HitAir2HitDrop"],
          "resetAnimatorTriggerOnExit": ["DoSkill"]
        },
        "Die": {
          "$type": "ConfigMonsterStateIDInfo",
          "animatorStates": {
            "Die1": [
              "Monster_Skirmisher_Male_Strong_Gloves_Wind_Die",
              "Audio_Monster_Strong_Gloves_Wind_Die"
            ],
            "Die2": [
              "Monster_Skirmisher_Male_Strong_Gloves_Wind_Die",
              "Audio_Monster_Strong_Gloves_Wind_Die"
            ],
            "SwimDie": [],
            "SwimDie_AS": []
          }
        },
        "Die_RagDoll": {
          "$type": "ConfigMonsterStateIDInfo",
          "animatorStates": {
            "AirDie": []
          },
          "HCCMMNBMCMA": true
        },
        "Alert": {
          "$type": "ConfigMonsterStateIDInfo",
          "animatorStates": {
            "Alert": [
              "Monster_Skirmisher_Male_Strong_Gloves_Wind_Alert",
              "Audio_Monster_Strong_Gloves_Wind_Alert"
            ]
          },
          "resetAnimatorTriggerOnExit": ["BeHit", "DoSkill"],
          "BHEPAJIOBDN": true
        },
        "ShowWeapon": {
          "$type": "ConfigMonsterStateIDInfo",
          "animatorStates": {
            "ShowWeapon": [
              "Monster_Skirmisher_Male_Strong_Gloves_Wind_Alert",
              "Monster_Skirmisher_Male_Standard_PreCombat"
            ]
          },
          "resetAnimatorTriggerOnExit": ["BeHit", "DoSkill"],
          "BHEPAJIOBDN": true
        },
        "Improve": {
          "$type": "ConfigMonsterStateIDInfo",
          "animatorStates": {
            "Improve": ["Audio_Monster_Strong_Gloves_Wind_Improve"]
          },
          "BFDKJHMDDML": 0.0,
          "BDFLEJHPFBG": 20.0,
          "resetAnimatorTriggerOnExit": ["BeHit", "DoSkill"]
        },
        "DefendSheild_BS": {
          "$type": "ConfigMonsterStateIDInfo",
          "animatorStates": {
            "Block_BS": [
              "Monster_Skirmisher_Male_Strong_Gloves_Wind_BlockBS",
              "Audio_Monster_Strong_Gloves_Wind_Block_BS"
            ]
          },
          "BFDKJHMDDML": 0.0,
          "BDFLEJHPFBG": 20.0,
          "resetAnimatorTriggerOnEnter": ["ReachTarget", "NearTarget"],
          "resetAnimatorTriggerOnExit": ["BeHit", "DoSkill"],
          "BHEPAJIOBDN": true
        },
        "DefendSheild": {
          "$type": "ConfigMonsterStateIDInfo",
          "animatorStates": {
            "Block_Loop": []
          },
          "BFDKJHMDDML": 0.0,
          "BDFLEJHPFBG": 20.0,
          "resetAnimatorTriggerOnExit": ["BeHit", "DoSkill"],
          "BHEPAJIOBDN": true
        },
        "DefendShield_AS": {
          "$type": "ConfigMonsterStateIDInfo",
          "animatorStates": {
            "Block_AS": ["Audio_Monster_Strong_Gloves_Wind_Block_AS"]
          },
          "BFDKJHMDDML": 0.0,
          "BDFLEJHPFBG": 20.0,
          "resetAnimatorTriggerOnExit": ["BeHit", "DoSkill", "BlockIsOver"],
          "BHEPAJIOBDN": true
        },
        "Punch_BS": {
          "$type": "ConfigMonsterStateIDInfo",
          "animatorStates": {
            "Punch_BS": [
              "Monster_Skirmisher_Male_Strong_Gloves_Wind_PunchBS",
              "Audio_Monster_Strong_Gloves_Wind_Punch_BS"
            ],
            "PunchNPC_BS": [
              "Monster_Skirmisher_Male_Strong_Gloves_Wind_PunchBS",
              "Audio_Monster_Strong_Gloves_Wind_Punch_BS"
            ]
          },
          "BFDKJHMDDML": 0.0,
          "BDFLEJHPFBG": 20.0,
          "resetAnimatorTriggerOnExit": ["BeHit", "DoSkill"],
          "BHEPAJIOBDN": true
        },
        "Punch_AS": {
          "$type": "ConfigMonsterStateIDInfo",
          "animatorStates": {
            "Punch_AS": [
              "Monster_Skirmisher_Male_Strong_Gloves_Wind_Punch",
              "Audio_Monster_Strong_Gloves_Wind_Punch_AS"
            ],
            "PunchNPC_AS": [
              "Monster_Skirmisher_Male_Strong_Gloves_Wind_Punch",
              "Audio_Monster_Strong_Gloves_Wind_Punch_AS"
            ]
          },
          "BFDKJHMDDML": 0.0,
          "BDFLEJHPFBG": 20.0,
          "resetAnimatorTriggerOnExit": ["BeHit", "DoSkill", "ToAttackEnemy"],
          "BHEPAJIOBDN": true
        },
        "PunchPower": {
          "$type": "ConfigMonsterStateIDInfo",
          "animatorStates": {
            "WindPunch": [
              "Monster_Skirmisher_Male_Strong_Gloves_Wind_PowerPunch",
              "Audio_Monster_Strong_Gloves_Wind_Block_Punch"
            ],
            "Block_Punch": [
              "Monster_Skirmisher_Male_Strong_Gloves_Wind_BlockPunch",
              "Audio_Monster_Strong_Gloves_Wind_Block_Punch"
            ]
          },
          "BFDKJHMDDML": 0.0,
          "BDFLEJHPFBG": 20.0,
          "resetAnimatorTriggerOnExit": ["BeHit", "DoSkill", "BlockIsOver", "BeAttacked"],
          "BHEPAJIOBDN": true
        },
        "RunToBuddy": {
          "$type": "ConfigMonsterStateIDInfo",
          "animatorStates": {
            "RunToAlliance": ["Audio_Monster_Strong_Gloves_Wind_Walk_Footstep"]
          },
          "resetAnimatorTriggerOnExit": ["DoSkill"]
        },
        "SecondWind": {
          "$type": "ConfigMonsterStateIDInfo",
          "animatorStates": {
            "SecondWind": [
              "Monster_Skirmisher_Male_Strong_Gloves_Wind_SecondWind",
              "Audio_Monster_Strong_Gloves_Wind_SecondWind"
            ]
          },
          "BFDKJHMDDML": 0.0,
          "BDFLEJHPFBG": 20.0,
          "resetAnimatorTriggerOnExit": ["BeHit", "DoSkill", "ReachTarget"],
          "BHEPAJIOBDN": true
        },
        "BlockRushToAlliancePrepare": {
          "$type": "ConfigMonsterStateIDInfo",
          "animatorStates": {
            "RushBuddyPrepare": []
          },
          "BFDKJHMDDML": 0.0,
          "BDFLEJHPFBG": 20.0,
          "resetAnimatorTriggerOnExit": ["BeHit", "DoSkill"]
        },
        "BlockRushToAlliance": {
          "$type": "ConfigMonsterStateIDInfo",
          "animatorStates": {
            "RushBuddy": [
              "Monster_Skirmisher_Male_Strong_Gloves_Wind_RushBuddy",
              "Audio_Monster_Strong_Gloves_Wind_Block_RushBuddy"
            ]
          },
          "BFDKJHMDDML": 0.0,
          "BDFLEJHPFBG": 20.0,
          "resetAnimatorTriggerOnExit": ["BeHit", "DoSkill", "ToAttackEnemy"]
        },
        "Weak": {
          "$type": "ConfigMonsterStateIDInfo",
          "animatorStates": {
            "Weak_BS": ["Audio_Monster_Strong_Gloves_Wind_Weak_BS"],
            "Weak_Loop": [],
            "Weak_AS": ["Audio_Monster_Strong_Gloves_Wind_Weak_AS"]
          },
          "BFDKJHMDDML": 0.0,
          "BDFLEJHPFBG": 20.0,
          "resetAnimatorTriggerOnEnter": ["WeakStart"],
          "resetAnimatorTriggerOnExit": ["BeHit", "DoSkill"]
        },
        "Search": {
          "$type": "ConfigMonsterStateIDInfo",
          "animatorStates": {
            "Search": []
          },
          "canDoSkill": true,
          "resetAnimatorTriggerOnExit": ["BeHit", "DoSkill"]
        },
        "Practice": {
          "$type": "ConfigMonsterStateIDInfo",
          "animatorStates": {
            "Practice": []
          },
          "canDoSkill": true,
          "resetAnimatorTriggerOnExit": ["BeHit", "DoSkill"]
        },
        "Threat": {
          "$type": "ConfigMonsterStateIDInfo",
          "animatorStates": {
            "Threat": []
          },
          "canDoSkill": true,
          "resetAnimatorTriggerOnExit": ["BeHit", "DoSkill"]
        }
      }
    }
  },
  "billboard": {
    "$type": "NCBABGPMMPL",
    "EBBHBMFMOGD": "BillboardAttach",
    "BFOMIIKCOGI": "Character",
    "ANGKJBLILKJ": true,
    "HLGCEAGHFGH": 50.0,
    "size": "Big"
  },
  "initialPoses": {
    "Default": {},
    "Search": {
      "initialPoseID": 9001,
      "initialPoseParams": {
        "boolParams": {
          "Search": "true"
        }
      }
    },
    "Practice": {
      "initialPoseID": 9011,
      "initialPoseParams": {
        "boolParams": {
          "Practice": "true"
        }
      }
    },
    "Threat": {
      "initialPoseID": 9014,
      "initialPoseParams": {
        "boolParams": {
          "Threat": "true"
        }
      }
    }
  },
  "aibeta": {
    "enable": true,
    "aiCombat": {
      "combatRole": "SUP"
    },
    "buddySetting": {
      "enable": true,
      "buddyConfigIDs": [4009]
    },
    "sensing": {
      "settings": {
        "DefaultSetting": {
          "viewRange": 25.0,
          "feelRange": 10.0
        },
        "NeverCombat": {
          "enableVision": false,
          "hearAttractionRange": 0.0,
          "feelRange": 0.0
        }
      },
      "templates": {
        "DefaultTemplate": {
          "DefaultPoses": "DefaultSetting"
        },
        "NeverCombatTemplate": {
          "DefaultPoses": "NeverCombat"
        }
      }
    },
    "neurons": {
      "DefaultSetting": ["HIT"],
      "NeverCombat": []
    },
    "threat": {
      "clearThreatByLostPath": true,
      "clearThreatTimerByLostPath": 11.0,
      "viewAttenuation": [
        {
          "x": 10.0,
          "y": 2.0
        },
        {
          "x": 15.0,
          "y": 0.800000011920929
        },
        {
          "x": 20.0,
          "y": 0.5
        },
        {
          "x": 25.0,
          "y": 0.30000001192092896
        },
        {
          "x": 30.0,
          "y": 0.20000000298023224
        }
      ],
      "resistTauntLevel": "Monster_TauntLevel_2"
    },
    "defendArea": {
      "defendRange": 50.0
    },
    "skillGroupCDConfigs": [
      {
        "skillGroupCDID": 0,
        "skillGroupCDTime": 5.0
      },
      {
        "skillGroupCDID": 1,
        "skillGroupCDTime": 10.0
      },
      {
        "skillGroupCDID": 2,
        "skillGroupCDTime": 15.0
      }
    ],
    "skills": {
      "1": {
        "name": "OnAlert",
        "skillType": "OnAlert",
        "faceTarget": true,
        "castCondition": {
          "pose": [9001, 9011, 9014]
        },
        "publicCDGroup": "",
        "ignoreGCD": true,
        "triggerGCD": false,
        "stateIDs": ["Alert", "ShowWeapon"],
        "skillQueryingTime": 3.0,
        "flagTargetReachable": "10",
        "flagSelfOnTemplateCollider": "01",
        "flagSelfInZone": "10",
        "flagTargetInZone": "11"
      },
      "2": {
        "name": "OnAlert",
        "skillType": "OnNerve",
        "faceTarget": true,
        "castCondition": {
          "pose": [1, 9001, 9011, 9014]
        },
        "publicCDGroup": "",
        "triggerGCD": false,
        "stateIDs": ["Alert"],
        "skillQueryingTime": 3.0,
        "flagTargetReachable": "10",
        "flagSelfOnTemplateCollider": "01",
        "flagSelfInZone": "10",
        "flagTargetInZone": "11",
        "nerveTrigger": ["HIT"]
      },
      "3": {
        "name": "OnAlert",
        "skillType": "OnAlert",
        "faceTarget": true,
        "castCondition": {
          "pose": [1]
        },
        "publicCDGroup": "",
        "ignoreGCD": true,
        "triggerGCD": false,
        "stateIDs": ["Alert"],
        "skillQueryingTime": 3.0,
        "flagTargetReachable": "10",
        "flagSelfOnTemplateCollider": "01",
        "flagSelfInZone": "10",
        "flagTargetInZone": "11"
      },
      "101": {
        "name": "Punch",
        "priority": 4,
        "castCondition": {
          "pose": [101, 201],
          "pickRangeMax": 5.0
        },
        "cd": 5.0,
        "cdUpperRange": 2.5,
        "initialCD": 1.0,
        "publicCDGroup": "",
        "stateIDs": ["Punch_BS", "Punch_AS"],
        "skillQueryingTime": 2.0,
        "flagTargetReachable": "10",
        "flagSelfOnTemplateCollider": "01",
        "flagSelfInZone": "10",
        "flagTargetInZone": "11"
      },
      "201": {
        "name": "SecondWind",
        "skillType": "CombatBuddy",
        "priority": 1,
        "faceTarget": true,
        "castCondition": {
          "pose": [301]
        },
        "cd": 2.0,
        "cdUpperRange": 2.5,
        "initialCD": 3.0,
        "publicCDGroup": "",
        "ignoreGCD": true,
        "stateIDs": ["RunToBuddy", "SecondWind"],
        "skillQueryingTime": 3.0,
        "flagTargetReachable": "10",
        "flagSelfOnTemplateCollider": "01",
        "flagSelfInZone": "10",
        "flagTargetInZone": "11",
        "buddySkillCondition": {
          "selectRange": 50.0,
          "buddyScoring": {
            "hpFactor": -1,
            "distFactor": -1.0,
            "roleScores": [1.0, 2.0, 5.0, 3.0]
          }
        }
      },
      "301": {
        "name": "DefendSheild",
        "priority": 2,
        "castCondition": {
          "pose": [101, 201],
          "pickRangeMax": 20.0
        },
        "cd": 8.0,
        "cdUpperRange": 5.0,
        "initialCD": 7.5,
        "initialCDUpperRange": 7.5,
        "publicCDGroup": "",
        "triggerGCD": false,
        "skillGroupCDID": 2,
        "stateIDs": [
          "BlockRushToAlliancePrepare",
          "BlockRushToAlliance",
          "DefendSheild_BS",
          "DefendSheild",
          "DefendShield_AS"
        ],
        "skillQueryingTime": 3.0,
        "flagTargetReachable": "10",
        "flagSelfOnTemplateCollider": "01",
        "flagSelfInZone": "10",
        "flagTargetInZone": "11"
      },
      "302": {
        "name": "BuddyDefend",
        "skillType": "CombatBuddy",
        "priority": 2,
        "castCondition": {
          "pose": [201]
        },
        "cd": 10.0,
        "cdUpperRange": 5.0,
        "initialCD": 7.5,
        "initialCDUpperRange": 7.5,
        "publicCDGroup": "",
        "triggerGCD": false,
        "stateIDs": [
          "BlockRushToAlliancePrepare",
          "BlockRushToAlliance",
          "DefendSheild_BS",
          "DefendSheild",
          "DefendShield_AS"
        ],
        "flagTargetReachable": "11",
        "flagSelfOnTemplateCollider": "01",
        "flagSelfInZone": "11",
        "flagTargetInZone": "11",
        "buddySkillCondition": {
          "selectRange": 50.0,
          "buddyScoring": {
            "hpFactor": -1,
            "distFactor": -1.0,
            "roleScores": [1.0, 2.0, 5.0, 3.0]
          }
        }
      },
      "9001": {
        "name": "Search",
        "skillType": "Free",
        "castCondition": {
          "pose": [9001]
        },
        "cd": 5.0,
        "cdUpperRange": 1.0,
        "publicCDGroup": "",
        "stateIDs": ["Search"],
        "flagTargetReachable": "10",
        "flagSelfOnTemplateCollider": "01",
        "flagSelfInZone": "10",
        "flagTargetInZone": "11"
      },
      "9011": {
        "name": "Practice",
        "skillType": "Free",
        "castCondition": {
          "pose": [9011]
        },
        "cd": 5.0,
        "cdUpperRange": 1.0,
        "publicCDGroup": "",
        "stateIDs": ["Practice"],
        "flagTargetReachable": "10",
        "flagSelfOnTemplateCollider": "01",
        "flagSelfInZone": "10",
        "flagTargetInZone": "11"
      },
      "9014": {
        "name": "Threat",
        "skillType": "Free",
        "castCondition": {
          "pose": [9014]
        },
        "cd": 5.0,
        "cdUpperRange": 1.0,
        "publicCDGroup": "",
        "stateIDs": ["Threat"],
        "flagTargetReachable": "10",
        "flagSelfOnTemplateCollider": "01",
        "flagSelfInZone": "10",
        "flagTargetInZone": "11"
      }
    },
    "skillGCD": 3.0,
    "returnToBornTactic": {
      "enable": true,
      "defaultSetting": {}
    },
    "wanderTactic": {
      "enable": true,
      "condition": {
        "pose": [1, 2, 3]
      },
      "defaultSetting": {
        "turnSpeedOverride": 1.0,
        "cdMax": 5.0,
        "cdMin": 2.5,
        "distanceFromBorn": 15.0,
        "distanceFromCurrentMin": 5.0,
        "distanceFromCurrentMax": 7.5
      }
    },
    "meleeChargeTactic": {
      "enable": true,
      "condition": {
        "pose": [101, 201, 301]
      },
      "defaultSetting": {
        "startDistanceMin": 10.0,
        "startDistanceMax": 99.0,
        "stopDistance": 5.0,
        "innerDistance": 0.0
      },
      "specification": {
        "201": {
          "startDistanceMin": 7.0,
          "startDistanceMax": 99.0,
          "stopDistance": 5.0,
          "innerDistance": 0.0
        },
        "301": {
          "startDistanceMin": 20.0,
          "startDistanceMax": 99.0,
          "stopDistance": 10.0,
          "innerDistance": 0.0
        }
      }
    },
    "facingMoveTactic": {
      "enable": true,
      "condition": {
        "pose": [101, 201, 301]
      },
      "defaultSetting": {
        "rangeMin": 0.0,
        "rangeMax": 5.0,
        "restTimeMax": 3.0,
        "facingMoveTurnInterval": 1.0,
        "obstacleDetectRange": 1.0,
        "facingMoveWeight": {
          "forward": 0.0,
          "back": 0.0,
          "left": 2.0,
          "right": 2.0
        },
        "PDOKGBAJNEP": "1111",
        "NGLJBMGMGKF": "1111"
      },
      "specification": {
        "201": {
          "rangeMin": 1.0,
          "rangeMax": 5.0,
          "restTimeMax": 3.0,
          "facingMoveTurnInterval": 1.0,
          "obstacleDetectRange": 1.0,
          "facingMoveWeight": {
            "forward": 0.0,
            "back": 0.0,
            "left": 3.0,
            "right": 3.0
          },
          "PDOKGBAJNEP": "1111",
          "NGLJBMGMGKF": "1111"
        },
        "301": {
          "rangeMin": 1.0,
          "rangeMax": 15.0,
          "restTimeMax": 3.0,
          "facingMoveTurnInterval": 1.0,
          "obstacleDetectRange": 1.0,
          "facingMoveWeight": {
            "forward": 0.0,
            "back": 0.0,
            "left": 4.0,
            "right": 4.0
          },
          "PDOKGBAJNEP": "1111",
          "NGLJBMGMGKF": "1111"
        }
      }
    }
  },
  "inputKeys": [
    {
      "keyID": 101,
      "inputKeyCode": 257,
      "abilityName": ""
    },
    {
      "keyID": 201,
      "inputKeyCode": 258,
      "abilityName": ""
    },
    {
      "keyID": 301,
      "inputKeyCode": 259,
      "abilityName": ""
    },
    {
      "keyID": 401,
      "inputKeyCode": 260,
      "abilityName": ""
    },
    {
      "keyID": 102,
      "inputKeyCode": 261,
      "abilityName": ""
    },
    {
      "keyID": 302,
      "inputKeyCode": 262,
      "abilityName": ""
    }
  ],
  "move": {
    "$type": "PLMNMICDOHN",
    "BCBPBHLKCPB": "FourDirection",
    "NGNIGPNNLAI": "StoopType"
  },
  "audio": {
    "NCOGLLMIJGO": "",
    "animAudio": {
      "onTransitionIn": [
        {
          "currentStateName": "Weak_Loop",
          "audioEvent": {
            "text": "Play_sfx_monster_gloves_wind_weak_Loop"
          }
        },
        {
          "currentStateName": "Block_Loop",
          "audioEvent": {
            "text": "Play_sfx_monster_gloves_wind_block_Loop"
          }
        }
      ],
      "onTransitionOut": [
        {
          "currentStateName": "Weak_Loop",
          "audioEvent": {
            "text": "Stop_sfx_monster_gloves_wind_weak_Loop"
          }
        },
        {
          "currentStateName": "Block_Loop",
          "audioEvent": {
            "text": "Stop_sfx_monster_gloves_wind_block_Loop"
          }
        }
      ]
    },
    "disableEvent": {
      "text": ""
    },
    "destroyEvent": {
      "text": ""
    }
  }
}
