{
  "common": {
    "effectAttachShape": {
      "$type": "ConfigEffectAttachSkinnedMesh",
      "mesh": "EffectMesh"
    },
    "mass": 10000.0,
    "height": 1.5,
    "affectedByWorld": true,
    "checkInSurface": true,
    "useGrassDisplacement": true,
    "clearAnimatorOnSetLightDeactive": true,
    "clearAIOnSetLightDeactive": true,
    "NCCLLKFLJGL": true
  },
  "headControl": {
    "$type": "GAAIKCFIJMM",
    "useHeadControl": true,
    "KBBNEKBLPFA": 60.0,
    "FJOGFHEFPHN": 30.0,
    "IAEPDEOMGCO": 3.0,
    "FCDMCPDGFCL": [
      "NormalIdle/Standby",
      "WaterNormalIdle/Standby_Water",
      "NormalIdle/Born",
      "NormalMove/WalkForward",
      "NormalMove/WalkBack",
      "NormalMove/Run",
      "Walk_Water",
      "Run_Water",
      "TurnLeft",
      "TurnRight",
      "TurnBack",
      "TurnBack_Water",
      "TurnBack_Water_HitScence",
      "WaterToLand",
      "LandToWater"
    ]
  },
  "specialPoint": {
    "elementAbsorb": "RootNode",
    "elementPendant": "",
    "elementDrop": "RootNode",
    "bulletAim": "Knee"
  },
  "model": {
    "bornEffect": "Eff_Monster_Common_Born",
    "attachEffect": ""
  },
  "dither": {
    "showDitherDuration": 2.0
  },
  "combat": {
    "property": {
      "endureType": "Monster_Minion",
      "weight": 80.0
    },
    "beHit": {
      "hitBloodEffect": ""
    },
    "combatLock": {
      "lockShape": "CircleLockEnemy",
      "lockType": "Avatar&Monster_Lv4"
    },
    "die": {
      "hasAnimatorDie": true,
      "dieEndTime": 0.30000001192092896,
      "dieForceDisappearTime": 1.2999999523162842,
      "dieDisappearEffect": "Eff_Death_Common_Animal",
      "OCGODEHJPME": true,
      "MFJBKFECLNJ": true,
      "IMEEBMBJPGJ": true,
      "ICHFPLMNCLC": true,
      "MBHMAGEPJFH": true,
      "CFHPDHFKMEP": true
    },
    "animEvents": {
      "AtkNo": {
        "attackPattern": {
          "$type": "ConfigAttackCircle",
          "triggerType": "TriggerNoRepeat",
          "born": {
            "$type": "ConfigBornBySelf",
            "offset": {
              "x": 0.0,
              "y": 0.0,
              "z": -0.5
            }
          },
          "fanAngle": 60.0,
          "radius": 1.5
        },
        "attackInfo": {
          "attackTag": "",
          "attenuationTag": "",
          "attenuationGroup": "default",
          "attackProperty": {
            "damagePercentage": 0.5,
            "MKLAMNDEDGB": 0.0,
            "bonusCriticalHurt": 100.0,
            "strikeType": "Blunt",
            "attackType": "Melee"
          },
          "hitPattern": {
            "onHitEffectName": "default",
            "hitImpulseType": "LV2",
            "hitHaltTimeScale": 0.009999999776482582
          }
        }
      },
      "Attack01": {
        "attackPattern": {
          "$type": "ConfigAttackCircle",
          "triggerType": "TriggerNoRepeat",
          "born": {
            "$type": "ConfigBornBySelf",
            "offset": {
              "x": 0.0,
              "y": 0.0,
              "z": -1.0
            }
          },
          "fanAngle": 45.0,
          "radius": 3.5
        },
        "attackInfo": {
          "attackTag": "",
          "attenuationTag": "",
          "attenuationGroup": "default",
          "attackProperty": {
            "damagePercentage": 1.0,
            "MKLAMNDEDGB": 0.0,
            "bonusCriticalHurt": 100.0,
            "strikeType": "Blunt",
            "enBreak": 200.0,
            "attackType": "Melee"
          },
          "hitPattern": {
            "onHitEffectName": "default",
            "hitImpulseType": "LV4",
            "hitHaltTimeScale": 0.009999999776482582
          }
        }
      },
      "Attack02": {
        "attackPattern": {
          "$type": "NAMPOMPBMHC",
          "triggerType": "TriggerNoRepeat",
          "born": {
            "$type": "ConfigBornBySelf",
            "offset": {
              "x": 0.0,
              "y": 0.0,
              "z": 1.7999999523162842
            },
            "HOPPHMEKHLG": {
              "$type": "IOPNFLFHGID",
              "NHGDOBINMBK": {
                "x": 0.0,
                "y": 0.0,
                "z": 0.0
              }
            }
          },
          "size": {
            "x": 1.5,
            "y": 2.0,
            "z": 3.5
          }
        },
        "attackInfo": {
          "attackTag": "",
          "attenuationTag": "",
          "attenuationGroup": "default",
          "attackProperty": {
            "damagePercentage": 1.0,
            "MKLAMNDEDGB": 0.0,
            "bonusCriticalHurt": 100.0,
            "strikeType": "Blunt",
            "enBreak": 80.0,
            "attackType": "Melee"
          },
          "hitPattern": {
            "onHitEffectName": "default",
            "hitImpulseType": "LV3",
            "hitHaltTimeScale": 0.009999999776482582
          }
        }
      },
      "WaterAttack01": {
        "attackPattern": {
          "$type": "ConfigAttackCircle",
          "triggerType": "TriggerNoRepeat",
          "born": {
            "$type": "ConfigBornBySelf",
            "offset": {
              "x": 0.0,
              "y": -1.0,
              "z": 0.0
            }
          },
          "height": 3.0,
          "fanAngle": 90.0,
          "radius": 2.5
        },
        "attackInfo": {
          "attackTag": "",
          "attenuationTag": "",
          "attenuationGroup": "default",
          "attackProperty": {
            "damagePercentage": 0.800000011920929,
            "MKLAMNDEDGB": 0.0,
            "bonusCriticalHurt": 100.0,
            "strikeType": "Blunt",
            "attackType": "Melee"
          },
          "hitPattern": {
            "onHitEffectName": "default",
            "hitImpulseType": "LV3",
            "hitHaltTimeScale": 0.009999999776482582
          }
        }
      }
    }
  },
  "abilities": [
    {
      "abilityID": "Steer",
      "abilityName": "Monster_Gator_SteerAttack",
      "abilityOverride": ""
    },
    {
      "abilityID": "Steer",
      "abilityName": "Monster_Gator_TargetInWaterCheck",
      "abilityOverride": ""
    },
    {
      "abilityID": "Attack01",
      "abilityName": "Monster_Gator_Attack01",
      "abilityOverride": ""
    },
    {
      "abilityID": "WaterAttack01",
      "abilityName": "Monster_Gator_WaterAttack01",
      "abilityOverride": ""
    },
    {
      "abilityID": "PlayEffect",
      "abilityName": "Monster_Gator_PlayEffect",
      "abilityOverride": ""
    },
    {
      "abilityID": "PlayHitEffect",
      "abilityName": "Monster_Gator_PlayHitEffect",
      "abilityOverride": ""
    },
    {
      "abilityID": "HeadControlOff",
      "abilityName": "Monster_Gator_HeadControlOff",
      "abilityOverride": ""
    },
    {
      "abilityID": "HeadControlOff",
      "abilityName": "Monster_Gator_None_RCMethod",
      "abilityOverride": ""
    }
  ],
  "stateLayers": {
    "defaultLayer": {
      "$type": "ConfigNormalStateLayer",
      "FNPGDAEJAPJ": "",
      "stateIDs": {
        "NormalIdle": {
          "$type": "ConfigMonsterStateIDInfo",
          "animatorStates": {
            "Standby": [],
            "Born": []
          },
          "canDoSkill": true,
          "canSyncMove": true,
          "resetAnimatorTriggerOnExit": ["DoSkill"]
        },
        "WaterNormalIdle": {
          "$type": "ConfigMonsterStateIDInfo",
          "animatorStates": {
            "Standby_Water": []
          },
          "MMLPKBGABLE": true,
          "canDoSkill": true,
          "canSyncMove": true,
          "resetAnimatorTriggerOnExit": ["DoSkill"]
        },
        "NormalMove": {
          "$type": "ConfigMonsterStateIDInfo",
          "animatorStates": {
            "WalkForward": ["Audio_Monster_Gator_Walk"],
            "WalkBack": ["Audio_Monster_Gator_Walk"],
            "Run": ["Audio_Monster_Gator_Run"]
          },
          "canDoSkill": true,
          "canSyncMove": true,
          "resetAnimatorTriggerOnExit": ["DoSkill"],
          "BHEPAJIOBDN": true
        },
        "LandToWater": {
          "$type": "ConfigMonsterStateIDInfo",
          "animatorStates": {
            "LandToWater": [
              "Monster_Gator_None_LandToWater",
              "Audio_Monster_Gator_LandToWater"
            ]
          },
          "canSyncMove": true,
          "resetAnimatorTriggerOnExit": ["DoSkill"],
          "BHEPAJIOBDN": true
        },
        "Walk_Water": {
          "$type": "ConfigMonsterStateIDInfo",
          "animatorStates": {
            "Walk_Water": []
          },
          "MMLPKBGABLE": true,
          "canDoSkill": true,
          "canSyncMove": true,
          "resetAnimatorTriggerOnExit": ["DoSkill"],
          "BHEPAJIOBDN": true
        },
        "Run_Water": {
          "$type": "ConfigMonsterStateIDInfo",
          "animatorStates": {
            "Run_Water": []
          },
          "MMLPKBGABLE": true,
          "canDoSkill": true,
          "canSyncMove": true,
          "resetAnimatorTriggerOnExit": ["DoSkill"],
          "BHEPAJIOBDN": true
        },
        "WaterToLand": {
          "$type": "ConfigMonsterStateIDInfo",
          "animatorStates": {
            "WaterToLand": [
              "Monster_Gator_None_WaterToLand",
              "Audio_Monster_Gator_WaterToLand"
            ]
          },
          "MMLPKBGABLE": true,
          "canSyncMove": true,
          "resetAnimatorTriggerOnExit": ["DoSkill"],
          "BHEPAJIOBDN": true
        },
        "NoTurn": {
          "$type": "ConfigMonsterStateIDInfo",
          "animatorStates": {
            "NoTurn": []
          },
          "canSyncMove": true,
          "resetAnimatorTriggerOnExit": ["DoSkill"],
          "BHEPAJIOBDN": true
        },
        "TurnLeft": {
          "$type": "ConfigMonsterStateIDInfo",
          "animatorStates": {
            "TurnLeft": ["Audio_Monster_Gator_Turn"]
          },
          "canSyncMove": true,
          "resetAnimatorTriggerOnExit": ["DoSkill"],
          "BHEPAJIOBDN": true
        },
        "TurnRight": {
          "$type": "ConfigMonsterStateIDInfo",
          "animatorStates": {
            "TurnRight": ["Audio_Monster_Gator_Turn"]
          },
          "canSyncMove": true,
          "resetAnimatorTriggerOnExit": ["DoSkill"],
          "BHEPAJIOBDN": true
        },
        "TurnBack": {
          "$type": "ConfigMonsterStateIDInfo",
          "animatorStates": {
            "TurnBack": ["Audio_Monster_Gator_TurnBack"]
          },
          "canSyncMove": true,
          "resetAnimatorTriggerOnExit": ["DoSkill"],
          "BHEPAJIOBDN": true,
          "ECGKJECEAII": true
        },
        "TurnBack_Water": {
          "$type": "ConfigMonsterStateIDInfo",
          "animatorStates": {
            "TurnBack_Water": ["Audio_Monster_Gator_TurnBack_Water"]
          },
          "MMLPKBGABLE": true,
          "canSyncMove": true,
          "resetAnimatorTriggerOnExit": ["DoSkill"],
          "BHEPAJIOBDN": true,
          "ECGKJECEAII": true
        },
        "TurnBack_Water_HitScence": {
          "$type": "ConfigMonsterStateIDInfo",
          "animatorStates": {
            "TurnBack_Water_HitScence": ["Audio_Monster_Gator_TurnBack_Water"]
          },
          "MMLPKBGABLE": true,
          "canSyncMove": true,
          "resetAnimatorTriggerOnExit": ["DoSkill"],
          "BHEPAJIOBDN": true,
          "ECGKJECEAII": true
        },
        "BeHit": {
          "$type": "ConfigMonsterStateIDInfo",
          "animatorStates": {
            "Hit_L": ["Audio_Monster_Gator_Hit_L"]
          },
          "resetAnimatorTriggerOnEnter": ["BeHit"],
          "resetAnimatorTriggerOnExit": ["DoSkill"]
        },
        "Die": {
          "$type": "ConfigMonsterStateIDInfo",
          "animatorStates": {
            "Die": ["Audio_Monster_Gator_Die"],
            "SwimDie": ["Audio_Monster_Gator_Die_Swim"]
          }
        },
        "Attack_01_BS": {
          "$type": "ConfigMonsterStateIDInfo",
          "animatorStates": {
            "Attack_01_BS": [
              "Monster_Gator_None_Attack01_BS",
              "Audio_Monster_Gator_Attack_01_BS"
            ]
          },
          "resetAnimatorTriggerOnExit": ["BeHit", "DoSkill"]
        },
        "Attack_01_Loop": {
          "$type": "ConfigMonsterStateIDInfo",
          "animatorStates": {
            "Attack_01_Loop": ["Audio_Monster_Gator_Run"]
          },
          "resetAnimatorTriggerOnExit": ["BeHit", "DoSkill"]
        },
        "Attack_01_Loop_Water": {
          "$type": "ConfigMonsterStateIDInfo",
          "animatorStates": {
            "Attack_01_Loop_Water": []
          },
          "resetAnimatorTriggerOnExit": ["BeHit", "DoSkill"]
        },
        "Attack_01_AS": {
          "$type": "ConfigMonsterStateIDInfo",
          "animatorStates": {
            "Attack_01_AS": [
              "Monster_Gator_None_Attack01",
              "Audio_Monster_Gator_Attack_01_AS"
            ]
          },
          "resetAnimatorTriggerOnExit": ["BeHit", "DoSkill"],
          "BHEPAJIOBDN": true,
          "ECGKJECEAII": true
        },
        "Attack_01_AS_Water": {
          "$type": "ConfigMonsterStateIDInfo",
          "animatorStates": {
            "Attack_01_AS_Water": [
              "Monster_Gator_None_WaterAttack01_Land",
              "Audio_Monster_Gator_WaterAttack_01_AS"
            ]
          },
          "resetAnimatorTriggerOnExit": ["BeHit", "DoSkill"]
        },
        "Attack_01_AS_WaterExtra": {
          "$type": "ConfigMonsterStateIDInfo",
          "animatorStates": {
            "Attack_01_AS_WaterExtra": []
          },
          "resetAnimatorTriggerOnExit": ["BeHit", "DoSkill"]
        },
        "Attack_02": {
          "$type": "ConfigMonsterStateIDInfo",
          "animatorStates": {
            "Attack_02": [
              "Monster_Gator_None_Attack02",
              "Audio_Monster_Gator_Attack_02"
            ]
          },
          "canSyncMove": true,
          "resetAnimatorTriggerOnExit": ["BeHit", "DoSkill"],
          "BHEPAJIOBDN": true,
          "ECGKJECEAII": true
        },
        "WaterAttack_01_BS": {
          "$type": "ConfigMonsterStateIDInfo",
          "animatorStates": {
            "WaterAttack_01_BS": ["Audio_Monster_Gator_WaterAttack_01_BS"]
          },
          "resetAnimatorTriggerOnExit": ["BeHit", "DoSkill"]
        },
        "WaterAttack_01_Loop": {
          "$type": "ConfigMonsterStateIDInfo",
          "animatorStates": {
            "WaterAttack_01_Loop": []
          },
          "resetAnimatorTriggerOnExit": ["BeHit", "DoSkill"]
        },
        "WaterAttack_01_Loop_Land": {
          "$type": "ConfigMonsterStateIDInfo",
          "animatorStates": {
            "WaterAttack_01_Loop_Land": ["Audio_Monster_Gator_Run"]
          },
          "resetAnimatorTriggerOnExit": ["BeHit", "DoSkill"]
        },
        "WaterAttack_01_AS": {
          "$type": "ConfigMonsterStateIDInfo",
          "animatorStates": {
            "WaterAttack_01_AS": [
              "Monster_Gator_None_WaterAttack01",
              "Audio_Monster_Gator_WaterAttack_01_AS"
            ]
          },
          "resetAnimatorTriggerOnExit": ["BeHit", "DoSkill"]
        },
        "WaterAttack_01_AS_Extra": {
          "$type": "ConfigMonsterStateIDInfo",
          "animatorStates": {
            "WaterAttack_01_AS_Extra": []
          },
          "resetAnimatorTriggerOnExit": ["BeHit", "DoSkill"]
        },
        "WaterAttack_01_AS_Land": {
          "$type": "ConfigMonsterStateIDInfo",
          "animatorStates": {
            "WaterAttack_01_AS_Land": [
              "Monster_Gator_None_Attack01",
              "Audio_Monster_Gator_WaterAttack_01_AS_Land"
            ]
          },
          "resetAnimatorTriggerOnExit": ["BeHit", "DoSkill"],
          "BHEPAJIOBDN": true,
          "ECGKJECEAII": true
        },
        "Personality1_BS": {
          "$type": "ConfigMonsterStateIDInfo",
          "animatorStates": {
            "Personality1_BS": ["Audio_Monster_Gator_Personality_01_BS"]
          },
          "canDoSkill": true,
          "resetAnimatorTriggerOnExit": ["BeHit", "DoSkill"]
        },
        "Personality1_Loop": {
          "$type": "ConfigMonsterStateIDInfo",
          "animatorStates": {
            "Personality1_Loop": []
          },
          "canDoSkill": true,
          "resetAnimatorTriggerOnExit": ["BeHit", "DoSkill"]
        },
        "Personality1_AS": {
          "$type": "ConfigMonsterStateIDInfo",
          "animatorStates": {
            "Personality1_AS": ["Audio_Monster_Gator_Personality_01_AS"]
          },
          "resetAnimatorTriggerOnExit": ["BeHit", "DoSkill"]
        },
        "Personality2": {
          "$type": "ConfigMonsterStateIDInfo",
          "animatorStates": {
            "Personality2": ["Audio_Monster_Gator_Personality_02"]
          },
          "canDoSkill": true,
          "resetAnimatorTriggerOnExit": ["BeHit", "DoSkill"]
        },
        "Personality3_BS": {
          "$type": "ConfigMonsterStateIDInfo",
          "animatorStates": {
            "Personality3_BS": ["Audio_Monster_Gator_Personality_03_BS"]
          },
          "canDoSkill": true,
          "resetAnimatorTriggerOnExit": ["BeHit", "DoSkill"]
        },
        "Personality3_Loop": {
          "$type": "ConfigMonsterStateIDInfo",
          "animatorStates": {
            "Personality3_Loop": []
          },
          "canDoSkill": true,
          "resetAnimatorTriggerOnExit": ["BeHit", "DoSkill"]
        },
        "Personality3_AS": {
          "$type": "ConfigMonsterStateIDInfo",
          "animatorStates": {
            "Personality3_AS": ["Audio_Monster_Gator_Personality_03_AS"]
          },
          "resetAnimatorTriggerOnExit": ["BeHit", "DoSkill"]
        },
        "Personality4": {
          "$type": "ConfigMonsterStateIDInfo",
          "animatorStates": {
            "Personality4": ["Audio_Monster_Gator_Personality_04"]
          },
          "canDoSkill": true,
          "resetAnimatorTriggerOnExit": ["BeHit", "DoSkill"]
        }
      }
    }
  },
  "billboard": {
    "$type": "NCBABGPMMPL",
    "EBBHBMFMOGD": "BillboardAttach",
    "offset": {
      "x": -0.5,
      "y": 0.4000000059604645
    },
    "BFOMIIKCOGI": "Character",
    "OELDMANLPDM": 0.25
  },
  "initialPoses": {
    "Default": {
      "initialPoseID": 1
    }
  },
  "aibeta": {
    "enable": true,
    "moveSetting": {
      "moveCategory": "Amphibious",
      "navMeshAgentName": "Undead01"
    },
    "sensing": {
      "settings": {
        "DefaultSetting": {
          "viewRange": 6.0,
          "feelRange": 2.0
        },
        "HighSensing": {
          "viewRange": 12.0,
          "feelRange": 4.0
        },
        "LowSensing": {
          "viewRange": 6.0,
          "feelRange": 2.0
        },
        "NoSensing": {
          "viewRange": 0.0,
          "feelRange": 0.0
        }
      },
      "templates": {
        "DefaultTemplate": {
          "DefaultPoses": "LowSensing"
        },
        "NoSensing": {
          "DefaultPoses": "NoSensing"
        },
        "LowSensing": {
          "DefaultPoses": "LowSensing"
        },
        "HighSensing": {
          "DefaultPoses": "HighSensing"
        }
      }
    },
    "threat": {
      "clearThreatTargetDistance": 18.0,
      "clearThreatEdgeDistance": 20.0,
      "clearThreatByTargetOutOfZone": true,
      "clearThreatTimerByDistance": 4.0,
      "clearThreatTimerByLostPath": 20.0,
      "viewAttenuation": [
        {
          "x": 10.0,
          "y": 2.0
        },
        {
          "x": 20.0,
          "y": 1.0
        },
        {
          "x": 30.0,
          "y": 0.5
        },
        {
          "x": 50.0,
          "y": 0.10000000149011612
        }
      ]
    },
    "defendArea": {},
    "skillGroupCDConfigs": [
      {
        "skillGroupCDID": 2,
        "skillGroupCDTime": 8.0
      },
      {
        "skillGroupCDID": 3,
        "skillGroupCDTime": 15.0
      }
    ],
    "skills": {
      "201": {
        "name": "Personality1",
        "skillType": "Free",
        "castCondition": {
          "pose": [1]
        },
        "cd": 15.0,
        "cdUpperRange": 10.0,
        "initialCD": 2.5,
        "initialCDUpperRange": 5.0,
        "publicCDGroup": "",
        "triggerGCD": false,
        "skillGroupCDID": 3,
        "stateIDs": ["Personality1_BS", "Personality1_Loop", "Personality1_AS"],
        "flagTargetReachable": "10",
        "flagSelfOnTemplateCollider": "01",
        "flagSelfInZone": "10",
        "flagTargetInZone": "11"
      },
      "211": {
        "name": "Personality2",
        "skillType": "Free",
        "castCondition": {
          "pose": [1]
        },
        "cd": 20.0,
        "cdUpperRange": 10.0,
        "initialCD": 2.5,
        "initialCDUpperRange": 5.0,
        "publicCDGroup": "",
        "triggerGCD": false,
        "skillGroupCDID": 3,
        "stateIDs": ["Personality2"],
        "flagTargetReachable": "10",
        "flagSelfOnTemplateCollider": "01",
        "flagSelfInZone": "10",
        "flagTargetInZone": "11"
      },
      "221": {
        "name": "Personality3",
        "skillType": "Free",
        "castCondition": {
          "pose": [2]
        },
        "cd": 40.0,
        "cdUpperRange": 15.0,
        "initialCD": 10.5,
        "initialCDUpperRange": 5.0,
        "publicCDGroup": "",
        "triggerGCD": false,
        "skillGroupCDID": 3,
        "stateIDs": ["Personality3_BS", "Personality3_Loop", "Personality3_AS"],
        "flagTargetReachable": "10",
        "flagSelfOnTemplateCollider": "01",
        "flagSelfInZone": "10",
        "flagTargetInZone": "11"
      },
      "231": {
        "name": "Personality4",
        "skillType": "Free",
        "castCondition": {
          "pose": [2],
          "BHMJOMJEPHD": [
            {
              "min": 1.2000000476837158,
              "GGADDPBCBOJ": "DownToGroundOnlyInWater"
            }
          ]
        },
        "cd": 60.0,
        "cdUpperRange": 25.0,
        "initialCD": 15.5,
        "initialCDUpperRange": 5.0,
        "publicCDGroup": "",
        "triggerGCD": false,
        "skillGroupCDID": 3,
        "stateIDs": ["Personality4"],
        "flagTargetReachable": "10",
        "flagSelfOnTemplateCollider": "01",
        "flagSelfInZone": "10",
        "flagTargetInZone": "11"
      },
      "601": {
        "name": "Attack1",
        "combatSkillType": "RangedAttack",
        "priority": 1,
        "castCondition": {
          "pose": [101, 103],
          "maxTargetAngleXZ": 60.0,
          "pickRangeMin": 4.0,
          "pickRangeMax": 8.0
        },
        "cd": 10.0,
        "cdUpperRange": 6.0,
        "publicCDGroup": "",
        "skillGroupCDID": 2,
        "stateIDs": [
          "Attack_01_BS",
          "Attack_01_Loop",
          "Attack_01_AS",
          "Attack_01_Loop_Water",
          "Attack_01_AS_Water",
          "Attack_01_AS_WaterExtra"
        ],
        "flagTargetReachable": "11",
        "flagSelfOnTemplateCollider": "11",
        "flagSelfInZone": "11",
        "flagTargetInZone": "11"
      },
      "611": {
        "name": "Attack2",
        "combatSkillType": "RangedAttack",
        "castCondition": {
          "pose": [101],
          "maxTargetAngleXZ": 30.0,
          "pickRangeMax": 4.0
        },
        "cd": 5.0,
        "cdUpperRange": 6.0,
        "publicCDGroup": "",
        "stateIDs": ["Attack_02"],
        "flagTargetReachable": "11",
        "flagSelfOnTemplateCollider": "11",
        "flagSelfInZone": "11",
        "flagTargetInZone": "11"
      },
      "621": {
        "name": "WaterAttack1",
        "combatSkillType": "RangedAttack",
        "castCondition": {
          "pose": [102, 104],
          "pickRangeMin": 4.800000190734863,
          "pickRangeMax": 8.0,
          "pickRangeYMax": 1.2999999523162842,
          "BHMJOMJEPHD": [
            {
              "min": 1.0,
              "GGADDPBCBOJ": "DownToGroundOnlyInWater"
            }
          ]
        },
        "cd": 16.0,
        "cdUpperRange": 10.0,
        "publicCDGroup": "",
        "skillGroupCDID": 2,
        "stateIDs": [
          "WaterAttack_01_BS",
          "WaterAttack_01_Loop",
          "WaterAttack_01_AS",
          "WaterAttack_01_Loop_Land",
          "WaterAttack_01_AS_Land",
          "WaterAttack_01_AS_Extra"
        ],
        "flagTargetReachable": "11",
        "flagSelfOnTemplateCollider": "11",
        "flagSelfInZone": "11",
        "flagTargetInZone": "11"
      }
    },
    "skillGCD": 8.0,
    "returnToBornTactic": {
      "enable": true,
      "defaultSetting": {
        "turnSpeedOverride": 1.0
      }
    },
    "wanderTactic": {
      "enable": true,
      "condition": {
        "pose": [1, 2]
      },
      "defaultSetting": {
        "turnSpeedOverride": 0.30000001192092896,
        "cdMax": 20.0,
        "cdMin": 8.0,
        "distanceFromBorn": 15.0,
        "distanceFromCurrentMin": 4.0,
        "distanceFromCurrentMax": 8.0,
        "OKGEDDHBKPM": true
      },
      "specification": {
        "2": {
          "turnSpeedOverride": 0.10000000149011612,
          "cdMax": 15.0,
          "cdMin": 5.0,
          "distanceFromBorn": 15.0,
          "distanceFromCurrentMin": 6.0,
          "OKGEDDHBKPM": true
        }
      }
    },
    "meleeChargeTactic": {
      "enable": true,
      "condition": {
        "pose": [101, 103, 104]
      },
      "defaultSetting": {
        "turnSpeedOverride": 2.0,
        "startDistanceMin": 14.0,
        "startDistanceMax": 50.0,
        "stopDistance": 4.0,
        "innerDistance": 6.0
      },
      "specification": {
        "103": {
          "turnSpeedOverride": 2.0,
          "startDistanceMin": 0.009999999776482582,
          "startDistanceMax": 99.0,
          "stopDistance": 3.0,
          "innerDistance": 2.0
        },
        "104": {
          "turnSpeedOverride": 2.0,
          "startDistanceMin": 0.009999999776482582,
          "startDistanceMax": 99.0,
          "stopDistance": 3.0,
          "innerDistance": 2.0
        }
      }
    },
    "facingMoveTactic": {
      "enable": true,
      "condition": {
        "pose": [101]
      },
      "defaultSetting": {
        "rangeMin": 3.0,
        "rangeMax": 8.0,
        "restTimeMax": 3.0,
        "facingMoveTurnInterval": 1.600000023841858,
        "facingMoveWeight": {
          "forward": 2.0,
          "back": 1.5,
          "left": 0.0,
          "right": 0.0
        },
        "PBHGMADNDOC": false,
        "GEKCPGKDAAI": true,
        "PDOKGBAJNEP": "1111",
        "NGLJBMGMGKF": "1011"
      }
    },
    "IMCONJHPHKM": {
      "enable": true,
      "condition": {
        "pose": [102]
      },
      "defaultSetting": {
        "speedLevel": 2,
        "turnSpeedOverride": 0.5,
        "startDistance": 0.009999999776482582,
        "GMJHKGHKMOP": 5.0,
        "GEIHIHGPKEM": 6.5,
        "turningStates": ["TurnBack_Water_HitScence"],
        "cd": 0.0,
        "JPNEKIIHOCH": 99.0,
        "PFBEEMJJJPD": 0.0,
        "OKGEDDHBKPM": true
      }
    },
    "fleeTactic": {
      "enable": true,
      "condition": {
        "pose": [105]
      },
      "defaultSetting": {
        "turnSpeedOverride": 2.0,
        "cd": 0.0,
        "triggerDistance": 100.0,
        "fleeDistanceMin": 99.0,
        "fleeDistanceMax": 99.0,
        "MNGGGDCCMCK": true
      }
    }
  },
  "inputKeys": [
    {
      "keyID": 601,
      "inputKeyCode": 257,
      "abilityName": ""
    },
    {
      "keyID": 611,
      "inputKeyCode": 258,
      "abilityName": ""
    },
    {
      "keyID": 621,
      "inputKeyCode": 259,
      "abilityName": ""
    },
    {
      "keyID": 631,
      "inputKeyCode": 260,
      "abilityName": ""
    }
  ],
  "move": {
    "$type": "PLMNMICDOHN",
    "EINCMKOBBEG": {
      "excludeForces": ["RetreatAirType"]
    },
    "KCNKFNLDDOD": true,
    "AEPIEGNIOGP": 0.30000001192092896,
    "DIJHPKAMMJO": [
      {
        "FDAIJOFPDJK": 10.0,
        "GGADDPBCBOJ": "DownToGroundOnlyInWater",
        "DOPIAKHBNGO": ""
      }
    ],
    "MHHGMODNNGK": 0.4000000059604645,
    "BCBPBHLKCPB": "ForwardBackward",
    "LHHNPKNFGMD": true,
    "OOFDCONLBHL": 0.30000001192092896
  },
  "audio": {
    "NCOGLLMIJGO": "",
    "animAudio": {
      "onTransitionIn": [
        {
          "currentStateName": "Walk_Water",
          "audioEvent": {
            "text": "Play_vfx_monster_animal_gator_run_water_Loop"
          }
        },
        {
          "currentStateName": "Run_Water",
          "audioEvent": {
            "text": "Play_vfx_monster_animal_gator_run_water_fast_Loop"
          }
        },
        {
          "currentStateName": "WaterAttack_01_Loop",
          "audioEvent": {
            "text": "Play_vfx_monster_animal_gator_run_water_fast_Loop"
          }
        },
        {
          "currentStateName": "Attack_01_Loop_Water",
          "audioEvent": {
            "text": "Play_vfx_monster_animal_gator_run_water_fast_Loop"
          }
        }
      ],
      "onTransitionOut": [
        {
          "currentStateName": "Personality1_BS",
          "audioEvent": {
            "text": "Stop_sfx_monster_animal_gator_personality1_BS"
          }
        },
        {
          "currentStateName": "Personality2",
          "audioEvent": {
            "text": "Stop_sfx_monster_animal_gator_personality2"
          }
        },
        {
          "currentStateName": "Personality4",
          "audioEvent": {
            "text": "Stop_sfx_monster_animal_gator_personality4"
          }
        },
        {
          "currentStateName": "Walk_Water",
          "audioEvent": {
            "text": "Stop_vfx_monster_animal_gator_run_water_Loop"
          }
        },
        {
          "currentStateName": "Run_Water",
          "audioEvent": {
            "text": "Stop_vfx_monster_animal_gator_run_water_fast_Loop"
          }
        },
        {
          "currentStateName": "WaterAttack_01_Loop",
          "audioEvent": {
            "text": "Stop_vfx_monster_animal_gator_run_water_fast_Loop"
          }
        },
        {
          "currentStateName": "Attack_01_Loop_Water",
          "audioEvent": {
            "text": "Stop_vfx_monster_animal_gator_run_water_fast_Loop"
          }
        }
      ]
    }
  }
}
