{
  "common": {
    "effectAttachShape": {
      "$type": "ConfigEffectAttachSkinnedMesh",
      "mesh": "EffectMesh"
    },
    "mass": 30.0,
    "height": 0.75,
    "affectedByWorld": true,
    "checkInSurface": true,
    "canTriggerElementReactionText": false
  },
  "model": {
    "bornEffect": "Eff_Animal_Thoarder_Weasel_Emerge",
    "attachEffect": "",
    "canBakeMesh": false
  },
  "dither": {
    "showDitherDuration": 1.0
  },
  "combat": {
    "property": {
      "endureType": "Monster_Minion",
      "weight": 30.0,
      "isInvincible": true
    },
    "beHit": {
      "hitBloodEffect": "",
      "muteAllHitText": true
    },
    "combatLock": {
      "lockShape": "CircleLockEnemy",
      "lockType": "Animal_Lv2"
    },
    "die": {
      "dieEndTime": 2.0,
      "dieForceDisappearTime": 10.0,
      "dieDisappearEffect": ""
    }
  },
  "abilities": [
    {
      "abilityID": "Homeworld_CommonInitial",
      "abilityName": "Animal_Homeworld_Common_Initial",
      "abilityOverride": ""
    }
  ],
  "stateLayers": {
    "defaultLayer": {
      "$type": "ConfigNormalStateLayer",
      "FNPGDAEJAPJ": "",
      "stateIDs": {
        "Born": {
          "$type": "ConfigMonsterStateIDInfo",
          "animatorStates": {
            "Born": ["Audio_Animal_Marten_Born"]
          },
          "resetAnimatorTriggerOnExit": ["DoSkill"]
        },
        "NormalIdle": {
          "$type": "ConfigMonsterStateIDInfo",
          "animatorStates": {
            "Standby": ["Audio_Animal_Marten_Standby"],
            "Standby_Walk": ["Audio_Animal_Marten_Walk"]
          },
          "canDoSkill": true,
          "canSyncMove": true,
          "resetAnimatorTriggerOnExit": ["DoSkill"]
        },
        "NormalMove": {
          "$type": "ConfigMonsterStateIDInfo",
          "animatorStates": {
            "Walk": ["Audio_Animal_Marten_Walk"],
            "Run": ["Audio_Animal_Marten_Walk"],
            "Disappear": ["Audio_Animal_Marten_Walk"]
          },
          "canDoSkill": true,
          "canSyncMove": true,
          "resetAnimatorTriggerOnExit": ["DoSkill"],
          "BHEPAJIOBDN": true
        },
        "Die": {
          "$type": "ConfigMonsterStateIDInfo",
          "animatorStates": {
            "Die": ["Animal_Marten_Die", "Audio_Animal_Marten_Die"],
            "Die_Disappear": ["Animal_Marten_Disappear"]
          }
        },
        "Alert": {
          "$type": "ConfigMonsterStateIDInfo",
          "animatorStates": {
            "Alert": ["Animal_Marten_Alert", "Audio_Animal_Marten_Alert"]
          },
          "canDoSkill": true,
          "resetAnimatorTriggerOnExit": ["BeHit", "DoSkill"],
          "BHEPAJIOBDN": true,
          "ECGKJECEAII": true
        },
        "Personality_1": {
          "$type": "ConfigMonsterStateIDInfo",
          "animatorStates": {
            "Personality_1": [
              "Animal_Marten_Personality1",
              "Audio_Animal_Marten_Personality_1"
            ]
          },
          "canDoSkill": true,
          "resetAnimatorTriggerOnExit": ["BeHit", "DoSkill"]
        },
        "Personality_2": {
          "$type": "ConfigMonsterStateIDInfo",
          "animatorStates": {
            "Personality_2": ["Audio_Animal_Marten_Personality_2"]
          },
          "canDoSkill": true,
          "resetAnimatorTriggerOnExit": ["BeHit", "DoSkill"]
        },
        "StateTransition": {
          "$type": "ConfigMonsterStateIDInfo",
          "animatorStates": {
            "StandbyToWalk": [],
            "WalkToStandby": ["Audio_Animal_Marten_Walk"]
          },
          "resetAnimatorTriggerOnExit": ["BeHit", "DoSkill"]
        }
      }
    }
  },
  "initialPoses": {
    "Default": {}
  },
  "aibeta": {
    "enable": true,
    "friendliness": 1,
    "decisionArchetype": "Animal_Homeworld",
    "moveSetting": {
      "navMeshAgentName": "Undead01"
    },
    "sensing": {
      "settings": {
        "DefaultSetting": {
          "viewRange": 15.0,
          "horizontalFov": 90.0,
          "verticalFov": 30.0,
          "feelRange": 9.0
        }
      }
    },
    "neurons": {
      "DefaultSetting": ["HIT"]
    },
    "threat": {
      "threatDecreaseSpeed": 500.0,
      "viewAttenuation": [
        {
          "x": 7.0,
          "y": 2.5
        },
        {
          "x": 9.0,
          "y": 2.0
        },
        {
          "x": 11.0,
          "y": 1.5
        },
        {
          "x": 11.0,
          "y": 1.0
        },
        {
          "x": 15.0,
          "y": 0.5
        }
      ]
    },
    "defendArea": {
      "defendRange": 100.0
    },
    "poseControl": {
      "items": [
        {
          "minTime": 30.0,
          "maxTime": 50.0,
          "poseID": 1,
          "RandomPose": [2],
          "switchOnlyInCanDoSkillState": true
        },
        {
          "minTime": 60.0,
          "maxTime": 120.0,
          "poseID": 2,
          "RandomPose": [1],
          "switchOnlyInCanDoSkillState": true
        },
        {
          "minTime": 15.0,
          "maxTime": 50.0,
          "poseID": 101,
          "RandomPose": [2],
          "switchOnlyInCanDoSkillState": true
        },
        {
          "minTime": 30.0,
          "maxTime": 60.0,
          "poseID": 201,
          "RandomPose": [1],
          "switchOnlyInCanDoSkillState": true
        }
      ]
    },
    "ui": {
      "hasDirectionIndicator": false
    },
    "skills": {
      "101": {
        "name": "PersonalitySit1",
        "skillType": "Free",
        "castCondition": {
          "pose": [1]
        },
        "cd": 25.0,
        "cdUpperRange": 25.0,
        "initialCD": 20.0,
        "initialCDUpperRange": 20.0,
        "publicCDGroup": "",
        "stateIDs": ["Personality_1"],
        "flagTargetReachable": "10",
        "flagSelfOnTemplateCollider": "01",
        "flagSelfInZone": "10",
        "flagTargetInZone": "11"
      },
      "201": {
        "name": "PersonalitySit2",
        "skillType": "Free",
        "castCondition": {
          "pose": [1]
        },
        "cd": 20.0,
        "cdUpperRange": 15.0,
        "initialCD": 10.0,
        "initialCDUpperRange": 10.0,
        "publicCDGroup": "",
        "stateIDs": ["Personality_2"],
        "flagTargetReachable": "10",
        "flagSelfOnTemplateCollider": "01",
        "flagSelfInZone": "10",
        "flagTargetInZone": "11"
      },
      "111": {
        "name": "PersonalitySit1",
        "castCondition": {
          "pose": [101]
        },
        "cd": 25.0,
        "cdUpperRange": 25.0,
        "initialCD": 20.0,
        "initialCDUpperRange": 20.0,
        "publicCDGroup": "",
        "stateIDs": ["Personality_1"],
        "flagTargetReachable": "10",
        "flagSelfOnTemplateCollider": "01",
        "flagSelfInZone": "10",
        "flagTargetInZone": "11"
      },
      "211": {
        "name": "PersonalitySit2",
        "castCondition": {
          "pose": [101]
        },
        "cd": 20.0,
        "cdUpperRange": 15.0,
        "initialCD": 10.0,
        "initialCDUpperRange": 10.0,
        "publicCDGroup": "",
        "stateIDs": ["Personality_2"],
        "flagTargetReachable": "10",
        "flagSelfOnTemplateCollider": "01",
        "flagSelfInZone": "10",
        "flagTargetInZone": "11"
      }
    },
    "skillGCD": 5.0,
    "returnToBornTactic": {
      "enable": true,
      "defaultSetting": {
        "speedLevel": 1
      }
    },
    "wanderTactic": {
      "enable": true,
      "condition": {
        "pose": [2, 201]
      },
      "threatLevelLimit": [0, 1, 2],
      "defaultSetting": {
        "turnSpeedOverride": 2.0,
        "cdMax": 5.0,
        "cdMin": 3.0,
        "distanceFromBorn": 5.0,
        "distanceFromCurrentMax": 3.5
      }
    },
    "fleeTactic": {
      "enable": true,
      "condition": {
        "pose": [301]
      },
      "nerveTrigger": ["HIT"],
      "defaultSetting": {
        "turnSpeedOverride": 2.5,
        "cd": 3.0,
        "triggerDistance": 100.0,
        "fleeAngle": 75.0,
        "fleeNumberMin": 5,
        "fleeNumberMax": 6,
        "fleeDistanceMin": 6.0,
        "fleeDistanceMax": 8.0,
        "turnToTarget": true,
        "killSelfTime": 3.0
      }
    },
    "mixin": {
      "setControllerParameterOnBeHitByEntityType": [
        {
          "poseIDs": [1, 2, 101, 201],
          "settings": [
            {
              "entityTypes": ["Avatar", "Monster", "Gadget", "Bullet"],
              "onSuccess": {
                "setPoseInt": [
                  {
                    "intID": "RandomPose",
                    "value": 3
                  }
                ]
              },
              "onFail": {
                "setPoseInt": [
                  {
                    "intID": "RandomPose",
                    "value": 3
                  }
                ]
              }
            }
          ]
        }
      ]
    }
  },
  "inputKeys": [
    {
      "keyID": 101,
      "inputKeyCode": 257,
      "abilityName": ""
    },
    {
      "keyID": 201,
      "inputKeyCode": 258,
      "abilityName": ""
    }
  ],
  "animal": {
    "tickAbilityElement": false,
    "hasCharacterRenderering": false
  }
}
