{
  "common": {
    "effectAttachShape": {
      "$type": "ConfigEffectAttachSkinnedMesh",
      "mesh": "EffectMesh"
    },
    "mass": 20.0,
    "height": 0.800000011920929,
    "affectedByWorld": true,
    "checkInSurface": true,
    "canTriggerElementReactionText": false,
    "clearAnimatorOnSetLightDeactive": true,
    "clearAIOnSetLightDeactive": true,
    "NCCLLKFLJGL": true
  },
  "model": {
    "bornEffect": "",
    "attachEffect": "",
    "canBakeMesh": false
  },
  "combat": {
    "property": {
      "endureType": "Monster_Minion",
      "weight": 30.0,
      "isInvincible": true
    },
    "beHit": {
      "hitBloodEffect": "",
      "muteAllHitText": true
    },
    "combatLock": {
      "lockShape": "CircleLockEnemy",
      "denyLockOn": true,
      "lockType": "Default"
    },
    "die": {
      "dieEndTime": 0.009999999776482582,
      "dieForceDisappearTime": 10.0,
      "dieDisappearEffect": "Eff_Animal_Common_Die"
    }
  },
  "stateLayers": {
    "defaultLayer": {
      "$type": "ConfigNormalStateLayer",
      "FNPGDAEJAPJ": "",
      "stateIDs": {
        "Born": {
          "$type": "ConfigMonsterStateIDInfo",
          "animatorStates": {
            "Born": []
          },
          "resetAnimatorTriggerOnExit": ["DoSkill"]
        },
        "NormalIdle": {
          "$type": "ConfigMonsterStateIDInfo",
          "animatorStates": {
            "Standby": []
          },
          "canSyncMove": true,
          "resetAnimatorTriggerOnExit": ["DoSkill"]
        },
        "NormalMove": {
          "$type": "ConfigMonsterStateIDInfo",
          "animatorStates": {
            "Walk": ["Animal_Fishable_Maritime_Walk"],
            "Run": ["Animal_Fishable_Maritime_Run"],
            "PoseAdjust": []
          },
          "canSyncMove": true,
          "resetAnimatorTriggerOnExit": ["DoSkill"],
          "BHEPAJIOBDN": true
        },
        "Turn": {
          "$type": "ConfigMonsterStateIDInfo",
          "animatorStates": {
            "Turn_Walk": ["Animal_Fishable_Maritime_Walk"],
            "Turn_Run": ["Animal_Fishable_Maritime_Turn_Run"]
          },
          "canSyncMove": true,
          "resetAnimatorTriggerOnExit": ["DoSkill"],
          "BHEPAJIOBDN": true
        },
        "BeHit": {
          "$type": "ConfigMonsterStateIDInfo",
          "animatorStates": {
            "Hit_L": []
          },
          "resetAnimatorTriggerOnEnter": ["BeHit"],
          "resetAnimatorTriggerOnExit": ["DoSkill"]
        },
        "Die": {
          "$type": "ConfigMonsterStateIDInfo",
          "animatorStates": {
            "Die": ["Animal_Fish_Die"]
          }
        }
      }
    }
  },
  "initialPoses": {
    "Default": {},
    "InFishTank": {
      "initialPoseID": 201,
      "initialPoseParams": {
        "boolParams": {
          "InFishTank": "true"
        }
      }
    }
  },
  "aibeta": {
    "enable": true,
    "friendliness": 1,
    "decisionArchetype": "Animal_Homeworld",
    "moveSetting": {
      "moveCategory": "Water",
      "useNavMesh": false,
      "navMeshAgentName": "Undead01",
      "length": 1.9500000476837158
    },
    "sensing": {
      "settings": {
        "DefaultSetting": {
          "enableVision": false,
          "feelRange": 6.5
        },
        "InFishTank": {
          "enableVision": false,
          "hearAttractionRange": 7.5,
          "feelRange": 0.0
        }
      },
      "templates": {
        "DefaultTemplate": {
          "DefaultPoses": "DefaultSetting",
          "201": "InFishTank"
        }
      }
    },
    "neurons": {
      "DefaultSetting": ["HIT"]
    },
    "threat": {
      "clearThreatTargetDistance": 10.0,
      "clearThreatByTargetOutOfZone": true,
      "clearThreatTimerByDistance": 0.800000011920929,
      "clearThreatTimerByTargetOutOfZone": 1.0,
      "viewThreatGrow": 75.0,
      "feelThreatGrow": 1000.0,
      "threatBroadcastRange": 5.0
    },
    "defendArea": {
      "defendRange": 9.0
    },
    "ui": {
      "hasDirectionIndicator": false
    },
    "profiling": {
      "lodStrategy": "MinorAnimal",
      "moveCullingLevel": 3
    },
    "returnToBornTactic": {},
    "wanderTactic": {
      "enable": true,
      "threatLevelLimit": [0, 1, 2],
      "defaultSetting": {
        "turnSpeedOverride": 0.5,
        "distanceFromBorn": 20.0,
        "distanceFromCurrentMin": 3.200000047683716,
        "distanceFromCurrentMax": 6.400000095367432
      },
      "specification": {
        "201": {
          "turnSpeedOverride": 0.4000000059604645,
          "cdMax": 8.5,
          "cdMin": 4.0,
          "distanceFromBorn": 5.0,
          "distanceFromCurrentMin": 0.36000001430511475,
          "distanceFromCurrentMax": 2.0
        }
      }
    },
    "followServerRouteTactic": {
      "enable": true,
      "condition": {
        "pose": [201]
      },
      "defaultSetting": {
        "NJMMEOBOFAF": -25.0,
        "BBIHALEGLEF": 25.0,
        "turnSpeedOverride": 0.4000000059604645
      }
    },
    "fleeTactic": {
      "enable": true,
      "nerveTrigger": ["HIT"],
      "defaultSetting": {
        "turnSpeedOverride": 2.0,
        "cd": 1.0,
        "triggerDistance": 1.0,
        "fleeAngle": 360.0,
        "fleeNumberMin": 4,
        "fleeNumberMax": 5,
        "fleeDistanceMin": 0.5,
        "fleeDistanceMax": 2.0,
        "restrictedByDefendArea": true
      },
      "specification": {
        "201": {
          "turnSpeedOverride": 1.399999976158142,
          "cd": 0.4000000059604645,
          "triggerDistance": 200.0,
          "fleeAngle": 360.0,
          "fleeNumberMin": 7,
          "fleeNumberMax": 8,
          "fleeDistanceMin": 0.15000000596046448,
          "fleeDistanceMax": 0.20999999344348907,
          "restrictedByDefendArea": true,
          "DFEOBHCKFFP": 3.5
        }
      }
    }
  },
  "move": {
    "$type": "PLMNMICDOHN",
    "GOMPNCMLHHE": false,
    "KCNKFNLDDOD": true,
    "AEPIEGNIOGP": 0.5
  },
  "animal": {
    "hasAbility": false,
    "tickAbilityElement": false,
    "hasCharacterRenderering": false
  }
}
