{
  "common": {
    "effectAttachShape": {
      "$type": "ConfigEffectAttachSkinnedMesh",
      "mesh": "EffectMesh"
    },
    "mass": 10000.0,
    "height": 2.0,
    "modelHeight": 2.700000047683716,
    "viewSize": 2.0,
    "affectedByWorld": true,
    "checkInSurface": true,
    "scale": 0.699999988079071,
    "shouldPauseAnimatorBeforeReady": true,
    "useGrassDisplacement": true,
    "hasAfterImage": true,
    "clearAIOnSetLightDeactive": true,
    "KJCBJDCKPND": true,
    "NCCLLKFLJGL": true
  },
  "model": {
    "bornEffect": "",
    "attachEffect": "",
    "canBakeMesh": false
  },
  "dither": {
    "showDitherDuration": 2.0
  },
  "combat": {
    "property": {
      "endureType": "Monster_Demiboss_Other",
      "weight": 101.0
    },
    "beHit": {
      "hitBloodEffect": ""
    },
    "combatLock": {
      "lockShape": "CircleLockEnemy",
      "lockType": "Avatar&Monster_Lv4"
    },
    "die": {
      "hasAnimatorDie": true,
      "dieEndTime": 2.0,
      "dieForceDisappearTime": 2.0,
      "dieDisappearEffect": "",
      "OCGODEHJPME": true,
      "MFJBKFECLNJ": true,
      "IMEEBMBJPGJ": true,
      "MBHMAGEPJFH": true,
      "CFHPDHFKMEP": true
    },
    "animEvents": {
      "MeleeAtk": {
        "attackPattern": {
          "$type": "NAMPOMPBMHC",
          "triggerType": "TriggerNoRepeat",
          "JGCLJPCGHMC": true,
          "born": {
            "$type": "ConfigBornBySelf",
            "offset": {
              "x": 0.0,
              "y": 1.5,
              "z": 0.5
            }
          },
          "size": {
            "x": 2.0,
            "y": 2.5,
            "z": 3.5
          }
        },
        "attackInfo": {
          "attackTag": "",
          "attenuationTag": "",
          "attenuationGroup": "default",
          "attackProperty": {
            "damagePercentage": 0.699999988079071,
            "MKLAMNDEDGB": 0.0,
            "bonusCriticalHurt": 50.0,
            "strikeType": "Slash",
            "enBreak": 50.0,
            "attackType": "Melee"
          },
          "hitPattern": {
            "onHitEffectName": "default",
            "hitImpulseType": "LV4",
            "canBeDefenceHalt": true
          }
        }
      },
      "MeleeAtkThunder": {
        "attackPattern": {
          "$type": "NAMPOMPBMHC",
          "triggerType": "TriggerNoRepeat",
          "JGCLJPCGHMC": true,
          "born": {
            "$type": "ConfigBornBySelf",
            "offset": {
              "x": 0.0,
              "y": 1.5,
              "z": 0.5
            }
          },
          "size": {
            "x": 2.0,
            "y": 2.5,
            "z": 4.0
          }
        },
        "attackInfo": {
          "attackTag": "Monster_Samurai_Kairagi_ThunderHit",
          "attenuationTag": "",
          "attenuationGroup": "default",
          "attackProperty": {
            "damagePercentage": 0.699999988079071,
            "MKLAMNDEDGB": 0.0,
            "elementType": "Electric",
            "bonusCriticalHurt": 50.0,
            "strikeType": "Slash",
            "enBreak": 50.0,
            "attackType": "Melee"
          },
          "hitPattern": {
            "onHitEffectName": "default",
            "hitImpulseType": "LV4",
            "canBeDefenceHalt": true
          }
        }
      }
    }
  },
  "equipController": {
    "sheathPoint": "",
    "attachPoints": {
      "equip01": "",
      "equip02": ""
    }
  },
  "abilities": [
    {
      "abilityID": "",
      "abilityName": "Monster_Monolith_Ordinator_HideSelf",
      "abilityOverride": ""
    },
    {
      "abilityID": "",
      "abilityName": "Monster_Monolith_Ordinator_PartController",
      "abilityOverride": ""
    },
    {
      "abilityID": "",
      "abilityName": "Monster_Monolith_Ordinator_ReleaseLance",
      "abilityOverride": ""
    },
    {
      "abilityID": "",
      "abilityName": "Monster_Monolith_Ordinator_ResetPart",
      "abilityOverride": ""
    },
    {
      "abilityID": "",
      "abilityName": "Monster_Monolith_Ordinator_ClearPart",
      "abilityOverride": ""
    },
    {
      "abilityID": "",
      "abilityName": "Monster_Monolith_Ordinator_Weak",
      "abilityOverride": ""
    },
    {
      "abilityID": "",
      "abilityName": "Monster_Monolith_Ordinator_Initial",
      "abilityOverride": ""
    },
    {
      "abilityID": "",
      "abilityName": "Monster_Monolith_Ordinator_PartCharge",
      "abilityOverride": ""
    },
    {
      "abilityID": "",
      "abilityName": "Monster_Monolith_Ordinator_Steer",
      "abilityOverride": ""
    },
    {
      "abilityID": "",
      "abilityName": "Monster_Monolith_Ordinator_Communicate",
      "abilityOverride": ""
    },
    {
      "abilityID": "",
      "abilityName": "Monster_Monolith_Ordinator_FireAngryLance",
      "abilityOverride": ""
    }
  ],
  "stateLayers": {
    "defaultLayer": {
      "$type": "ConfigNormalStateLayer",
      "FNPGDAEJAPJ": "",
      "stateIDs": {
        "Born": {
          "$type": "ConfigMonsterStateIDInfo",
          "animatorStates": {
            "Born": []
          },
          "canSyncMove": true,
          "resetAnimatorTriggerOnExit": ["DoSkill"]
        },
        "NormalIdle": {
          "$type": "ConfigMonsterStateIDInfo",
          "animatorStates": {
            "Standby": []
          },
          "canDoSkill": true,
          "canSyncMove": true,
          "resetAnimatorTriggerOnExit": ["DoSkill"]
        },
        "StandbyFree": {
          "$type": "ConfigMonsterStateIDInfo",
          "animatorStates": {
            "StandbyFree": []
          },
          "canDoSkill": true,
          "canSyncMove": true,
          "resetAnimatorTriggerOnExit": ["DoSkill"]
        },
        "WalkFree": {
          "$type": "ConfigMonsterStateIDInfo",
          "animatorStates": {
            "WalkFree": []
          },
          "canDoSkill": true,
          "canSyncMove": true,
          "resetAnimatorTriggerOnExit": ["DoSkill"],
          "BHEPAJIOBDN": true
        },
        "NormalMove": {
          "$type": "ConfigMonsterStateIDInfo",
          "animatorStates": {
            "WalkForward": []
          },
          "canDoSkill": true,
          "canSyncMove": true,
          "resetAnimatorTriggerOnExit": ["DoSkill"],
          "BHEPAJIOBDN": true
        },
        "TurnLeft": {
          "$type": "ConfigMonsterStateIDInfo",
          "animatorStates": {
            "TurnLeft": []
          },
          "canDoSkill": true,
          "canSyncMove": true,
          "resetAnimatorTriggerOnExit": ["DoSkill"],
          "BHEPAJIOBDN": true
        },
        "TurnRight": {
          "$type": "ConfigMonsterStateIDInfo",
          "animatorStates": {
            "TurnRight": []
          },
          "canDoSkill": true,
          "canSyncMove": true,
          "resetAnimatorTriggerOnExit": ["DoSkill"],
          "BHEPAJIOBDN": true
        },
        "Die": {
          "$type": "ConfigMonsterStateIDInfo",
          "animatorStates": {
            "Die": [
              "Monster_Monolith_Ordinator_Die",
              "Audio_Monster_Monolith_Ordinator_Die"
            ]
          }
        },
        "Alert": {
          "$type": "ConfigMonsterStateIDInfo",
          "animatorStates": {
            "Alert": ["Audio_Monster_Monolith_Ordinator_Alert"]
          },
          "resetAnimatorTriggerOnExit": ["BeHit", "DoSkill"],
          "BHEPAJIOBDN": true
        },
        "PowerOff": {
          "$type": "ConfigMonsterStateIDInfo",
          "animatorStates": {
            "PowerOff": []
          },
          "canDoSkill": true,
          "canSyncMove": true,
          "resetAnimatorTriggerOnExit": ["DoSkill"]
        },
        "PowerOffAlert": {
          "$type": "ConfigMonsterStateIDInfo",
          "animatorStates": {
            "PowerOffAlert": ["Audio_Monster_Monolith_Ordinator_PowerOffAlert"]
          },
          "resetAnimatorTriggerOnExit": ["BeHit", "DoSkill"],
          "BHEPAJIOBDN": true
        },
        "LanceAtk": {
          "$type": "ConfigMonsterStateIDInfo",
          "animatorStates": {
            "NormalAtk": [
              "Monster_Monolith_Ordinator_LanceAttack",
              "Audio_Monster_Monolith_Ordinator_Lance_NormalAtk"
            ]
          },
          "resetAnimatorTriggerOnExit": ["BeHit", "DoSkill"]
        },
        "Seperate": {
          "$type": "ConfigMonsterStateIDInfo",
          "animatorStates": {
            "Seperate": [
              "Monster_Monolith_Ordinator_ReleaseLance",
              "Audio_Monster_Monolith_Ordinator_Lance_Seperate"
            ]
          },
          "resetAnimatorTriggerOnExit": ["BeHit", "DoSkill"],
          "BHEPAJIOBDN": true
        },
        "Weak_BS": {
          "$type": "ConfigMonsterStateIDInfo",
          "animatorStates": {
            "Weak_BS": ["Audio_Monster_Monolith_Ordinator_Weak_BS"]
          },
          "resetAnimatorTriggerOnExit": ["BeHit", "DoSkill"]
        },
        "Weak_Loop": {
          "$type": "ConfigMonsterStateIDInfo",
          "animatorStates": {
            "Weak_Loop": []
          },
          "resetAnimatorTriggerOnExit": ["BeHit", "DoSkill"]
        },
        "Weak_AS": {
          "$type": "ConfigMonsterStateIDInfo",
          "animatorStates": {
            "Weak_AS": ["Audio_Monster_Monolith_Ordinator_Weak_AS"]
          },
          "resetAnimatorTriggerOnExit": ["BeHit", "DoSkill"]
        },
        "RandomShow1": {
          "$type": "ConfigMonsterStateIDInfo",
          "animatorStates": {
            "RandomShow1": [
              "Audio_Monster_Monolith_Ordinator_Lance_RandomShow1"
            ]
          },
          "resetAnimatorTriggerOnExit": ["BeHit", "DoSkill"],
          "BHEPAJIOBDN": true
        },
        "RandomShow2": {
          "$type": "ConfigMonsterStateIDInfo",
          "animatorStates": {
            "RandomShow2": [
              "Audio_Monster_Monolith_Ordinator_Lance_RandomShow2"
            ]
          },
          "resetAnimatorTriggerOnExit": ["BeHit", "DoSkill"],
          "BHEPAJIOBDN": true
        },
        "Communicate": {
          "$type": "ConfigMonsterStateIDInfo",
          "animatorStates": {
            "Communicate": ["Audio_Monster_Monolith_Ordinator_Communicate"]
          },
          "resetAnimatorTriggerOnExit": ["BeHit", "DoSkill"],
          "BHEPAJIOBDN": true
        },
        "Test1": {
          "$type": "ConfigMonsterStateIDInfo",
          "animatorStates": {
            "Test1": []
          },
          "resetAnimatorTriggerOnExit": ["BeHit", "DoSkill"],
          "BHEPAJIOBDN": true
        },
        "Test2": {
          "$type": "ConfigMonsterStateIDInfo",
          "animatorStates": {
            "Test2": []
          },
          "resetAnimatorTriggerOnExit": ["BeHit", "DoSkill"],
          "BHEPAJIOBDN": true
        },
        "Charge": {
          "$type": "ConfigMonsterStateIDInfo",
          "animatorStates": {
            "Charge_BS": ["Audio_Monster_Monolith_Ordinator_Charge_BS"],
            "Charge_Loop": [],
            "Charge_AS": ["Audio_Monster_Monolith_Ordinator_Charge_AS"]
          },
          "resetAnimatorTriggerOnExit": ["BeHit", "DoSkill"]
        },
        "Reset": {
          "$type": "ConfigMonsterStateIDInfo",
          "animatorStates": {
            "Reset": []
          },
          "resetAnimatorTriggerOnExit": ["BeHit", "DoSkill"],
          "BHEPAJIOBDN": true
        }
      }
    }
  },
  "billboard": {
    "$type": "NCBABGPMMPL",
    "EBBHBMFMOGD": "BillboardAttach",
    "BFOMIIKCOGI": "Character",
    "ANGKJBLILKJ": true,
    "HLGCEAGHFGH": 50.0,
    "size": "Big"
  },
  "initialPoses": {
    "Default": {
      "initialPoseID": 1
    },
    "Communicate": {
      "initialPoseID": 1001,
      "initialPoseParams": {
        "boolParams": {
          "Communicate": "true"
        }
      }
    },
    "UseEnergy": {
      "initialPoseID": 1002,
      "initialPoseParams": {
        "boolParams": {
          "UseEnergy": "true"
        }
      }
    },
    "Scan": {
      "initialPoseID": 1003,
      "initialPoseParams": {
        "boolParams": {
          "Scan": "true"
        }
      }
    },
    "PowerOff": {
      "initialPoseID": 1004,
      "initialPoseParams": {
        "boolParams": {
          "PowerOff": "true"
        }
      }
    }
  },
  "aibeta": {
    "enable": true,
    "sensing": {
      "settings": {
        "DefaultSetting": {
          "viewRange": 25.0,
          "feelRange": 10.0
        },
        "NeverCombat": {
          "enableVision": false,
          "hearAttractionRange": 0.0,
          "feelRange": 0.0
        },
        "LowAlert": {
          "viewRange": 10.0
        },
        "SPAlert1": {
          "viewRange": 15.0,
          "verticalFov": 30.0
        }
      },
      "templates": {
        "DefaultTemplate": {
          "DefaultPoses": "DefaultSetting",
          "1001": "DefaultSetting",
          "1002": "LowAlert",
          "1003": "DefaultSetting"
        },
        "NeverCombatTemplate": {
          "DefaultPoses": "NeverCombat"
        },
        "PowerOff": {
          "DefaultPoses": "DefaultSetting",
          "1004": "NeverCombat"
        },
        "SPAlert1": {
          "DefaultPoses": "SPAlert1"
        }
      }
    },
    "neurons": {
      "DefaultSetting": ["HIT"],
      "NeverCombat": []
    },
    "threat": {
      "clearThreatByLostPath": true,
      "clearThreatByTargetOutOfZone": true,
      "clearThreatTimerByLostPath": 11.0,
      "clearThreatTimerByTargetOutOfZone": 4.0,
      "viewAttenuation": [
        {
          "x": 10.0,
          "y": 2.0
        },
        {
          "x": 15.0,
          "y": 0.800000011920929
        },
        {
          "x": 20.0,
          "y": 0.5
        },
        {
          "x": 25.0,
          "y": 0.30000001192092896
        },
        {
          "x": 30.0,
          "y": 0.20000000298023224
        }
      ],
      "resistTauntLevel": "Monster_TauntLevel_2"
    },
    "defendArea": {
      "defendRange": 50.0
    },
    "network": {
      "syncSkill": true
    },
    "skillGroupCDConfigs": [
      {
        "skillGroupCDID": 0,
        "skillGroupCDTime": 5.0
      },
      {
        "skillGroupCDID": 1,
        "skillGroupCDTime": 10.0
      },
      {
        "skillGroupCDID": 2,
        "skillGroupCDTime": 15.0
      }
    ],
    "skillSetting": {
      "skillEliteSet": {
        "1": [101, 102],
        "2": [101],
        "3": [2]
      }
    },
    "skills": {
      "1": {
        "name": "OnAlert",
        "skillType": "OnAlert",
        "faceTarget": true,
        "castCondition": {
          "pose": [0, 1, 1001, 1002, 1003]
        },
        "publicCDGroup": "",
        "ignoreGCD": true,
        "triggerGCD": false,
        "stateIDs": ["Alert"],
        "skillQueryingTime": 3.0,
        "flagTargetReachable": "10",
        "flagSelfOnTemplateCollider": "01",
        "flagSelfInZone": "10",
        "flagTargetInZone": "11"
      },
      "2": {
        "name": "OnAlert",
        "skillType": "OnAlert",
        "faceTarget": true,
        "publicCDGroup": "",
        "ignoreGCD": true,
        "triggerGCD": false,
        "stateIDs": ["Alert"],
        "skillQueryingTime": 3.0,
        "flagTargetReachable": "10",
        "flagSelfOnTemplateCollider": "01",
        "flagSelfInZone": "10",
        "flagTargetInZone": "11"
      },
      "3": {
        "name": "OnAlert",
        "skillType": "OnAlert",
        "faceTarget": true,
        "castCondition": {
          "pose": [1004]
        },
        "publicCDGroup": "",
        "ignoreGCD": true,
        "triggerGCD": false,
        "stateIDs": ["Alert"],
        "skillQueryingTime": 3.0,
        "flagTargetReachable": "10",
        "flagSelfOnTemplateCollider": "01",
        "flagSelfInZone": "10",
        "flagTargetInZone": "11"
      },
      "9001": {
        "name": "UseEnergy",
        "skillType": "Free",
        "faceTarget": true,
        "castCondition": {
          "pose": [1002]
        },
        "cd": 10.0,
        "cdUpperRange": 5.0,
        "initialCD": 5.0,
        "publicCDGroup": "",
        "ignoreGCD": true,
        "triggerGCD": false,
        "stateIDs": ["RandomShow1"],
        "skillQueryingTime": 3.0,
        "flagTargetReachable": "10",
        "flagSelfOnTemplateCollider": "01",
        "flagSelfInZone": "10",
        "flagTargetInZone": "11"
      },
      "9002": {
        "name": "Show2",
        "skillType": "Free",
        "faceTarget": true,
        "castCondition": {
          "pose": [1003]
        },
        "cd": 10.0,
        "cdUpperRange": 5.0,
        "initialCD": 5.0,
        "publicCDGroup": "",
        "ignoreGCD": true,
        "triggerGCD": false,
        "stateIDs": ["RandomShow2"],
        "skillQueryingTime": 3.0,
        "flagTargetReachable": "10",
        "flagSelfOnTemplateCollider": "01",
        "flagSelfInZone": "10",
        "flagTargetInZone": "11"
      },
      "9003": {
        "name": "Communicate",
        "skillType": "Free",
        "faceTarget": true,
        "castCondition": {
          "pose": [1001]
        },
        "cd": 10.0,
        "cdUpperRange": 5.0,
        "initialCD": 5.0,
        "publicCDGroup": "",
        "ignoreGCD": true,
        "triggerGCD": false,
        "stateIDs": ["Communicate"],
        "skillQueryingTime": 3.0,
        "flagTargetReachable": "10",
        "flagSelfOnTemplateCollider": "01",
        "flagSelfInZone": "10",
        "flagTargetInZone": "11"
      },
      "101": {
        "name": "LanceAtk",
        "priority": 1,
        "castCondition": {
          "pose": [101],
          "needReInitCD": true,
          "pickRangeMax": 30.0
        },
        "cd": 3.0,
        "cdUpperRange": 3.0,
        "initialCD": 1.0,
        "initialCDUpperRange": 2.0,
        "publicCDGroup": "",
        "triggerGCD": false,
        "stateIDs": ["LanceAtk"],
        "skillQueryingTime": 3.0,
        "flagTargetReachable": "11",
        "flagSelfOnTemplateCollider": "01",
        "flagSelfInZone": "11",
        "flagTargetInZone": "11"
      },
      "102": {
        "name": "Seperate",
        "priority": 2,
        "castCondition": {
          "pose": [101],
          "needReInitCD": true,
          "pickRangeMax": 30.0
        },
        "cd": 10.0,
        "initialCD": 15.0,
        "initialCDUpperRange": 5.0,
        "publicCDGroup": "",
        "ignoreGCD": true,
        "stateIDs": ["Seperate"],
        "skillQueryingTime": 3.0,
        "flagTargetReachable": "11",
        "flagSelfOnTemplateCollider": "01",
        "flagSelfInZone": "11",
        "flagTargetInZone": "11"
      },
      "10000": {
        "name": "OnAlert",
        "faceTarget": true,
        "castCondition": {
          "pose": [999]
        },
        "cd": 10.0,
        "publicCDGroup": "",
        "ignoreGCD": true,
        "triggerGCD": false,
        "stateIDs": ["Weak_BS", "Weak_Loop", "Weak_AS"],
        "skillQueryingTime": 3.0,
        "flagTargetReachable": "10",
        "flagSelfOnTemplateCollider": "01",
        "flagSelfInZone": "10",
        "flagTargetInZone": "11"
      },
      "10001": {
        "name": "OnAlert",
        "faceTarget": true,
        "castCondition": {
          "pose": [999]
        },
        "cd": 10.0,
        "publicCDGroup": "",
        "ignoreGCD": true,
        "triggerGCD": false,
        "stateIDs": ["Test1"],
        "skillQueryingTime": 3.0,
        "flagTargetReachable": "10",
        "flagSelfOnTemplateCollider": "01",
        "flagSelfInZone": "10",
        "flagTargetInZone": "11"
      },
      "10002": {
        "name": "OnAlert",
        "faceTarget": true,
        "castCondition": {
          "pose": [999]
        },
        "cd": 10.0,
        "publicCDGroup": "",
        "ignoreGCD": true,
        "triggerGCD": false,
        "stateIDs": ["Test2"],
        "skillQueryingTime": 3.0,
        "flagTargetReachable": "10",
        "flagSelfOnTemplateCollider": "01",
        "flagSelfInZone": "10",
        "flagTargetInZone": "11"
      },
      "10003": {
        "name": "OnAlert",
        "faceTarget": true,
        "castCondition": {
          "pose": [999]
        },
        "cd": 10.0,
        "publicCDGroup": "",
        "ignoreGCD": true,
        "triggerGCD": false,
        "stateIDs": ["Charge"],
        "skillQueryingTime": 3.0,
        "flagTargetReachable": "10",
        "flagSelfOnTemplateCollider": "01",
        "flagSelfInZone": "10",
        "flagTargetInZone": "11"
      },
      "9999": {
        "name": "Reset",
        "faceTarget": true,
        "castCondition": {
          "pose": [999]
        },
        "cd": 10.0,
        "publicCDGroup": "",
        "ignoreGCD": true,
        "triggerGCD": false,
        "stateIDs": ["Reset"],
        "skillQueryingTime": 3.0,
        "flagTargetReachable": "10",
        "flagSelfOnTemplateCollider": "01",
        "flagSelfInZone": "10",
        "flagTargetInZone": "11"
      }
    },
    "skillGCD": 3.0,
    "returnToBornTactic": {
      "enable": true,
      "defaultSetting": {
        "speedLevel": 1
      }
    },
    "wanderTactic": {
      "enable": true,
      "condition": {
        "pose": [1]
      },
      "defaultSetting": {
        "turnSpeedOverride": 1.0,
        "cdMax": 5.0,
        "cdMin": 2.5,
        "distanceFromBorn": 15.0,
        "distanceFromCurrentMin": 5.0,
        "distanceFromCurrentMax": 7.5
      }
    },
    "meleeChargeTactic": {
      "enable": true,
      "condition": {
        "pose": [101, 201, 301]
      },
      "defaultSetting": {
        "speedLevel": 1,
        "startDistanceMax": 99.0,
        "stopDistance": 10.0,
        "innerDistance": 0.0
      }
    },
    "findBackTactic": {
      "enable": true,
      "condition": {
        "pose": [102]
      },
      "defaultSetting": {
        "speedLevel": 1,
        "turnSpeedOverride": 5.0,
        "cd": 5.0,
        "overtime": 3.5,
        "targetLRSpace": 7.0,
        "targetBackSpace": 7.0
      }
    }
  },
  "inputKeys": [
    {
      "keyID": 101,
      "inputKeyCode": 257,
      "abilityName": ""
    },
    {
      "keyID": 102,
      "inputKeyCode": 258,
      "abilityName": ""
    },
    {
      "keyID": 10000,
      "inputKeyCode": 259,
      "abilityName": ""
    },
    {
      "keyID": 10003,
      "inputKeyCode": 260,
      "abilityName": ""
    },
    {
      "keyID": 9999,
      "inputKeyCode": 261,
      "abilityName": ""
    },
    {
      "keyID": 601,
      "inputKeyCode": 262,
      "abilityName": ""
    },
    {
      "keyID": 1001,
      "inputKeyCode": 263,
      "abilityName": ""
    },
    {
      "keyID": 1002,
      "inputKeyCode": 264,
      "abilityName": ""
    },
    {
      "keyID": 1003,
      "inputKeyCode": 265,
      "abilityName": ""
    },
    {
      "keyID": 10001,
      "inputKeyCode": 266,
      "abilityName": ""
    },
    {
      "keyID": 10002,
      "inputKeyCode": 267,
      "abilityName": ""
    },
    {
      "keyID": 302,
      "inputKeyCode": 268,
      "abilityName": ""
    },
    {
      "keyID": 402,
      "inputKeyCode": 269,
      "abilityName": ""
    },
    {
      "keyID": 502,
      "inputKeyCode": 270,
      "abilityName": ""
    },
    {
      "keyID": 1004,
      "inputKeyCode": 271,
      "abilityName": ""
    }
  ],
  "move": {
    "$type": "PLMNMICDOHN",
    "EINCMKOBBEG": {
      "excludeForces": ["RetreatAirType"]
    },
    "KCNKFNLDDOD": true,
    "BCBPBHLKCPB": "FourDirection"
  },
  "audio": {
    "NCOGLLMIJGO": "",
    "animAudio": {
      "onTransitionIn": [
        {
          "currentStateName": "WalkForward",
          "audioEvent": {
            "text": "Play_sfx_monster_Monolith_Ordinator_walk_Loop"
          }
        },
        {
          "currentStateName": "WalkFree",
          "audioEvent": {
            "text": "Play_sfx_monster_Monolith_Ordinator_walk_Loop"
          }
        },
        {
          "currentStateName": "Charge_Loop",
          "audioEvent": {
            "text": "Play_vfx_monster_Monolith_Ordinator_charge_Loop"
          },
          "otherStateNames": ["Charge_Loop"],
          "usage": "Except"
        }
      ],
      "onTransitionOut": [
        {
          "currentStateName": "WalkForward",
          "audioEvent": {
            "text": "Stop_sfx_monster_Monolith_Ordinator_walk_Loop"
          }
        },
        {
          "currentStateName": "WalkFree",
          "audioEvent": {
            "text": "Stop_sfx_monster_Monolith_Ordinator_walk_Loop"
          }
        },
        {
          "currentStateName": "Charge_Loop",
          "audioEvent": {
            "text": "Stop_vfx_monster_Monolith_Ordinator_charge_Loop"
          },
          "otherStateNames": ["Charge_Loop"],
          "usage": "Except"
        }
      ]
    },
    "disableEvent": {
      "text": ""
    },
    "destroyEvent": {
      "text": ""
    }
  }
}
