{
  "common": {
    "effectAttachShape": {
      "$type": "ConfigEffectAttachSkinnedMesh",
      "mesh": "Body"
    },
    "mass": 10000.0,
    "height": 3.0,
    "affectedByWorld": true,
    "checkInSurface": true,
    "scale": 1.2000000476837158,
    "clearAnimatorOnSetLightDeactive": true,
    "clearAIOnSetLightDeactive": true
  },
  "model": {
    "bornEffect": "",
    "attachEffect": "",
    "canBakeMesh": false
  },
  "dither": {
    "showDitherDuration": 2.0,
    "normalBetweenCamera": {
      "detectDitherRange": 0.0
    }
  },
  "combat": {
    "property": {
      "endureType": "Monster_Boss_Other",
      "weight": 300.0
    },
    "beHit": {
      "hitBloodEffect": "",
      "hitAutoRedirect": false
    },
    "combatLock": {
      "lockShape": "CircleLockEnemy",
      "lockType": "Avatar&Monster_Lv4"
    },
    "die": {
      "dieEndTime": 1.0,
      "dieForceDisappearTime": 4.0,
      "dieDisappearEffect": "",
      "dieDisappearEffectDelay": 1.0,
      "OCGODEHJPME": true,
      "MFJBKFECLNJ": true,
      "IMEEBMBJPGJ": true,
      "ICHFPLMNCLC": true,
      "MBHMAGEPJFH": true,
      "CFHPDHFKMEP": true
    },
    "summon": {
      "summonTags": [
        {
          "summonTag": 20011601,
          "name": "Effigy_Water_Ooze_TypeSplitBig",
          "maxNum": 3
        },
        {
          "summonTag": 20011701,
          "name": "Effigy_Water_Ooze_TypeSplitSmall",
          "maxNum": 9
        },
        {
          "summonTag": 20011801,
          "name": "Effigy_Water_Ooze_TypeAttack",
          "maxNum": 3
        },
        {
          "summonTag": 20011901,
          "name": "Effigy_Water_Ooze_TypeHeal",
          "maxNum": 2
        },
        {
          "summonTag": 20012001,
          "name": "Effigy_Water_Ooze_TypeAttack_Elite",
          "maxNum": 3
        },
        {
          "summonTag": 20012101,
          "name": "Effigy_Water_Ooze_TypeHeal_Elite",
          "maxNum": 2
        },
        {
          "summonTag": 20012201,
          "name": "Effigy_Water_Ooze_TypeDamage_Elite",
          "maxNum": 3
        }
      ]
    }
  },
  "equipController": {
    "sheathPoint": ""
  },
  "abilities": [
    {
      "abilityID": "",
      "abilityName": "Monster_Effigy_Water_State",
      "abilityOverride": ""
    },
    {
      "abilityID": "",
      "abilityName": "Monster_Effigy_Water_SetCoreInPose",
      "abilityOverride": ""
    },
    {
      "abilityID": "",
      "abilityName": "Monster_Effigy_Water_SetCoreOutPose",
      "abilityOverride": ""
    },
    {
      "abilityID": "",
      "abilityName": "Monster_Effigy_Water_SetDyingPose",
      "abilityOverride": ""
    },
    {
      "abilityID": "",
      "abilityName": "Monster_Effigy_Water_HpDetect",
      "abilityOverride": ""
    },
    {
      "abilityID": "",
      "abilityName": "Monster_Effigy_Water_Reborn",
      "abilityOverride": ""
    },
    {
      "abilityID": "",
      "abilityName": "Monster_Effigy_Water_HealHp",
      "abilityOverride": ""
    },
    {
      "abilityID": "",
      "abilityName": "Monster_Effigy_Water_SetShaderState1ToState2",
      "abilityOverride": ""
    },
    {
      "abilityID": "",
      "abilityName": "Monster_Effigy_Water_SetShaderState2ToState1",
      "abilityOverride": ""
    },
    {
      "abilityID": "",
      "abilityName": "Monster_Effigy_Water_Dive",
      "abilityOverride": ""
    },
    {
      "abilityID": "",
      "abilityName": "Monster_Effigy_Water_DiveDamage",
      "abilityOverride": ""
    },
    {
      "abilityID": "",
      "abilityName": "Monster_Effigy_Water_Rain",
      "abilityOverride": ""
    },
    {
      "abilityID": "",
      "abilityName": "Monster_Effigy_Water_BubbleArray",
      "abilityOverride": ""
    },
    {
      "abilityID": "",
      "abilityName": "Monster_Effigy_Water_BubbleArray_Damage",
      "abilityOverride": ""
    },
    {
      "abilityID": "",
      "abilityName": "Monster_Effigy_Water_WaterBallSplash",
      "abilityOverride": ""
    },
    {
      "abilityID": "",
      "abilityName": "Monster_Effigy_Water_SummonOoze_TypeAttack",
      "abilityOverride": ""
    },
    {
      "abilityID": "",
      "abilityName": "Monster_Effigy_Water_SummonOoze_TypeHeal",
      "abilityOverride": ""
    },
    {
      "abilityID": "",
      "abilityName": "Monster_Effigy_Water_SummonOoze_TypeSplitBig1",
      "abilityOverride": ""
    },
    {
      "abilityID": "",
      "abilityName": "Monster_Effigy_Water_SummonOoze_TypeSplitBig2",
      "abilityOverride": ""
    },
    {
      "abilityID": "",
      "abilityName": "Monster_Effigy_Water_SummonOoze_TypeSplitBig3",
      "abilityOverride": ""
    },
    {
      "abilityID": "",
      "abilityName": "Monster_Effigy_Water_SummonOoze_TypeAttack_Elite",
      "abilityOverride": ""
    },
    {
      "abilityID": "",
      "abilityName": "Monster_Effigy_Water_SummonOoze_TypeHeal_Elite",
      "abilityOverride": ""
    },
    {
      "abilityID": "",
      "abilityName": "Monster_Effigy_Water_SummonOoze_TypeDamage_Elite",
      "abilityOverride": ""
    },
    {
      "abilityID": "",
      "abilityName": "Monster_Effigy_Water_BigWave",
      "abilityOverride": ""
    },
    {
      "abilityID": "",
      "abilityName": "Monster_Effigy_Water_RainStorm",
      "abilityOverride": ""
    },
    {
      "abilityID": "",
      "abilityName": "Monster_Effigy_Water_WaveForm",
      "abilityOverride": ""
    },
    {
      "abilityID": "",
      "abilityName": "Monster_Effigy_Water_SurgeStrikeDamage",
      "abilityOverride": ""
    },
    {
      "abilityID": "",
      "abilityName": "Monster_Effigy_Blink_BlinkStart",
      "abilityOverride": ""
    },
    {
      "abilityID": "",
      "abilityName": "Monster_Effigy_Water_FindBlinkPoint",
      "abilityOverride": ""
    },
    {
      "abilityID": "",
      "abilityName": "Monster_Effigy_Water_Blink",
      "abilityOverride": ""
    },
    {
      "abilityID": "",
      "abilityName": "Monster_Effigy_Water_BlinkAS",
      "abilityOverride": ""
    },
    {
      "abilityID": "",
      "abilityName": "Monster_Effigy_Water_RandomMove",
      "abilityOverride": ""
    },
    {
      "abilityID": "",
      "abilityName": "Monster_Effigy_Water_RandomMoveStart",
      "abilityOverride": ""
    },
    {
      "abilityID": "",
      "abilityName": "Monster_Effigy_Water_SteerAttack",
      "abilityOverride": ""
    },
    {
      "abilityID": "",
      "abilityName": "Monster_Common_WaterMuteHurt",
      "abilityOverride": ""
    },
    {
      "abilityID": "",
      "abilityName": "Monster_Effigy_Water_EliteSet",
      "abilityOverride": ""
    }
  ],
  "stateLayers": {
    "defaultLayer": {
      "$type": "ConfigNormalStateLayer",
      "FNPGDAEJAPJ": "",
      "stateIDs": {
        "Born": {
          "$type": "ConfigMonsterStateIDInfo",
          "animatorStates": {
            "Born": []
          },
          "canDoSkill": true,
          "canSyncMove": true,
          "AAEKKGMOKFK": true,
          "resetAnimatorTriggerOnExit": ["DoSkill"]
        },
        "Standby": {
          "$type": "ConfigMonsterStateIDInfo",
          "animatorStates": {
            "Standby": []
          },
          "canDoSkill": true,
          "canSyncMove": true,
          "AAEKKGMOKFK": true,
          "resetAnimatorTriggerOnEnter": ["DoSkill"],
          "resetAnimatorTriggerOnExit": ["DoSkill"]
        },
        "StandbyFree": {
          "$type": "ConfigMonsterStateIDInfo",
          "animatorStates": {
            "StandbyFree": []
          },
          "canDoSkill": true,
          "canSyncMove": true,
          "AAEKKGMOKFK": true,
          "resetAnimatorTriggerOnEnter": ["DoSkill"],
          "resetAnimatorTriggerOnExit": ["DoSkill"]
        },
        "Die": {
          "$type": "ConfigMonsterStateIDInfo",
          "animatorStates": {
            "Die": ["Monster_Effigy_Water_Die"],
            "SwimDie": ["Monster_Effigy_Water_Die"]
          }
        },
        "Warning": {
          "$type": "ConfigMonsterStateIDInfo",
          "animatorStates": {
            "Warning": ["Audio_Effigy_Water_Warning"]
          },
          "AAEKKGMOKFK": true,
          "resetAnimatorTriggerOnExit": ["DoSkill"]
        },
        "SurgeStrike": {
          "$type": "ConfigMonsterStateIDInfo",
          "animatorStates": {
            "SurgeStrike": [
              "Monster_Effigy_Water_SurgeStrike",
              "Audio_Effigy_Water_SurgeStrike"
            ]
          },
          "AAEKKGMOKFK": true,
          "resetAnimatorTriggerOnExit": ["DoSkill"]
        },
        "SurgeStrike_CoreOut": {
          "$type": "ConfigMonsterStateIDInfo",
          "animatorStates": {
            "SurgeStrike_CoreOutLoop": [],
            "SurgeStrike_CoreOutAS": [
              "Monster_Effigy_Water_CoreOutAS",
              "Audio_Effigy_Water_WaveForm_CoreOutAS"
            ]
          },
          "AAEKKGMOKFK": true,
          "resetAnimatorTriggerOnExit": ["DoSkill"]
        },
        "Dive": {
          "$type": "ConfigMonsterStateIDInfo",
          "animatorStates": {
            "Dive_BS": ["Audio_Effigy_Water_Dive_BS"],
            "Dive": ["Monster_Effigy_Water_Dive"],
            "Dive_AS": ["Audio_Effigy_Water_Dive_AS"]
          },
          "canSyncMove": true,
          "AAEKKGMOKFK": true,
          "resetAnimatorTriggerOnExit": ["DoSkill"]
        },
        "Dive_CoureOut": {
          "$type": "ConfigMonsterStateIDInfo",
          "animatorStates": {
            "Dive_CoreOutLoop": [],
            "Dive_CoreOutAS": [
              "Monster_Effigy_Water_CoreOutAS",
              "Audio_Effigy_Water_WaveForm_CoreOutAS"
            ]
          },
          "AAEKKGMOKFK": true,
          "resetAnimatorTriggerOnExit": ["DoSkill"]
        },
        "Rain": {
          "$type": "ConfigMonsterStateIDInfo",
          "animatorStates": {
            "Rain_BS": [
              "Monster_Effigy_Water_RainBS",
              "Audio_Effigy_Water_Rain_BS"
            ],
            "Rain_Loop": ["Monster_Effigy_Water_Rain"],
            "Rain_AS": [
              "Monster_Effigy_Water_RainAS",
              "Audio_Effigy_Water_Rain_AS"
            ]
          },
          "AAEKKGMOKFK": true,
          "resetAnimatorTriggerOnEnter": ["DoSkill"],
          "resetAnimatorTriggerOnExit": ["DoSkill"]
        },
        "Rain_CoreOut": {
          "$type": "ConfigMonsterStateIDInfo",
          "animatorStates": {
            "Rain_CoreOutLoop": [],
            "Rain_CoreOutAS": [
              "Monster_Effigy_Water_CoreOutAS",
              "Audio_Effigy_Water_WaveForm_CoreOutAS"
            ]
          },
          "AAEKKGMOKFK": true,
          "resetAnimatorTriggerOnEnter": ["DoSkill"],
          "resetAnimatorTriggerOnExit": ["DoSkill"]
        },
        "BubbleArray": {
          "$type": "ConfigMonsterStateIDInfo",
          "animatorStates": {
            "BubbleArray": [
              "Monster_Effigy_Water_BubbleArray",
              "Audio_Effigy_Water_BubbleArray"
            ]
          },
          "AAEKKGMOKFK": true,
          "resetAnimatorTriggerOnExit": ["DoSkill"]
        },
        "BubbleArray_CoreOut": {
          "$type": "ConfigMonsterStateIDInfo",
          "animatorStates": {
            "BubbleArray_CoreOutLoop": [],
            "BubbleArray_CoreOutAS": [
              "Monster_Effigy_Water_CoreOutAS",
              "Audio_Effigy_Water_WaveForm_CoreOutAS"
            ]
          },
          "AAEKKGMOKFK": true,
          "resetAnimatorTriggerOnExit": ["DoSkill"]
        },
        "WaterBallSplash": {
          "$type": "ConfigMonsterStateIDInfo",
          "animatorStates": {
            "WaterBallSplash": [
              "Monster_Effigy_Water_WaterBallSplash",
              "Audio_Effigy_Water_WaterBallSplash"
            ]
          },
          "AAEKKGMOKFK": true,
          "resetAnimatorTriggerOnExit": ["DoSkill"]
        },
        "WaterBallSplash_CoreOut": {
          "$type": "ConfigMonsterStateIDInfo",
          "animatorStates": {
            "WaterBallSplash_CoreOutLoop": [],
            "WaterBallSplash_CoreOutAS": [
              "Monster_Effigy_Water_CoreOutAS",
              "Audio_Effigy_Water_WaveForm_CoreOutAS"
            ]
          },
          "AAEKKGMOKFK": true,
          "resetAnimatorTriggerOnExit": ["DoSkill"]
        },
        "BigWave": {
          "$type": "ConfigMonsterStateIDInfo",
          "animatorStates": {
            "BigWave_BS": [
              "Monster_Effigy_Water_BigWaveBS",
              "Audio_Effigy_Water_BigWave_BS"
            ],
            "BigWave_Loop": [],
            "BigWave_AS": [
              "Monster_Effigy_Water_BigWaveAS",
              "Audio_Effigy_Water_BigWave_AS"
            ]
          },
          "AAEKKGMOKFK": true,
          "resetAnimatorTriggerOnExit": ["DoSkill"]
        },
        "BigWave_CoreOut": {
          "$type": "ConfigMonsterStateIDInfo",
          "animatorStates": {
            "BigWave_CoreOutLoop": [],
            "BigWave_CoreOutAS": [
              "Monster_Effigy_Water_CoreOutAS",
              "Audio_Effigy_Water_WaveForm_CoreOutAS"
            ]
          },
          "AAEKKGMOKFK": true,
          "resetAnimatorTriggerOnExit": ["DoSkill"]
        },
        "RainStorm": {
          "$type": "ConfigMonsterStateIDInfo",
          "animatorStates": {
            "RainStorm_BS": [
              "Monster_Effigy_Water_RainStormBS",
              "Audio_Effigy_Water_RainStorm_BS"
            ],
            "RainStorm_Loop": [],
            "RainStorm_AS": ["Audio_Effigy_Water_RainStorm_AS"]
          },
          "AAEKKGMOKFK": true,
          "resetAnimatorTriggerOnExit": ["DoSkill"]
        },
        "RainStorm_CoreOut": {
          "$type": "ConfigMonsterStateIDInfo",
          "animatorStates": {
            "RainStorm_CoreOutLoop": [],
            "RainStorm_CoreOutAS": [
              "Monster_Effigy_Water_CoreOutAS",
              "Audio_Effigy_Water_WaveForm_CoreOutAS"
            ]
          },
          "AAEKKGMOKFK": true,
          "resetAnimatorTriggerOnExit": ["DoSkill"]
        },
        "WaveForm_BS": {
          "$type": "ConfigMonsterStateIDInfo",
          "animatorStates": {
            "WaveForm_BS": ["Audio_Effigy_Water_WaveForm_BS"]
          },
          "AAEKKGMOKFK": true,
          "resetAnimatorTriggerOnEnter": ["WaveForm_Stop"],
          "resetAnimatorTriggerOnExit": ["DoSkill"]
        },
        "WaveForm_Loop": {
          "$type": "ConfigMonsterStateIDInfo",
          "animatorStates": {
            "WaveForm_Loop": []
          },
          "AAEKKGMOKFK": true,
          "resetAnimatorTriggerOnExit": ["DoSkill"]
        },
        "WaveForm_AS": {
          "$type": "ConfigMonsterStateIDInfo",
          "animatorStates": {
            "WaveForm_AS": [
              "Monster_Effigy_Water_WaveFormAS",
              "Audio_Effigy_Water_WaveForm_AS"
            ]
          },
          "AAEKKGMOKFK": true,
          "resetAnimatorTriggerOnExit": ["DoSkill"]
        },
        "WaveForm_CoreOut": {
          "$type": "ConfigMonsterStateIDInfo",
          "animatorStates": {
            "WaveForm_CoreOutLoop": [],
            "WaveForm_CoreOutAS": [
              "Monster_Effigy_Water_CoreOutAS",
              "Audio_Effigy_Water_WaveForm_CoreOutAS"
            ]
          },
          "AAEKKGMOKFK": true,
          "resetAnimatorTriggerOnExit": ["DoSkill"]
        },
        "RushAway": {
          "$type": "ConfigMonsterStateIDInfo",
          "animatorStates": {
            "RushAway_BS": ["Audio_Effigy_Water_RushAway_BS"],
            "RushAway_AS": [
              "Monster_Effigy_Water_RushAwayAS",
              "Audio_Effigy_Water_RushAway_AS"
            ]
          },
          "AAEKKGMOKFK": true,
          "resetAnimatorTriggerOnEnter": ["RushAwayTrigger"],
          "resetAnimatorTriggerOnExit": ["DoSkill"]
        },
        "Weak": {
          "$type": "ConfigMonsterStateIDInfo",
          "animatorStates": {
            "Weak_BS": [
              "Monster_Effigy_Water_WeakBS",
              "Audio_Effigy_Water_Weak_BS"
            ]
          },
          "AAEKKGMOKFK": true,
          "resetAnimatorTriggerOnEnter": ["WeakStart"],
          "resetAnimatorTriggerOnExit": ["DoSkill"]
        },
        "Weak_CoreOut": {
          "$type": "ConfigMonsterStateIDInfo",
          "animatorStates": {
            "Weak_Loop": [],
            "Weak_AS": [
              "Monster_Effigy_Water_CoreOutAS",
              "Audio_Effigy_Water_WaveForm_CoreOutAS"
            ]
          },
          "AAEKKGMOKFK": true,
          "resetAnimatorTriggerOnEnter": ["WeakStart"],
          "resetAnimatorTriggerOnExit": ["DoSkill"]
        },
        "ReturnToBorn": {
          "$type": "ConfigMonsterStateIDInfo",
          "animatorStates": {
            "ReturnToBorn_BS": [
              "Monster_Effigy_Water_BlinkBS",
              "Audio_Effigy_Water_Blink_BS"
            ],
            "ReturnToBorn": [],
            "ReturnToBorn_AS": [
              "Monster_Effigy_Water_BlinkAS",
              "Audio_Effigy_Water_ReturnToBorn_AS"
            ]
          },
          "canSyncMove": true,
          "AAEKKGMOKFK": true,
          "resetAnimatorTriggerOnExit": ["DoSkill"]
        },
        "Blink": {
          "$type": "ConfigMonsterStateIDInfo",
          "animatorStates": {
            "Blink_BS": [
              "Monster_Effigy_Water_BlinkBS",
              "Audio_Effigy_Water_Blink_BS"
            ],
            "Blink": [],
            "Blink_AS": [
              "Monster_Effigy_Water_BlinkAS",
              "Audio_Effigy_Water_WaveForm_CoreOutAS"
            ]
          },
          "AAEKKGMOKFK": true,
          "resetAnimatorTriggerOnExit": ["DoSkill"]
        },
        "Dying_Blink": {
          "$type": "ConfigMonsterStateIDInfo",
          "animatorStates": {
            "Dying_BlinkBS": [
              "Monster_Effigy_Water_BlinkBS",
              "Audio_Effigy_Water_Blink_BS"
            ],
            "Dying_Blink": [],
            "Dying_BlinkAS": [
              "Monster_Effigy_Water_BlinkAS",
              "Audio_Effigy_Water_WaveForm_CoreOutAS"
            ]
          },
          "AAEKKGMOKFK": true,
          "resetAnimatorTriggerOnEnter": ["DyingState"],
          "resetAnimatorTriggerOnExit": ["DoSkill"]
        },
        "Dying": {
          "$type": "ConfigMonsterStateIDInfo",
          "animatorStates": {
            "Dying_BS": [
              "Monster_Effigy_Water_DyingBS",
              "Audio_Effigy_Water_Dying_BS"
            ],
            "Dying_Loop": [],
            "Dying_AS": ["Audio_Effigy_Water_WaveForm_CoreOutAS"]
          },
          "AAEKKGMOKFK": true,
          "resetAnimatorTriggerOnExit": ["DoSkill"]
        }
      }
    }
  },
  "billboard": {
    "$type": "NCBABGPMMPL",
    "EBBHBMFMOGD": "BillboardAttach",
    "offset": {
      "y": 1.5
    },
    "OELDMANLPDM": 1.0,
    "KLIMPNOBGLK": true,
    "ANGKJBLILKJ": true,
    "HLGCEAGHFGH": 30.0,
    "size": "Big"
  },
  "initialPoses": {
    "Default": {}
  },
  "aibeta": {
    "enable": true,
    "moveSetting": {
      "useNavMesh": false,
      "navMeshAgentName": "Undead01"
    },
    "sensing": {
      "settings": {
        "DefaultSetting": {
          "viewRange": 15.0,
          "viewPanoramic": true,
          "feelRange": 7.5
        }
      },
      "templates": {
        "DefaultTemplate": {
          "DefaultPoses": "DefaultSetting"
        }
      }
    },
    "threat": {
      "clearThreatTargetDistance": 65.0,
      "clearThreatEdgeDistance": 7.5,
      "clearThreatByTargetOutOfZone": true,
      "viewThreatGrow": 50.0,
      "threatDecreaseSpeed": 50.0,
      "resistTauntLevel": "Monster_TauntLevel_4"
    },
    "defendArea": {},
    "profiling": {
      "lodStrategy": "Best"
    },
    "skillGroupCDConfigs": [
      {
        "skillGroupCDID": 1,
        "skillGroupCDTime": 5.0
      },
      {
        "skillGroupCDID": 2,
        "skillGroupCDTime": 85.0
      },
      {
        "skillGroupCDID": 3,
        "skillGroupCDTime": 100.0
      },
      {
        "skillGroupCDID": 4,
        "skillGroupCDTime": 100.0
      },
      {
        "skillGroupCDID": 5,
        "skillGroupCDTime": 10.0
      },
      {
        "skillGroupCDID": 6,
        "skillGroupCDTime": 65.0
      }
    ],
    "skillSetting": {
      "skillEliteSet": {
        "1": [101, 201, 211, 301, 311, 401, 501, 511, 601, 611, 701, 711, 901],
        "2": [121, 221, 231, 321, 331, 411, 521, 531, 621, 631, 721, 731, 911]
      }
    },
    "skills": {
      "100": {
        "name": "OnAlert",
        "skillType": "OnAlert",
        "faceTarget": true,
        "publicCDGroup": "",
        "ignoreGCD": true,
        "triggerGCD": false,
        "stateIDs": ["Warning"],
        "skillQueryingTime": 3.0,
        "flagTargetReachable": "10",
        "flagSelfOnTemplateCollider": "01",
        "flagSelfInZone": "10",
        "flagTargetInZone": "11"
      },
      "101": {
        "name": "Rain",
        "castCondition": {
          "pose": [101],
          "pickRangeMin": 7.5
        },
        "cd": 7.5,
        "cdUpperRange": 5.0,
        "publicCDGroup": "",
        "stateIDs": ["Rain"],
        "skillQueryingTime": 3.5,
        "flagTargetReachable": "11",
        "flagSelfOnTemplateCollider": "01",
        "flagSelfInZone": "10",
        "flagTargetInZone": "11"
      },
      "121": {
        "name": "Rain",
        "priority": 3,
        "castCondition": {
          "pose": [101],
          "pickRangeMin": 7.5
        },
        "cd": 15.5,
        "cdUpperRange": 5.0,
        "initialCD": 10.0,
        "publicCDGroup": "",
        "stateIDs": ["Rain"],
        "skillQueryingTime": 3.5,
        "flagTargetReachable": "11",
        "flagSelfOnTemplateCollider": "01",
        "flagSelfInZone": "10",
        "flagTargetInZone": "11"
      },
      "201": {
        "name": "SurgeStrike",
        "castCondition": {
          "pose": [101],
          "maxTargetAngleXZ": 120.0,
          "pickRangeMin": 15.0,
          "pickRangeMax": 25.0
        },
        "cd": 7.5,
        "cdUpperRange": 5.0,
        "publicCDGroup": "",
        "skillGroupCDID": 1,
        "stateIDs": ["SurgeStrike"],
        "skillQueryingTime": 3.5,
        "flagTargetReachable": "10",
        "flagSelfOnTemplateCollider": "01",
        "flagSelfInZone": "10",
        "flagTargetInZone": "11"
      },
      "211": {
        "name": "SurgeStrike",
        "castCondition": {
          "pose": [101],
          "pickRangeMax": 15.0
        },
        "cd": 3.0,
        "cdUpperRange": 2.5,
        "publicCDGroup": "",
        "skillGroupCDID": 1,
        "stateIDs": ["SurgeStrike"],
        "skillQueryingTime": 3.5,
        "flagTargetReachable": "10",
        "flagSelfOnTemplateCollider": "01",
        "flagSelfInZone": "10",
        "flagTargetInZone": "10"
      },
      "221": {
        "name": "SurgeStrike",
        "priority": 3,
        "castCondition": {
          "pose": [101],
          "maxTargetAngleXZ": 120.0,
          "pickRangeMin": 15.0,
          "pickRangeMax": 25.0
        },
        "cd": 10.5,
        "cdUpperRange": 5.0,
        "initialCD": 10.0,
        "publicCDGroup": "",
        "skillGroupCDID": 1,
        "stateIDs": ["SurgeStrike"],
        "skillQueryingTime": 3.5,
        "flagTargetReachable": "10",
        "flagSelfOnTemplateCollider": "01",
        "flagSelfInZone": "10",
        "flagTargetInZone": "11"
      },
      "231": {
        "name": "SurgeStrike",
        "priority": 3,
        "castCondition": {
          "pose": [101],
          "pickRangeMax": 15.0
        },
        "cd": 12.5,
        "cdUpperRange": 2.5,
        "initialCD": 10.0,
        "publicCDGroup": "",
        "skillGroupCDID": 1,
        "stateIDs": ["SurgeStrike"],
        "skillQueryingTime": 3.5,
        "flagTargetReachable": "10",
        "flagSelfOnTemplateCollider": "01",
        "flagSelfInZone": "10",
        "flagTargetInZone": "10"
      },
      "301": {
        "name": "Dive",
        "castCondition": {
          "pose": [101],
          "pickRangeMin": 7.5,
          "pickRangeMax": 22.5
        },
        "cd": 7.5,
        "cdUpperRange": 5.0,
        "publicCDGroup": "",
        "skillGroupCDID": 1,
        "stateIDs": ["Dive"],
        "skillQueryingTime": 3.5,
        "flagTargetReachable": "10",
        "flagSelfOnTemplateCollider": "01",
        "flagSelfInZone": "10",
        "flagTargetInZone": "11"
      },
      "311": {
        "name": "Dive",
        "priority": 4,
        "castCondition": {
          "pose": [101],
          "pickRangeMin": 7.5,
          "pickRangeMax": 22.5
        },
        "cd": 45.0,
        "cdUpperRange": 15.0,
        "publicCDGroup": "",
        "skillGroupCDID": 1,
        "stateIDs": ["Dive"],
        "skillQueryingTime": 3.5,
        "flagTargetReachable": "10",
        "flagSelfOnTemplateCollider": "01",
        "flagSelfInZone": "10",
        "flagTargetInZone": "11"
      },
      "321": {
        "name": "Dive",
        "priority": 3,
        "castCondition": {
          "pose": [101],
          "pickRangeMin": 7.5,
          "pickRangeMax": 22.5
        },
        "cd": 25.0,
        "cdUpperRange": 5.0,
        "initialCD": 10.0,
        "publicCDGroup": "",
        "skillGroupCDID": 1,
        "stateIDs": ["Dive", "Dive_CoureOut"],
        "skillQueryingTime": 3.5,
        "flagTargetReachable": "10",
        "flagSelfOnTemplateCollider": "01",
        "flagSelfInZone": "10",
        "flagTargetInZone": "11"
      },
      "331": {
        "name": "Dive",
        "priority": 3,
        "castCondition": {
          "pose": [101],
          "pickRangeMin": 7.5,
          "pickRangeMax": 22.5
        },
        "cd": 45.0,
        "cdUpperRange": 15.0,
        "initialCD": 10.0,
        "publicCDGroup": "",
        "skillGroupCDID": 1,
        "stateIDs": ["Dive", "Dive_CoureOut"],
        "skillQueryingTime": 3.5,
        "flagTargetReachable": "10",
        "flagSelfOnTemplateCollider": "01",
        "flagSelfInZone": "10",
        "flagTargetInZone": "11"
      },
      "401": {
        "name": "BubbleArray",
        "priority": 3,
        "castCondition": {
          "pose": [101]
        },
        "cd": 105.0,
        "cdUpperRange": 15.0,
        "initialCD": 90.0,
        "initialCDUpperRange": 10.0,
        "publicCDGroup": "",
        "stateIDs": ["BubbleArray"],
        "skillQueryingTime": 3.5,
        "flagTargetReachable": "10",
        "flagSelfOnTemplateCollider": "01",
        "flagSelfInZone": "10",
        "flagTargetInZone": "11"
      },
      "411": {
        "name": "BubbleArray",
        "priority": 2,
        "castCondition": {
          "pose": [101]
        },
        "cd": 60.0,
        "cdUpperRange": 15.0,
        "initialCD": 15.0,
        "initialCDUpperRange": 10.0,
        "publicCDGroup": "",
        "stateIDs": ["BubbleArray"],
        "skillQueryingTime": 3.5,
        "flagTargetReachable": "10",
        "flagSelfOnTemplateCollider": "01",
        "flagSelfInZone": "10",
        "flagTargetInZone": "11"
      },
      "501": {
        "name": "WaterBallSplash",
        "priority": 2,
        "castCondition": {
          "pose": [101],
          "SkillAnchorRangeMax": 5.0
        },
        "cd": 80.0,
        "cdUpperRange": 10.0,
        "publicCDGroup": "",
        "ignoreGCD": true,
        "skillGroupCDID": 2,
        "stateIDs": ["WaterBallSplash"],
        "skillQueryingTime": 3.5,
        "flagTargetReachable": "10",
        "flagSelfOnTemplateCollider": "01",
        "flagSelfInZone": "10",
        "flagTargetInZone": "11"
      },
      "511": {
        "name": "WaterBallSplash",
        "priority": 2,
        "castCondition": {
          "pose": [101],
          "GLGHHKAGENB": 5.0
        },
        "cd": 80.0,
        "cdUpperRange": 10.0,
        "publicCDGroup": "",
        "ignoreGCD": true,
        "skillGroupCDID": 2,
        "stateIDs": ["WaterBallSplash", "Blink"],
        "skillQueryingTime": 3.5,
        "flagTargetReachable": "10",
        "flagSelfOnTemplateCollider": "01",
        "flagSelfInZone": "10",
        "flagTargetInZone": "11"
      },
      "521": {
        "name": "WaterBallSplash",
        "priority": 1,
        "castCondition": {
          "pose": [101],
          "SkillAnchorRangeMax": 5.0
        },
        "cd": 50.0,
        "cdUpperRange": 10.0,
        "publicCDGroup": "",
        "ignoreGCD": true,
        "skillGroupCDID": 6,
        "stateIDs": ["WaterBallSplash"],
        "skillQueryingTime": 3.5,
        "flagTargetReachable": "10",
        "flagSelfOnTemplateCollider": "01",
        "flagSelfInZone": "10",
        "flagTargetInZone": "11"
      },
      "531": {
        "name": "WaterBallSplash",
        "priority": 1,
        "castCondition": {
          "pose": [101],
          "GLGHHKAGENB": 5.0
        },
        "cd": 50.0,
        "cdUpperRange": 10.0,
        "publicCDGroup": "",
        "ignoreGCD": true,
        "skillGroupCDID": 6,
        "stateIDs": ["WaterBallSplash", "Blink"],
        "skillQueryingTime": 3.5,
        "flagTargetReachable": "10",
        "flagSelfOnTemplateCollider": "01",
        "flagSelfInZone": "10",
        "flagTargetInZone": "11"
      },
      "601": {
        "name": "BigWave",
        "priority": 3,
        "castCondition": {
          "pose": [101],
          "SkillAnchorRangeMax": 7.5
        },
        "cd": 95.0,
        "cdUpperRange": 10.0,
        "initialCD": 20.0,
        "initialCDUpperRange": 5.0,
        "publicCDGroup": "",
        "skillGroupCDID": 3,
        "stateIDs": ["BigWave"],
        "skillQueryingTime": 3.5,
        "flagTargetReachable": "11",
        "flagSelfOnTemplateCollider": "01",
        "flagSelfInZone": "10",
        "flagTargetInZone": "11"
      },
      "611": {
        "name": "BigWave",
        "priority": 3,
        "castCondition": {
          "pose": [101],
          "GLGHHKAGENB": 7.5
        },
        "cd": 95.0,
        "cdUpperRange": 10.0,
        "initialCD": 20.0,
        "initialCDUpperRange": 5.0,
        "publicCDGroup": "",
        "skillGroupCDID": 3,
        "stateIDs": ["BigWave", "Blink"],
        "skillQueryingTime": 3.5,
        "flagTargetReachable": "11",
        "flagSelfOnTemplateCollider": "01",
        "flagSelfInZone": "10",
        "flagTargetInZone": "11"
      },
      "621": {
        "name": "BigWave",
        "priority": 2,
        "castCondition": {
          "pose": [101],
          "SkillAnchorRangeMax": 7.5
        },
        "cd": 40.0,
        "cdUpperRange": 10.0,
        "initialCD": 15.0,
        "initialCDUpperRange": 5.0,
        "publicCDGroup": "",
        "skillGroupCDID": 3,
        "stateIDs": ["BigWave"],
        "skillQueryingTime": 3.5,
        "flagTargetReachable": "11",
        "flagSelfOnTemplateCollider": "01",
        "flagSelfInZone": "10",
        "flagTargetInZone": "11"
      },
      "631": {
        "name": "BigWave",
        "priority": 3,
        "castCondition": {
          "pose": [101],
          "GLGHHKAGENB": 7.5
        },
        "cd": 40.0,
        "cdUpperRange": 10.0,
        "initialCD": 15.0,
        "initialCDUpperRange": 5.0,
        "publicCDGroup": "",
        "skillGroupCDID": 3,
        "stateIDs": ["BigWave", "Blink"],
        "skillQueryingTime": 3.5,
        "flagTargetReachable": "11",
        "flagSelfOnTemplateCollider": "01",
        "flagSelfInZone": "10",
        "flagTargetInZone": "11"
      },
      "701": {
        "name": "RainStorm",
        "priority": 3,
        "castCondition": {
          "pose": [101],
          "SkillAnchorRangeMax": 7.5
        },
        "cd": 95.0,
        "cdUpperRange": 10.0,
        "initialCD": 62.5,
        "initialCDUpperRange": 7.5,
        "publicCDGroup": "",
        "ignoreGCD": true,
        "skillGroupCDID": 4,
        "stateIDs": ["RainStorm"],
        "skillQueryingTime": 3.5,
        "flagTargetReachable": "11",
        "flagSelfOnTemplateCollider": "01",
        "flagSelfInZone": "11",
        "flagTargetInZone": "11"
      },
      "711": {
        "name": "RainStorm",
        "priority": 3,
        "castCondition": {
          "pose": [101],
          "GLGHHKAGENB": 7.5
        },
        "cd": 95.0,
        "cdUpperRange": 10.0,
        "initialCD": 62.5,
        "initialCDUpperRange": 7.5,
        "publicCDGroup": "",
        "ignoreGCD": true,
        "skillGroupCDID": 4,
        "stateIDs": ["RainStorm", "Blink"],
        "skillQueryingTime": 3.5,
        "flagTargetReachable": "11",
        "flagSelfOnTemplateCollider": "01",
        "flagSelfInZone": "11",
        "flagTargetInZone": "11"
      },
      "721": {
        "name": "RainStorm",
        "priority": 2,
        "castCondition": {
          "pose": [101],
          "SkillAnchorRangeMax": 7.5
        },
        "cd": 60.0,
        "cdUpperRange": 10.0,
        "initialCD": 15.5,
        "initialCDUpperRange": 7.5,
        "publicCDGroup": "",
        "ignoreGCD": true,
        "skillGroupCDID": 4,
        "stateIDs": ["RainStorm"],
        "skillQueryingTime": 3.5,
        "flagTargetReachable": "11",
        "flagSelfOnTemplateCollider": "01",
        "flagSelfInZone": "11",
        "flagTargetInZone": "11"
      },
      "731": {
        "name": "RainStorm",
        "priority": 2,
        "castCondition": {
          "pose": [101],
          "GLGHHKAGENB": 7.5
        },
        "cd": 60.0,
        "cdUpperRange": 10.0,
        "initialCD": 15.5,
        "initialCDUpperRange": 7.5,
        "publicCDGroup": "",
        "ignoreGCD": true,
        "skillGroupCDID": 4,
        "stateIDs": ["RainStorm", "Blink"],
        "skillQueryingTime": 3.5,
        "flagTargetReachable": "11",
        "flagSelfOnTemplateCollider": "01",
        "flagSelfInZone": "11",
        "flagTargetInZone": "11"
      },
      "901": {
        "name": "Blink",
        "priority": 2,
        "castCondition": {
          "pose": [101],
          "GLGHHKAGENB": 30.0
        },
        "cd": 5.0,
        "publicCDGroup": "",
        "ignoreGCD": true,
        "stateIDs": ["Blink"],
        "skillQueryingTime": 3.5,
        "flagTargetReachable": "11",
        "flagSelfOnTemplateCollider": "11",
        "flagSelfInZone": "11",
        "flagTargetInZone": "11"
      },
      "911": {
        "name": "Blink",
        "priority": 2,
        "castCondition": {
          "pose": [101],
          "GLGHHKAGENB": 15.0
        },
        "cd": 15.0,
        "publicCDGroup": "",
        "ignoreGCD": true,
        "triggerGCD": false,
        "stateIDs": ["Blink"],
        "skillQueryingTime": 3.5,
        "flagTargetReachable": "11",
        "flagSelfOnTemplateCollider": "11",
        "flagSelfInZone": "11",
        "flagTargetInZone": "11"
      }
    },
    "skillGCD": 1.5,
    "returnToBornTactic": {
      "enable": true,
      "condition": {
        "pose": [1, 101]
      },
      "defaultSetting": {
        "speedLevel": 0,
        "fadeoutBeginTime": 3.0,
        "fadeoutEndTime": 3.5
      }
    }
  },
  "inputKeys": [
    {
      "keyID": 101,
      "inputKeyCode": 257,
      "abilityName": ""
    },
    {
      "keyID": 201,
      "inputKeyCode": 258,
      "abilityName": ""
    },
    {
      "keyID": 301,
      "inputKeyCode": 259,
      "abilityName": ""
    },
    {
      "keyID": 401,
      "inputKeyCode": 260,
      "abilityName": ""
    },
    {
      "keyID": 501,
      "inputKeyCode": 261,
      "abilityName": ""
    },
    {
      "keyID": 601,
      "inputKeyCode": 262,
      "abilityName": ""
    },
    {
      "keyID": 701,
      "inputKeyCode": 263,
      "abilityName": ""
    },
    {
      "keyID": 801,
      "inputKeyCode": 264,
      "abilityName": ""
    },
    {
      "keyID": 901,
      "inputKeyCode": 265,
      "abilityName": ""
    },
    {
      "keyID": 231,
      "inputKeyCode": 266,
      "abilityName": ""
    },
    {
      "keyID": 331,
      "inputKeyCode": 267,
      "abilityName": ""
    },
    {
      "keyID": 121,
      "inputKeyCode": 268,
      "abilityName": ""
    },
    {
      "keyID": 521,
      "inputKeyCode": 269,
      "abilityName": ""
    }
  ]
}
