{
  "common": {
    "effectAttachShape": {
      "$type": "ConfigEffectAttachSkinnedMesh",
      "mesh": "EffectMesh"
    },
    "mass": 10000.0,
    "height": 2.0,
    "modelHeight": 2.200000047683716,
    "viewSize": 1.5,
    "affectedByWorld": true,
    "checkInSurface": true,
    "useGrassDisplacement": true
  },
  "headControl": {
    "$type": "GAAIKCFIJMM",
    "useHeadControl": true,
    "KBBNEKBLPFA": 20.0,
    "FJOGFHEFPHN": 5.0,
    "FCDMCPDGFCL": [
      "NormalIdle/Standby",
      "NormalMove/WalkForward",
      "NormalMove/WalkBack",
      "NormalMove/WalkRight",
      "NormalMove/WalkLeft",
      "TurnLeft/TurnLeft",
      "TurnRight/TurnRight"
    ]
  },
  "dither": {
    "showDitherDuration": 2.0
  },
  "combat": {
    "property": {
      "endureType": "Monster_Grunt_Other",
      "weight": 80.0
    },
    "beHit": {
      "hitBloodEffect": ""
    },
    "combatLock": {
      "lockShape": "CircleLockEnemy",
      "lockType": "Avatar&Monster_Lv4"
    },
    "die": {
      "hasAnimatorDie": true,
      "dieEndTime": 2.0,
      "dieForceDisappearTime": 2.0,
      "dieDisappearEffect": "Eff_Death_Avatar_Common",
      "dieShaderData": "AvatarDie",
      "useRagDoll": true,
      "ragDollDieEndTimeDelay": 1.0,
      "OCGODEHJPME": true,
      "MFJBKFECLNJ": true,
      "IMEEBMBJPGJ": true,
      "ICHFPLMNCLC": true,
      "MBHMAGEPJFH": true,
      "CFHPDHFKMEP": true
    }
  },
  "equipController": {
    "sheathPoint": "",
    "attachPoints": {
      "equip01": "WeaponR",
      "equip02": ""
    }
  },
  "abilities": [
    {
      "abilityID": "HPlowPose",
      "abilityName": "Monster_Skirmisher_Staff_Rock_ForceImprove_Pose",
      "abilityOverride": ""
    },
    {
      "abilityID": "EyeEffect",
      "abilityName": "Monster_Skirmisher_Standard_Staff_Rock_EyeEffect",
      "abilityOverride": ""
    },
    {
      "abilityID": "ActionSteer",
      "abilityName": "Monster_Skirmisher_Standard_Staff_Rock_Steer",
      "abilityOverride": ""
    },
    {
      "abilityID": "ExitWeak",
      "abilityName": "Monster_Skirmisher_Standard_Staff_Rock_ExitWeak",
      "abilityOverride": ""
    },
    {
      "abilityID": "Improve",
      "abilityName": "Monster_Skirmisher_Standard_Staff_Rock_Improve",
      "abilityOverride": ""
    },
    {
      "abilityID": "ReleaseBullet",
      "abilityName": "Monster_Skirmisher_Male_Standard_Staff_Rock_Bullet",
      "abilityOverride": ""
    },
    {
      "abilityID": "ReleaseThreeBullet",
      "abilityName": "Monster_Skirmisher_Male_Standard_Staff_Rock_ThreeBullet",
      "abilityOverride": ""
    },
    {
      "abilityID": "FindBlink",
      "abilityName": "Monster_Skirmisher_Male_Standard_Staff_Rock_FindBlinkPoint",
      "abilityOverride": ""
    },
    {
      "abilityID": "HideSelf",
      "abilityName": "Monster_Skirmisher_Male_Standard_Staff_Rock_Hide",
      "abilityOverride": ""
    },
    {
      "abilityID": "DoBlink",
      "abilityName": "Monster_Skirmisher_Male_Standard_Staff_Rock_Blink",
      "abilityOverride": ""
    },
    {
      "abilityID": "CreateShield",
      "abilityName": "Monster_Skirmisher_Staff_Rock_CreatShield",
      "abilityOverride": ""
    },
    {
      "abilityID": "CreateSheild_WeaponEffect",
      "abilityName": "Monster_Skirmisher_Staff_Rock_WeaponEffect",
      "abilityOverride": ""
    },
    {
      "abilityID": "FindBlinkToAlliance",
      "abilityName": "Monster_Skirmisher_Male_Standard_Staff_Rock_FindBlinkToAlliance",
      "abilityOverride": ""
    },
    {
      "abilityID": "HideWeapon",
      "abilityName": "Monster_Skirmisher_Standard_Staff_Rock_StruggleHideWeapon",
      "abilityOverride": ""
    },
    {
      "abilityID": "WeapnSpecialEffect",
      "abilityName": "Monster_Skirmisher_Standard_Staff_Rock_WeaponSpecialState",
      "abilityOverride": ""
    },
    {
      "abilityID": "ReturnToBorn",
      "abilityName": "Monster_Skirmisher_Standard_Staff_Rock_ReturnToBorn",
      "abilityOverride": ""
    },
    {
      "abilityID": "PreCombatReset",
      "abilityName": "Monster_Skirmisher_Rifle_Fire_PreCombatRecover",
      "abilityOverride": ""
    },
    {
      "abilityID": "Die",
      "abilityName": "Monster_Skirmisher_Standard_Staff_Rock_Die",
      "abilityOverride": ""
    }
  ],
  "stateLayers": {
    "defaultLayer": {
      "$type": "ConfigNormalStateLayer",
      "FNPGDAEJAPJ": "",
      "stateIDs": {
        "NormalIdle": {
          "$type": "ConfigMonsterStateIDInfo",
          "animatorStates": {
            "Standby": [],
            "Born": []
          },
          "canDoSkill": true,
          "canSyncMove": true,
          "resetAnimatorTriggerOnExit": ["DoSkill"]
        },
        "NormalMove": {
          "$type": "ConfigMonsterStateIDInfo",
          "animatorStates": {
            "WalkForward": ["Audio_Monster_Standard_Staff_Rock_Walk_Footstep"],
            "WalkBack": ["Audio_Monster_Standard_Staff_Rock_Walk_Footstep"],
            "WalkRight": ["Audio_Monster_Standard_Staff_Rock_Walk_Footstep"],
            "WalkLeft": ["Audio_Monster_Standard_Staff_Rock_Walk_Footstep"]
          },
          "canDoSkill": true,
          "canSyncMove": true,
          "resetAnimatorTriggerOnExit": ["DoSkill"],
          "BHEPAJIOBDN": true
        },
        "Turn": {
          "$type": "ConfigMonsterStateIDInfo",
          "animatorStates": {
            "TurnLeft": ["Audio_Monster_Standard_Staff_Rock_Walk_Footstep"],
            "TurnRight": ["Audio_Monster_Standard_Staff_Rock_Walk_Footstep"]
          },
          "canDoSkill": true,
          "canSyncMove": true,
          "resetAnimatorTriggerOnExit": ["DoSkill"],
          "BHEPAJIOBDN": true
        },
        "BeHit": {
          "$type": "ConfigMonsterStateIDInfo",
          "animatorStates": {
            "Hit_L": ["Audio_Monster_Standard_Staff_Rock_Hit_L"],
            "Hit_H": ["Audio_Monster_Standard_Staff_Rock_Hit_H"]
          },
          "resetAnimatorTriggerOnEnter": ["BeHit"],
          "resetAnimatorTriggerOnExit": ["DoSkill"]
        },
        "BeHitThrow": {
          "$type": "ConfigMonsterStateIDInfo",
          "animatorStates": {
            "HitThrow": [],
            "HitThrowDrop": [],
            "HitThrowToGround": [
              "Audio_Monster_Standard_Staff_Rock_HitThrowToGround"
            ]
          },
          "resetAnimatorTriggerOnEnter": ["BeHit", "HitAir2HitDrop"],
          "resetAnimatorTriggerOnExit": ["DoSkill"]
        },
        "Struggle": {
          "$type": "ConfigMonsterStateIDInfo",
          "animatorStates": {
            "Struggle": []
          },
          "resetAnimatorTriggerOnEnter": ["BeHit", "HitAir2HitDrop"],
          "resetAnimatorTriggerOnExit": ["DoSkill"]
        },
        "Die": {
          "$type": "ConfigMonsterStateIDInfo",
          "animatorStates": {
            "Die1": [
              "Monster_Skirmisher_Male_Standard_Staff_Rock_Die",
              "Audio_Monster_Standard_Staff_Rock_Die"
            ],
            "Die2": [
              "Monster_Skirmisher_Male_Standard_Staff_Rock_Die",
              "Audio_Monster_Standard_Staff_Rock_Die"
            ],
            "SwimDie": [],
            "SwimDie_AS": []
          }
        },
        "Die_RagDoll": {
          "$type": "ConfigMonsterStateIDInfo",
          "animatorStates": {
            "AirDie": []
          },
          "HCCMMNBMCMA": true
        },
        "Alert": {
          "$type": "ConfigMonsterStateIDInfo",
          "animatorStates": {
            "Alert": [
              "Monster_Skirmisher_Male_Standard_Staff_Rock_Alert",
              "Audio_Monster_Standard_Staff_Rock_Alert"
            ]
          },
          "resetAnimatorTriggerOnExit": ["BeHit", "DoSkill"],
          "BHEPAJIOBDN": true
        },
        "ShowWeapon": {
          "$type": "ConfigMonsterStateIDInfo",
          "animatorStates": {
            "ShowWeapon": [
              "Monster_Skirmisher_Male_Standard_Staff_Rock_Alert",
              "Monster_Skirmisher_Male_Standard_Staff_PreCombat"
            ]
          },
          "resetAnimatorTriggerOnExit": ["BeHit", "DoSkill"],
          "BHEPAJIOBDN": true
        },
        "Improve": {
          "$type": "ConfigMonsterStateIDInfo",
          "animatorStates": {
            "Improve": [
              "Monster_Skirmisher_Male_Standard_Staff_Rock_Improve",
              "Audio_Monster_Standard_Staff_Rock_Improve"
            ]
          },
          "BFDKJHMDDML": 0.0,
          "BDFLEJHPFBG": 20.0,
          "resetAnimatorTriggerOnExit": ["BeHit", "DoSkill"]
        },
        "DefendArea_BS": {
          "$type": "ConfigMonsterStateIDInfo",
          "animatorStates": {
            "DefendShield_BS": [
              "Monster_Skirmisher_Male_Standard_Staff_Rock_CreateSheild",
              "Audio_Monster_Standard_Staff_Rock_BlinkToAlliance_BS"
            ]
          },
          "BFDKJHMDDML": 0.0,
          "BDFLEJHPFBG": 20.0,
          "resetAnimatorTriggerOnEnter": ["EndShield"],
          "resetAnimatorTriggerOnExit": ["BeHit", "DoSkill"],
          "BHEPAJIOBDN": true
        },
        "DefendArea_Loop": {
          "$type": "ConfigMonsterStateIDInfo",
          "animatorStates": {
            "DefendShield_Loop": []
          },
          "BFDKJHMDDML": 0.0,
          "BDFLEJHPFBG": 20.0,
          "resetAnimatorTriggerOnExit": ["BeHit", "DoSkill"],
          "BHEPAJIOBDN": true
        },
        "DefendArea_AS": {
          "$type": "ConfigMonsterStateIDInfo",
          "animatorStates": {
            "DefendShield_AS": [
              "Audio_Monster_Standard_Staff_Rock_BlinkToAlliance_AS"
            ]
          },
          "BFDKJHMDDML": 0.0,
          "BDFLEJHPFBG": 20.0,
          "resetAnimatorTriggerOnExit": ["BeHit", "DoSkill", "EndShield"],
          "BHEPAJIOBDN": true
        },
        "RangeAtk": {
          "$type": "ConfigMonsterStateIDInfo",
          "animatorStates": {
            "RangeAtk": [
              "Monster_Skirmisher_Male_Standard_Staff_Rock_RangeAtk",
              "Audio_Monster_Standard_Staff_Rock_RangeAtk"
            ],
            "PowerRangeAtk": [
              "Monster_Skirmisher_Male_Standard_Staff_Rock_RangeAtk_Powerful",
              "Audio_Monster_Standard_Staff_Rock_PowerRangeAtk"
            ],
            "NoAllianceRangAtk": [
              "Monster_Skirmisher_Male_Standard_Staff_Rock_RangeAtk_Powerful",
              "Audio_Monster_Standard_Staff_Rock_RangeAtk"
            ]
          },
          "BFDKJHMDDML": 0.0,
          "BDFLEJHPFBG": 20.0,
          "resetAnimatorTriggerOnExit": ["BeHit", "DoSkill"],
          "BHEPAJIOBDN": true
        },
        "Blink": {
          "$type": "ConfigMonsterStateIDInfo",
          "animatorStates": {
            "BlinkBS": [
              "Monster_Skirmisher_Male_Standard_Staff_Rock_BlinkBS",
              "Audio_Monster_Standard_Staff_Rock_Blink_BS"
            ],
            "BlinkAS": [
              "Monster_Skirmisher_Male_Standard_Staff_Rock_BlinkAS",
              "Audio_Monster_Standard_Staff_Rock_Blink_AS"
            ],
            "BlinkToAlliance": [
              "Monster_Skirmisher_Male_Standard_Staff_Rock_BlinkToAlliance",
              "Audio_Monster_Standard_Staff_Rock_BlinkToAlliance"
            ]
          },
          "AAEKKGMOKFK": true,
          "BFDKJHMDDML": 0.0,
          "BDFLEJHPFBG": 20.0,
          "resetAnimatorTriggerOnExit": ["BeHit", "DoSkill", "BlinkOver"],
          "BHEPAJIOBDN": true
        },
        "Weak": {
          "$type": "ConfigMonsterStateIDInfo",
          "animatorStates": {
            "Weak_BS": ["Audio_Monster_Standard_Staff_Rock_Weak_BS"],
            "Weak_Loop": [],
            "Weak_AS": ["Audio_Monster_Standard_Staff_Rock_Weak_AS"]
          },
          "BFDKJHMDDML": 0.0,
          "BDFLEJHPFBG": 20.0,
          "resetAnimatorTriggerOnEnter": ["WeakStart"],
          "resetAnimatorTriggerOnExit": ["BeHit", "DoSkill"]
        },
        "Search": {
          "$type": "ConfigMonsterStateIDInfo",
          "animatorStates": {
            "Search": []
          },
          "canDoSkill": true,
          "resetAnimatorTriggerOnExit": ["BeHit", "DoSkill"]
        },
        "Attention": {
          "$type": "ConfigMonsterStateIDInfo",
          "animatorStates": {
            "AttentionBS": [],
            "AttentionLoop": [],
            "AttentionAS": []
          },
          "canDoSkill": true,
          "resetAnimatorTriggerOnExit": ["BeHit", "DoSkill"]
        },
        "Afraid": {
          "$type": "ConfigMonsterStateIDInfo",
          "animatorStates": {
            "AfraidBS": [],
            "AfraidLoop": [],
            "AfraidAS": []
          },
          "canDoSkill": true,
          "resetAnimatorTriggerOnExit": ["BeHit", "DoSkill"]
        },
        "Talk": {
          "$type": "ConfigMonsterStateIDInfo",
          "animatorStates": {
            "TalkBS": [],
            "TalkLoop": [],
            "TalkAS": []
          },
          "canDoSkill": true,
          "resetAnimatorTriggerOnExit": ["BeHit", "DoSkill"]
        },
        "Think": {
          "$type": "ConfigMonsterStateIDInfo",
          "animatorStates": {
            "Think": []
          },
          "canDoSkill": true,
          "resetAnimatorTriggerOnExit": ["BeHit", "DoSkill"]
        },
        "Agree": {
          "$type": "ConfigMonsterStateIDInfo",
          "animatorStates": {
            "Agree": []
          },
          "canDoSkill": true,
          "resetAnimatorTriggerOnExit": ["BeHit", "DoSkill"]
        },
        "Threat": {
          "$type": "ConfigMonsterStateIDInfo",
          "animatorStates": {
            "Threat": []
          },
          "canDoSkill": true,
          "resetAnimatorTriggerOnExit": ["BeHit", "DoSkill"]
        }
      }
    }
  },
  "billboard": {
    "$type": "NCBABGPMMPL",
    "EBBHBMFMOGD": "BillboardAttach",
    "BFOMIIKCOGI": "Character",
    "ANGKJBLILKJ": true,
    "HLGCEAGHFGH": 50.0
  },
  "initialPoses": {
    "Default": {},
    "Search": {
      "initialPoseID": 9001,
      "initialPoseParams": {
        "boolParams": {
          "Search": "true"
        }
      }
    },
    "Attention": {
      "initialPoseID": 9002,
      "initialPoseParams": {
        "boolParams": {
          "Attention": "true"
        }
      }
    },
    "Afraid": {
      "initialPoseID": 9003,
      "initialPoseParams": {
        "boolParams": {
          "Afraid": "true"
        }
      }
    },
    "Talk": {
      "initialPoseID": 9011,
      "initialPoseParams": {
        "boolParams": {
          "Talk": "true"
        }
      }
    },
    "Think": {
      "initialPoseID": 9012,
      "initialPoseParams": {
        "boolParams": {
          "Think": "true"
        }
      }
    },
    "Agree": {
      "initialPoseID": 9013,
      "initialPoseParams": {
        "boolParams": {
          "Agree": "true"
        }
      }
    },
    "Threat": {
      "initialPoseID": 9014,
      "initialPoseParams": {
        "boolParams": {
          "Threat": "true"
        }
      }
    }
  },
  "aibeta": {
    "enable": true,
    "aiCombat": {
      "combatRole": "MAGE"
    },
    "buddySetting": {
      "enable": true,
      "buddyConfigIDs": [4009]
    },
    "sensing": {
      "settings": {
        "DefaultSetting": {
          "viewRange": 25.0,
          "feelRange": 10.0
        },
        "NeverCombat": {
          "enableVision": false,
          "hearAttractionRange": 0.0,
          "feelRange": 0.0
        }
      },
      "templates": {
        "DefaultTemplate": {
          "DefaultPoses": "DefaultSetting"
        },
        "NeverCombatTemplate": {
          "DefaultPoses": "NeverCombat"
        }
      }
    },
    "neurons": {
      "DefaultSetting": ["HIT"],
      "NeverCombat": []
    },
    "threat": {
      "clearThreatByLostPath": true,
      "clearThreatTimerByLostPath": 11.0,
      "viewAttenuation": [
        {
          "x": 10.0,
          "y": 2.0
        },
        {
          "x": 15.0,
          "y": 0.800000011920929
        },
        {
          "x": 20.0,
          "y": 0.5
        },
        {
          "x": 25.0,
          "y": 0.30000001192092896
        },
        {
          "x": 30.0,
          "y": 0.20000000298023224
        }
      ],
      "resistTauntLevel": "Monster_TauntLevel_2"
    },
    "defendArea": {
      "defendRange": 50.0
    },
    "network": {
      "syncSkill": true
    },
    "skillGroupCDConfigs": [
      {
        "skillGroupCDID": 0,
        "skillGroupCDTime": 5.0
      },
      {
        "skillGroupCDID": 1,
        "skillGroupCDTime": 10.0
      },
      {
        "skillGroupCDID": 2,
        "skillGroupCDTime": 15.0
      },
      {
        "skillGroupCDID": 3,
        "skillGroupCDTime": 60.0
      }
    ],
    "skills": {
      "1": {
        "name": "OnAlert",
        "skillType": "OnAlert",
        "faceTarget": true,
        "castCondition": {
          "pose": [9001, 9002, 9003, 9011, 9012, 9013, 9014]
        },
        "publicCDGroup": "",
        "ignoreGCD": true,
        "triggerGCD": false,
        "stateIDs": ["Alert", "ShowWeapon"],
        "skillQueryingTime": 3.0,
        "flagTargetReachable": "10",
        "flagSelfOnTemplateCollider": "01",
        "flagSelfInZone": "10",
        "flagTargetInZone": "11"
      },
      "2": {
        "name": "OnAlert",
        "skillType": "OnNerve",
        "faceTarget": true,
        "castCondition": {
          "pose": [1, 9001, 9002, 9003, 9011, 9012, 9013, 9014]
        },
        "publicCDGroup": "",
        "triggerGCD": false,
        "stateIDs": ["Alert"],
        "skillQueryingTime": 3.0,
        "flagTargetReachable": "10",
        "flagSelfOnTemplateCollider": "01",
        "flagSelfInZone": "10",
        "flagTargetInZone": "11",
        "nerveTrigger": ["HIT"]
      },
      "3": {
        "name": "OnAlert",
        "skillType": "OnAlert",
        "faceTarget": true,
        "castCondition": {
          "pose": [1]
        },
        "publicCDGroup": "",
        "ignoreGCD": true,
        "triggerGCD": false,
        "stateIDs": ["Alert"],
        "skillQueryingTime": 3.0,
        "flagTargetReachable": "10",
        "flagSelfOnTemplateCollider": "01",
        "flagSelfInZone": "10",
        "flagTargetInZone": "11"
      },
      "101": {
        "name": "RangeAtk",
        "priority": 4,
        "castCondition": {
          "pose": [101, 103],
          "pickRangeMin": 3.0,
          "pickRangeMax": 25.0
        },
        "cd": 5.0,
        "cdUpperRange": 2.5,
        "initialCD": 1.0,
        "publicCDGroup": "",
        "stateIDs": ["RangeAtk"],
        "skillQueryingTime": 2.0,
        "flagTargetReachable": "11",
        "flagSelfOnTemplateCollider": "01",
        "flagSelfInZone": "11",
        "flagTargetInZone": "11"
      },
      "102": {
        "name": "RangeAtk",
        "priority": 4,
        "castCondition": {
          "pose": [201],
          "pickRangeMax": 25.0
        },
        "cd": 5.0,
        "cdUpperRange": 2.5,
        "initialCD": 1.0,
        "publicCDGroup": "",
        "stateIDs": ["RangeAtk"],
        "skillQueryingTime": 2.0,
        "flagTargetReachable": "11",
        "flagSelfOnTemplateCollider": "01",
        "flagSelfInZone": "11",
        "flagTargetInZone": "11"
      },
      "201": {
        "name": "Blink",
        "priority": 1,
        "castCondition": {
          "pose": [201],
          "pickRangeMax": 5.0
        },
        "cd": 10.0,
        "cdUpperRange": 2.5,
        "initialCD": 3.0,
        "publicCDGroup": "",
        "ignoreGCD": true,
        "stateIDs": ["Blink"],
        "skillQueryingTime": 3.0,
        "flagTargetReachable": "11",
        "flagSelfOnTemplateCollider": "01",
        "flagSelfInZone": "11",
        "flagTargetInZone": "11"
      },
      "301": {
        "name": "DefendSheild",
        "skillType": "CombatBuddy",
        "priority": 2,
        "castCondition": {
          "pose": [201]
        },
        "cd": 48.0,
        "initialCD": 15.0,
        "initialCDUpperRange": 7.5,
        "publicCDGroup": "",
        "triggerGCD": false,
        "triggerCDOnStart": true,
        "skillGroupCDID": 2,
        "stateIDs": [
          "Blink",
          "DefendArea_BS",
          "DefendArea_Loop",
          "DefendArea_AS"
        ],
        "skillQueryingTime": 3.0,
        "flagTargetReachable": "10",
        "flagSelfOnTemplateCollider": "01",
        "flagSelfInZone": "10",
        "flagTargetInZone": "11",
        "buddySkillCondition": {
          "selectRange": 50.0,
          "buddyScoring": {
            "hpFactor": -1,
            "distFactor": -1.0,
            "distWeight": 0,
            "roleScores": [1.0, 0.0, 3.0, 2.0]
          }
        }
      },
      "401": {
        "name": "Improve",
        "priority": 2,
        "castCondition": {
          "pose": [101]
        },
        "cd": 80.0,
        "cdUpperRange": 10.0,
        "initialCD": 10.0,
        "initialCDUpperRange": 10.0,
        "publicCDGroup": "",
        "triggerGCD": false,
        "stateIDs": ["Improve"],
        "skillQueryingTime": 3.0,
        "flagTargetReachable": "10",
        "flagSelfOnTemplateCollider": "01",
        "flagSelfInZone": "10",
        "flagTargetInZone": "11"
      },
      "402": {
        "name": "Improve",
        "priority": 2,
        "castCondition": {
          "pose": [102]
        },
        "cd": 10.0,
        "publicCDGroup": "",
        "ignoreGCD": true,
        "triggerGCD": false,
        "stateIDs": ["Improve"],
        "skillQueryingTime": 3.0,
        "flagTargetReachable": "10",
        "flagSelfOnTemplateCollider": "01",
        "flagSelfInZone": "10",
        "flagTargetInZone": "11"
      },
      "403": {
        "name": "Improve",
        "priority": 2,
        "castCondition": {
          "pose": [103]
        },
        "cd": 90.0,
        "cdUpperRange": 10.0,
        "initialCD": 20.0,
        "initialCDUpperRange": 20.0,
        "publicCDGroup": "",
        "triggerGCD": false,
        "stateIDs": ["Improve"],
        "skillQueryingTime": 3.0,
        "flagTargetReachable": "10",
        "flagSelfOnTemplateCollider": "01",
        "flagSelfInZone": "10",
        "flagTargetInZone": "11"
      },
      "9001": {
        "name": "Search",
        "skillType": "Free",
        "castCondition": {
          "pose": [9001]
        },
        "cd": 5.0,
        "cdUpperRange": 1.0,
        "publicCDGroup": "",
        "stateIDs": ["Search"],
        "flagTargetReachable": "10",
        "flagSelfOnTemplateCollider": "01",
        "flagSelfInZone": "10",
        "flagTargetInZone": "11"
      },
      "9002": {
        "name": "Attention",
        "skillType": "Free",
        "castCondition": {
          "pose": [9002]
        },
        "cd": 5.0,
        "cdUpperRange": 1.0,
        "publicCDGroup": "",
        "stateIDs": ["Attention"],
        "flagTargetReachable": "10",
        "flagSelfOnTemplateCollider": "01",
        "flagSelfInZone": "10",
        "flagTargetInZone": "11"
      },
      "9003": {
        "name": "Afraid",
        "skillType": "Free",
        "castCondition": {
          "pose": [9003]
        },
        "cd": 5.0,
        "cdUpperRange": 1.0,
        "publicCDGroup": "",
        "stateIDs": ["Afraid"],
        "flagTargetReachable": "10",
        "flagSelfOnTemplateCollider": "01",
        "flagSelfInZone": "10",
        "flagTargetInZone": "11"
      },
      "9011": {
        "name": "Talk",
        "skillType": "Free",
        "castCondition": {
          "pose": [9011]
        },
        "cd": 5.0,
        "cdUpperRange": 1.0,
        "publicCDGroup": "",
        "stateIDs": ["Talk"],
        "flagTargetReachable": "10",
        "flagSelfOnTemplateCollider": "01",
        "flagSelfInZone": "10",
        "flagTargetInZone": "11"
      },
      "9012": {
        "name": "Think",
        "skillType": "Free",
        "castCondition": {
          "pose": [9012]
        },
        "cd": 5.0,
        "cdUpperRange": 1.0,
        "publicCDGroup": "",
        "stateIDs": ["Think"],
        "flagTargetReachable": "10",
        "flagSelfOnTemplateCollider": "01",
        "flagSelfInZone": "10",
        "flagTargetInZone": "11"
      },
      "9013": {
        "name": "Agree",
        "skillType": "Free",
        "castCondition": {
          "pose": [9013]
        },
        "cd": 5.0,
        "cdUpperRange": 1.0,
        "publicCDGroup": "",
        "stateIDs": ["Agree"],
        "flagTargetReachable": "10",
        "flagSelfOnTemplateCollider": "01",
        "flagSelfInZone": "10",
        "flagTargetInZone": "11"
      },
      "9014": {
        "name": "Threat",
        "skillType": "Free",
        "castCondition": {
          "pose": [9014]
        },
        "cd": 5.0,
        "cdUpperRange": 1.0,
        "publicCDGroup": "",
        "stateIDs": ["Threat"],
        "flagTargetReachable": "10",
        "flagSelfOnTemplateCollider": "01",
        "flagSelfInZone": "10",
        "flagTargetInZone": "11"
      }
    },
    "skillGCD": 2.0,
    "returnToBornTactic": {
      "enable": true,
      "defaultSetting": {
        "speedLevel": 1
      }
    },
    "wanderTactic": {
      "enable": true,
      "condition": {
        "pose": [1, 2, 3]
      },
      "defaultSetting": {
        "turnSpeedOverride": 1.0,
        "cdMax": 5.0,
        "cdMin": 2.5,
        "distanceFromBorn": 15.0,
        "distanceFromCurrentMin": 5.0,
        "distanceFromCurrentMax": 7.5
      }
    },
    "meleeChargeTactic": {
      "enable": true,
      "condition": {
        "pose": [101, 201]
      },
      "defaultSetting": {
        "speedLevel": 1,
        "startDistanceMax": 99.0,
        "stopDistance": 15.0,
        "innerDistance": 0.0
      }
    },
    "facingMoveTactic": {
      "enable": true,
      "condition": {
        "pose": [101, 201]
      },
      "defaultSetting": {
        "rangeMin": 5.0,
        "rangeMax": 15.0,
        "facingMoveTurnInterval": 2.5,
        "obstacleDetectRange": 1.0,
        "facingMoveWeight": {
          "stop": 2.0,
          "forward": 0.0,
          "back": 0.0
        },
        "PDOKGBAJNEP": "1111",
        "NGLJBMGMGKF": "1111"
      }
    }
  },
  "inputKeys": [
    {
      "keyID": 101,
      "inputKeyCode": 257,
      "abilityName": ""
    },
    {
      "keyID": 201,
      "inputKeyCode": 258,
      "abilityName": ""
    },
    {
      "keyID": 301,
      "inputKeyCode": 259,
      "abilityName": ""
    },
    {
      "keyID": 401,
      "inputKeyCode": 260,
      "abilityName": ""
    },
    {
      "keyID": 102,
      "inputKeyCode": 261,
      "abilityName": ""
    },
    {
      "keyID": 601,
      "inputKeyCode": 262,
      "abilityName": ""
    }
  ],
  "move": {
    "$type": "PLMNMICDOHN",
    "BCBPBHLKCPB": "FourDirection",
    "NGNIGPNNLAI": "NormalHumanoidType",
    "AIPJBCHAEPE": "Walk"
  },
  "audio": {
    "NCOGLLMIJGO": "",
    "animAudio": {
      "onTransitionIn": [
        {
          "currentStateName": "Weak_Loop",
          "audioEvent": {
            "text": "Play_sfx_monster_staff_rock_weak_Loop"
          }
        },
        {
          "currentStateName": "DefendShield_Loop",
          "audioEvent": {
            "text": "Play_sfx_monster_staff_rock_defendshield_Loop"
          }
        }
      ],
      "onTransitionOut": [
        {
          "currentStateName": "Weak_Loop",
          "audioEvent": {
            "text": ""
          },
          "otherStateNames": ["Stop_sfx_monster_staff_rock_weak_Loop"]
        },
        {
          "currentStateName": "DefendShield_Loop",
          "audioEvent": {
            "text": "Stop_sfx_monster_staff_rock_defendshield_Loop"
          }
        }
      ]
    },
    "disableEvent": {
      "text": ""
    },
    "destroyEvent": {
      "text": ""
    }
  }
}
