{
  "common": {
    "effectAttachShape": {
      "$type": "ConfigEffectAttachSkinnedMesh",
      "mesh": "EffectMesh"
    },
    "mass": 10000.0,
    "height": 2.0999999046325684,
    "modelHeight": 2.0999999046325684,
    "viewSize": 1.5,
    "affectedByWorld": true,
    "checkInSurface": true,
    "scale": 1.100000023841858,
    "useGrassDisplacement": true,
    "clearAnimatorOnSetLightDeactive": true,
    "clearAIOnSetLightDeactive": true,
    "NCCLLKFLJGL": true
  },
  "headControl": {
    "$type": "GAAIKCFIJMM",
    "useHeadControl": true,
    "KBBNEKBLPFA": 20.0,
    "FJOGFHEFPHN": 5.0,
    "FCDMCPDGFCL": [
      "NormalIdle/Standby",
      "NormalMove/WalkForward",
      "NormalMove/WalkBack",
      "NormalMove/WalkRight",
      "NormalMove/WalkLeft",
      "NormalMove/Run",
      "Turn/TurnLeft",
      "Turn/TurnRight"
    ]
  },
  "model": {
    "bornEffect": "Eff_Monster_Common_Born",
    "attachEffect": ""
  },
  "dither": {
    "showDitherDuration": 1.0
  },
  "combat": {
    "property": {
      "endureType": "Monster_Grunt_Other",
      "weight": 80.0
    },
    "beHit": {
      "hitBloodEffect": ""
    },
    "combatLock": {
      "lockShape": "CircleLockEnemy",
      "lockType": "Avatar&Monster_Lv4"
    },
    "die": {
      "hasAnimatorDie": true,
      "dieEndTime": 2.0,
      "dieForceDisappearTime": 8.0,
      "dieDisappearEffect": "",
      "dieShaderData": "EremiteSandDie",
      "dieShaderEnableDurationTime": 1.0,
      "OCGODEHJPME": true,
      "MFJBKFECLNJ": true,
      "IMEEBMBJPGJ": true,
      "ICHFPLMNCLC": true,
      "MBHMAGEPJFH": true,
      "CFHPDHFKMEP": true
    },
    "animEvents": {
      "NormalAtk01": {
        "attackPattern": {
          "$type": "ConfigAttackCircle",
          "triggerType": "TriggerNoRepeat",
          "born": {
            "$type": "ConfigBornBySelf",
            "offset": {
              "x": 0.0,
              "y": 0.0,
              "z": 0.5
            }
          },
          "height": 2.200000047683716,
          "fanAngle": 180.0,
          "radius": 2.5
        },
        "attackInfo": {
          "attackTag": "",
          "attenuationTag": "",
          "attenuationGroup": "default",
          "attackProperty": {
            "damagePercentage": 0.4000000059604645,
            "MKLAMNDEDGB": 0.0,
            "elementType": "Ice",
            "bonusCriticalHurt": 25.0,
            "strikeType": "Blunt",
            "enBreak": 50.0,
            "attackType": "Melee"
          },
          "hitPattern": {
            "onHitEffectName": "default",
            "hitImpulseType": "LV4",
            "canBeDefenceHalt": true
          }
        }
      },
      "NormalAtk02_01": {
        "attackPattern": {
          "$type": "ConfigAttackCircle",
          "triggerType": "TriggerNoRepeat",
          "born": {
            "$type": "ConfigBornBySelf",
            "offset": {
              "x": 0.0,
              "y": 0.0,
              "z": 0.4000000059604645
            }
          },
          "height": 2.200000047683716,
          "fanAngle": 180.0,
          "radius": 2.5
        },
        "attackInfo": {
          "attackTag": "",
          "attenuationTag": "",
          "attenuationGroup": "default",
          "attackProperty": {
            "damagePercentage": 0.4000000059604645,
            "MKLAMNDEDGB": 0.0,
            "elementType": "Ice",
            "bonusCriticalHurt": 25.0,
            "strikeType": "Blunt",
            "enBreak": 50.0,
            "attackType": "Melee"
          },
          "hitPattern": {
            "onHitEffectName": "default",
            "hitImpulseType": "LV5",
            "canBeDefenceHalt": true
          }
        }
      },
      "NormalAtk02_02": {
        "attackPattern": {
          "$type": "ConfigAttackCircle",
          "triggerType": "TriggerNoRepeat",
          "born": {
            "$type": "ConfigBornBySelf",
            "offset": {
              "x": 0.0,
              "y": 0.0,
              "z": 0.5
            }
          },
          "height": 2.200000047683716,
          "fanAngle": 180.0,
          "radius": 2.5
        },
        "attackInfo": {
          "attackTag": "",
          "attenuationTag": "",
          "attenuationGroup": "default",
          "attackProperty": {
            "damagePercentage": 0.25,
            "MKLAMNDEDGB": 0.0,
            "elementType": "Ice",
            "bonusCriticalHurt": 25.0,
            "strikeType": "Blunt",
            "enBreak": 25.0,
            "attackType": "Melee"
          },
          "hitPattern": {
            "onHitEffectName": "default",
            "hitImpulseType": "LV3",
            "canBeDefenceHalt": true
          }
        }
      },
      "NormalAtk03_01": {
        "attackPattern": {
          "$type": "ConfigAttackCircle",
          "triggerType": "TriggerNoRepeat",
          "born": {
            "$type": "ConfigBornBySelf",
            "offset": {
              "x": 0.0,
              "y": 0.0,
              "z": 0.5
            }
          },
          "height": 2.200000047683716,
          "fanAngle": 180.0,
          "radius": 2.5
        },
        "attackInfo": {
          "attackTag": "",
          "attenuationTag": "",
          "attenuationGroup": "default",
          "attackProperty": {
            "damagePercentage": 0.5,
            "MKLAMNDEDGB": 0.0,
            "elementType": "Ice",
            "bonusCriticalHurt": 25.0,
            "strikeType": "Blunt",
            "enBreak": 25.0,
            "attackType": "Melee"
          },
          "hitPattern": {
            "onHitEffectName": "default",
            "hitImpulseType": "LV5",
            "canBeDefenceHalt": true
          }
        }
      },
      "NormalAtk03_02": {
        "attackPattern": {
          "$type": "ConfigAttackCircle",
          "triggerType": "TriggerNoRepeat",
          "born": {
            "$type": "ConfigBornBySelf",
            "offset": {
              "x": 0.0,
              "y": 0.0,
              "z": 0.5
            }
          },
          "height": 2.200000047683716,
          "fanAngle": 180.0,
          "radius": 2.5
        },
        "attackInfo": {
          "attackTag": "",
          "attenuationTag": "",
          "attenuationGroup": "default",
          "attackProperty": {
            "damagePercentage": 0.5,
            "MKLAMNDEDGB": 0.0,
            "elementType": "Ice",
            "bonusCriticalHurt": 25.0,
            "strikeType": "Blunt",
            "enBreak": 100.0,
            "attackType": "Melee"
          },
          "hitPattern": {
            "onHitEffectName": "default",
            "hitImpulseType": "LV5",
            "canBeDefenceHalt": true
          }
        }
      },
      "SlamAtk01": {
        "attackPattern": {
          "$type": "NAMPOMPBMHC",
          "triggerType": "TriggerNoRepeat",
          "born": {
            "$type": "ConfigBornBySelf",
            "offset": {
              "x": 0.0,
              "y": 0.0,
              "z": 0.5
            }
          },
          "size": {
            "x": 1.0,
            "y": 2.0,
            "z": 6.0
          }
        },
        "attackInfo": {
          "attackTag": "",
          "attenuationTag": "",
          "attenuationGroup": "default",
          "attackProperty": {
            "damagePercentage": 0.3499999940395355,
            "MKLAMNDEDGB": 0.0,
            "elementType": "Ice",
            "bonusCriticalHurt": 25.0,
            "strikeType": "Blunt",
            "enBreak": 25.0,
            "attackType": "Melee"
          },
          "hitPattern": {
            "onHitEffectName": "default",
            "hitImpulseType": "LV4",
            "canBeDefenceHalt": true
          }
        }
      },
      "SlamAtk02": {
        "attackPattern": {
          "$type": "MHDMMPENLGB",
          "triggerType": "TriggerNoRepeat",
          "born": {
            "$type": "ConfigBornBySelf",
            "offset": {
              "x": 0.0,
              "y": 0.0,
              "z": 0.0
            }
          },
          "radius": 3.0
        },
        "attackInfo": {
          "attackTag": "",
          "attenuationTag": "",
          "attenuationGroup": "default",
          "attackProperty": {
            "damagePercentage": 0.5,
            "MKLAMNDEDGB": 0.0,
            "elementType": "Ice",
            "bonusCriticalHurt": 25.0,
            "strikeType": "Slash",
            "enBreak": 100.0,
            "attackType": "Melee"
          },
          "hitPattern": {
            "onHitEffectName": "default",
            "hitImpulseType": "LV5",
            "canBeDefenceHalt": true
          }
        }
      },
      "ImproveNormalAtk01": {
        "attackPattern": {
          "$type": "ConfigAttackCircle",
          "triggerType": "TriggerNoRepeat",
          "born": {
            "$type": "ConfigBornBySelf",
            "offset": {
              "x": 0.0,
              "y": 0.0,
              "z": 0.5
            }
          },
          "height": 2.200000047683716,
          "fanAngle": 180.0,
          "radius": 4.0
        },
        "attackInfo": {
          "attackTag": "",
          "attenuationTag": "",
          "attenuationGroup": "default",
          "attackProperty": {
            "damagePercentage": 0.5,
            "MKLAMNDEDGB": 0.0,
            "elementType": "Ice",
            "bonusCriticalHurt": 50.0,
            "strikeType": "Blunt",
            "enBreak": 200.0,
            "attackType": "Melee"
          },
          "hitPattern": {
            "onHitEffectName": "default",
            "hitImpulseType": "LV4",
            "canBeDefenceHalt": true
          }
        }
      },
      "ImproveNormalAtk02_01": {
        "attackPattern": {
          "$type": "ConfigAttackCircle",
          "triggerType": "TriggerNoRepeat",
          "born": {
            "$type": "ConfigBornBySelf",
            "offset": {
              "x": 0.0,
              "y": 0.0,
              "z": 0.5
            }
          },
          "height": 2.200000047683716,
          "fanAngle": 180.0,
          "radius": 3.0
        },
        "attackInfo": {
          "attackTag": "",
          "attenuationTag": "",
          "attenuationGroup": "default",
          "attackProperty": {
            "damagePercentage": 0.5,
            "MKLAMNDEDGB": 0.0,
            "elementType": "Ice",
            "bonusCriticalHurt": 25.0,
            "strikeType": "Blunt",
            "enBreak": 100.0,
            "attackType": "Melee"
          },
          "hitPattern": {
            "onHitEffectName": "default",
            "hitImpulseType": "LV4",
            "canBeDefenceHalt": true
          }
        }
      },
      "ImproveNormalAtk02_02": {
        "attackPattern": {
          "$type": "ConfigAttackCircle",
          "triggerType": "TriggerNoRepeat",
          "born": {
            "$type": "ConfigBornBySelf",
            "offset": {
              "x": 0.0,
              "y": 0.0,
              "z": 0.5
            }
          },
          "height": 2.200000047683716,
          "fanAngle": 180.0,
          "radius": 3.0
        },
        "attackInfo": {
          "attackTag": "",
          "attenuationTag": "",
          "attenuationGroup": "default",
          "attackProperty": {
            "damagePercentage": 0.5,
            "MKLAMNDEDGB": 0.0,
            "elementType": "Ice",
            "bonusCriticalHurt": 25.0,
            "strikeType": "Blunt",
            "enBreak": 200.0,
            "attackType": "Melee"
          },
          "hitPattern": {
            "onHitEffectName": "default",
            "hitImpulseType": "LV4",
            "canBeDefenceHalt": true
          }
        }
      },
      "ImproveNormalAtk03_01": {
        "attackPattern": {
          "$type": "ConfigAttackCircle",
          "triggerType": "TriggerNoRepeat",
          "born": {
            "$type": "ConfigBornBySelf",
            "offset": {
              "x": 0.0,
              "y": 0.0,
              "z": 0.5
            }
          },
          "height": 2.200000047683716,
          "fanAngle": 180.0,
          "radius": 4.0
        },
        "attackInfo": {
          "attackTag": "",
          "attenuationTag": "",
          "attenuationGroup": "default",
          "attackProperty": {
            "damagePercentage": 0.75,
            "MKLAMNDEDGB": 0.0,
            "elementType": "Ice",
            "bonusCriticalHurt": 25.0,
            "strikeType": "Blunt",
            "enBreak": 100.0,
            "attackType": "Melee"
          },
          "hitPattern": {
            "onHitEffectName": "default",
            "hitImpulseType": "LV5",
            "canBeDefenceHalt": true
          },
          "cameraShake": {
            "shakeType": "CustomVector",
            "shakeRange": 0.3499999940395355,
            "shakeTime": 0.10000000149011612,
            "shakeDir": {
              "y": 1.0,
              "z": 1.0
            }
          }
        }
      },
      "ImproveNormalAtk03_02": {
        "attackPattern": {
          "$type": "ConfigAttackCircle",
          "triggerType": "TriggerNoRepeat",
          "born": {
            "$type": "ConfigBornBySelf",
            "offset": {
              "x": 0.0,
              "y": 0.0,
              "z": 0.5
            }
          },
          "height": 2.200000047683716,
          "fanAngle": 180.0,
          "radius": 4.0
        },
        "attackInfo": {
          "attackTag": "",
          "attenuationTag": "",
          "attenuationGroup": "default",
          "attackProperty": {
            "damagePercentage": 0.6000000238418579,
            "MKLAMNDEDGB": 0.0,
            "elementType": "Ice",
            "bonusCriticalHurt": 50.0,
            "strikeType": "Blunt",
            "enBreak": 200.0,
            "attackType": "Melee"
          },
          "hitPattern": {
            "onHitEffectName": "default",
            "hitImpulseType": "LV5",
            "canBeDefenceHalt": true
          },
          "cameraShake": {
            "shakeType": "CustomVector",
            "shakeRange": 0.10000000149011612,
            "shakeTime": 0.30000001192092896,
            "shakeDir": {
              "y": 1.0,
              "z": 1.0
            }
          }
        }
      },
      "ImproveSlamAtk01": {
        "attackPattern": {
          "$type": "NAMPOMPBMHC",
          "triggerType": "TriggerNoRepeat",
          "born": {
            "$type": "ConfigBornBySelf",
            "offset": {
              "x": 0.0,
              "y": 0.0,
              "z": 0.5
            }
          },
          "size": {
            "x": 1.0,
            "y": 2.0,
            "z": 6.0
          }
        },
        "attackInfo": {
          "attackTag": "",
          "attenuationTag": "",
          "attenuationGroup": "default",
          "attackProperty": {
            "damagePercentage": 0.75,
            "MKLAMNDEDGB": 0.0,
            "elementType": "Ice",
            "bonusCriticalHurt": 25.0,
            "strikeType": "Blunt",
            "enBreak": 200.0,
            "attackType": "Melee"
          },
          "hitPattern": {
            "onHitEffectName": "default",
            "hitImpulseType": "LV4",
            "canBeDefenceHalt": true
          },
          "cameraShake": {
            "shakeType": "CustomVector",
            "shakeRange": 0.20000000298023224,
            "shakeTime": 0.10000000149011612,
            "shakeDistance": 30.0,
            "shakeDir": {
              "y": 1.0,
              "z": 1.0
            }
          }
        }
      },
      "ImproveSlamAtk02": {
        "attackPattern": {
          "$type": "ConfigAttackCircle",
          "triggerType": "TriggerNoRepeat",
          "born": {
            "$type": "ConfigBornBySelf",
            "offset": {
              "x": 0.0,
              "y": 0.0,
              "z": 0.5
            }
          },
          "height": 2.200000047683716,
          "fanAngle": 180.0,
          "radius": 4.0
        },
        "attackInfo": {
          "attackTag": "",
          "attenuationTag": "",
          "attenuationGroup": "default",
          "attackProperty": {
            "damagePercentage": 0.75,
            "MKLAMNDEDGB": 0.0,
            "elementType": "Ice",
            "bonusCriticalHurt": 50.0,
            "strikeType": "Blunt",
            "enBreak": 200.0,
            "attackType": "Melee"
          },
          "hitPattern": {
            "onHitEffectName": "default",
            "hitImpulseType": "LV5",
            "canBeDefenceHalt": true
          },
          "cameraShake": {
            "shakeType": "CustomVector",
            "shakeRange": 1.0,
            "shakeTime": 0.30000001192092896,
            "shakeDistance": 30.0,
            "shakeDir": {
              "y": 1.0,
              "z": 1.0
            }
          }
        }
      }
    }
  },
  "equipController": {
    "sheathPoint": "",
    "attachPoints": {
      "equip01": "WeaponR",
      "equip02": "WeaponL"
    }
  },
  "abilities": [
    {
      "abilityID": "FightControl",
      "abilityName": "Monster_Eremite_Male_Standard_Glaive_Ice_FightControl",
      "abilityOverride": ""
    },
    {
      "abilityID": "Improve",
      "abilityName": "Monster_Eremite_Male_Standard_Glaive_Ice_Improve",
      "abilityOverride": ""
    },
    {
      "abilityID": "Alert",
      "abilityName": "Monster_Eremite_Male_Standard_Glaive_Ice_Alert",
      "abilityOverride": ""
    },
    {
      "abilityID": "Improve_Effect",
      "abilityName": "Monster_Eremite_Male_Standard_Glaive_Ice_Improve_Effect",
      "abilityOverride": ""
    },
    {
      "abilityID": "Die",
      "abilityName": "Monster_Eremite_Male_Standard_Glaive_Ice_Improve_Die",
      "abilityOverride": ""
    },
    {
      "abilityID": "Weak",
      "abilityName": "Monster_Eremite_Male_Standard_Glaive_Ice_Weak",
      "abilityOverride": ""
    },
    {
      "abilityID": "DrawWeapon",
      "abilityName": "Monster_Eremite_Male_Standard_Glaive_Ice_DrawWeapon",
      "abilityOverride": ""
    },
    {
      "abilityID": "SheathWeapon",
      "abilityName": "Monster_Eremite_Male_Standard_Glaive_Ice_SheathWeapon",
      "abilityOverride": ""
    },
    {
      "abilityID": "HideWeapon",
      "abilityName": "Monster_Eremite_Male_Standard_Glaive_Ice_HideWeapon",
      "abilityOverride": ""
    },
    {
      "abilityID": "WeaponOnback",
      "abilityName": "Monster_Eremite_Male_Standard_Glaive_Ice_UnhideWeapon",
      "abilityOverride": ""
    },
    {
      "abilityID": "SteerControl",
      "abilityName": "Monster_Eremite_Male_Standard_Glaive_Ice_SteerControl",
      "abilityOverride": ""
    },
    {
      "abilityID": "ThrowGlavie",
      "abilityName": "Monster_Eremite_Male_Standard_Glaive_Ice_ThrowGlavie",
      "abilityOverride": ""
    },
    {
      "abilityID": "ThrowGlavie_02",
      "abilityName": "Monster_Eremite_Male_Standard_Glaive_Ice_ThrowGlavieForword",
      "abilityOverride": ""
    },
    {
      "abilityID": "ThrowGlavie_02_Remove",
      "abilityName": "Monster_Eremite_Male_Standard_Glaive_Ice_ThrowGlavie_02_Remove",
      "abilityOverride": ""
    },
    {
      "abilityID": "ThrowGlavie_Away",
      "abilityName": "Monster_Eremite_Male_Standard_Glaive_Ice_ThrowGlavieAway",
      "abilityOverride": ""
    },
    {
      "abilityID": "ThrowGlavie_Away",
      "abilityName": "Monster_Eremite_Male_Standard_Glaive_Ice_ThrowGlavieAway_Remove",
      "abilityOverride": ""
    },
    {
      "abilityID": "ThrowGlavie_Away",
      "abilityName": "Monster_Eremite_Male_Standard_Glaive_Ice_BuffEffect_Closed",
      "abilityOverride": ""
    },
    {
      "abilityID": "ThrowGlavie_Away",
      "abilityName": "Monster_Eremite_Male_Standard_Glaive_Ice_BuffEffect_Open",
      "abilityOverride": ""
    },
    {
      "abilityID": "ReturnToBorn",
      "abilityName": "Monster_Eremite_Male_Standard_Glaive_Ice_ReturnToBorn",
      "abilityOverride": ""
    }
  ],
  "stateLayers": {
    "defaultLayer": {
      "$type": "ConfigNormalStateLayer",
      "FNPGDAEJAPJ": "",
      "stateIDs": {
        "NormalIdle": {
          "$type": "ConfigMonsterStateIDInfo",
          "animatorStates": {
            "Standby": [],
            "Born": []
          },
          "canDoSkill": true,
          "canSyncMove": true,
          "resetAnimatorTriggerOnExit": ["DoSkill"]
        },
        "Standby_Weak": {
          "$type": "ConfigMonsterStateIDInfo",
          "animatorStates": {
            "Standby_Weak": []
          },
          "canDoSkill": true,
          "canSyncMove": true,
          "resetAnimatorTriggerOnEnter": ["Recover"],
          "resetAnimatorTriggerOnExit": ["DoSkill"]
        },
        "NormalMove": {
          "$type": "ConfigMonsterStateIDInfo",
          "animatorStates": {
            "WalkForward": [
              "Audio_Monster_Eremite_Male_Standard_Glaive_01_Walk"
            ],
            "WalkBack": ["Audio_Monster_Eremite_Male_Standard_Glaive_01_Walk"],
            "WalkRight": ["Audio_Monster_Eremite_Male_Standard_Glaive_01_Walk"],
            "WalkLeft": ["Audio_Monster_Eremite_Male_Standard_Glaive_01_Walk"],
            "Run": ["Audio_Monster_Eremite_Male_Standard_Glaive_01_Run"]
          },
          "canDoSkill": true,
          "canSyncMove": true,
          "resetAnimatorTriggerOnExit": ["DoSkill"],
          "BHEPAJIOBDN": true
        },
        "Turn": {
          "$type": "ConfigMonsterStateIDInfo",
          "animatorStates": {
            "TurnLeft": ["Audio_Monster_Eremite_Male_Standard_Glaive_01_Walk"],
            "TurnRight": ["Audio_Monster_Eremite_Male_Standard_Glaive_01_Walk"]
          },
          "canDoSkill": true,
          "canSyncMove": true,
          "resetAnimatorTriggerOnExit": ["DoSkill"],
          "BHEPAJIOBDN": true
        },
        "BeHit": {
          "$type": "ConfigMonsterStateIDInfo",
          "animatorStates": {
            "Hit_L": [],
            "Hit_H": ["Audio_Monster_Eremite_Male_Standard_Glaive_01_Hit_H"]
          },
          "resetAnimatorTriggerOnEnter": ["BeHit"],
          "resetAnimatorTriggerOnExit": ["DoSkill"]
        },
        "BeHitThrow": {
          "$type": "ConfigMonsterStateIDInfo",
          "animatorStates": {
            "HitThrow": [
              "Audio_Monster_Eremite_Male_Standard_Glaive_01_HitThrow"
            ],
            "HitThrowDrop": []
          },
          "resetAnimatorTriggerOnEnter": ["BeHit", "HitAir2HitDrop"],
          "resetAnimatorTriggerOnExit": ["DoSkill", "BeHit"],
          "CIFLOMFPGND": [
            {
              "name": "AirDie"
            }
          ]
        },
        "BeHitThrowToStandby": {
          "$type": "ConfigMonsterStateIDInfo",
          "animatorStates": {
            "HitThrowToGround": [
              "Audio_Monster_Eremite_Male_Standard_Glaive_01_HitThrowToGround"
            ]
          },
          "resetAnimatorTriggerOnEnter": ["BeHit", "HitAir2HitDrop"],
          "resetAnimatorTriggerOnExit": ["DoSkill", "BeHit"],
          "CIFLOMFPGND": [
            {
              "name": "AirDie",
              "normalizeEnd": 0.6200000047683716
            }
          ]
        },
        "Struggle": {
          "$type": "ConfigMonsterStateIDInfo",
          "animatorStates": {
            "Struggle": []
          },
          "resetAnimatorTriggerOnEnter": ["BeHit", "HitAir2HitDrop"],
          "resetAnimatorTriggerOnExit": ["DoSkill"]
        },
        "Die": {
          "$type": "ConfigMonsterStateIDInfo",
          "animatorStates": {
            "Die1": [
              "Monster_Eremite_Male_Standard_Glaive_Ice_Die",
              "Audio_Monster_Eremite_Male_Standard_Glaive_01_Die"
            ],
            "Die2": [
              "Monster_Eremite_Male_Standard_Glaive_Ice_Die",
              "Audio_Monster_Eremite_Male_Standard_Glaive_01_Die"
            ],
            "SwinDie_BS": [],
            "SwimDie": ["Monster_Eremite_SwimDie"],
            "SwimDie_AS": []
          }
        },
        "Die_RagDoll": {
          "$type": "ConfigMonsterStateIDInfo",
          "animatorStates": {
            "AirDie": ["Monster_Eremite_AirDie"]
          }
        },
        "Lie": {
          "$type": "ConfigMonsterStateIDInfo",
          "animatorStates": {
            "Lie": []
          },
          "canDoSkill": true,
          "resetAnimatorTriggerOnExit": ["BeHit", "DoSkill"],
          "BKLKHCBEHNL": true
        },
        "Dance": {
          "$type": "ConfigMonsterStateIDInfo",
          "animatorStates": {
            "Dance": ["Audio_Monster_Eremite_Male_Standard_Glaive_01_Dance"]
          },
          "canDoSkill": true,
          "resetAnimatorTriggerOnExit": ["BeHit", "DoSkill"]
        },
        "Sit_Loop": {
          "$type": "ConfigMonsterStateIDInfo",
          "animatorStates": {
            "Sit_Loop": []
          },
          "canDoSkill": true,
          "resetAnimatorTriggerOnExit": ["BeHit", "DoSkill"],
          "BKLKHCBEHNL": true
        },
        "Alert": {
          "$type": "ConfigMonsterStateIDInfo",
          "animatorStates": {
            "Alert": [
              "Monster_Eremite_Male_Standard_Glaive_Ice_Alert",
              "Audio_Monster_Eremite_Male_Standard_Glaive_01_Alert"
            ],
            "Dance_Alert": [
              "Monster_Eremite_Male_Standard_Glaive_Ice_Alert",
              "Audio_Monster_Eremite_Male_Standard_Glaive_01_Dance_Alert"
            ]
          },
          "BFDKJHMDDML": 0.0,
          "BDFLEJHPFBG": 20.0,
          "resetAnimatorTriggerOnExit": ["BeHit", "DoSkill"],
          "BHEPAJIOBDN": true
        },
        "Sit_Alert": {
          "$type": "ConfigMonsterStateIDInfo",
          "animatorStates": {
            "Sit_Alert": [
              "Monster_Eremite_Male_Standard_Glaive_Ice_Alert",
              "Audio_Monster_Eremite_Male_Standard_Glaive_01_SitAlert"
            ]
          },
          "BFDKJHMDDML": 0.0,
          "resetAnimatorTriggerOnExit": ["BeHit", "DoSkill"],
          "BHEPAJIOBDN": true,
          "BKLKHCBEHNL": true
        },
        "SheathWeapon": {
          "$type": "ConfigMonsterStateIDInfo",
          "animatorStates": {
            "SheathWeapon": [
              "Monster_Eremite_Male_Standard_Glaive_Ice_SheathWeapon",
              "Audio_Monster_Eremite_Male_Standard_Glaive_01_SheathWeapon"
            ]
          },
          "BFDKJHMDDML": 0.0,
          "BDFLEJHPFBG": 20.0,
          "resetAnimatorTriggerOnExit": ["BeHit", "DoSkill", "SheathWeaponTrigger"]
        },
        "Improve": {
          "$type": "ConfigMonsterStateIDInfo",
          "animatorStates": {
            "Improve": [
              "Monster_Eremite_Male_Standard_Glaive_Ice_Improve",
              "Audio_Monster_Eremite_Male_Standard_Glaive_01_Improve"
            ]
          },
          "BFDKJHMDDML": 0.0,
          "BDFLEJHPFBG": 20.0,
          "resetAnimatorTriggerOnEnter": ["ForceImprove"],
          "resetAnimatorTriggerOnExit": ["BeHit", "DoSkill", "ForceImprove"]
        },
        "Weak": {
          "$type": "ConfigMonsterStateIDInfo",
          "animatorStates": {
            "Weak_BS": [
              "Audio_Monster_Eremite_Male_Standard_Glaive_01_Weak_BS"
            ],
            "Weak_AS": ["Audio_Monster_Eremite_Male_Standard_Glaive_01_Weak_AS"]
          },
          "resetAnimatorTriggerOnEnter": ["Weak", "Recover"],
          "resetAnimatorTriggerOnExit": ["DoSkill", "Weak", "Recover"]
        },
        "Taunt01": {
          "$type": "ConfigMonsterStateIDInfo",
          "animatorStates": {
            "Taunt01": ["Audio_Monster_Eremite_Male_Standard_Glaive_01_Taunt01"]
          },
          "resetAnimatorTriggerOnExit": ["BeHit", "DoSkill"],
          "BHEPAJIOBDN": true
        },
        "NormalAtk01": {
          "$type": "ConfigMonsterStateIDInfo",
          "animatorStates": {
            "NormalAtk01": [
              "Monster_Eremite_Male_Standard_Glaive_Ice_NormalAtk01",
              "Audio_Monster_Eremite_Male_Standard_Glaive_01_NormalAtk01"
            ]
          },
          "BFDKJHMDDML": 0.0,
          "BDFLEJHPFBG": 20.0,
          "resetAnimatorTriggerOnExit": ["BeHit", "DoSkill"],
          "BHEPAJIOBDN": true
        },
        "NormalAtk01_AS": {
          "$type": "ConfigMonsterStateIDInfo",
          "animatorStates": {
            "NormalAtk01_AS": []
          },
          "BFDKJHMDDML": 0.0,
          "BDFLEJHPFBG": 20.0,
          "resetAnimatorTriggerOnExit": ["BeHit", "DoSkill"],
          "BHEPAJIOBDN": true
        },
        "NormalAtk02_BS": {
          "$type": "ConfigMonsterStateIDInfo",
          "animatorStates": {
            "NormalAtk02_BS": []
          },
          "BFDKJHMDDML": 0.0,
          "BDFLEJHPFBG": 20.0,
          "resetAnimatorTriggerOnExit": ["BeHit", "DoSkill"],
          "BHEPAJIOBDN": true
        },
        "NormalAtk02": {
          "$type": "ConfigMonsterStateIDInfo",
          "animatorStates": {
            "NormalAtk02": [
              "Monster_Eremite_Male_Standard_Glaive_Ice_NormalAtk02",
              "Audio_Monster_Eremite_Male_Standard_Glaive_01_NormalAtk02"
            ]
          },
          "BFDKJHMDDML": 0.0,
          "BDFLEJHPFBG": 20.0,
          "resetAnimatorTriggerOnExit": ["BeHit", "DoSkill"],
          "BHEPAJIOBDN": true
        },
        "NormalAtk02_AS": {
          "$type": "ConfigMonsterStateIDInfo",
          "animatorStates": {
            "NormalAtk02_AS": [
              "Audio_Monster_Eremite_Male_Standard_Glaive_01_NormalAtk02_AS"
            ]
          },
          "BFDKJHMDDML": 0.0,
          "BDFLEJHPFBG": 20.0,
          "resetAnimatorTriggerOnExit": ["BeHit", "DoSkill"],
          "BHEPAJIOBDN": true
        },
        "NormalAtk03_BS": {
          "$type": "ConfigMonsterStateIDInfo",
          "animatorStates": {
            "NormalAtk03_BS": []
          },
          "BFDKJHMDDML": 0.0,
          "BDFLEJHPFBG": 20.0,
          "resetAnimatorTriggerOnExit": ["BeHit", "DoSkill"],
          "BHEPAJIOBDN": true
        },
        "NormalAtk03": {
          "$type": "ConfigMonsterStateIDInfo",
          "animatorStates": {
            "NormalAtk03": [
              "Monster_Eremite_Male_Standard_Glaive_Ice_NormalAtk03",
              "Audio_Monster_Eremite_Male_Standard_Glaive_01_NormalAtk03"
            ]
          },
          "BFDKJHMDDML": 0.0,
          "BDFLEJHPFBG": 20.0,
          "resetAnimatorTriggerOnExit": ["BeHit", "DoSkill"],
          "BHEPAJIOBDN": true
        },
        "SlamAtk02": {
          "$type": "ConfigMonsterStateIDInfo",
          "animatorStates": {
            "SlamAtk02": [
              "Monster_Eremite_Male_Standard_Glaive_Ice_SlamAtk02",
              "Audio_Monster_Eremite_Male_Standard_Glaive_01_ImproveSlamAtk02"
            ]
          },
          "BFDKJHMDDML": 0.0,
          "BDFLEJHPFBG": 20.0,
          "resetAnimatorTriggerOnExit": ["BeHit", "DoSkill"],
          "BHEPAJIOBDN": true
        },
        "ImproveNormalAtk01": {
          "$type": "ConfigMonsterStateIDInfo",
          "animatorStates": {
            "ImproveNormalAtk01": [
              "Monster_Eremite_Male_Standard_Glaive_Ice_ImproveNormalAtk01",
              "Audio_Monster_Eremite_Male_Standard_Glaive_01_ImproveNormalAtk01"
            ]
          },
          "BDFLEJHPFBG": 20.0,
          "resetAnimatorTriggerOnExit": ["BeHit", "DoSkill", "Weak"],
          "BHEPAJIOBDN": true
        },
        "ImproveNormalAtk01_AS": {
          "$type": "ConfigMonsterStateIDInfo",
          "animatorStates": {
            "Improve_MeleeAtk01_02_AS": []
          },
          "BDFLEJHPFBG": 20.0,
          "resetAnimatorTriggerOnExit": ["BeHit", "DoSkill", "Weak"],
          "BHEPAJIOBDN": true
        },
        "ImproveNormalAtk02": {
          "$type": "ConfigMonsterStateIDInfo",
          "animatorStates": {
            "ImproveNormalAtk02": [
              "Monster_Eremite_Male_Standard_Glaive_Ice_ImproveNormalAtk02",
              "Audio_Monster_Eremite_Male_Standard_Glaive_01_ImproveNormalAtk02"
            ]
          },
          "BDFLEJHPFBG": 20.0,
          "resetAnimatorTriggerOnExit": ["BeHit", "DoSkill", "Weak"],
          "BHEPAJIOBDN": true
        },
        "ImproveNormalAtk02_AS": {
          "$type": "ConfigMonsterStateIDInfo",
          "animatorStates": {
            "ImproveNormalAtk02_AS": []
          },
          "BDFLEJHPFBG": 20.0,
          "resetAnimatorTriggerOnExit": ["BeHit", "DoSkill", "Weak"],
          "BHEPAJIOBDN": true
        },
        "ImproveNormalAtk03_BS": {
          "$type": "ConfigMonsterStateIDInfo",
          "animatorStates": {
            "ImproveNormalAtk03_BS": []
          },
          "BDFLEJHPFBG": 20.0,
          "resetAnimatorTriggerOnExit": ["BeHit", "DoSkill", "Weak"],
          "BHEPAJIOBDN": true
        },
        "ImproveNormalAtk03": {
          "$type": "ConfigMonsterStateIDInfo",
          "animatorStates": {
            "ImproveNormalAtk03": [
              "Monster_Eremite_Male_Standard_Glaive_Ice_ImproveNormalAtk03",
              "Audio_Monster_Eremite_Male_Standard_Glaive_01_ImproveNormalAtk03"
            ]
          },
          "BDFLEJHPFBG": 20.0,
          "resetAnimatorTriggerOnExit": ["BeHit", "DoSkill", "Weak"],
          "BHEPAJIOBDN": true
        },
        "ImproveSlamAtk02": {
          "$type": "ConfigMonsterStateIDInfo",
          "animatorStates": {
            "ImproveSlamAtk02": [
              "Monster_Eremite_Male_Standard_Glaive_Ice_ImproveSlamAtk02",
              "Audio_Monster_Eremite_Male_Standard_Glaive_01_ImproveSlamAtk02"
            ]
          },
          "BDFLEJHPFBG": 20.0,
          "resetAnimatorTriggerOnExit": ["BeHit", "DoSkill", "Weak"],
          "BHEPAJIOBDN": true
        },
        "UpRightThrow_Atk": {
          "$type": "ConfigMonsterStateIDInfo",
          "animatorStates": {
            "UpRightThrow_Atk": [
              "Monster_Eremite_Male_Standard_Glaive_Ice_UpRightThrow_Atk",
              "Audio_Monster_Eremite_Male_Standard_Glaive_01_UpRightThrowAtk"
            ]
          },
          "BDFLEJHPFBG": 20.0,
          "resetAnimatorTriggerOnExit": ["BeHit", "DoSkill", "WeaponHitSence", "Weak"],
          "BHEPAJIOBDN": true
        },
        "UpRightThrow_AtkEnd": {
          "$type": "ConfigMonsterStateIDInfo",
          "animatorStates": {
            "UpRightThrow_AtkEnd": [
              "Monster_Eremite_Male_Standard_Glaive_Ice_UpRightThrow_AtkEnd",
              "Audio_Monster_Eremite_Male_Standard_Glaive_01_UpRightThrowAtkEnd"
            ]
          },
          "BDFLEJHPFBG": 20.0,
          "resetAnimatorTriggerOnExit": ["BeHit", "DoSkill", "WeaponHitSence", "Weak"],
          "BHEPAJIOBDN": true
        },
        "CrossThrow_Atk": {
          "$type": "ConfigMonsterStateIDInfo",
          "animatorStates": {
            "CrossThrow_Atk": [
              "Monster_Eremite_Male_Standard_Glaive_Ice_CrossThrow_Atk",
              "Audio_Monster_Eremite_Male_Standard_Glaive_01_CrossThrowAtk"
            ]
          },
          "BDFLEJHPFBG": 20.0,
          "resetAnimatorTriggerOnExit": ["BeHit", "DoSkill", "WeaponHitSence", "Weak"],
          "BHEPAJIOBDN": true
        },
        "CrossThrow_Away": {
          "$type": "ConfigMonsterStateIDInfo",
          "animatorStates": {
            "CrossThrow_Away": [
              "Monster_Eremite_Male_Standard_Glaive_Ice_CrossThrow_Away",
              "Audio_Monster_Eremite_Male_Standard_Glaive_01_CrossThrowAway"
            ]
          },
          "BDFLEJHPFBG": 20.0,
          "resetAnimatorTriggerOnExit": ["BeHit", "DoSkill", "WeaponHitSence", "Weak"],
          "BHEPAJIOBDN": true
        }
      }
    }
  },
  "billboard": {
    "$type": "NCBABGPMMPL",
    "EBBHBMFMOGD": "BillboardAttach",
    "offset": {
      "x": -0.3499999940395355
    },
    "BFOMIIKCOGI": "Character",
    "ANGKJBLILKJ": true,
    "size": "Big"
  },
  "initialPoses": {
    "Default": {
      "initialPoseID": 1
    },
    "Sit": {
      "initialPoseID": 9001,
      "initialPoseParams": {
        "intParams": {
          "FreePoseMark": "9001"
        }
      }
    },
    "Dance": {
      "initialPoseID": 9003,
      "initialPoseParams": {
        "intParams": {
          "FreePoseMark": "9003"
        }
      }
    },
    "Lie": {
      "initialPoseID": 9002,
      "initialPoseParams": {
        "intParams": {
          "FreePoseMark": "9002"
        }
      }
    }
  },
  "aibeta": {
    "enable": true,
    "moveSetting": {
      "navMeshAgentName": "Undead01",
      "almostReachedDistanceRun": 1.5
    },
    "aiCombat": {
      "combatRole": "FIGHTER"
    },
    "sensing": {
      "settings": {
        "DefaultSetting": {
          "feelRange": 8.0
        },
        "HighAlert": {
          "viewRange": 40.0,
          "feelRange": 10.0
        },
        "LowAlert": {
          "viewRange": 15.0,
          "feelRange": 6.0
        },
        "UltraLowSensing": {
          "viewRange": 10.0,
          "hearAttractionRange": 0.0,
          "feelRange": 4.0
        },
        "NeverCombat": {
          "enableVision": false,
          "hearAttractionRange": 0.0,
          "feelRange": 0.0
        }
      },
      "templates": {
        "DefaultTemplate": {
          "DefaultPoses": "DefaultSetting"
        },
        "NeverCombatTemplate": {
          "DefaultPoses": "NeverCombat"
        },
        "HighAlert": {
          "DefaultPoses": "HighAlert"
        },
        "LowAlert": {
          "DefaultPoses": "LowAlert"
        },
        "UltraLowSensing": {
          "DefaultPoses": "UltraLowSensing"
        }
      }
    },
    "neurons": {
      "DefaultSetting": ["HIT"]
    },
    "threat": {
      "clearThreatByLostPath": true,
      "clearThreatTimerByDistance": 3.0,
      "viewAttenuation": [
        {
          "x": 10.0,
          "y": 2.0
        },
        {
          "x": 15.0,
          "y": 0.800000011920929
        },
        {
          "x": 20.0,
          "y": 0.5
        },
        {
          "x": 25.0,
          "y": 0.30000001192092896
        },
        {
          "x": 30.0,
          "y": 0.20000000298023224
        }
      ],
      "resistTauntLevel": "Monster_TauntLevel_2"
    },
    "defendArea": {},
    "profiling": {},
    "network": {
      "syncSkill": true
    },
    "skillGroupCDConfigs": [
      {
        "skillGroupCDID": 1,
        "skillGroupCDTime": 1.0
      },
      {
        "skillGroupCDID": 2,
        "skillGroupCDTime": 2.0
      },
      {
        "skillGroupCDID": 3,
        "skillGroupCDTime": 3.0
      },
      {
        "skillGroupCDID": 4,
        "skillGroupCDTime": 4.0
      }
    ],
    "skills": {
      "101": {
        "name": "OnAlert",
        "skillType": "OnAlert",
        "castCondition": {
          "pose": [1]
        },
        "publicCDGroup": "",
        "ignoreGCD": true,
        "triggerGCD": false,
        "stateIDs": ["Alert"],
        "skillQueryingTime": 3.0,
        "flagTargetReachable": "10",
        "flagSelfOnTemplateCollider": "01",
        "flagSelfInZone": "10",
        "flagTargetInZone": "11"
      },
      "102": {
        "name": "OnAlert",
        "skillType": "OnNerve",
        "castCondition": {
          "pose": [1]
        },
        "publicCDGroup": "",
        "ignoreGCD": true,
        "triggerGCD": false,
        "stateIDs": ["Alert"],
        "skillQueryingTime": 3.0,
        "flagTargetReachable": "10",
        "flagSelfOnTemplateCollider": "01",
        "flagSelfInZone": "10",
        "flagTargetInZone": "11",
        "nerveTrigger": ["HIT"]
      },
      "111": {
        "name": "OnAlert_Crossleg",
        "skillType": "OnAlert",
        "castCondition": {
          "pose": [9001, 9002]
        },
        "publicCDGroup": "",
        "ignoreGCD": true,
        "stateIDs": ["Sit_Alert"],
        "skillQueryingTime": 3.0,
        "flagTargetReachable": "10",
        "flagSelfOnTemplateCollider": "01",
        "flagSelfInZone": "10",
        "flagTargetInZone": "11"
      },
      "112": {
        "name": "OnAlert_Crossleg",
        "skillType": "OnNerve",
        "castCondition": {
          "pose": [9001, 9002]
        },
        "publicCDGroup": "",
        "ignoreGCD": true,
        "stateIDs": ["Sit_Alert"],
        "skillQueryingTime": 3.0,
        "flagTargetReachable": "10",
        "flagSelfOnTemplateCollider": "01",
        "flagSelfInZone": "10",
        "flagTargetInZone": "11",
        "nerveTrigger": ["HIT"]
      },
      "121": {
        "name": "OnAlert_Crossleg",
        "skillType": "OnAlert",
        "castCondition": {
          "pose": [9003]
        },
        "publicCDGroup": "",
        "ignoreGCD": true,
        "stateIDs": ["Dance_Alert"],
        "skillQueryingTime": 3.0,
        "flagTargetReachable": "10",
        "flagSelfOnTemplateCollider": "01",
        "flagSelfInZone": "10",
        "flagTargetInZone": "11"
      },
      "122": {
        "name": "OnAlert_Crossleg",
        "skillType": "OnNerve",
        "castCondition": {
          "pose": [9003]
        },
        "publicCDGroup": "",
        "ignoreGCD": true,
        "stateIDs": ["Dance_Alert"],
        "skillQueryingTime": 3.0,
        "flagTargetReachable": "10",
        "flagSelfOnTemplateCollider": "01",
        "flagSelfInZone": "10",
        "flagTargetInZone": "11",
        "nerveTrigger": ["HIT"]
      },
      "203": {
        "name": "NormalAtk",
        "castCondition": {
          "pose": [101, 102],
          "pickRangeMax": 3.5
        },
        "cd": 10.0,
        "cdUpperRange": 2.0,
        "publicCDGroup": "",
        "skillGroupCDID": 2,
        "stateIDs": ["NormalAtk01", "NormalAtk02", "NormalAtk03"],
        "flagTargetReachable": "10",
        "flagSelfOnTemplateCollider": "01",
        "flagSelfInZone": "11",
        "flagTargetInZone": "11"
      },
      "211": {
        "name": "SlamAtk02",
        "castCondition": {
          "pose": [101, 102],
          "pickRangeMax": 3.5
        },
        "cd": 5.0,
        "cdUpperRange": 2.0,
        "publicCDGroup": "",
        "skillGroupCDID": 2,
        "stateIDs": ["SlamAtk02"],
        "flagTargetReachable": "10",
        "flagSelfOnTemplateCollider": "01",
        "flagSelfInZone": "11",
        "flagTargetInZone": "11"
      },
      "301": {
        "name": "ImproveNormalAtk01_02",
        "castCondition": {
          "pose": [201],
          "pickRangeMax": 4.0
        },
        "cd": 10.0,
        "cdUpperRange": 2.0,
        "publicCDGroup": "",
        "skillGroupCDID": 2,
        "stateIDs": [
          "ImproveNormalAtk01",
          "ImproveNormalAtk02",
          "ImproveNormalAtk03"
        ],
        "flagTargetReachable": "10",
        "flagSelfOnTemplateCollider": "01",
        "flagSelfInZone": "11",
        "flagTargetInZone": "11"
      },
      "311": {
        "name": "ImproveSlamAtk02",
        "castCondition": {
          "pose": [201],
          "pickRangeMax": 5.0
        },
        "cd": 10.0,
        "cdUpperRange": 2.0,
        "publicCDGroup": "",
        "skillGroupCDID": 2,
        "stateIDs": ["ImproveSlamAtk02"],
        "flagTargetReachable": "10",
        "flagSelfOnTemplateCollider": "01",
        "flagSelfInZone": "11",
        "flagTargetInZone": "11"
      },
      "321": {
        "name": "UpRightThrow",
        "castCondition": {
          "pose": [201],
          "pickRangeMax": 12.0
        },
        "cd": 10.0,
        "cdUpperRange": 5.0,
        "publicCDGroup": "",
        "skillGroupCDID": 1,
        "stateIDs": ["UpRightThrow_Atk", "UpRightThrow_AtkEnd"],
        "flagTargetReachable": "10",
        "flagSelfOnTemplateCollider": "01",
        "flagSelfInZone": "11",
        "flagTargetInZone": "11"
      },
      "331": {
        "name": "CrossThrow_Near",
        "castCondition": {
          "pose": [201],
          "pickRangeMin": 3.0,
          "pickRangeMax": 8.0
        },
        "cd": 5.0,
        "cdUpperRange": 3.0,
        "publicCDGroup": "",
        "skillGroupCDID": 1,
        "stateIDs": ["CrossThrow_Atk", "UpRightThrow_AtkEnd"],
        "flagTargetReachable": "10",
        "flagSelfOnTemplateCollider": "01",
        "flagSelfInZone": "11",
        "flagTargetInZone": "11"
      },
      "401": {
        "name": "Improve",
        "priority": 2,
        "castCondition": {
          "pose": [111]
        },
        "cd": 10.0,
        "publicCDGroup": "",
        "ignoreGCD": true,
        "triggerGCD": false,
        "DDLBHDNIIMM": false,
        "stateIDs": ["Improve"],
        "skillQueryingTime": 3.0,
        "flagTargetReachable": "11",
        "flagSelfOnTemplateCollider": "11",
        "flagSelfInZone": "11",
        "flagTargetInZone": "11"
      },
      "402": {
        "name": "Improve",
        "priority": 2,
        "castCondition": {
          "pose": [102]
        },
        "cd": 30.0,
        "initialCD": 30.0,
        "publicCDGroup": "",
        "ignoreGCD": true,
        "triggerGCD": false,
        "DDLBHDNIIMM": false,
        "stateIDs": ["Improve"],
        "skillQueryingTime": 3.0,
        "flagTargetReachable": "11",
        "flagSelfOnTemplateCollider": "11",
        "flagSelfInZone": "11",
        "flagTargetInZone": "11"
      },
      "901": {
        "name": "Taunt01",
        "castCondition": {
          "pose": [101, 102],
          "pickRangeMin": 4.0,
          "pickRangeMax": 99.0
        },
        "cd": 25.0,
        "initialCD": 10.0,
        "initialCDUpperRange": 5.0,
        "publicCDGroup": "",
        "ignoreGCD": true,
        "triggerGCD": false,
        "stateIDs": ["Taunt01"],
        "flagTargetReachable": "10",
        "flagSelfOnTemplateCollider": "01",
        "flagSelfInZone": "10",
        "flagTargetInZone": "11"
      }
    },
    "skillGCD": 3.0,
    "returnToBornTactic": {
      "enable": true,
      "defaultSetting": {}
    },
    "wanderTactic": {
      "enable": true,
      "condition": {
        "pose": [1]
      },
      "defaultSetting": {
        "cdMax": 8.0,
        "cdMin": 5.0,
        "distanceFromBorn": 15.0,
        "distanceFromCurrentMin": 3.5,
        "distanceFromCurrentMax": 9.5
      }
    },
    "investigateTactic": {
      "enable": true,
      "condition": {
        "pose": [1]
      }
    },
    "meleeChargeTactic": {
      "enable": true,
      "condition": {
        "pose": [101, 102, 201]
      },
      "defaultSetting": {
        "startDistanceMin": 6.0,
        "startDistanceMax": 50.0,
        "stopDistance": 4.0,
        "innerDistance": 3.5
      }
    },
    "facingMoveTactic": {
      "enable": true,
      "condition": {
        "pose": [101, 102, 201]
      },
      "defaultSetting": {
        "rangeMin": 2.5,
        "rangeMax": 4.0,
        "facingMoveTurnInterval": 1.5,
        "obstacleDetectRange": 1.0,
        "facingMoveWeight": {
          "stop": 6.0,
          "forward": 2.0,
          "back": 0.5,
          "left": 4.0,
          "right": 4.0
        },
        "PDOKGBAJNEP": "1111",
        "NGLJBMGMGKF": "1111"
      }
    },
    "DNAHDMGDMCH": {
      "enable": true,
      "defaultSetting": {
        "speedLevel": 1,
        "triggerDistance": 4.0,
        "fleeAngle": 75.0,
        "fleeDistanceMin": 3.0,
        "fleeDistanceMax": 5.0,
        "PPIBDEEBFPN": 0.5
      }
    }
  },
  "inputKeys": [
    {
      "keyID": 901,
      "inputKeyCode": 257,
      "abilityName": ""
    },
    {
      "keyID": 202,
      "inputKeyCode": 258,
      "abilityName": ""
    },
    {
      "keyID": 203,
      "inputKeyCode": 259,
      "abilityName": ""
    },
    {
      "keyID": 301,
      "inputKeyCode": 260,
      "abilityName": ""
    },
    {
      "keyID": 302,
      "inputKeyCode": 261,
      "abilityName": ""
    },
    {
      "keyID": 311,
      "inputKeyCode": 262,
      "abilityName": ""
    },
    {
      "keyID": 321,
      "inputKeyCode": 263,
      "abilityName": ""
    },
    {
      "keyID": 331,
      "inputKeyCode": 264,
      "abilityName": ""
    },
    {
      "keyID": 332,
      "inputKeyCode": 402,
      "abilityName": ""
    }
  ],
  "move": {
    "$type": "PLMNMICDOHN",
    "BCBPBHLKCPB": "FourDirection",
    "NGNIGPNNLAI": "StoopType",
    "MGFACNKNOFC": true
  },
  "audio": {
    "NCOGLLMIJGO": "",
    "animAudio": {
      "onTransitionIn": [
        {
          "currentStateName": "",
          "audioEvent": {
            "text": ""
          }
        }
      ],
      "onTransitionOut": [
        {
          "currentStateName": "Dance",
          "audioEvent": {
            "text": "Stop_sfx_monster_Eremite_Male_Standard_Glaive_01_dance"
          }
        }
      ]
    }
  }
}
