{
  "common": {
    "effectAttachShape": {
      "$type": "ConfigEffectAttachSkinnedMesh",
      "mesh": "EffectMesh"
    },
    "mass": 10000.0,
    "height": 2.5,
    "modelHeight": 4.0,
    "viewSize": 3.0,
    "affectedByWorld": true,
    "checkInSurface": true,
    "disableTickDistance": 100000.0,
    "shouldPauseAnimatorBeforeReady": true,
    "useGrassDisplacement": true,
    "clearAnimatorOnSetLightDeactive": true,
    "clearAIOnSetLightDeactive": true
  },
  "headControl": {
    "$type": "GAAIKCFIJMM",
    "useHeadControl": true,
    "KBBNEKBLPFA": 10.0,
    "FJOGFHEFPHN": 20.0,
    "FCDMCPDGFCL": ["NormalIdle/Standby", "NormalMove/WalkForward"]
  },
  "specialPoint": {
    "elementAbsorb": "RootNode",
    "elementPendant": "",
    "elementDrop": "RootNode",
    "bulletAim": "RootNode",
    "selectedPoints": ["LockPoint"],
    "BFDKBAEPAGA": true,
    "HFJOMFCOAJI": 2.5
  },
  "dither": {
    "showDitherDuration": 2.0
  },
  "combat": {
    "property": {
      "endureType": "Monster_Boss_Other",
      "weight": 250.0
    },
    "beHit": {
      "hitBloodEffect": ""
    },
    "combatLock": {
      "lockShape": "CircleLockEnemy",
      "lockType": "Avatar&Monster_Lv4"
    },
    "die": {
      "hasAnimatorDie": true,
      "dieEndTime": 1.5,
      "dieForceDisappearTime": 2.5,
      "dieDisappearEffect": "Eff_Death_Common",
      "dieShaderData": "MonsterDie",
      "OCGODEHJPME": true,
      "MFJBKFECLNJ": true,
      "IMEEBMBJPGJ": true,
      "ICHFPLMNCLC": true,
      "MBHMAGEPJFH": true,
      "CFHPDHFKMEP": true
    },
    "animEvents": {
      "RushAtk": {
        "attackPattern": {
          "$type": "NAMPOMPBMHC",
          "triggerType": "TriggerNoRepeat",
          "born": {
            "$type": "ConfigBornBySelf",
            "offset": {
              "x": 0.0,
              "y": -1.0,
              "z": 0.0
            }
          },
          "size": {
            "x": 4.0,
            "y": 3.0,
            "z": 6.0
          }
        },
        "attackInfo": {
          "attackTag": "",
          "attenuationTag": "",
          "attenuationGroup": "default",
          "attackProperty": {
            "damagePercentage": 1.0,
            "MKLAMNDEDGB": 0.0,
            "elementType": "Electric",
            "bonusCriticalHurt": 50.0,
            "strikeType": "Blunt",
            "enBreak": 50.0
          },
          "hitPattern": {
            "onHitEffectName": "default",
            "hitImpulseType": "LV3"
          }
        }
      },
      "NormalAtk01": {
        "attackPattern": {
          "$type": "ConfigAttackCircle",
          "triggerType": "TriggerNoRepeat",
          "born": {
            "$type": "ConfigBornBySelf",
            "offset": {
              "x": -0.699999988079071,
              "y": -1.0,
              "z": 2.0
            }
          },
          "height": 4.0,
          "fanAngle": 270.0,
          "radius": 4.0
        },
        "attackInfo": {
          "attackTag": "",
          "attenuationTag": "",
          "attenuationGroup": "default",
          "attackProperty": {
            "damagePercentage": 0.30000001192092896,
            "MKLAMNDEDGB": 0.0,
            "bonusCriticalHurt": 50.0,
            "strikeType": "Blunt",
            "enBreak": 50.0
          },
          "hitPattern": {
            "onHitEffectName": "default",
            "hitImpulseType": "LV3"
          }
        }
      },
      "NormalAtk02": {
        "attackPattern": {
          "$type": "ConfigAttackCircle",
          "triggerType": "TriggerNoRepeat",
          "born": {
            "$type": "ConfigBornBySelf",
            "offset": {
              "x": 1.0,
              "y": -1.0,
              "z": 1.5
            }
          },
          "height": 4.0,
          "fanAngle": 270.0,
          "radius": 5.0
        },
        "attackInfo": {
          "attackTag": "",
          "attenuationTag": "",
          "attenuationGroup": "default",
          "attackProperty": {
            "damagePercentage": 0.5,
            "MKLAMNDEDGB": 0.0,
            "bonusCriticalHurt": 50.0,
            "strikeType": "Blunt",
            "enBreak": 50.0
          },
          "hitPattern": {
            "onHitEffectName": "default",
            "hitImpulseType": "LV3"
          }
        }
      },
      "NormalAtk03": {
        "attackPattern": {
          "$type": "ConfigAttackCircle",
          "triggerType": "TriggerNoRepeat",
          "born": {
            "$type": "ConfigBornBySelf",
            "offset": {
              "x": -0.5,
              "y": -1.0,
              "z": 3.5
            }
          },
          "height": 4.0,
          "radius": 4.5
        },
        "attackInfo": {
          "attackTag": "",
          "attenuationTag": "",
          "attenuationGroup": "default",
          "attackProperty": {
            "damagePercentage": 0.800000011920929,
            "MKLAMNDEDGB": 0.0,
            "bonusCriticalHurt": 50.0,
            "strikeType": "Blunt",
            "enBreak": 200.0
          },
          "hitPattern": {
            "onHitEffectName": "default",
            "hitImpulseType": "LV5"
          },
          "forceCameraShake": true,
          "cameraShake": {
            "shakeType": "CustomVector",
            "shakeRange": 0.05999999865889549,
            "shakeTime": 0.23999999463558197,
            "shakeDir": {
              "y": -1.0
            }
          }
        }
      },
      "TailMeleeAttack": {
        "attackPattern": {
          "$type": "ConfigAttackCircle",
          "triggerType": "TriggerNoRepeat",
          "born": {
            "$type": "ConfigBornBySelf",
            "offset": {
              "x": 0.0,
              "y": -0.5,
              "z": 0.0
            }
          },
          "height": 3.0,
          "radius": 8.0
        },
        "attackInfo": {
          "attackTag": "",
          "attenuationTag": "",
          "attenuationGroup": "default",
          "attackProperty": {
            "damagePercentage": 0.30000001192092896,
            "MKLAMNDEDGB": 0.0,
            "elementType": "Electric",
            "bonusCriticalHurt": 100.0,
            "strikeType": "Blunt",
            "enBreak": 50.0
          },
          "hitPattern": {
            "onHitEffectName": "default",
            "hitImpulseType": "LV3"
          }
        }
      },
      "JumpAtk": {
        "attackPattern": {
          "$type": "ConfigAttackCircle",
          "triggerType": "TriggerNoRepeat",
          "born": {
            "$type": "ConfigBornBySelf",
            "offset": {
              "x": 0.0,
              "y": -0.5,
              "z": 0.0
            }
          },
          "height": 3.5,
          "radius": 6.5
        },
        "attackInfo": {
          "attackTag": "",
          "attenuationTag": "",
          "attenuationGroup": "default",
          "attackProperty": {
            "damagePercentage": 0.800000011920929,
            "MKLAMNDEDGB": 0.0,
            "elementType": "Electric",
            "bonusCriticalHurt": 50.0,
            "strikeType": "Blunt",
            "enBreak": 200.0
          },
          "hitPattern": {
            "onHitEffectName": "default",
            "hitImpulseType": "LV6"
          },
          "forceCameraShake": true,
          "cameraShake": {
            "shakeType": "CustomVector",
            "shakeRange": 0.1599999964237213,
            "shakeTime": 0.23999999463558197,
            "shakeDistance": 25.0,
            "shakeDir": {
              "y": -1.0
            }
          }
        }
      }
    }
  },
  "abilities": [
    {
      "abilityID": "",
      "abilityName": "Monster_Drake_DeepSea_FireElectricBall",
      "abilityOverride": ""
    },
    {
      "abilityID": "",
      "abilityName": "Monster_Drake_DeepSea_FireTailRangeSpearElectric",
      "abilityOverride": ""
    },
    {
      "abilityID": "",
      "abilityName": "Monster_Drake_DeepSea_FireChargeAttackElectric",
      "abilityOverride": ""
    },
    {
      "abilityID": "",
      "abilityName": "Monster_Drake_DeepSea_Electric_Cooperate_Pose",
      "abilityOverride": ""
    },
    {
      "abilityID": "",
      "abilityName": "Monster_Drake_DeepSea_LaserAttack_JumpToStart_Electric",
      "abilityOverride": ""
    },
    {
      "abilityID": "",
      "abilityName": "Monster_Drake_DeepSea_Steer",
      "abilityOverride": ""
    },
    {
      "abilityID": "",
      "abilityName": "Monster_Drake_DeepSea_JumpWall_JumpToStart_Electric_SP",
      "abilityOverride": ""
    },
    {
      "abilityID": "",
      "abilityName": "Monster_Drake_PushCollider_Switch",
      "abilityOverride": ""
    },
    {
      "abilityID": "",
      "abilityName": "Monster_Drake_DeepSea_JumpWall_Timer",
      "abilityOverride": ""
    },
    {
      "abilityID": "",
      "abilityName": "Monster_Drake_DeepSea_JumpWall_Weak",
      "abilityOverride": ""
    },
    {
      "abilityID": "",
      "abilityName": "Monster_Drake_DeepSea_FitAttack_JumpToPos_Electric",
      "abilityOverride": ""
    },
    {
      "abilityID": "",
      "abilityName": "Monster_Drake_DeepSea_Electric_SetBornPos",
      "abilityOverride": ""
    },
    {
      "abilityID": "",
      "abilityName": "Monster_Drake_DeepSea_JumpToAlertPos_Electric",
      "abilityOverride": ""
    },
    {
      "abilityID": "",
      "abilityName": "Monster_Drake_DeepSea_Electric_JumpWall_FireMagicBall",
      "abilityOverride": ""
    },
    {
      "abilityID": "",
      "abilityName": "Monster_Drake_DeepSea_LaserAttack_HidePushCollider",
      "abilityOverride": ""
    },
    {
      "abilityID": "",
      "abilityName": "Monster_Drake_DeepSea_Electric_DieWithIce",
      "abilityOverride": ""
    },
    {
      "abilityID": "",
      "abilityName": "Monster_Drake_DeepSea_Electric_Initial_Params",
      "abilityOverride": ""
    },
    {
      "abilityID": "",
      "abilityName": "Monster_Drake_DeepSea_JumpWallBack",
      "abilityOverride": ""
    },
    {
      "abilityID": "",
      "abilityName": "Monster_Drake_DeepSea_Boss_JumpToWall_HidePushCollider",
      "abilityOverride": ""
    },
    {
      "abilityID": "",
      "abilityName": "Monster_Drake_DeepSea_Electric_Run",
      "abilityOverride": ""
    },
    {
      "abilityID": "",
      "abilityName": "Monster_Drake_DeepSea_FireLaserElectric",
      "abilityOverride": ""
    },
    {
      "abilityID": "",
      "abilityName": "Monster_Drake_DeepSea_JumpUpToWall",
      "abilityOverride": ""
    },
    {
      "abilityID": "",
      "abilityName": "Monster_Drake_DeepSea_Electric_JumpAtk",
      "abilityOverride": ""
    },
    {
      "abilityID": "",
      "abilityName": "Monster_Drake_DeepSea_Boss_JumpWallBackSetPos",
      "abilityOverride": ""
    },
    {
      "abilityID": "",
      "abilityName": "Monster_Drake_DeepSea_JumpBrokenRock",
      "abilityOverride": ""
    },
    {
      "abilityID": "",
      "abilityName": "Monster_Drake_DeepSea_Electric_Swim_FireTailRangeSpear",
      "abilityOverride": ""
    },
    {
      "abilityID": "",
      "abilityName": "Monster_Drake_DeepSea_FitCharge_Electric",
      "abilityOverride": ""
    },
    {
      "abilityID": "",
      "abilityName": "Monster_Drake_DeepSea_ChargeAttackArea_Electric",
      "abilityOverride": ""
    },
    {
      "abilityID": "",
      "abilityName": "Monster_Drake_DeepSea_EatBlackBall",
      "abilityOverride": ""
    }
  ],
  "stateLayers": {
    "defaultLayer": {
      "$type": "ConfigNormalStateLayer",
      "FNPGDAEJAPJ": "",
      "stateIDs": {
        "NormalIdle": {
          "$type": "ConfigMonsterStateIDInfo",
          "animatorStates": {
            "Standby": [],
            "Born": []
          },
          "canDoSkill": true,
          "canSyncMove": true,
          "resetAnimatorTriggerOnExit": ["DoSkill"]
        },
        "Walk_BS": {
          "$type": "ConfigMonsterStateIDInfo",
          "animatorStates": {
            "WalkForward_BS": [
              "Monster_Drake_DeepSea_Electric_RushBSEffect",
              "Audio_Monster_Drake_Deepsea_Common_WalkForward_BS"
            ]
          },
          "canDoSkill": true,
          "canSyncMove": true,
          "resetAnimatorTriggerOnExit": ["DoSkill"],
          "BHEPAJIOBDN": true
        },
        "Walk_AS": {
          "$type": "ConfigMonsterStateIDInfo",
          "animatorStates": {
            "WalkForward_AS": [
              "Monster_Drake_DeepSea_Electric_RushASEffect",
              "Audio_Monster_Drake_Deepsea_Common_WalkForward_AS"
            ]
          },
          "canDoSkill": true,
          "canSyncMove": true,
          "resetAnimatorTriggerOnExit": ["DoSkill"],
          "BHEPAJIOBDN": true
        },
        "NormalMove": {
          "$type": "ConfigMonsterStateIDInfo",
          "animatorStates": {
            "WalkForward_Loop": []
          },
          "canDoSkill": true,
          "canSyncMove": true,
          "resetAnimatorTriggerOnExit": ["DoSkill"],
          "BHEPAJIOBDN": true
        },
        "WalkFree": {
          "$type": "ConfigMonsterStateIDInfo",
          "animatorStates": {
            "WalkFree": ["Audio_Monster_Drake_Deepsea_Common_WalkFree"]
          },
          "canDoSkill": true,
          "canSyncMove": true,
          "resetAnimatorTriggerOnExit": ["DoSkill"],
          "BHEPAJIOBDN": true
        },
        "SwimWalk": {
          "$type": "ConfigMonsterStateIDInfo",
          "animatorStates": {
            "SwimWalk": []
          },
          "canDoSkill": true,
          "canSyncMove": true,
          "resetAnimatorTriggerOnExit": ["BeHit", "DoSkill"],
          "BHEPAJIOBDN": true
        },
        "Turn": {
          "$type": "ConfigMonsterStateIDInfo",
          "animatorStates": {
            "Turn": ["Audio_Monster_Drake_Deepsea_Common_Turn"]
          },
          "canDoSkill": true,
          "canSyncMove": true,
          "resetAnimatorTriggerOnExit": ["DoSkill"]
        },
        "Turn2": {
          "$type": "ConfigMonsterStateIDInfo",
          "animatorStates": {
            "Turn2": ["Audio_Monster_Drake_Deepsea_Common_Turn"]
          },
          "canDoSkill": true,
          "canSyncMove": true,
          "resetAnimatorTriggerOnExit": ["DoSkill"]
        },
        "Turn3": {
          "$type": "ConfigMonsterStateIDInfo",
          "animatorStates": {
            "Turn3": ["Audio_Monster_Drake_Deepsea_Common_Turn"]
          },
          "canDoSkill": true,
          "canSyncMove": true,
          "resetAnimatorTriggerOnExit": ["DoSkill"]
        },
        "BeHit": {
          "$type": "ConfigMonsterStateIDInfo",
          "animatorStates": {
            "Hit_L": ["Audio_Monster_Drake_Deepsea_Common_Hit_L"],
            "Hit_H": ["Audio_Monster_Drake_Deepsea_Common_Hit_H"]
          },
          "resetAnimatorTriggerOnEnter": ["BeHit"],
          "resetAnimatorTriggerOnExit": ["DoSkill"]
        },
        "BeHitThrow": {
          "$type": "ConfigMonsterStateIDInfo",
          "animatorStates": {
            "HitThrow": [],
            "HitThrowDrop": [],
            "HitThrowToGround": ["Audio_Monster_Drake_Deepsea_Common_AirDie"]
          },
          "resetAnimatorTriggerOnEnter": ["BeHit", "HitAir2HitDrop"],
          "resetAnimatorTriggerOnExit": ["DoSkill"]
        },
        "Struggle": {
          "$type": "ConfigMonsterStateIDInfo",
          "animatorStates": {
            "Struggle": []
          },
          "resetAnimatorTriggerOnEnter": ["BeHit", "HitAir2HitDrop"],
          "resetAnimatorTriggerOnExit": ["DoSkill"]
        },
        "Die": {
          "$type": "ConfigMonsterStateIDInfo",
          "animatorStates": {
            "Die_01": ["Audio_Monster_Drake_Deepsea_Common_Die_01"],
            "Die_02": ["Audio_Monster_Drake_Deepsea_Common_Hit_H"]
          }
        },
        "Alert_Jump": {
          "$type": "ConfigMonsterStateIDInfo",
          "animatorStates": {
            "Alert_Jump": [
              "Monster_Drake_DeepSea_JumpToAlertPos_Electric",
              "Audio_Monster_Drake_Deepsea_Common_Alert_Jump"
            ]
          },
          "canSyncMove": true,
          "AAEKKGMOKFK": true,
          "resetAnimatorTriggerOnExit": ["BeHit", "DoSkill"]
        },
        "Alert": {
          "$type": "ConfigMonsterStateIDInfo",
          "animatorStates": {
            "Alert": [
              "Monster_Drake_DeepSea_AlertEffect",
              "Audio_Monster_Drake_Deepsea_Common_Alert"
            ]
          },
          "resetAnimatorTriggerOnExit": ["BeHit", "DoSkill"]
        },
        "NormalAtk01": {
          "$type": "ConfigMonsterStateIDInfo",
          "animatorStates": {
            "NormalAtk01": [
              "Monster_Drake_DeepSea_MeleeAttack1",
              "Audio_Monster_Drake_Deepsea_Common_NormalAtk01"
            ]
          },
          "resetAnimatorTriggerOnExit": ["BeHit", "DoSkill"],
          "BHEPAJIOBDN": true
        },
        "NormalAtk02": {
          "$type": "ConfigMonsterStateIDInfo",
          "animatorStates": {
            "NormalAtk02": [
              "Monster_Drake_DeepSea_MeleeAttack2",
              "Audio_Monster_Drake_Deepsea_Common_NormalAtk02"
            ]
          },
          "resetAnimatorTriggerOnExit": ["BeHit", "DoSkill"],
          "BHEPAJIOBDN": true
        },
        "NormalAtk03": {
          "$type": "ConfigMonsterStateIDInfo",
          "animatorStates": {
            "NormalAtk03": [
              "Monster_Drake_DeepSea_MeleeAttack3",
              "Audio_Monster_Drake_Deepsea_Common_NormalAtk03"
            ]
          },
          "resetAnimatorTriggerOnExit": ["BeHit", "DoSkill"],
          "BHEPAJIOBDN": true
        },
        "TailAttack": {
          "$type": "ConfigMonsterStateIDInfo",
          "animatorStates": {
            "TailAttack": [
              "Monster_Drake_DeepSea_Electric_TailMeleeAttack",
              "Audio_Monster_Drake_Deepsea_Electrick_TailAttackElectrick"
            ]
          },
          "resetAnimatorTriggerOnExit": ["BeHit", "DoSkill"],
          "BHEPAJIOBDN": true
        },
        "MagicBallAttack": {
          "$type": "ConfigMonsterStateIDInfo",
          "animatorStates": {
            "MagicBallAttack": [
              "Monster_Drake_DeepSea_MagicBallElectric",
              "Audio_Monster_Drake_Deepsea_Common_MagicBallAttack"
            ]
          },
          "resetAnimatorTriggerOnExit": ["BeHit", "DoSkill"],
          "BHEPAJIOBDN": true
        },
        "JumpWall_JumpToStart_BS": {
          "$type": "ConfigMonsterStateIDInfo",
          "animatorStates": {
            "JumpWall_JumpToStart_BS": [
              "Audio_Monster_Drake_Deepsea_Common_JumpToFit_BS"
            ]
          },
          "AAEKKGMOKFK": true,
          "resetAnimatorTriggerOnExit": ["BeHit", "DoSkill"],
          "BHEPAJIOBDN": true
        },
        "JumpWall_JumpToStart_AS": {
          "$type": "ConfigMonsterStateIDInfo",
          "animatorStates": {
            "JumpWall_JumpToStart_AS": [
              "Monster_Drake_DeepSea_JumpWall_JumpToStart_Electric_SP",
              "Audio_Monster_Drake_Deepsea_Common_JumpToFit_During"
            ]
          },
          "resetAnimatorTriggerOnExit": ["BeHit", "DoSkill"],
          "BHEPAJIOBDN": true
        },
        "JumpWall_BS": {
          "$type": "ConfigMonsterStateIDInfo",
          "animatorStates": {
            "JumpWall_BS": [
              "Monster_Drake_DeepSea_JumpWall_Timer",
              "Audio_Monster_Drake_Deepsea_Common_JumpWall_BS"
            ]
          },
          "resetAnimatorTriggerOnExit": ["BeHit", "DoSkill"]
        },
        "JumpWall_Idle": {
          "$type": "ConfigMonsterStateIDInfo",
          "animatorStates": {
            "JumpWall_Idle": []
          },
          "resetAnimatorTriggerOnExit": ["BeHit", "DoSkill"]
        },
        "JumpWall_Attack": {
          "$type": "ConfigMonsterStateIDInfo",
          "animatorStates": {
            "JumpWall_Attack": [
              "Monster_Drake_DeepSea_Electric_JumpWall_FireMagicBall",
              "Audio_Monster_Drake_Deepsea_Common_JumpWall_Attack"
            ]
          },
          "resetAnimatorTriggerOnExit": ["BeHit", "DoSkill"]
        },
        "JumpWall_WeakBS": {
          "$type": "ConfigMonsterStateIDInfo",
          "animatorStates": {
            "JumpWall_WeakBS": [
              "Monster_Drake_DeepSea_JumpWall_DropWeakEffect",
              "Audio_Monster_Drake_Deepsea_Common_JumpWall_WeakBS"
            ]
          },
          "resetAnimatorTriggerOnExit": ["BeHit", "DoSkill"]
        },
        "JumpWall_WeakLoop": {
          "$type": "ConfigMonsterStateIDInfo",
          "animatorStates": {
            "JumpWall_WeakLoop": []
          },
          "resetAnimatorTriggerOnExit": ["BeHit", "DoSkill"]
        },
        "JumpWall_WeakAS": {
          "$type": "ConfigMonsterStateIDInfo",
          "animatorStates": {
            "JumpWall_WeakAS": []
          },
          "resetAnimatorTriggerOnExit": ["BeHit", "DoSkill"]
        },
        "JumpWall_BackWarning": {
          "$type": "ConfigMonsterStateIDInfo",
          "animatorStates": {
            "JumpWall_BackWarning": [
              "Monster_Drake_DeepSea_Boss_JumpWallBackSetPos"
            ]
          },
          "resetAnimatorTriggerOnExit": ["BeHit", "DoSkill"]
        },
        "JumpWall_WeakBackToGroundBS": {
          "$type": "ConfigMonsterStateIDInfo",
          "animatorStates": {
            "JumpWall_WeakBackToGroundBS": [
              "Monster_Drake_DeepSea_JumpWallBackDust",
              "Audio_Monster_Drake_Deepsea_Common_JumpWall_WeakBackToGroundBS"
            ]
          },
          "resetAnimatorTriggerOnExit": ["BeHit", "DoSkill"],
          "BHEPAJIOBDN": true
        },
        "JumpWall_WeakBackToGroundDuring": {
          "$type": "ConfigMonsterStateIDInfo",
          "animatorStates": {
            "JumpWall_WeakBackToGroundDuring": [
              "Audio_Monster_Drake_Deepsea_Common_JumpWall_WeakBackToGroundDuring"
            ]
          },
          "AAEKKGMOKFK": true,
          "resetAnimatorTriggerOnExit": ["BeHit", "DoSkill"],
          "BHEPAJIOBDN": true
        },
        "JumpWall_WeakBackToGroundAS": {
          "$type": "ConfigMonsterStateIDInfo",
          "animatorStates": {
            "JumpWall_WeakBackToGroundAS": [
              "Monster_Drake_DeepSea_Electric_JumpWallBackAttack",
              "Audio_Monster_Drake_Deepsea_Common_JumpWall_WeakBackToGroundAS"
            ]
          },
          "resetAnimatorTriggerOnExit": ["BeHit", "DoSkill"],
          "BHEPAJIOBDN": true
        },
        "JumpToFit_BS": {
          "$type": "ConfigMonsterStateIDInfo",
          "animatorStates": {
            "JumpToFit_BS": ["Audio_Monster_Drake_Deepsea_Common_JumpToFit_BS"]
          },
          "resetAnimatorTriggerOnExit": ["BeHit", "DoSkill"],
          "BHEPAJIOBDN": true
        },
        "JumpToFit_During": {
          "$type": "ConfigMonsterStateIDInfo",
          "animatorStates": {
            "JumpToFit_During": [
              "Monster_Drake_DeepSea_FitAttack_JumpToPos_Electric",
              "Audio_Monster_Drake_Deepsea_Common_JumpToFit_During"
            ]
          },
          "AAEKKGMOKFK": true,
          "resetAnimatorTriggerOnExit": ["BeHit", "DoSkill"],
          "BHEPAJIOBDN": true
        },
        "JumpToFit_AS": {
          "$type": "ConfigMonsterStateIDInfo",
          "animatorStates": {
            "JumpToFit_AS": ["Audio_Monster_Drake_Deepsea_Common_JumpToFit_AS"]
          },
          "resetAnimatorTriggerOnExit": ["BeHit", "DoSkill"],
          "BHEPAJIOBDN": true
        },
        "FitAttack_BS": {
          "$type": "ConfigMonsterStateIDInfo",
          "animatorStates": {
            "FitAttack_BS": [
              "Monster_Drake_DeepSea_Electric_FitAttack_TailEffect",
              "Audio_Monster_Drake_Deepsea_Common_FitAttack_BS"
            ]
          },
          "canSyncMove": true,
          "BFDKJHMDDML": 0.0,
          "resetAnimatorTriggerOnExit": ["BeHit", "DoSkill"]
        },
        "FitAttack_Loop": {
          "$type": "ConfigMonsterStateIDInfo",
          "animatorStates": {
            "FitAttack_Loop": ["Monster_Drake_DeepSea_Boss_Fit_Sync"]
          },
          "BFDKJHMDDML": 0.0,
          "resetAnimatorTriggerOnExit": ["BeHit", "DoSkill"]
        },
        "FitAttack_AS": {
          "$type": "ConfigMonsterStateIDInfo",
          "animatorStates": {
            "FitAttack_AS": ["Audio_Monster_Drake_Deepsea_Common_FitAttack_AS"]
          },
          "BFDKJHMDDML": 0.0,
          "resetAnimatorTriggerOnExit": ["BeHit", "DoSkill"]
        },
        "JumpToLaser_BS": {
          "$type": "ConfigMonsterStateIDInfo",
          "animatorStates": {
            "JumpToLaser_BS": [
              "Audio_Monster_Drake_Deepsea_Common_JumpToFit_BS"
            ]
          },
          "resetAnimatorTriggerOnExit": ["BeHit", "DoSkill"],
          "BHEPAJIOBDN": true
        },
        "JumpToLaser_During": {
          "$type": "ConfigMonsterStateIDInfo",
          "animatorStates": {
            "JumpToLaser_During": [
              "Monster_Drake_DeepSea_LaserAttack_JumpToPos_Electric",
              "Audio_Monster_Drake_Deepsea_Common_JumpToFit_During"
            ]
          },
          "AAEKKGMOKFK": true,
          "resetAnimatorTriggerOnExit": ["BeHit", "DoSkill"],
          "BHEPAJIOBDN": true
        },
        "JumpToLaser_AS": {
          "$type": "ConfigMonsterStateIDInfo",
          "animatorStates": {
            "JumpToLaser_AS": [
              "Audio_Monster_Drake_Deepsea_Common_JumpToFit_AS"
            ]
          },
          "resetAnimatorTriggerOnExit": ["BeHit", "DoSkill"]
        },
        "LaserAttack_Animove": {
          "$type": "ConfigMonsterStateIDInfo",
          "animatorStates": {
            "LaserAttack_Animove": [
              "Monster_Drake_DeepSea_Electric_LaserAttack_EffectBS",
              "Audio_Monster_Drake_Deepsea_Electric_LaserAttack_Animov"
            ]
          },
          "canSyncMove": true,
          "resetAnimatorTriggerOnExit": ["BeHit", "DoSkill"]
        },
        "LaserAttack_Promove": {
          "$type": "ConfigMonsterStateIDInfo",
          "animatorStates": {
            "LaserAttack_Promove": [
              "Audio_Monster_Drake_Deepsea_Common_LaserAttack_Promove"
            ]
          },
          "canSyncMove": true,
          "AAEKKGMOKFK": true,
          "BFDKJHMDDML": 0.0,
          "resetAnimatorTriggerOnExit": ["BeHit", "DoSkill"]
        },
        "LaserAttack_FireLaser": {
          "$type": "ConfigMonsterStateIDInfo",
          "animatorStates": {
            "LaserAttack_FireLaser": [
              "Monster_Drake_DeepSea_Boss_Fit_Sync",
              "Monster_Drake_DeepSea_Electric_LaserFire",
              "Audio_Monster_Drake_Deepsea_25Electric_LaserAttack_FireLaser_VO"
            ]
          },
          "AAEKKGMOKFK": true,
          "BFDKJHMDDML": 0.0,
          "resetAnimatorTriggerOnExit": ["BeHit", "DoSkill"]
        },
        "LaserAttack_AS": {
          "$type": "ConfigMonsterStateIDInfo",
          "animatorStates": {
            "LaserAttack_AS": []
          },
          "BFDKJHMDDML": 0.0,
          "resetAnimatorTriggerOnExit": ["BeHit", "DoSkill"],
          "BHEPAJIOBDN": true
        },
        "ChargeAttack_BS": {
          "$type": "ConfigMonsterStateIDInfo",
          "animatorStates": {
            "ChargeAttack_BS": [
              "Monster_Drake_DeepSea_ChargeAttackElectricBS",
              "Audio_Monster_Drake_Deepsea_Common_ChargeAttack_BS"
            ]
          },
          "resetAnimatorTriggerOnExit": ["BeHit", "DoSkill"],
          "BHEPAJIOBDN": true
        },
        "ChargeAttack_Loop": {
          "$type": "ConfigMonsterStateIDInfo",
          "animatorStates": {
            "ChargeAttack_Loop": [
              "Audio_Monster_Drake_Deepsea_Common_ChargeAttack_Loop"
            ]
          },
          "resetAnimatorTriggerOnExit": ["BeHit", "DoSkill"],
          "BHEPAJIOBDN": true
        },
        "ChargeAttack_AS": {
          "$type": "ConfigMonsterStateIDInfo",
          "animatorStates": {
            "ChargeAttack_AS": [
              "Audio_Monster_Drake_Deepsea_Common_ChargeAttack_AS"
            ]
          },
          "resetAnimatorTriggerOnExit": ["BeHit", "DoSkill"],
          "BHEPAJIOBDN": true
        },
        "TailRangeAttack": {
          "$type": "ConfigMonsterStateIDInfo",
          "animatorStates": {
            "TailRangeAttack": [
              "Monster_Drake_DeepSea_TailRangeElectricAttack",
              "Audio_Monster_Drake_Deepsea_Common_TailRangeAttack"
            ]
          },
          "resetAnimatorTriggerOnExit": ["BeHit", "DoSkill"],
          "BHEPAJIOBDN": true
        },
        "JumpToSwim_BS": {
          "$type": "ConfigMonsterStateIDInfo",
          "animatorStates": {
            "JumpToSwim_BS": []
          },
          "resetAnimatorTriggerOnExit": ["BeHit", "DoSkill"],
          "BHEPAJIOBDN": true
        },
        "JumpToSwim_AS": {
          "$type": "ConfigMonsterStateIDInfo",
          "animatorStates": {
            "JumpToSwim_AS": [
              "Monster_Drake_DeepSea_GoToSwim",
              "Audio_Monster_Drake_Deepsea_Common_JumpToFit_During"
            ]
          },
          "AAEKKGMOKFK": true,
          "resetAnimatorTriggerOnExit": ["BeHit", "DoSkill"],
          "BHEPAJIOBDN": true
        },
        "Swim": {
          "$type": "ConfigMonsterStateIDInfo",
          "animatorStates": {
            "Swim": []
          },
          "canDoSkill": true,
          "canSyncMove": true,
          "resetAnimatorTriggerOnExit": ["BeHit", "DoSkill"],
          "BHEPAJIOBDN": true
        },
        "SwimAttack": {
          "$type": "ConfigMonsterStateIDInfo",
          "animatorStates": {
            "SwimAttack": [
              "Monster_Drake_DeepSea_Electric_SwimAttack",
              "Audio_Monster_Drake_Deepsea_Common_SwimAttack"
            ]
          },
          "canSyncMove": true,
          "resetAnimatorTriggerOnExit": ["BeHit", "DoSkill"],
          "BHEPAJIOBDN": true
        },
        "SwimSkill": {
          "$type": "ConfigMonsterStateIDInfo",
          "animatorStates": {
            "SwimSkill": [
              "Monster_Drake_DeepSea_Electric_SwimAttack",
              "Audio_Monster_Drake_Deepsea_Common_SwimAttack"
            ]
          },
          "canSyncMove": true,
          "resetAnimatorTriggerOnExit": ["BeHit", "DoSkill"],
          "BHEPAJIOBDN": true
        },
        "JumpAttack_BS": {
          "$type": "ConfigMonsterStateIDInfo",
          "animatorStates": {
            "JumpAttack_BS": ["Audio_Monster_Drake_Deepsea_Common_JumpToFit_BS"]
          },
          "resetAnimatorTriggerOnExit": ["BeHit", "DoSkill"],
          "BHEPAJIOBDN": true
        },
        "JumpAttack": {
          "$type": "ConfigMonsterStateIDInfo",
          "animatorStates": {
            "JumpAttack": [
              "Monster_Drake_DeepSea_Electric_JumpAtk",
              "Audio_Monster_Drake_Deepsea_Common_JumpToFit_During"
            ]
          },
          "AAEKKGMOKFK": true,
          "resetAnimatorTriggerOnExit": ["BeHit", "DoSkill"],
          "BHEPAJIOBDN": true
        },
        "JumpAttack_AS": {
          "$type": "ConfigMonsterStateIDInfo",
          "animatorStates": {
            "JumpAttack_AS": ["Audio_Monster_Drake_Deepsea_Common_JumpToFit_AS"]
          },
          "resetAnimatorTriggerOnExit": ["BeHit", "DoSkill"],
          "BHEPAJIOBDN": true
        },
        "BattleShow": {
          "$type": "ConfigMonsterStateIDInfo",
          "animatorStates": {
            "BattleShow": [
              "Monster_Drake_DeepSea_AlertEffect",
              "Audio_Monster_Drake_Deepsea_Common_Alert"
            ]
          },
          "resetAnimatorTriggerOnExit": ["BeHit", "DoSkill"],
          "BHEPAJIOBDN": true
        },
        "Improve": {
          "$type": "ConfigMonsterStateIDInfo",
          "animatorStates": {
            "Improve": [
              "Monster_Drake_DeepSea_EatBall",
              "Audio_Monster_Drake_Deepsea_Common_Improve_Absorb"
            ]
          },
          "resetAnimatorTriggerOnExit": ["BeHit", "DoSkill"]
        },
        "GoDying": {
          "$type": "ConfigMonsterStateIDInfo",
          "animatorStates": {
            "GoDying": ["Audio_Monster_Drake_Deepsea_Common_Die_01"]
          },
          "resetAnimatorTriggerOnExit": ["BeHit", "DoSkill"]
        },
        "Dying": {
          "$type": "ConfigMonsterStateIDInfo",
          "animatorStates": {
            "Dying": []
          },
          "resetAnimatorTriggerOnExit": ["BeHit", "DoSkill"]
        },
        "BackToLife": {
          "$type": "ConfigMonsterStateIDInfo",
          "animatorStates": {
            "BackToLife": ["Audio_Monster_Drake_Deepsea_Common_BackToLife"]
          },
          "resetAnimatorTriggerOnExit": ["BeHit", "DoSkill"]
        }
      }
    }
  },
  "billboard": {
    "$type": "NCBABGPMMPL",
    "EBBHBMFMOGD": "BillboardAttach",
    "offset": {
      "y": 0.30000001192092896,
      "z": 0.5
    },
    "BFOMIIKCOGI": "Character",
    "OELDMANLPDM": 0.6000000238418579,
    "size": "Grand"
  },
  "initialPoses": {
    "Default": {}
  },
  "aibeta": {
    "enable": true,
    "sensing": {
      "settings": {
        "DefaultSetting": {
          "viewRange": 100.0,
          "feelRange": 100.0
        },
        "LowAlert": {
          "viewRange": 10.0,
          "feelRange": 10.0
        }
      },
      "templates": {
        "DefaultTemplate": {
          "DefaultPoses": "DefaultSetting"
        },
        "LowAlert": {
          "DefaultPoses": "LowAlert"
        }
      }
    },
    "neurons": {
      "DefaultSetting": ["HIT"]
    },
    "threat": {
      "clearThreatTargetDistance": 100.0,
      "clearThreatEdgeDistance": 100.0,
      "clearThreatByTargetOutOfZone": true,
      "resistTauntLevel": "Monster_TauntLevel_5"
    },
    "defendArea": {
      "defendRange": 100.0
    },
    "profiling": {},
    "network": {
      "syncSkill": true
    },
    "skillSetting": {
      "skillEliteSet": {
        "3": [401, 701],
        "4": [701]
      }
    },
    "skills": {
      "1": {
        "name": "OnAlert",
        "skillType": "OnAlert",
        "faceTarget": true,
        "publicCDGroup": "",
        "ignoreGCD": true,
        "triggerGCD": false,
        "stateIDs": ["Alert", "Alert_Jump"],
        "skillQueryingTime": 3.0,
        "flagTargetReachable": "10",
        "flagSelfOnTemplateCollider": "01",
        "flagSelfInZone": "10",
        "flagTargetInZone": "11"
      },
      "101": {
        "name": "Blink",
        "castCondition": {
          "pose": [103],
          "needReInitCD": true,
          "pickRangeMax": 5.0
        },
        "cd": 5.0,
        "cdUpperRange": 5.0,
        "publicCDGroup": "",
        "stateIDs": ["NormalAtk01", "NormalAtk02", "NormalAtk03"],
        "flagTargetReachable": "10",
        "flagSelfOnTemplateCollider": "01",
        "flagSelfInZone": "10",
        "flagTargetInZone": "11"
      },
      "201": {
        "name": "Blink",
        "priority": 4,
        "castCondition": {
          "pose": [102, 103],
          "needReInitCD": true,
          "pickRangeMax": 5.0
        },
        "cd": 5.0,
        "cdUpperRange": 5.0,
        "initialCD": 3.0,
        "publicCDGroup": "",
        "stateIDs": ["TailAttack"],
        "flagTargetReachable": "10",
        "flagSelfOnTemplateCollider": "01",
        "flagSelfInZone": "10",
        "flagTargetInZone": "11"
      },
      "301": {
        "name": "MagicBallAttack",
        "priority": 2,
        "castCondition": {
          "pose": [101, 102, 103],
          "needReInitCD": true,
          "pickRangeMax": 50.0
        },
        "cd": 5.0,
        "publicCDGroup": "",
        "stateIDs": ["MagicBallAttack"],
        "flagTargetReachable": "11",
        "flagSelfOnTemplateCollider": "01",
        "flagSelfInZone": "11",
        "flagTargetInZone": "11"
      },
      "401": {
        "name": "JumpWallAttack",
        "priority": 1,
        "castCondition": {
          "pose": [101, 102],
          "needReInitCD": true
        },
        "cd": 25.0,
        "cdUpperRange": 5.0,
        "initialCD": 15.0,
        "publicCDGroup": "",
        "ignoreGCD": true,
        "triggerGCD": false,
        "triggerCDOnStart": true,
        "stateIDs": [
          "JumpWall_StandBy",
          "JumpWall_JumpToStart_BS",
          "JumpWall_JumpToStart_AS",
          "JumpWall_BS",
          "JumpWall_Idle",
          "JumpWall_Attack",
          "JumpWall_WeakBS",
          "JumpWall_WeakLoop",
          "JumpWall_WeakAS",
          "JumpWall_WeakBackToGroundBS",
          "JumpWall_WeakBackToGroundDuring",
          "JumpWall_WeakBackToGroundAS"
        ],
        "flagTargetReachable": "11",
        "flagSelfOnTemplateCollider": "01",
        "flagSelfInZone": "11",
        "flagTargetInZone": "11"
      },
      "9001": {
        "name": "Random",
        "priority": 4,
        "castCondition": {
          "pose": [101, 102],
          "needReInitCD": true
        },
        "cd": 10.0,
        "cdUpperRange": 10.0,
        "initialCD": 10.0,
        "publicCDGroup": "",
        "stateIDs": ["BattleShow"],
        "flagTargetReachable": "11",
        "flagSelfOnTemplateCollider": "01",
        "flagSelfInZone": "11",
        "flagTargetInZone": "11"
      },
      "701": {
        "name": "Blink",
        "priority": 2,
        "castCondition": {
          "pose": [101, 102, 103],
          "needReInitCD": true,
          "pickRangeMax": 10.0
        },
        "cd": 30.0,
        "cdUpperRange": 10.0,
        "initialCD": 10.0,
        "publicCDGroup": "",
        "stateIDs": ["ChargeAttack_BS", "ChargeAttack_Loop", "ChargeAttack_AS"],
        "flagTargetReachable": "11",
        "flagSelfOnTemplateCollider": "01",
        "flagSelfInZone": "11",
        "flagTargetInZone": "11"
      },
      "801": {
        "name": "TailRangeAttack",
        "priority": 3,
        "castCondition": {
          "pose": [101, 102, 103],
          "needReInitCD": true,
          "pickRangeMax": 20.0
        },
        "cd": 5.0,
        "cdUpperRange": 5.0,
        "initialCD": 3.0,
        "publicCDGroup": "",
        "stateIDs": ["TailRangeAttack"],
        "flagTargetReachable": "11",
        "flagSelfOnTemplateCollider": "01",
        "flagSelfInZone": "11",
        "flagTargetInZone": "11"
      }
    },
    "skillGCD": 3.0,
    "returnToBornTactic": {
      "enable": true,
      "defaultSetting": {
        "speedLevel": 1
      }
    },
    "wanderTactic": {
      "condition": {
        "pose": [1]
      },
      "defaultSetting": {
        "turnSpeedOverride": 0.20000000298023224,
        "cdMax": 7.5,
        "cdMin": 5.0,
        "distanceFromBorn": 25.0,
        "distanceFromCurrentMin": 7.5
      }
    },
    "meleeChargeTactic": {
      "enable": true,
      "condition": {
        "pose": [101, 102, 103]
      },
      "defaultSetting": {
        "speedLevel": 1,
        "startDistanceMin": 30.0,
        "startDistanceMax": 99.0,
        "stopDistance": 20.0,
        "speedLevelInner": 5
      },
      "specification": {
        "102": {
          "speedLevel": 1,
          "startDistanceMin": 30.0,
          "startDistanceMax": 99.0,
          "stopDistance": 20.0,
          "speedLevelInner": 5
        }
      }
    },
    "surroundTactic": {
      "enable": true,
      "condition": {
        "pose": [201]
      },
      "defaultSetting": {
        "turnSpeedOverride": 1.0,
        "startDistance": 0.0,
        "surroundRadius": 33.0,
        "turningStates": [
          "NormalIdle",
          "SwimWalk",
          "Swim",
          "SwimAttack",
          "SwimSkill"
        ],
        "detectFrontDistance": 0.0,
        "detectFrontOffsetUp": 3.0,
        "detectFrontOffsetForward": 1.0
      }
    }
  },
  "inputKeys": [
    {
      "keyID": 101,
      "inputKeyCode": 257,
      "abilityName": ""
    },
    {
      "keyID": 201,
      "inputKeyCode": 258,
      "abilityName": ""
    },
    {
      "keyID": 301,
      "inputKeyCode": 259,
      "abilityName": ""
    },
    {
      "keyID": 401,
      "inputKeyCode": 260,
      "abilityName": ""
    },
    {
      "keyID": 501,
      "inputKeyCode": 261,
      "abilityName": ""
    },
    {
      "keyID": 601,
      "inputKeyCode": 262,
      "abilityName": ""
    },
    {
      "keyID": 701,
      "inputKeyCode": 263,
      "abilityName": ""
    },
    {
      "keyID": 801,
      "inputKeyCode": 264,
      "abilityName": ""
    },
    {
      "keyID": 901,
      "inputKeyCode": 265,
      "abilityName": ""
    }
  ],
  "move": {
    "$type": "PLMNMICDOHN",
    "EINCMKOBBEG": {
      "excludeForces": ["WindZoneType"]
    },
    "KCNKFNLDDOD": true,
    "BCBPBHLKCPB": "FourDirection",
    "LHHNPKNFGMD": true
  },
  "audio": {
    "NCOGLLMIJGO": "",
    "animAudio": {
      "onTransitionIn": [
        {
          "currentStateName": "JumpWall_WeakLoop",
          "audioEvent": {
            "text": "Play_sfx_monster_drake_deepSea_common_jumpWall_weakLoop"
          }
        }
      ],
      "onTransitionOut": [
        {
          "currentStateName": "JumpWall_WeakLoop",
          "audioEvent": {
            "text": "Stop_sfx_monster_drake_deepSea_common_jumpWall_weakLoop"
          }
        }
      ]
    }
  },
  "cameraAdjust": {
    "default": {
      "$type": "DHCOKBEICGK",
      "priority": 1.0,
      "OPKMFLHBCEL": 30.0,
      "HLJEJHJHEBG": 50.0,
      "MOINKIAMCKG": 1.0,
      "EBDAIBLODLB": 47.5,
      "LGLGNMPNADH": 10.0,
      "EIHIEHJLINB": 10.0,
      "ELCNGKOAJFN": false,
      "KONIGEOBEPA": 50.0,
      "IKNIHFEDDIJ": 50.0,
      "LJGAGFHBAPE": 50.0,
      "FDEEGAFACDO": 40.0,
      "AOEIECPJILN": 100.0,
      "JLKGEFGDOEO": 145.0,
      "EJLANJKCDJO": "CircleR30",
      "AINPPNDKHBG": "CircleR50"
    }
  }
}
