{
  "common": {
    "effectAttachShape": {
      "$type": "ConfigEffectAttachSkinnedMesh",
      "mesh": "EffectMesh"
    },
    "mass": 10000.0,
    "height": 2.799999952316284,
    "viewSize": 1.2000000476837158,
    "affectedByWorld": true,
    "checkInSurface": true,
    "scale": 1.8700000047683716,
    "useGrassDisplacement": true,
    "clearAIOnSetLightDeactive": true,
    "KJCBJDCKPND": true,
    "NCCLLKFLJGL": true,
    "JDFHDFOFPOB": [
      {
        "KIHPGIAEOLJ": "EffectMesh01Point",
        "BNBLJKAAHKN": "EffectMesh01"
      },
      {
        "KIHPGIAEOLJ": "EffectMesh02Point",
        "BNBLJKAAHKN": "EffectMesh02"
      }
    ]
  },
  "headControl": {
    "$type": "GAAIKCFIJMM",
    "useHeadControl": true,
    "KBBNEKBLPFA": 45.0,
    "FJOGFHEFPHN": 10.0,
    "IAEPDEOMGCO": 2.0,
    "FCDMCPDGFCL": [
      "NormalIdle/Standby",
      "TurnBack",
      "Attack_04_Jump_Hit",
      "Attack_04_Jump_2",
      "Attack_04",
      "Attack_05",
      "Attack_04_Jump",
      "Attack_02",
      "Attack_02_Jump_Back",
      "Attack_01_Hit",
      "Attack_01_RunHit",
      "Attack_01_BS",
      "Attack_01_Run",
      "Attack_01_Jump",
      "Alert"
    ]
  },
  "specialPoint": {
    "elementAbsorb": "RootNode",
    "elementPendant": "",
    "elementDrop": "RootNode",
    "bulletAim": "Knee",
    "selectedPoints": ["SelectedPoint1"],
    "HFJOMFCOAJI": 0.5
  },
  "model": {
    "bornEffect": "Eff_Monster_Common_Born",
    "attachEffect": ""
  },
  "dither": {
    "showDitherDuration": 2.0
  },
  "combat": {
    "property": {
      "endureType": "Monster_Demiboss_Other",
      "weight": 150.0
    },
    "beHit": {
      "hitBloodEffect": ""
    },
    "combatLock": {
      "lockShape": "CircleLockEnemy",
      "lockType": "Avatar&Monster_Lv4"
    },
    "die": {
      "hasAnimatorDie": true,
      "dieEndTime": 1.7999999523162842,
      "dieForceDisappearTime": 1.7999999523162842,
      "dieDisappearEffect": "Eff_Death_Common",
      "dieShaderData": "MonsterDie",
      "OCGODEHJPME": true,
      "MFJBKFECLNJ": true,
      "IMEEBMBJPGJ": true,
      "ICHFPLMNCLC": true,
      "MBHMAGEPJFH": true,
      "CFHPDHFKMEP": true
    },
    "animEvents": {
      "AtkNo": {
        "attackPattern": {
          "$type": "ConfigAttackCircle",
          "triggerType": "TriggerNoRepeat",
          "born": {
            "$type": "ConfigBornBySelf",
            "offset": {
              "x": 0.0,
              "y": 0.0,
              "z": -0.5
            }
          },
          "fanAngle": 60.0,
          "radius": 1.5
        },
        "attackInfo": {
          "attackTag": "",
          "attenuationTag": "",
          "attenuationGroup": "default",
          "attackProperty": {
            "damagePercentage": 0.5,
            "MKLAMNDEDGB": 0.0,
            "bonusCriticalHurt": 100.0,
            "strikeType": "Blunt",
            "attackType": "Melee"
          },
          "hitPattern": {
            "onHitEffectName": "default",
            "hitImpulseType": "LV2",
            "hitHaltTimeScale": 0.009999999776482582
          }
        }
      },
      "Atk01_1": {
        "attackPattern": {
          "$type": "ConfigAttackCircle",
          "triggerType": "TriggerNoRepeat",
          "born": {
            "$type": "ConfigBornBySelf",
            "offset": {
              "x": 0.0,
              "y": 0.0,
              "z": 0.0
            }
          },
          "height": 3.0,
          "fanAngle": 90.0,
          "radius": 6.0
        },
        "attackInfo": {
          "attackTag": "",
          "attenuationTag": "",
          "attenuationGroup": "default",
          "attackProperty": {
            "damagePercentage": 0.30000001192092896,
            "MKLAMNDEDGB": 0.0,
            "elementType": "Grass",
            "bonusCriticalHurt": 30.0,
            "strikeType": "Blunt",
            "enBreak": 200.0,
            "attackType": "Melee"
          },
          "hitPattern": {
            "onHitEffectName": "default",
            "hitImpulseType": "LV4",
            "hitHaltTimeScale": 0.009999999776482582
          }
        }
      },
      "Atk01_2": {
        "attackPattern": {
          "$type": "ConfigAttackCircle",
          "triggerType": "TriggerNoRepeat",
          "born": {
            "$type": "ConfigBornBySelf",
            "offset": {
              "x": 0.0,
              "y": 0.0,
              "z": 0.0
            }
          },
          "height": 3.0,
          "fanAngle": 90.0,
          "radius": 6.0
        },
        "attackInfo": {
          "attackTag": "",
          "attenuationTag": "",
          "attenuationGroup": "default",
          "attackProperty": {
            "damagePercentage": 0.4000000059604645,
            "MKLAMNDEDGB": 0.0,
            "elementType": "Grass",
            "bonusCriticalHurt": 30.0,
            "strikeType": "Blunt",
            "enBreak": 200.0,
            "attackType": "Melee"
          },
          "hitPattern": {
            "onHitEffectName": "default",
            "hitImpulseType": "LV4",
            "hitHaltTimeScale": 0.009999999776482582
          }
        }
      },
      "SacredAttack01_Hit1": {
        "attackPattern": {
          "$type": "NAMPOMPBMHC",
          "triggerType": "TriggerNoRepeat",
          "born": {
            "$type": "ConfigBornBySelf",
            "offset": {
              "x": 0.0,
              "y": 0.0,
              "z": 1.0
            }
          },
          "size": {
            "x": 2.0,
            "y": 4.0,
            "z": 2.0
          }
        },
        "attackInfo": {
          "attackTag": "",
          "attenuationTag": "",
          "attenuationGroup": "default",
          "attackProperty": {
            "damagePercentage": 0.30000001192092896,
            "MKLAMNDEDGB": 0.0,
            "elementType": "Grass",
            "bonusCriticalHurt": 30.0,
            "strikeType": "Blunt",
            "enBreak": 200.0,
            "attackType": "Melee"
          },
          "hitPattern": {
            "onHitEffectName": "default",
            "hitImpulseType": "LV3",
            "hitHaltTimeScale": 0.009999999776482582
          }
        }
      },
      "SacredAttack01_Hit2": {
        "attackPattern": {
          "$type": "ConfigAttackCircle",
          "triggerType": "TriggerNoRepeat",
          "born": {
            "$type": "ConfigBornBySelf",
            "offset": {
              "x": 0.0,
              "y": -1.0,
              "z": 1.0
            }
          },
          "height": 4.0,
          "fanAngle": 120.0,
          "radius": 4.0
        },
        "attackInfo": {
          "attackTag": "",
          "attenuationTag": "",
          "attenuationGroup": "default",
          "attackProperty": {
            "damagePercentage": 0.5,
            "MKLAMNDEDGB": 0.0,
            "elementType": "Grass",
            "bonusCriticalHurt": 30.0,
            "strikeType": "Blunt",
            "enBreak": 200.0,
            "attackType": "Melee"
          },
          "hitPattern": {
            "onHitEffectName": "default",
            "hitImpulseType": "LV3",
            "hitHaltTimeScale": 0.009999999776482582,
            "hitImpulseX": true
          }
        }
      },
      "SacredAttack01_Hit3": {
        "attackPattern": {
          "$type": "ConfigAttackCircle",
          "triggerType": "TriggerNoRepeat",
          "born": {
            "$type": "ConfigBornBySelf",
            "offset": {
              "x": 0.0,
              "y": -1.0,
              "z": 0.0
            }
          },
          "height": 4.0,
          "fanAngle": 240.0,
          "radius": 5.0
        },
        "attackInfo": {
          "attackTag": "",
          "attenuationTag": "",
          "attenuationGroup": "default",
          "attackProperty": {
            "damagePercentage": 0.699999988079071,
            "MKLAMNDEDGB": 0.0,
            "elementType": "Grass",
            "bonusCriticalHurt": 30.0,
            "strikeType": "Blunt",
            "enBreak": 200.0,
            "attackType": "Melee"
          },
          "hitPattern": {
            "onHitEffectName": "default",
            "hitImpulseType": "LV3",
            "hitHaltTimeScale": 0.009999999776482582
          }
        }
      },
      "SacredAttack02_NearHit": {
        "attackPattern": {
          "$type": "NAMPOMPBMHC",
          "triggerType": "TriggerNoRepeat",
          "born": {
            "$type": "ConfigBornBySelf",
            "offset": {
              "x": 0.0,
              "y": 0.0,
              "z": 0.0
            }
          },
          "size": {
            "x": 8.0,
            "y": 4.0,
            "z": 6.0
          }
        },
        "attackInfo": {
          "attackTag": "",
          "attenuationTag": "",
          "attenuationGroup": "default",
          "attackProperty": {
            "damagePercentage": 1.0,
            "MKLAMNDEDGB": 0.0,
            "elementType": "Grass",
            "bonusCriticalHurt": 30.0,
            "strikeType": "Blunt",
            "enBreak": 200.0
          },
          "hitPattern": {
            "onHitEffectName": "default",
            "hitImpulseType": "LV5",
            "hitHaltTimeScale": 0.05000000074505806
          }
        }
      },
      "SacredAttack03_Hit1": {
        "attackPattern": {
          "$type": "ConfigAttackCircle",
          "triggerType": "TriggerNoRepeat",
          "born": {
            "$type": "ConfigBornBySelf",
            "offset": {
              "x": 0.0,
              "y": -1.0,
              "z": 0.0
            }
          },
          "height": 4.0,
          "fanAngle": 120.0,
          "radius": 4.199999809265137
        },
        "attackInfo": {
          "attackTag": "",
          "attenuationTag": "",
          "attenuationGroup": "default",
          "attackProperty": {
            "damagePercentage": 0.6000000238418579,
            "MKLAMNDEDGB": 0.0,
            "elementType": "Grass",
            "bonusCriticalHurt": 30.0,
            "strikeType": "Blunt",
            "enBreak": 200.0,
            "attackType": "Melee"
          },
          "hitPattern": {
            "onHitEffectName": "default",
            "hitImpulseType": "LV3",
            "hitHaltTimeScale": 0.009999999776482582
          }
        }
      },
      "SacredAttack03_Hit2": {
        "attackPattern": {
          "$type": "NAMPOMPBMHC",
          "triggerType": "TriggerNoRepeat",
          "born": {
            "$type": "ConfigBornBySelf",
            "offset": {
              "x": 1.0,
              "y": 0.0,
              "z": 1.0
            }
          },
          "size": {
            "x": 4.0,
            "y": 6.0,
            "z": 3.0
          }
        },
        "attackInfo": {
          "attackTag": "",
          "attenuationTag": "",
          "attenuationGroup": "default",
          "attackProperty": {
            "damagePercentage": 0.699999988079071,
            "MKLAMNDEDGB": 0.0,
            "elementType": "Grass",
            "bonusCriticalHurt": 30.0,
            "strikeType": "Blunt",
            "enBreak": 200.0,
            "attackType": "Melee"
          },
          "hitPattern": {
            "onHitEffectName": "default",
            "hitImpulseType": "LV3",
            "hitHaltTimeScale": 0.009999999776482582
          }
        }
      },
      "SacredAttack04_PreHit": {
        "attackPattern": {
          "$type": "NAMPOMPBMHC",
          "triggerType": "TriggerNoRepeat",
          "born": {
            "$type": "ConfigBornBySelf",
            "offset": {
              "x": 0.0,
              "y": 0.0,
              "z": 0.0
            }
          },
          "size": {
            "x": 2.0,
            "y": 4.0,
            "z": 3.0
          }
        },
        "attackInfo": {
          "attackTag": "",
          "attenuationTag": "",
          "attenuationGroup": "default",
          "attackProperty": {
            "damagePercentage": 0.10000000149011612,
            "MKLAMNDEDGB": 0.0,
            "elementType": "Grass",
            "bonusCriticalHurt": 30.0,
            "strikeType": "Blunt",
            "enBreak": 200.0
          },
          "hitPattern": {
            "onHitEffectName": "default",
            "hitImpulseType": "LV3",
            "retreatType": "ByTangent",
            "hitHaltTimeScale": 0.05000000074505806
          }
        }
      },
      "SacredAttack04_Hit": {
        "attackPattern": {
          "$type": "ConfigAttackCircle",
          "triggerType": "TriggerNoRepeat",
          "born": {
            "$type": "ConfigBornBySelf",
            "offset": {
              "x": 0.0,
              "y": -1.0,
              "z": 0.0
            }
          },
          "height": 4.0,
          "radius": 4.5
        },
        "attackInfo": {
          "attackTag": "",
          "attenuationTag": "",
          "attenuationGroup": "default",
          "attackProperty": {
            "damagePercentage": 0.800000011920929,
            "MKLAMNDEDGB": 0.0,
            "elementType": "Grass",
            "bonusCriticalHurt": 30.0,
            "strikeType": "Blunt",
            "enBreak": 200.0,
            "attackType": "Melee"
          },
          "hitPattern": {
            "onHitEffectName": "default",
            "hitImpulseType": "LV3",
            "hitHaltTimeScale": 0.009999999776482582
          }
        }
      }
    }
  },
  "abilities": [
    {
      "abilityID": "",
      "abilityName": "Monster_Panther_Sacred_SteerAttack",
      "abilityOverride": ""
    },
    {
      "abilityID": "",
      "abilityName": "Monster_Panther_Sacred_HeadControlOff",
      "abilityOverride": ""
    },
    {
      "abilityID": "",
      "abilityName": "Monster_Panther_Sacred_Attack02_PlayBladeEffect",
      "abilityOverride": ""
    },
    {
      "abilityID": "",
      "abilityName": "Monster_Panther_Sacred_Attack02_BulletHit",
      "abilityOverride": ""
    },
    {
      "abilityID": "",
      "abilityName": "Monster_Panther_Sacred_Attack03_Hit3",
      "abilityOverride": ""
    },
    {
      "abilityID": "",
      "abilityName": "Monster_Panther_Sacred_SacredAttack04",
      "abilityOverride": ""
    },
    {
      "abilityID": "",
      "abilityName": "Monster_Panther_Sacred_SacredAttack04_SyncMove",
      "abilityOverride": ""
    },
    {
      "abilityID": "",
      "abilityName": "Monster_Panther_Sacred_Attack05_Dither",
      "abilityOverride": ""
    },
    {
      "abilityID": "",
      "abilityName": "Monster_Panther_Sacred_Attack05_Collider",
      "abilityOverride": ""
    },
    {
      "abilityID": "",
      "abilityName": "Monster_Panther_Sacred_Attack05_Find",
      "abilityOverride": ""
    },
    {
      "abilityID": "",
      "abilityName": "Monster_Panther_Sacred_Attack05_Blink",
      "abilityOverride": ""
    },
    {
      "abilityID": "",
      "abilityName": "Monster_Panther_Sacred_Attack05_Hit",
      "abilityOverride": ""
    },
    {
      "abilityID": "",
      "abilityName": "Monster_Panther_Sacred_SacredEnergy_Detect",
      "abilityOverride": ""
    },
    {
      "abilityID": "",
      "abilityName": "Monster_Panther_Sacred_SacredEnergy_BridgeToMonster",
      "abilityOverride": ""
    },
    {
      "abilityID": "",
      "abilityName": "Monster_Sacred_Entity_StateTag_ToNormal",
      "abilityOverride": ""
    },
    {
      "abilityID": "",
      "abilityName": "Monster_Sacred_Entity_StateTag_ToEnhance",
      "abilityOverride": ""
    },
    {
      "abilityID": "",
      "abilityName": "Monster_Sacred_Entity_StateTag_ToWeak",
      "abilityOverride": ""
    },
    {
      "abilityID": "",
      "abilityName": "Monster_Sacred_Entity_BodyMaterial_Effect",
      "abilityOverride": ""
    },
    {
      "abilityID": "",
      "abilityName": "Monster_Sacred_Entity_AlertnessTag",
      "abilityOverride": ""
    },
    {
      "abilityID": "",
      "abilityName": "Monster_Sacred_Entity_Attack05Protect",
      "abilityOverride": ""
    },
    {
      "abilityID": "",
      "abilityName": "Monster_Panther_Sacred_EnhanceDefence",
      "abilityOverride": ""
    }
  ],
  "stateLayers": {
    "defaultLayer": {
      "$type": "ConfigNormalStateLayer",
      "FNPGDAEJAPJ": "",
      "stateIDs": {
        "NormalIdle": {
          "$type": "ConfigMonsterStateIDInfo",
          "animatorStates": {
            "Standby": [],
            "Born": []
          },
          "canDoSkill": true,
          "canSyncMove": true,
          "resetAnimatorTriggerOnExit": ["DoSkill"]
        },
        "Sit": {
          "$type": "ConfigMonsterStateIDInfo",
          "animatorStates": {
            "Sit": []
          },
          "canDoSkill": true,
          "canSyncMove": true,
          "resetAnimatorTriggerOnExit": ["DoSkill"]
        },
        "Lying": {
          "$type": "ConfigMonsterStateIDInfo",
          "animatorStates": {
            "Lying": []
          },
          "canDoSkill": true,
          "canSyncMove": true,
          "resetAnimatorTriggerOnExit": ["DoSkill"]
        },
        "Run": {
          "$type": "ConfigMonsterStateIDInfo",
          "animatorStates": {
            "Run": ["Audio_Monster_Panther_Sacred_Run"]
          },
          "canDoSkill": true,
          "canSyncMove": true,
          "resetAnimatorTriggerOnExit": ["DoSkill"],
          "BHEPAJIOBDN": true
        },
        "Walk": {
          "$type": "ConfigMonsterStateIDInfo",
          "animatorStates": {
            "Walk": ["Audio_Monster_Panther_Sacred_Walk"]
          },
          "canDoSkill": true,
          "canSyncMove": true,
          "resetAnimatorTriggerOnExit": ["DoSkill"],
          "BHEPAJIOBDN": true
        },
        "NoTurn": {
          "$type": "ConfigMonsterStateIDInfo",
          "animatorStates": {
            "NoTurn": []
          },
          "canDoSkill": true,
          "canSyncMove": true,
          "resetAnimatorTriggerOnExit": ["DoSkill"],
          "BHEPAJIOBDN": true
        },
        "TurnLeft": {
          "$type": "ConfigMonsterStateIDInfo",
          "animatorStates": {
            "TurnLeft": ["Audio_Monster_Panther_Sacred_Walk"]
          },
          "canDoSkill": true,
          "LGLLBKHPKJD": 0.10000000149011612,
          "canSyncMove": true,
          "resetAnimatorTriggerOnExit": ["DoSkill"],
          "BHEPAJIOBDN": true
        },
        "TurnRight": {
          "$type": "ConfigMonsterStateIDInfo",
          "animatorStates": {
            "TurnRight": ["Audio_Monster_Panther_Sacred_Walk"]
          },
          "canDoSkill": true,
          "LGLLBKHPKJD": 0.10000000149011612,
          "canSyncMove": true,
          "resetAnimatorTriggerOnExit": ["DoSkill"],
          "BHEPAJIOBDN": true
        },
        "TurnBack": {
          "$type": "ConfigMonsterStateIDInfo",
          "animatorStates": {
            "TurnBack": ["Audio_Monster_Panther_Sacred_Walk"]
          },
          "canDoSkill": true,
          "LGLLBKHPKJD": 0.10000000149011612,
          "canSyncMove": true,
          "resetAnimatorTriggerOnExit": ["DoSkill"],
          "BHEPAJIOBDN": true,
          "ECGKJECEAII": true
        },
        "BeHit": {
          "$type": "ConfigMonsterStateIDInfo",
          "animatorStates": {
            "Hit_L": [
              "Audio_Monster_Panther_Hit_L",
              "Audio_Monster_Panther_Sacred_Hit_L"
            ]
          },
          "resetAnimatorTriggerOnEnter": ["BeHit"],
          "resetAnimatorTriggerOnExit": ["DoSkill"]
        },
        "Weak_BS": {
          "$type": "ConfigMonsterStateIDInfo",
          "animatorStates": {
            "Weak_BS": ["Audio_Monster_Panther_Sacred_Weak_BS"]
          },
          "canSyncMove": true,
          "AAEKKGMOKFK": true,
          "BFDKJHMDDML": 0.0,
          "resetAnimatorTriggerOnEnter": ["BeHit"],
          "resetAnimatorTriggerOnExit": ["BeHit", "DoSkill"],
          "LCIGFDMOEAA": true,
          "BHEPAJIOBDN": true,
          "ECGKJECEAII": true
        },
        "Weak_Loop": {
          "$type": "ConfigMonsterStateIDInfo",
          "animatorStates": {
            "Weak_Loop": []
          },
          "canSyncMove": true,
          "AAEKKGMOKFK": true,
          "BFDKJHMDDML": 0.0,
          "resetAnimatorTriggerOnEnter": ["BeHit"],
          "resetAnimatorTriggerOnExit": ["BeHit", "DoSkill"],
          "LCIGFDMOEAA": true,
          "BHEPAJIOBDN": true,
          "ECGKJECEAII": true
        },
        "Weak_AS": {
          "$type": "ConfigMonsterStateIDInfo",
          "animatorStates": {
            "Weak_AS": ["Audio_Monster_Panther_Sacred_Weak_AS"]
          },
          "canSyncMove": true,
          "AAEKKGMOKFK": true,
          "BFDKJHMDDML": 0.0,
          "resetAnimatorTriggerOnEnter": ["BeHit"],
          "resetAnimatorTriggerOnExit": ["BeHit", "DoSkill"],
          "LCIGFDMOEAA": true,
          "BHEPAJIOBDN": true,
          "ECGKJECEAII": true
        },
        "Weak_Die": {
          "$type": "ConfigMonsterStateIDInfo",
          "animatorStates": {
            "Weak_Die": ["Audio_Monster_Panther_Sacred_WeakDie"]
          },
          "resetAnimatorTriggerOnEnter": ["DoSkill"]
        },
        "Die": {
          "$type": "ConfigMonsterStateIDInfo",
          "animatorStates": {
            "Die": ["Audio_Monster_Panther_Sacred_Die"]
          },
          "resetAnimatorTriggerOnEnter": ["DoSkill"]
        },
        "Personality1": {
          "$type": "ConfigMonsterStateIDInfo",
          "animatorStates": {
            "Personality1": [
              "Audio_Monster_Panther_Personality1",
              "Audio_Monster_Panther_Sacred_Personality1"
            ]
          },
          "canDoSkill": true,
          "resetAnimatorTriggerOnExit": ["BeHit", "DoSkill"]
        },
        "Attack_02_Jump_Back": {
          "$type": "ConfigMonsterStateIDInfo",
          "animatorStates": {
            "Attack_02_Jump_Back": []
          },
          "AAEKKGMOKFK": true,
          "BFDKJHMDDML": 0.009999999776482582,
          "resetAnimatorTriggerOnExit": ["BeHit", "DoSkill"],
          "BHEPAJIOBDN": true
        },
        "Attack_02": {
          "$type": "ConfigMonsterStateIDInfo",
          "animatorStates": {
            "Attack_02": ["Monster_Panther_Sacred_Grass_Attack01"]
          },
          "AAEKKGMOKFK": true,
          "BFDKJHMDDML": 0.009999999776482582,
          "resetAnimatorTriggerOnExit": ["BeHit", "DoSkill"],
          "BHEPAJIOBDN": true,
          "ECGKJECEAII": true
        },
        "Sacred_Attack01": {
          "$type": "ConfigMonsterStateIDInfo",
          "animatorStates": {
            "Sacred_Attack01": [
              "Monster_Panther_Sacred_Grass_SacredAttack01",
              "Audio_Monster_Panther_Sacred_Attack01"
            ]
          },
          "AAEKKGMOKFK": true,
          "BFDKJHMDDML": 0.009999999776482582,
          "resetAnimatorTriggerOnExit": ["BeHit", "DoSkill"],
          "BHEPAJIOBDN": true
        },
        "Sacred_Attack02": {
          "$type": "ConfigMonsterStateIDInfo",
          "animatorStates": {
            "Sacred_Attack02": [
              "Monster_Panther_Sacred_Grass_SacredAttack02",
              "Audio_Monster_Panther_Sacred_SacredAttack02"
            ]
          },
          "AAEKKGMOKFK": true,
          "BFDKJHMDDML": 0.009999999776482582,
          "resetAnimatorTriggerOnExit": ["BeHit", "DoSkill"],
          "BHEPAJIOBDN": true
        },
        "Sacred_Attack03": {
          "$type": "ConfigMonsterStateIDInfo",
          "animatorStates": {
            "Sacred_Attack03": [
              "Monster_Panther_Sacred_Grass_SacredAttack03",
              "Audio_Monster_Panther_Sacred_Attack03"
            ]
          },
          "AAEKKGMOKFK": true,
          "BFDKJHMDDML": 0.009999999776482582,
          "resetAnimatorTriggerOnExit": ["BeHit", "DoSkill"],
          "BHEPAJIOBDN": true
        },
        "Sacred_Attack04_BS": {
          "$type": "ConfigMonsterStateIDInfo",
          "animatorStates": {
            "Sacred_Attack04_BS": [
              "Monster_Panther_Sacred_Grass_SacredAttack04_BS",
              "Audio_Monster_Panther_Sacred_Attack04_BS"
            ]
          },
          "canSyncMove": true,
          "AAEKKGMOKFK": true,
          "BFDKJHMDDML": 0.009999999776482582,
          "resetAnimatorTriggerOnExit": ["BeHit", "DoSkill"],
          "BHEPAJIOBDN": true
        },
        "Sacred_Attack04_Loop": {
          "$type": "ConfigMonsterStateIDInfo",
          "animatorStates": {
            "Sacred_Attack04_Loop": [
              "Monster_Panther_Sacred_Grass_SacredAttack04_Loop"
            ]
          },
          "AAEKKGMOKFK": true,
          "BFDKJHMDDML": 0.009999999776482582,
          "resetAnimatorTriggerOnExit": ["BeHit", "DoSkill"],
          "BHEPAJIOBDN": true
        },
        "Sacred_Attack04_AS": {
          "$type": "ConfigMonsterStateIDInfo",
          "animatorStates": {
            "Sacred_Attack04_AS": [
              "Monster_Panther_Sacred_Grass_SacredAttack04_AS",
              "Audio_Monster_Panther_Sacred_Attack04_AS"
            ]
          },
          "canSyncMove": true,
          "AAEKKGMOKFK": true,
          "BFDKJHMDDML": 0.009999999776482582,
          "resetAnimatorTriggerOnExit": ["BeHit", "DoSkill"],
          "BHEPAJIOBDN": true
        },
        "Sacred_Attack05_BS": {
          "$type": "ConfigMonsterStateIDInfo",
          "animatorStates": {
            "Sacred_Attack05_BS": [
              "Monster_Panther_Sacred_Grass_SacredAttack05_BS",
              "Audio_Monster_Panther_Sacred_Attack05_BS"
            ]
          },
          "AAEKKGMOKFK": true,
          "BFDKJHMDDML": 0.009999999776482582,
          "resetAnimatorTriggerOnExit": ["BeHit", "DoSkill"],
          "BHEPAJIOBDN": true
        },
        "Sacred_Attack05_Loop": {
          "$type": "ConfigMonsterStateIDInfo",
          "animatorStates": {
            "Sacred_Attack05_Loop": [
              "Monster_Panther_Sacred_Grass_SacredAttack05_Loop"
            ]
          },
          "AAEKKGMOKFK": true,
          "BFDKJHMDDML": 0.009999999776482582,
          "resetAnimatorTriggerOnExit": ["BeHit", "DoSkill"],
          "BHEPAJIOBDN": true
        },
        "Sacred_Attack05_AS": {
          "$type": "ConfigMonsterStateIDInfo",
          "animatorStates": {
            "Sacred_Attack05_AS": [
              "Monster_Panther_Sacred_Grass_SacredAttack05_AS",
              "Audio_Monster_Panther_Sacred_Attack05_AS"
            ]
          },
          "AAEKKGMOKFK": true,
          "BFDKJHMDDML": 0.009999999776482582,
          "resetAnimatorTriggerOnExit": ["BeHit", "DoSkill"],
          "BHEPAJIOBDN": true,
          "ECGKJECEAII": true
        },
        "Sacred_Enhance": {
          "$type": "ConfigMonsterStateIDInfo",
          "animatorStates": {
            "Sacred_Enhance": [
              "Monster_Panther_Sacred_Grass_Enhance",
              "Audio_Monster_Panther_Sacred_Sacred_Enhance"
            ]
          },
          "AAEKKGMOKFK": true,
          "BFDKJHMDDML": 0.009999999776482582,
          "resetAnimatorTriggerOnExit": ["BeHit", "DoSkill"],
          "BHEPAJIOBDN": true
        }
      }
    }
  },
  "billboard": {
    "$type": "NCBABGPMMPL",
    "EBBHBMFMOGD": "BillboardAttach",
    "offset": {
      "x": -0.30000001192092896,
      "y": -0.5
    },
    "BFOMIIKCOGI": "Character",
    "showDistance": 48.0,
    "size": "Grand"
  },
  "initialPoses": {
    "Default": {
      "initialPoseID": 1
    }
  },
  "aibeta": {
    "enable": true,
    "moveSetting": {
      "navMeshAgentName": "Undead01"
    },
    "sensing": {
      "settings": {
        "DefaultSetting": {
          "viewRange": 40.0,
          "feelRange": 10.0
        }
      },
      "templates": {
        "DefaultTemplate": {
          "DefaultPoses": "DefaultSetting"
        }
      }
    },
    "threat": {
      "clearThreatEdgeDistance": 2.0,
      "clearThreatByLostPath": true,
      "viewAttenuation": [
        {
          "x": 10.0,
          "y": 2.0
        },
        {
          "x": 15.0,
          "y": 0.800000011920929
        },
        {
          "x": 20.0,
          "y": 0.5
        },
        {
          "x": 25.0,
          "y": 0.30000001192092896
        },
        {
          "x": 30.0,
          "y": 0.20000000298023224
        }
      ],
      "resistTauntLevel": "Monster_TauntLevel_3"
    },
    "defendArea": {
      "defendRange": 50.0
    },
    "network": {
      "syncSkill": true
    },
    "skills": {
      "101": {
        "name": "Sacred_Enhance",
        "combatSkillType": "RangedAttack",
        "priority": 1,
        "faceTarget": true,
        "castCondition": {
          "pose": [201]
        },
        "cd": 999999.0,
        "publicCDGroup": "",
        "ignoreGCD": true,
        "triggerGCD": false,
        "DDLBHDNIIMM": false,
        "stateIDs": ["Sacred_Enhance"],
        "flagTargetReachable": "11",
        "flagSelfOnTemplateCollider": "11",
        "flagSelfInZone": "11",
        "flagTargetInZone": "11"
      },
      "201": {
        "name": "Personality1",
        "skillType": "Free",
        "priority": 6,
        "castCondition": {
          "pose": [1]
        },
        "cd": 15.0,
        "cdUpperRange": 10.0,
        "initialCD": 2.5,
        "initialCDUpperRange": 5.0,
        "publicCDGroup": "",
        "stateIDs": ["Personality1"],
        "flagTargetReachable": "10",
        "flagSelfOnTemplateCollider": "01",
        "flagSelfInZone": "10",
        "flagTargetInZone": "11"
      },
      "601": {
        "name": "Sacred_Attack01",
        "combatSkillType": "RangedAttack",
        "castCondition": {
          "pose": [202],
          "maxTargetAngleXZ": 90.0,
          "pickRangeMax": 6.0
        },
        "cd": 2.0,
        "cdUpperRange": 1.0,
        "publicCDGroup": "",
        "stateIDs": ["Sacred_Attack01"],
        "flagTargetReachable": "11",
        "flagSelfOnTemplateCollider": "11",
        "flagSelfInZone": "11",
        "flagTargetInZone": "11"
      },
      "602": {
        "name": "Sacred_Attack01",
        "combatSkillType": "RangedAttack",
        "castCondition": {
          "pose": [201],
          "needReInitCD": true,
          "maxTargetAngleXZ": 90.0,
          "pickRangeMax": 6.0
        },
        "cd": 3.0,
        "cdUpperRange": 1.0,
        "initialCD": 4.5,
        "publicCDGroup": "",
        "stateIDs": ["Sacred_Attack01"],
        "flagTargetReachable": "11",
        "flagSelfOnTemplateCollider": "11",
        "flagSelfInZone": "11",
        "flagTargetInZone": "11"
      },
      "611": {
        "name": "Sacred_Attack02",
        "combatSkillType": "RangedAttack",
        "castCondition": {
          "pose": [202],
          "maxTargetAngleXZ": 75.0,
          "pickRangeMin": 6.0,
          "pickRangeMax": 35.0
        },
        "cd": 3.0,
        "cdUpperRange": 2.0,
        "publicCDGroup": "",
        "stateIDs": ["Sacred_Attack02"],
        "flagTargetReachable": "11",
        "flagSelfOnTemplateCollider": "11",
        "flagSelfInZone": "11",
        "flagTargetInZone": "11"
      },
      "621": {
        "name": "Sacred_Attack03",
        "combatSkillType": "RangedAttack",
        "castCondition": {
          "pose": [202],
          "maxTargetAngleXZ": 90.0,
          "pickRangeMax": 8.0
        },
        "cd": 3.0,
        "cdUpperRange": 1.0,
        "publicCDGroup": "",
        "stateIDs": ["Sacred_Attack03"],
        "flagTargetReachable": "11",
        "flagSelfOnTemplateCollider": "11",
        "flagSelfInZone": "11",
        "flagTargetInZone": "11"
      },
      "631": {
        "name": "Sacred_Attack04",
        "combatSkillType": "RangedAttack",
        "castCondition": {
          "pose": [202],
          "pickRangeMin": 7.0,
          "pickRangeMax": 35.0
        },
        "cd": 8.0,
        "cdUpperRange": 4.0,
        "publicCDGroup": "",
        "stateIDs": [
          "Sacred_Attack04_BS",
          "Sacred_Attack04_Loop",
          "Sacred_Attack04_AS"
        ],
        "flagTargetReachable": "11",
        "flagSelfOnTemplateCollider": "11",
        "flagSelfInZone": "11",
        "flagTargetInZone": "11"
      },
      "641": {
        "name": "Sacred_Attack05",
        "combatSkillType": "RangedAttack",
        "priority": 2,
        "castCondition": {
          "pose": [202],
          "needReInitCD": true,
          "pickRangeMax": 50.0
        },
        "cd": 30.0,
        "initialCD": 25.0,
        "publicCDGroup": "Sacred_MortalAttack",
        "stateIDs": [
          "Sacred_Attack05_BS",
          "Sacred_Attack05_BS",
          "Sacred_Attack05_AS"
        ],
        "flagTargetReachable": "11",
        "flagSelfOnTemplateCollider": "11",
        "flagSelfInZone": "11",
        "flagTargetInZone": "11"
      },
      "661": {
        "name": "Sacred_Enhance",
        "combatSkillType": "RangedAttack",
        "priority": 1,
        "castCondition": {
          "pose": [201],
          "globalValues": ["SacredEnergy_Recover_Panther"],
          "LBJLGICBKKC": "SELF"
        },
        "cd": 20.0,
        "publicCDGroup": "",
        "ignoreGCD": true,
        "triggerGCD": false,
        "DDLBHDNIIMM": false,
        "stateIDs": ["Sacred_Enhance"],
        "flagTargetReachable": "11",
        "flagSelfOnTemplateCollider": "11",
        "flagSelfInZone": "11",
        "flagTargetInZone": "11"
      },
      "691": {
        "name": "Sacred_Enhance",
        "combatSkillType": "RangedAttack",
        "priority": 1,
        "castCondition": {
          "pose": [201],
          "needReInitCD": true
        },
        "cd": 2.0,
        "initialCD": 15.0,
        "publicCDGroup": "",
        "ignoreGCD": true,
        "triggerGCD": false,
        "DDLBHDNIIMM": false,
        "stateIDs": ["Sacred_Enhance"],
        "flagTargetReachable": "11",
        "flagSelfOnTemplateCollider": "11",
        "flagSelfInZone": "11",
        "flagTargetInZone": "11"
      }
    },
    "returnToBornTactic": {
      "enable": true,
      "defaultSetting": {}
    },
    "wanderTactic": {
      "enable": true,
      "condition": {
        "pose": [1]
      },
      "defaultSetting": {
        "turnSpeedOverride": 0.20000000298023224,
        "cdMax": 16.0,
        "cdMin": 8.0,
        "distanceFromBorn": 20.0,
        "distanceFromCurrentMin": 6.0
      }
    },
    "meleeChargeTactic": {
      "enable": true,
      "condition": {
        "pose": [201, 202]
      },
      "defaultSetting": {
        "turnSpeedOverride": 2.0,
        "startDistanceMax": 50.0,
        "stopDistance": 5.0,
        "innerDistance": 10.0
      },
      "specification": {
        "201": {
          "speedLevel": 1,
          "turnSpeedOverride": 2.0,
          "startDistanceMin": 6.0,
          "startDistanceMax": 50.0,
          "stopDistance": 5.0
        }
      }
    },
    "DNAHDMGDMCH": {
      "enable": true,
      "defaultSetting": {
        "speedLevel": 1,
        "fleeAngle": 75.0,
        "fleeDistanceMin": 4.0,
        "fleeDistanceMax": 6.0,
        "PPIBDEEBFPN": 0.5
      }
    }
  },
  "inputKeys": [
    {
      "keyID": 601,
      "inputKeyCode": 257,
      "abilityName": ""
    },
    {
      "keyID": 611,
      "inputKeyCode": 258,
      "abilityName": ""
    },
    {
      "keyID": 621,
      "inputKeyCode": 259,
      "abilityName": ""
    },
    {
      "keyID": 631,
      "inputKeyCode": 260,
      "abilityName": ""
    },
    {
      "keyID": 641,
      "inputKeyCode": 261,
      "abilityName": ""
    },
    {
      "keyID": 651,
      "inputKeyCode": 262,
      "abilityName": ""
    },
    {
      "keyID": 661,
      "inputKeyCode": 263,
      "abilityName": ""
    },
    {
      "keyID": 101,
      "inputKeyCode": 264,
      "abilityName": ""
    }
  ],
  "move": {
    "$type": "PLMNMICDOHN",
    "EINCMKOBBEG": {
      "excludeForces": ["RetreatAirType"]
    },
    "BCBPBHLKCPB": "FourDirection",
    "MGFACNKNOFC": true,
    "HFHNEKMCEMF": true
  },
  "audio": {
    "NCOGLLMIJGO": "",
    "animAudio": {
      "onTransitionIn": [
        {
          "currentStateName": "Sacred_Attack04_Loop",
          "audioEvent": {
            "text": "Play_Sfx_Monster_Panther_Sacred_Attack04_Loop_LP"
          },
          "otherStateNames": ["Sacred_Attack04_Loop"],
          "usage": "Except"
        },
        {
          "currentStateName": "Weak_Loop",
          "audioEvent": {
            "text": "Play_Sfx_Monster_Panther_Sacred_Weak_Loop_LP"
          },
          "otherStateNames": ["Weak_Loop"],
          "usage": "Except"
        },
        {
          "currentStateName": "Weak_Loop",
          "audioEvent": {
            "text": "Play_Sfx_Monster_Panther_Sacred_Weak_Loop_LP_VO"
          },
          "otherStateNames": ["Weak_Loop"],
          "usage": "Except"
        }
      ],
      "onTransitionOut": [
        {
          "currentStateName": "Sacred_Attack04_Loop",
          "audioEvent": {
            "text": "Stop_Sfx_Monster_Panther_Sacred_Attack04_Loop_LP"
          },
          "otherStateNames": ["Sacred_Attack04_Loop"],
          "usage": "Except"
        },
        {
          "currentStateName": "Weak_Loop",
          "audioEvent": {
            "text": "Stop_Sfx_Monster_Panther_Sacred_Weak_Loop_LP"
          },
          "otherStateNames": ["Weak_Loop"],
          "usage": "Except"
        },
        {
          "currentStateName": "Weak_Loop",
          "audioEvent": {
            "text": "Stop_Sfx_Monster_Panther_Sacred_Weak_Loop_LP_VO"
          },
          "otherStateNames": ["Weak_Loop"],
          "usage": "Except"
        }
      ]
    }
  }
}
