{
  "common": {
    "effectAttachShape": {
      "$type": "ConfigEffectAttachSkinnedMesh",
      "mesh": "EffectMesh"
    },
    "mass": 20.0,
    "height": 0.800000011920929,
    "affectedByWorld": true,
    "checkInSurface": true,
    "canTriggerElementReactionText": false,
    "clearAnimatorOnSetLightDeactive": true,
    "clearAIOnSetLightDeactive": true
  },
  "model": {
    "bornEffect": "",
    "attachEffect": "",
    "canBakeMesh": false
  },
  "combat": {
    "property": {
      "endureType": "Monster_Minion",
      "weight": 30.0,
      "isInvincible": true
    },
    "beHit": {
      "hitBloodEffect": "",
      "muteAllHitEffect": true,
      "muteAllHitText": true
    },
    "combatLock": {
      "lockShape": "CircleLockEnemy",
      "denyLockOn": true,
      "lockType": "Default"
    },
    "die": {
      "hasAnimatorDie": true,
      "dieEndTime": 1.0,
      "dieForceDisappearTime": 1.0,
      "dieDisappearEffect": ""
    }
  },
  "stateLayers": {
    "defaultLayer": {
      "$type": "ConfigNormalStateLayer",
      "FNPGDAEJAPJ": "",
      "stateIDs": {
        "Born": {
          "$type": "ConfigMonsterStateIDInfo",
          "animatorStates": {
            "Born": []
          },
          "resetAnimatorTriggerOnExit": ["DoSkill"]
        },
        "NormalIdle": {
          "$type": "ConfigMonsterStateIDInfo",
          "animatorStates": {
            "Standby": []
          },
          "canDoSkill": true,
          "canSyncMove": true,
          "resetAnimatorTriggerOnExit": ["DoSkill"]
        },
        "NormalMove": {
          "$type": "ConfigMonsterStateIDInfo",
          "animatorStates": {
            "Walk": ["Animal_Fishable_Maritime_Walk"],
            "Run": ["Animal_Fishable_Maritime_Run"]
          },
          "canDoSkill": true,
          "canSyncMove": true,
          "resetAnimatorTriggerOnExit": ["DoSkill"],
          "BHEPAJIOBDN": true
        },
        "Turn": {
          "$type": "ConfigMonsterStateIDInfo",
          "animatorStates": {
            "Turn_Run": [],
            "Turn_Run_Reverse": ["Animal_Fishable_Maritime_Turn_Run"]
          },
          "canDoSkill": true,
          "canSyncMove": true,
          "resetAnimatorTriggerOnExit": ["DoSkill"],
          "BHEPAJIOBDN": true
        },
        "BeHit": {
          "$type": "ConfigMonsterStateIDInfo",
          "animatorStates": {
            "Hit_L": []
          },
          "resetAnimatorTriggerOnEnter": ["BeHit"],
          "resetAnimatorTriggerOnExit": ["DoSkill"]
        },
        "Die": {
          "$type": "ConfigMonsterStateIDInfo",
          "animatorStates": {
            "Die": ["Animal_Fish_Die"]
          }
        },
        "Escape": {
          "$type": "ConfigMonsterStateIDInfo",
          "animatorStates": {
            "Escape": ["Animal_Fishable_Maritime_Escape"]
          },
          "canSyncMove": true,
          "resetAnimatorTriggerOnExit": ["DoSkill"],
          "BHEPAJIOBDN": true
        },
        "QTE": {
          "$type": "ConfigMonsterStateIDInfo",
          "animatorStates": {
            "QTE_Idle": ["Animal_Fishable_Maritime_Hooked_Idle"],
            "QTE_StruggleLevel01": [
              "Animal_Fishable_Maritime_Hooked_StruggleLevel01_Large"
            ],
            "QTE_StruggleLevel02": [
              "Animal_Fishable_Maritime_Hooked_StruggleLevel02_Large"
            ],
            "QTE_StruggleLevel03": [
              "Animal_Fishable_Maritime_Hooked_StruggleLevel03_Large"
            ]
          },
          "canSyncMove": true,
          "resetAnimatorTriggerOnExit": ["DoSkill"],
          "BHEPAJIOBDN": true
        },
        "QTESuccess": {
          "$type": "ConfigMonsterStateIDInfo",
          "animatorStates": {
            "QTESuccess": ["Animal_Fishable_Maritime_Hooked_Lifted"]
          },
          "canSyncMove": true,
          "resetAnimatorTriggerOnExit": ["DoSkill"],
          "BHEPAJIOBDN": true
        },
        "LowEnergy": {
          "$type": "ConfigMonsterStateIDInfo",
          "animatorStates": {
            "LowEnergy": ["Animal_Fishable_Maritime_Hooked_LowEnergy"]
          },
          "canSyncMove": true,
          "resetAnimatorTriggerOnExit": ["DoSkill"],
          "BHEPAJIOBDN": true
        },
        "TeaseBait": {
          "$type": "ConfigMonsterStateIDInfo",
          "animatorStates": {
            "TeaseBait": ["Animal_Fishable_Maritime_TeaseBait_Large"]
          },
          "canSyncMove": true,
          "resetAnimatorTriggerOnExit": ["DoSkill"],
          "BHEPAJIOBDN": true
        },
        "BiteBait": {
          "$type": "ConfigMonsterStateIDInfo",
          "animatorStates": {
            "BiteBait": ["Animal_Fishable_Maritime_BiteBait_Large"],
            "BiteBait_AS": ["Animal_Fishable_Maritime_Hooked_Idle"]
          },
          "canSyncMove": true,
          "resetAnimatorTriggerOnExit": ["DoSkill"],
          "BHEPAJIOBDN": true
        },
        "IdleFree": {
          "$type": "ConfigMonsterStateIDInfo",
          "animatorStates": {
            "IdleFree01": ["Animal_Fishable_Maritime_IdleFree01_Large"]
          },
          "canSyncMove": true,
          "resetAnimatorTriggerOnExit": ["DoSkill"],
          "BHEPAJIOBDN": true
        }
      }
    }
  },
  "initialPoses": {
    "Default": {},
    "Normal": {
      "initialPoseID": 1,
      "initialPoseParams": {
        "boolParams": {
          "isSpecial": "false"
        }
      }
    },
    "Special": {
      "initialPoseID": 2,
      "initialPoseParams": {
        "boolParams": {
          "isSpecial": "true"
        }
      }
    }
  },
  "aibeta": {
    "enable": true,
    "friendliness": 1,
    "decisionArchetype": "Animal_Fishable",
    "moveSetting": {
      "moveCategory": "Water",
      "useNavMesh": false,
      "navMeshAgentName": "Undead01"
    },
    "sensing": {
      "settings": {
        "DefaultSetting": {
          "viewRange": 0.0,
          "hearAttractionRange": 0.0,
          "feelRange": 0.0
        }
      }
    },
    "neurons": {
      "DefaultSetting": ["HIT"]
    },
    "threat": {
      "clearThreatTargetDistance": 10.0,
      "clearThreatTimerByDistance": 0.800000011920929,
      "viewThreatGrow": 0.0,
      "feelThreatGrow": 0.0,
      "threatBroadcastRange": 0.0
    },
    "defendArea": {
      "defendRange": 50.0
    },
    "ui": {
      "hasDirectionIndicator": false
    },
    "profiling": {
      "lodStrategy": "MinorAnimal",
      "moveCullingLevel": 3
    },
    "skills": {
      "1": {
        "name": "IdleFree01_SpecialIdle",
        "skillType": "Free",
        "castCondition": {
          "pose": [2],
          "needReInitCD": true
        },
        "cd": 2.0,
        "cdUpperRange": 5.0,
        "initialCD": 2.0,
        "initialCDUpperRange": 5.0,
        "publicCDGroup": "",
        "ignoreGCD": true,
        "triggerGCD": false,
        "stateIDs": ["IdleFree"],
        "flagTargetReachable": "10",
        "flagSelfOnTemplateCollider": "01",
        "flagSelfInZone": "10",
        "flagTargetInZone": "11"
      },
      "101": {
        "name": "IdleFree01_SpecialCombat",
        "castCondition": {
          "pose": [102],
          "needReInitCD": true
        },
        "cd": 2.0,
        "cdUpperRange": 5.0,
        "initialCD": 2.0,
        "initialCDUpperRange": 5.0,
        "publicCDGroup": "",
        "ignoreGCD": true,
        "triggerGCD": false,
        "stateIDs": ["IdleFree"],
        "flagTargetReachable": "10",
        "flagSelfOnTemplateCollider": "01",
        "flagSelfInZone": "10",
        "flagTargetInZone": "11"
      }
    },
    "returnToBornTactic": {},
    "wanderTactic": {
      "enable": true,
      "defaultSetting": {
        "turnSpeedOverride": 1.0,
        "cdMax": 5.0,
        "cdMin": 3.0,
        "distanceFromBorn": 7.0,
        "distanceFromCurrentMin": 3.200000047683716,
        "distanceFromCurrentMax": 6.400000095367432
      }
    },
    "MFEJNEPMOCB": {
      "enable": true,
      "defaultSetting": {
        "speedLevel": 1,
        "turnSpeedOverride": 2.0
      }
    },
    "MLAKDOPGAPP": {
      "enable": true,
      "defaultSetting": {
        "speedLevel": 1,
        "turnSpeedOverride": 2.0,
        "EBGKJFKDCCO": 0.5,
        "NNCPHLIJICO": 0.75
      }
    },
    "LJBPHCJEDPO": {
      "enable": true,
      "defaultSetting": {
        "turnSpeedOverride": 1.25,
        "fleeAngle": 180.0,
        "fleeDistanceMin": 2.0,
        "fleeDistanceMax": 4.0,
        "restrictedByDefendArea": true
      }
    }
  },
  "inputKeys": [
    {
      "keyID": 1,
      "inputKeyCode": 257,
      "abilityName": ""
    }
  ],
  "move": {
    "$type": "PLMNMICDOHN",
    "GOMPNCMLHHE": false,
    "KCNKFNLDDOD": true,
    "AEPIEGNIOGP": 0.5
  },
  "animal": {
    "hasAbility": false,
    "tickAbilityElement": false,
    "hasCharacterRenderering": false
  }
}
