{
  "common": {
    "effectAttachShape": {
      "$type": "ConfigEffectAttachSkinnedMesh",
      "mesh": "EffectMesh"
    },
    "mass": 30.0,
    "height": 0.699999988079071,
    "affectedByWorld": true,
    "checkInSurface": true,
    "scale": 2.0,
    "disableTickDistance": 300.0,
    "canTriggerElementReactionText": false
  },
  "model": {
    "bornEffect": "",
    "attachEffect": "",
    "canBakeMesh": false
  },
  "dither": {
    "showDitherDuration": 2.0
  },
  "combat": {
    "property": {
      "endureType": "Monster_Minion",
      "weight": 40.0
    },
    "beHit": {
      "hitBloodEffect": "",
      "muteAllHitText": true
    },
    "combatLock": {
      "lockShape": "CircleLockEnemy",
      "lockType": "Animal_Lv2"
    },
    "die": {
      "fallWhenAirDie": false,
      "dieEndTime": 2.0,
      "dieForceDisappearTime": 10.0,
      "dieDisappearEffect": ""
    }
  },
  "abilities": [
    {
      "abilityID": "CommonInitial",
      "abilityName": "Animal_Common_Initial",
      "abilityOverride": ""
    }
  ],
  "stateLayers": {
    "defaultLayer": {
      "$type": "ConfigNormalStateLayer",
      "FNPGDAEJAPJ": "",
      "stateIDs": {
        "Born": {
          "$type": "ConfigMonsterStateIDInfo",
          "animatorStates": {
            "Born": []
          },
          "canSyncMove": true,
          "resetAnimatorTriggerOnExit": ["DoSkill"]
        },
        "NormalMove": {
          "$type": "ConfigMonsterStateIDInfo",
          "animatorStates": {
            "Glide": [],
            "Fly": ["Audio_Falcon_Fly"]
          },
          "canDoSkill": true,
          "canSyncMove": true,
          "resetAnimatorTriggerOnExit": ["DoSkill"],
          "BHEPAJIOBDN": true
        },
        "BeHit": {
          "$type": "ConfigMonsterStateIDInfo",
          "animatorStates": {
            "Hit_L": []
          },
          "resetAnimatorTriggerOnEnter": ["BeHit"],
          "resetAnimatorTriggerOnExit": ["DoSkill"]
        },
        "Die": {
          "$type": "ConfigMonsterStateIDInfo",
          "animatorStates": {
            "Die": ["Animal_Pigeon_Die"]
          }
        }
      }
    }
  },
  "initialPoses": {
    "Default": {}
  },
  "aibeta": {
    "enable": true,
    "friendliness": 1,
    "moveSetting": {
      "useNavMesh": false,
      "navMeshAgentName": "Undead01",
      "almostReachedDistanceWalk": 2.0,
      "almostReachedDistanceRun": 2.0
    },
    "sensing": {
      "enable": false
    },
    "neurons": {
      "DefaultSetting": ["HIT"]
    },
    "threat": {
      "enable": false
    },
    "defendArea": {
      "defendRange": 50.0
    },
    "fly": {
      "enable": true,
      "floatingPoses": [1, 2]
    },
    "ui": {
      "hasDirectionIndicator": false
    },
    "profiling": {
      "lodStrategy": "MonsterVista"
    },
    "skillGCD": 2.5,
    "returnToBornTactic": {},
    "followScriptedPathTactic": {
      "enable": true,
      "defaultSetting": {
        "turnSpeedOverrideWalk": 0.5,
        "turnSpeedOverrideRun": 0.5,
        "spacial": true,
        "spacialRoll": true
      }
    },
    "birdCirclingTactic": {
      "enable": true,
      "defaultSetting": {}
    }
  },
  "move": {
    "$type": "PLMNMICDOHN"
  },
  "audio": {
    "NCOGLLMIJGO": "",
    "animAudio": {
      "onTransitionIn": [
        {
          "currentStateName": "Glide",
          "audioEvent": {
            "text": "Play_sfx_creature_falcon_flying_slide_lp"
          }
        }
      ],
      "onTransitionOut": [
        {
          "currentStateName": "Glide",
          "audioEvent": {
            "text": "Stop_sfx_creature_falcon_flying_slide_lp"
          }
        }
      ]
    },
    "disableEvent": {
      "text": "Stop_sfx_creature_falcon_flying_slide_lp"
    },
    "destroyEvent": {
      "text": "Stop_sfx_creature_falcon_flying_slide_lp"
    }
  },
  "animal": {
    "hasAbility": false,
    "tickAbilityElement": false,
    "hasCharacterRenderering": false
  }
}
