{
  "common": {
    "effectAttachShape": {
      "$type": "ConfigEffectAttachSkinnedMesh",
      "mesh": "EffectMesh"
    },
    "mass": 999999.0,
    "viewSize": 1.25,
    "scale": 3.5
  },
  "model": {
    "bornEffect": "Eff_Monster_Oceanid_AnimalBorn_Small",
    "attachEffect": "",
    "canBakeMesh": false
  },
  "dither": {
    "showDitherDuration": 3.0
  },
  "globalValue": {
    "serverGlobalValues": [
      "SGV_MONSTERAFFIX_OCEANID_02_ANIMALHEAL_UP",
      "SGV_MONSTERAFFIX_OCEANID_02_ANIMAL_DEATHEXPLODE"
    ]
  },
  "combat": {
    "property": {
      "endureType": "Monster_Boss_Other",
      "weight": 150.0
    },
    "beHit": {
      "hitBloodEffect": ""
    },
    "combatLock": {
      "lockShape": "CircleLockEnemy",
      "lockType": "Avatar&Monster_Lv4"
    },
    "die": {
      "dieEndTime": 2.0,
      "dieForceDisappearTime": 5.0,
      "dieDisappearEffect": "",
      "OCGODEHJPME": true,
      "MFJBKFECLNJ": true,
      "IMEEBMBJPGJ": true,
      "ICHFPLMNCLC": true,
      "MBHMAGEPJFH": true,
      "CFHPDHFKMEP": true
    },
    "animEvents": {
      "Peck": {
        "attackPattern": {
          "$type": "MHDMMPENLGB",
          "triggerType": "TriggerNoRepeat",
          "born": {
            "$type": "ConfigBornBySelf",
            "offset": {
              "x": 0.0,
              "y": 1.5,
              "z": 2.75
            }
          },
          "radius": 1.25
        },
        "attackInfo": {
          "attackTag": "",
          "attenuationTag": "",
          "attenuationGroup": "default",
          "attackProperty": {
            "damagePercentage": 1.0,
            "MKLAMNDEDGB": 0.0,
            "elementType": "Water",
            "bonusCriticalHurt": 25.0,
            "strikeType": "Pierce",
            "enBreak": 50.0,
            "attackType": "Melee"
          },
          "hitPattern": {
            "onHitEffectName": "default",
            "hitImpulseType": "LV3",
            "retreatType": "ByTangent",
            "canBeDefenceHalt": true
          }
        }
      }
    }
  },
  "abilities": [
    {
      "abilityID": "Monster_Oceanid_Wigeon_Steer",
      "abilityName": "Monster_Oceanid_Wigeon_Steer",
      "abilityOverride": ""
    },
    {
      "abilityID": "Monster_Oceanid_Wigeon_ElementState",
      "abilityName": "Monster_Oceanid_Wigeon_ElementState",
      "abilityOverride": ""
    },
    {
      "abilityID": "Monster_Oceanid_Wigeon_AreaDamage",
      "abilityName": "Monster_Oceanid_Wigeon_AreaDamage",
      "abilityOverride": ""
    },
    {
      "abilityID": "Monster_Common_WaterMuteHurt",
      "abilityName": "Monster_Common_WaterMuteHurt",
      "abilityOverride": ""
    },
    {
      "abilityID": "Monster_Oceanid_Animal_BeingHit",
      "abilityName": "Monster_Oceanid_Animal_BeingHit",
      "abilityOverride": ""
    },
    {
      "abilityID": "Monster_Oceanid_Animal_Die",
      "abilityName": "Monster_Oceanid_Animal_Die",
      "abilityOverride": ""
    },
    {
      "abilityID": "Animal_Wigeon_Flee",
      "abilityName": "Animal_Wigeon_Flee",
      "abilityOverride": ""
    },
    {
      "abilityID": "Animal_Wigeon_EscapeRandom",
      "abilityName": "Animal_Wigeon_EscapeRandom",
      "abilityOverride": ""
    },
    {
      "abilityID": "Monster_Oceanid_Wigeon_FreeAlert",
      "abilityName": "Monster_Oceanid_Wigeon_FreeAlert",
      "abilityOverride": ""
    },
    {
      "abilityID": "",
      "abilityName": "Monster_Oceanid_Affix_DeathExplode",
      "abilityOverride": ""
    }
  ],
  "stateLayers": {
    "defaultLayer": {
      "$type": "ConfigNormalStateLayer",
      "FNPGDAEJAPJ": "",
      "stateIDs": {
        "Born": {
          "$type": "ConfigMonsterStateIDInfo",
          "animatorStates": {
            "Born": []
          },
          "canDoSkill": true,
          "resetAnimatorTriggerOnExit": ["DoSkill"]
        },
        "NormalIdle": {
          "$type": "ConfigMonsterStateIDInfo",
          "animatorStates": {
            "Standby": []
          },
          "canDoSkill": true,
          "canSyncMove": true,
          "resetAnimatorTriggerOnExit": ["DoSkill"]
        },
        "Turn": {
          "$type": "ConfigMonsterStateIDInfo",
          "animatorStates": {
            "Turn": []
          },
          "canSyncMove": true,
          "resetAnimatorTriggerOnExit": ["DoSkill"],
          "BHEPAJIOBDN": true
        },
        "NormalMove": {
          "$type": "ConfigMonsterStateIDInfo",
          "animatorStates": {
            "Run": ["Audio_Boar_walk"],
            "Walk": ["Audio_Boar_walk"]
          },
          "canDoSkill": true,
          "canSyncMove": true,
          "resetAnimatorTriggerOnExit": ["DoSkill"],
          "BHEPAJIOBDN": true
        },
        "Die": {
          "$type": "ConfigMonsterStateIDInfo",
          "animatorStates": {
            "Die": ["Monster_Oceanid_Crane_Die"]
          }
        },
        "Peck": {
          "$type": "ConfigMonsterStateIDInfo",
          "animatorStates": {
            "Peck": [
              "Monster_Oceanid_Wigeon_Peck",
              "Audio_Monster_Oceanid_Wigeon_Peck"
            ]
          },
          "resetAnimatorTriggerOnExit": ["DoSkill"],
          "BHEPAJIOBDN": true
        },
        "AreaAtk": {
          "$type": "ConfigMonsterStateIDInfo",
          "animatorStates": {
            "AreaAtk": ["Audio_Monster_Oceanid_Wigeon_Peck"]
          },
          "resetAnimatorTriggerOnExit": ["DoSkill"],
          "BHEPAJIOBDN": true
        },
        "Alert": {
          "$type": "ConfigMonsterStateIDInfo",
          "animatorStates": {
            "Alert": []
          },
          "canDoSkill": true,
          "resetAnimatorTriggerOnExit": ["BeHit", "DoSkill"]
        },
        "AlertFree": {
          "$type": "ConfigMonsterStateIDInfo",
          "animatorStates": {
            "AlertFree": ["Monster_Oceanid_Wigeon_FreeAlert"]
          },
          "canDoSkill": true,
          "resetAnimatorTriggerOnExit": ["BeHit", "DoSkill"]
        },
        "AlertNoBattle": {
          "$type": "ConfigMonsterStateIDInfo",
          "animatorStates": {
            "AlertNoBattle": ["Animal_Wigeon_Alert"]
          },
          "canDoSkill": true,
          "resetAnimatorTriggerOnExit": ["BeHit", "DoSkill"]
        },
        "Escape": {
          "$type": "ConfigMonsterStateIDInfo",
          "animatorStates": {
            "EscapeBS": [],
            "EscapeAS": []
          },
          "canDoSkill": true,
          "resetAnimatorTriggerOnExit": ["BeHit", "DoSkill"]
        },
        "Personality_103": {
          "$type": "ConfigMonsterStateIDInfo",
          "animatorStates": {
            "Personality_103": ["Audio_Monster_Oceanid_Frog_Personality_103"]
          },
          "canDoSkill": true,
          "resetAnimatorTriggerOnExit": ["BeHit", "DoSkill"]
        }
      }
    }
  },
  "billboard": {
    "$type": "NCBABGPMMPL",
    "EBBHBMFMOGD": "BillboardAttach",
    "BFOMIIKCOGI": "Character",
    "OELDMANLPDM": 0.25,
    "ANGKJBLILKJ": true,
    "HLGCEAGHFGH": 50.0
  },
  "initialPoses": {
    "Default": {},
    "Free": {
      "initialPoseID": 2,
      "initialPoseParams": {
        "boolParams": {
          "Free": "true"
        }
      }
    },
    "FreeNoBattle": {
      "initialPoseID": 3,
      "initialPoseParams": {
        "boolParams": {
          "FreeNoBattle": "true"
        }
      }
    }
  },
  "aibeta": {
    "enable": true,
    "moveSetting": {
      "moveCategory": "Water",
      "useNavMesh": false,
      "navMeshAgentName": "Undead01"
    },
    "sensing": {
      "settings": {
        "DefaultSetting": {
          "feelRange": 50.0
        },
        "LowAlert": {
          "sensitivity": 2.5,
          "viewRange": 0.0,
          "feelRange": 7.0
        },
        "SpecialLowAlert": {
          "feelRange": 8.0
        }
      },
      "templates": {
        "DefaultTemplate": {
          "DefaultPoses": "DefaultSetting",
          "2": "LowAlert",
          "3": "LowAlert"
        },
        "LowAlertTemplate": {
          "DefaultPoses": "SpecialLowAlert",
          "2": "LowAlert",
          "3": "LowAlert"
        }
      }
    },
    "threat": {
      "clearThreatTargetDistance": 30.0,
      "feelThreatGrow": 100.0,
      "threatDecreaseSpeed": 100.0,
      "viewAttenuation": [
        {
          "x": 10.0,
          "y": 2.0
        },
        {
          "x": 15.0,
          "y": 1.25
        },
        {
          "x": 20.0,
          "y": 0.5
        }
      ]
    },
    "defendArea": {
      "defendRange": 50.0
    },
    "skills": {
      "1": {
        "name": "OnAlert",
        "skillType": "OnAlert",
        "castCondition": {
          "pose": [1]
        },
        "publicCDGroup": "",
        "ignoreGCD": true,
        "triggerGCD": false,
        "stateIDs": ["Alert"],
        "flagTargetReachable": "10",
        "flagSelfOnTemplateCollider": "01",
        "flagSelfInZone": "10",
        "flagTargetInZone": "11"
      },
      "2": {
        "name": "OnAlert",
        "skillType": "OnAlert",
        "castCondition": {
          "pose": [3]
        },
        "publicCDGroup": "",
        "ignoreGCD": true,
        "triggerGCD": false,
        "stateIDs": ["AlertNoBattle"],
        "flagTargetReachable": "10",
        "flagSelfOnTemplateCollider": "01",
        "flagSelfInZone": "10",
        "flagTargetInZone": "11"
      },
      "3": {
        "name": "OnAlert",
        "skillType": "OnAlert",
        "castCondition": {
          "pose": [2]
        },
        "publicCDGroup": "",
        "ignoreGCD": true,
        "triggerGCD": false,
        "stateIDs": ["AlertFree"],
        "flagTargetReachable": "10",
        "flagSelfOnTemplateCollider": "01",
        "flagSelfInZone": "10",
        "flagTargetInZone": "11"
      },
      "4": {
        "name": "Escape",
        "castCondition": {
          "pose": [3],
          "pickRangeMax": 10.0
        },
        "cd": 2.0,
        "initialCD": 2.0,
        "publicCDGroup": "",
        "stateIDs": ["Escape"],
        "flagTargetReachable": "11",
        "flagSelfOnTemplateCollider": "01",
        "flagSelfInZone": "11",
        "flagTargetInZone": "11"
      },
      "5": {
        "name": "Personality_103",
        "skillType": "Free",
        "castCondition": {
          "pose": [2, 3]
        },
        "cd": 8.0,
        "initialCD": 2.0,
        "publicCDGroup": "",
        "stateIDs": ["Personality_103"],
        "flagTargetReachable": "10",
        "flagSelfOnTemplateCollider": "01",
        "flagSelfInZone": "10",
        "flagTargetInZone": "11"
      },
      "6": {
        "name": "Personality_103",
        "castCondition": {
          "pose": [3]
        },
        "cd": 8.0,
        "initialCD": 2.0,
        "publicCDGroup": "",
        "stateIDs": ["Personality_103"],
        "flagTargetReachable": "10",
        "flagSelfOnTemplateCollider": "01",
        "flagSelfInZone": "10",
        "flagTargetInZone": "11"
      },
      "101": {
        "name": "Peck",
        "castCondition": {
          "pose": [101],
          "pickRangeMax": 4.5
        },
        "cd": 2.0,
        "initialCD": 5.0,
        "publicCDGroup": "Oceanid_meleeAttack",
        "stateIDs": ["Peck"],
        "flagTargetReachable": "11",
        "flagSelfOnTemplateCollider": "01",
        "flagSelfInZone": "11",
        "flagTargetInZone": "11"
      }
    },
    "skillGCD": 2.0,
    "returnToBornTactic": {
      "enable": true,
      "defaultSetting": {
        "speedLevel": 1
      }
    },
    "wanderTactic": {
      "enable": true,
      "condition": {
        "pose": [2, 3]
      },
      "defaultSetting": {
        "turnSpeedOverride": 0.5,
        "cdMax": 6.0,
        "cdMin": 3.0,
        "distanceFromBorn": 25.0,
        "distanceFromCurrentMin": 6.0,
        "distanceFromCurrentMax": 8.0
      },
      "specification": {
        "2": {
          "turnSpeedOverride": 0.5,
          "cdMax": 6.0,
          "cdMin": 3.0,
          "distanceFromBorn": 25.0,
          "distanceFromCurrentMin": 6.0,
          "distanceFromCurrentMax": 8.0
        }
      }
    },
    "patrolFollowTactic": {
      "enable": true,
      "condition": {
        "pose": [2, 3]
      },
      "defaultSetting": {
        "innerDistance": 3.0,
        "outDistance": 20.0,
        "stopDistance": 1.0
      }
    },
    "meleeChargeTactic": {
      "enable": true,
      "condition": {
        "pose": [101]
      },
      "defaultSetting": {
        "speedLevel": 1,
        "startDistanceMin": 5.0,
        "startDistanceMax": 99.0,
        "stopDistance": 3.5,
        "innerDistance": 3.5,
        "speedLevelInner": 0
      }
    },
    "fleeTactic": {
      "enable": true,
      "condition": {
        "pose": [4]
      },
      "defaultSetting": {
        "turnSpeedOverride": 0.0,
        "cd": 2.5,
        "triggerDistance": 100.0,
        "fleeAngle": 105.0,
        "fleeNumberMin": 5,
        "fleeNumberMax": 6,
        "fleeDistanceMin": 2.0,
        "fleeDistanceMax": 4.0,
        "restrictedByDefendArea": true
      }
    },
    "DNAHDMGDMCH": {
      "enable": true,
      "defaultSetting": {
        "speedLevel": 1,
        "triggerDistance": 4.0,
        "fleeAngle": 75.0,
        "fleeDistanceMin": 3.0,
        "fleeDistanceMax": 5.0,
        "PPIBDEEBFPN": 0.5
      }
    }
  },
  "inputKeys": [
    {
      "keyID": 101,
      "inputKeyCode": 257,
      "abilityName": ""
    }
  ],
  "move": {
    "$type": "PLMNMICDOHN",
    "EINCMKOBBEG": {
      "includeForces": ["RushMoveType"]
    },
    "DMJNLOIEHNP": false,
    "GOMPNCMLHHE": false,
    "KCNKFNLDDOD": true,
    "AEPIEGNIOGP": 0.15000000596046448
  }
}
