{
  "common": {
    "effectAttachShape": {
      "$type": "ConfigEffectAttachSkinnedMesh",
      "mesh": "EffectMesh"
    },
    "mass": 80.0,
    "height": 0.6000000238418579,
    "viewSize": 1.75,
    "affectedByWorld": true,
    "checkInSurface": true,
    "clearAnimatorOnSetLightDeactive": true,
    "clearAIOnSetLightDeactive": true
  },
  "headControl": {
    "$type": "GAAIKCFIJMM",
    "useHeadControl": true,
    "FJOGFHEFPHN": 45.0
  },
  "model": {
    "bornEffect": "",
    "attachEffect": "",
    "canBakeMesh": false
  },
  "dither": {
    "showDitherDuration": 2.0
  },
  "combat": {
    "property": {
      "endureType": "Monster_Grunt_Humanoid",
      "weight": 80.0
    },
    "beHit": {
      "hitBloodEffect": ""
    },
    "combatLock": {
      "lockShape": "CircleLockEnemy",
      "lockType": "Avatar&Monster_Lv4"
    },
    "die": {
      "dieEndTime": 0.20000000298023224,
      "dieForceDisappearTime": 1.0,
      "dieDisappearEffect": "",
      "dieShaderData": "MonsterDie",
      "OCGODEHJPME": true,
      "MFJBKFECLNJ": true,
      "IMEEBMBJPGJ": true,
      "ICHFPLMNCLC": true,
      "MBHMAGEPJFH": true,
      "CFHPDHFKMEP": true
    }
  },
  "abilities": [
    {
      "abilityID": "",
      "abilityName": "Monster_Sylph_SpecialState",
      "abilityOverride": ""
    },
    {
      "abilityID": "",
      "abilityName": "Monster_Sylph_Activated_FaceChange",
      "abilityOverride": ""
    },
    {
      "abilityID": "",
      "abilityName": "Monster_Sylph_Wind_PoseHandler",
      "abilityOverride": ""
    },
    {
      "abilityID": "",
      "abilityName": "Monster_Sylph_Wind_PoseAction",
      "abilityOverride": ""
    },
    {
      "abilityID": "",
      "abilityName": "Monster_Sylph_Wind_Steer",
      "abilityOverride": ""
    },
    {
      "abilityID": "",
      "abilityName": "Monster_Sylph_Wind_ExitBattle",
      "abilityOverride": ""
    },
    {
      "abilityID": "",
      "abilityName": "Monster_Common_WindMuteHurt",
      "abilityOverride": ""
    },
    {
      "abilityID": "",
      "abilityName": "Monster_Sylph_Wind_WindBullet_First",
      "abilityOverride": ""
    },
    {
      "abilityID": "",
      "abilityName": "Monster_Sylph_Wind_WindBullet_Second",
      "abilityOverride": ""
    },
    {
      "abilityID": "",
      "abilityName": "Monster_Sylph_Wind_FlyHor",
      "abilityOverride": ""
    },
    {
      "abilityID": "",
      "abilityName": "Monster_Sylph_Wind_FlyHigh",
      "abilityOverride": ""
    },
    {
      "abilityID": "",
      "abilityName": "Monster_Sylph_Wind_Deathrattle",
      "abilityOverride": ""
    },
    {
      "abilityID": "",
      "abilityName": "Monster_Sylph_Wind_Activated_AirGun",
      "abilityOverride": ""
    },
    {
      "abilityID": "",
      "abilityName": "Monster_Sylph_Wind_Activated_Deathrattle",
      "abilityOverride": ""
    },
    {
      "abilityID": "",
      "abilityName": "Monster_Sylph_FlyHit",
      "abilityOverride": ""
    },
    {
      "abilityID": "",
      "abilityName": "Monster_Sylph_AlertnessTag",
      "abilityOverride": ""
    }
  ],
  "stateLayers": {
    "defaultLayer": {
      "$type": "ConfigNormalStateLayer",
      "FNPGDAEJAPJ": "",
      "stateIDs": {
        "Born": {
          "$type": "ConfigMonsterStateIDInfo",
          "animatorStates": {
            "Born": ["Monster_Sylph_Born"]
          },
          "canSyncMove": true,
          "resetAnimatorTriggerOnExit": ["DoSkill"]
        },
        "NormalIdle": {
          "$type": "ConfigMonsterStateIDInfo",
          "animatorStates": {
            "StandbyFree": [],
            "Standby": []
          },
          "canDoSkill": true,
          "canSyncMove": true,
          "resetAnimatorTriggerOnExit": ["DoSkill"],
          "BHEPAJIOBDN": true
        },
        "Activated_Standby": {
          "$type": "ConfigMonsterStateIDInfo",
          "animatorStates": {
            "Activated_Standby": []
          },
          "canDoSkill": true,
          "canSyncMove": true,
          "resetAnimatorTriggerOnExit": ["DoSkill"],
          "BHEPAJIOBDN": true
        },
        "NormalMove": {
          "$type": "ConfigMonsterStateIDInfo",
          "animatorStates": {
            "Activated_Fly": [],
            "Walk": [],
            "Activated_Walk": []
          },
          "canDoSkill": true,
          "canSyncMove": true,
          "resetAnimatorTriggerOnExit": ["DoSkill"],
          "setAnimatorFloat": [
            {
              "name": "FlyMotionHor",
              "normalizeEnd": 0.0
            },
            {
              "name": "FlyMotionVer",
              "normalizeEnd": 0.0
            }
          ],
          "BHEPAJIOBDN": true
        },
        "NormalFly": {
          "$type": "ConfigMonsterStateIDInfo",
          "animatorStates": {
            "Fly": []
          },
          "canDoSkill": true,
          "canSyncMove": true,
          "resetAnimatorTriggerOnExit": ["DoSkill"],
          "setAnimatorFloat": [
            {
              "name": "FlyMotionHor",
              "normalizeEnd": 0.0
            },
            {
              "name": "FlyMotionVer",
              "normalizeEnd": 0.0
            }
          ],
          "BHEPAJIOBDN": true,
          "EAPMAKKDOBD": "BlendMove"
        },
        "HitThrow": {
          "$type": "ConfigMonsterStateIDInfo",
          "animatorStates": {
            "HitThrow": []
          },
          "canSyncMove": true,
          "resetAnimatorTriggerOnEnter": ["BeHit"],
          "KCFDJAALIHK": true,
          "KHLKKBPCMBA": true
        },
        "HitThrowDrop": {
          "$type": "ConfigMonsterStateIDInfo",
          "animatorStates": {
            "HitThrowDrop": []
          },
          "canSyncMove": true,
          "KCFDJAALIHK": true,
          "KHLKKBPCMBA": true
        },
        "HitThrowToGround": {
          "$type": "ConfigMonsterStateIDInfo",
          "animatorStates": {
            "HitThrowToGround": []
          },
          "canSyncMove": true,
          "resetAnimatorTriggerOnExit": ["DoSkill"],
          "KCFDJAALIHK": true,
          "KHLKKBPCMBA": true
        },
        "Struggle": {
          "$type": "ConfigMonsterStateIDInfo",
          "animatorStates": {
            "Struggle": []
          },
          "resetAnimatorTriggerOnEnter": ["BeHit", "HitAir2HitDrop"],
          "resetAnimatorTriggerOnExit": ["DoSkill"]
        },
        "BeHit": {
          "$type": "ConfigMonsterStateIDInfo",
          "animatorStates": {
            "Activated_Hit_H": []
          },
          "canSyncMove": true,
          "resetAnimatorTriggerOnEnter": ["BeHit"],
          "resetAnimatorTriggerOnExit": ["DoSkill"],
          "KHLKKBPCMBA": true
        },
        "Die": {
          "$type": "ConfigMonsterStateIDInfo",
          "animatorStates": {
            "Die": [],
            "Activated_Die": []
          }
        },
        "SpecialState": {
          "$type": "ConfigMonsterStateIDInfo",
          "animatorStates": {
            "RandomAction01": [],
            "RandomAction02": []
          },
          "canSyncMove": true,
          "resetAnimatorTriggerOnExit": ["BeHit", "DoSkill"]
        },
        "Warning": {
          "$type": "ConfigMonsterStateIDInfo",
          "animatorStates": {
            "Warning": [
              "Monster_Sylph_Wind_Warning",
              "Audio_Sylph_Wind_Warning"
            ]
          },
          "canSyncMove": true,
          "resetAnimatorTriggerOnExit": ["BeHit", "DoSkill"],
          "BHEPAJIOBDN": true
        },
        "WindBullet": {
          "$type": "ConfigMonsterStateIDInfo",
          "animatorStates": {
            "WindBullet": [
              "Monster_Sylph_Wind_WindBullet",
              "Audio_Sylph_Wind_WindBullet"
            ]
          },
          "canSyncMove": true,
          "resetAnimatorTriggerOnExit": ["BeHit", "DoSkill"],
          "BHEPAJIOBDN": true
        },
        "FlyHor_BS": {
          "$type": "ConfigMonsterStateIDInfo",
          "animatorStates": {
            "FlyHor_BS": ["Audio_Sylph_Wind_FlyHor_BS"]
          },
          "canSyncMove": true,
          "resetAnimatorTriggerOnExit": ["BeHit", "DoSkill"],
          "BHEPAJIOBDN": true
        },
        "FlyHor_Loop": {
          "$type": "ConfigMonsterStateIDInfo",
          "animatorStates": {
            "FlyHor_Loop": ["Monster_Sylph_Wind_FlyHor"]
          },
          "canSyncMove": true,
          "resetAnimatorTriggerOnExit": ["BeHit", "DoSkill"],
          "BHEPAJIOBDN": true
        },
        "FlyHor_AS": {
          "$type": "ConfigMonsterStateIDInfo",
          "animatorStates": {
            "FlyHor_AS": ["Audio_Sylph_Wind_FlyHor_AS"]
          },
          "canSyncMove": true,
          "resetAnimatorTriggerOnExit": ["BeHit", "DoSkill"]
        },
        "FlyHigh": {
          "$type": "ConfigMonsterStateIDInfo",
          "animatorStates": {
            "FlyHigh": [
              "Monster_Sylph_Wind_FlyHigh",
              "Audio_Sylph_Wind_FlyHigh"
            ]
          },
          "canSyncMove": true,
          "resetAnimatorTriggerOnExit": ["BeHit", "DoSkill"]
        },
        "Deathrattle": {
          "$type": "ConfigMonsterStateIDInfo",
          "animatorStates": {
            "Deathrattle": ["Monster_Sylph_Die"]
          },
          "canSyncMove": true,
          "resetAnimatorTriggerOnExit": ["BeHit", "DoSkill"]
        },
        "Activated": {
          "$type": "ConfigMonsterStateIDInfo",
          "animatorStates": {
            "Activated_BS": [
              "Monster_Sylph_Wind_Activated_Transform",
              "Audio_Sylph_Wind_Activated_BS"
            ],
            "Activated_AS": ["Audio_Sylph_Wind_Activated_AS"]
          },
          "canSyncMove": true,
          "resetAnimatorTriggerOnExit": ["BeHit", "DoSkill"]
        },
        "Activated_AirGun": {
          "$type": "ConfigMonsterStateIDInfo",
          "animatorStates": {
            "Activated_AirGun": [
              "Monster_Sylph_Wind_Activated_AirGun",
              "Audio_Sylph_Wind_Activated_AirGun"
            ]
          },
          "canSyncMove": true,
          "resetAnimatorTriggerOnExit": ["BeHit", "DoSkill"],
          "BHEPAJIOBDN": true
        },
        "Activated_Deathrattle": {
          "$type": "ConfigMonsterStateIDInfo",
          "animatorStates": {
            "Activated_Deathrattle": []
          },
          "canSyncMove": true,
          "resetAnimatorTriggerOnExit": ["BeHit", "DoSkill"]
        },
        "Unactivated": {
          "$type": "ConfigMonsterStateIDInfo",
          "animatorStates": {
            "Unactivated": ["Audio_Sylph_Rock_Unactivated"]
          },
          "canSyncMove": true,
          "resetAnimatorTriggerOnExit": ["BeHit", "DoSkill"]
        }
      }
    }
  },
  "face": {
    "characterName": "Sylph_03",
    "baseFaceAnimation": "Default",
    "intervalFaceAnimation": "Blink",
    "minInterval": 1.5,
    "maxInterval": 5.5
  },
  "billboard": {
    "$type": "NCBABGPMMPL",
    "EBBHBMFMOGD": "BillboardAttach",
    "offset": {
      "y": 0.5
    },
    "OELDMANLPDM": 1.0,
    "KLIMPNOBGLK": true,
    "ANGKJBLILKJ": true
  },
  "initialPoses": {
    "Default": {
      "initialPoseID": 101
    }
  },
  "aibeta": {
    "enable": true,
    "moveSetting": {
      "useNavMesh": false,
      "navMeshAgentName": "Undead01"
    },
    "sensing": {
      "settings": {
        "DefaultSetting": {
          "viewRange": 22.0,
          "feelRange": 8.75
        }
      },
      "templates": {
        "DefaultTemplate": {
          "DefaultPoses": "DefaultSetting"
        }
      }
    },
    "threat": {
      "clearThreatTargetDistance": 30.0,
      "clearThreatEdgeDistance": 5.0,
      "clearThreatTimerByDistance": 2.0,
      "viewAttenuation": [
        {
          "x": 12.0,
          "y": 1.0
        },
        {
          "x": 20.0,
          "y": 0.5
        }
      ]
    },
    "defendArea": {
      "defendRange": 50.0
    },
    "fly": {
      "enable": true,
      "floatingPoses": [101, 201, 301, 211, 311, 901]
    },
    "skills": {
      "100": {
        "name": "OnAlert",
        "skillType": "OnAlert",
        "faceTarget": true,
        "publicCDGroup": "",
        "triggerGCD": false,
        "stateIDs": ["Warning"],
        "skillQueryingTime": 3.0,
        "flagTargetReachable": "10",
        "flagSelfOnTemplateCollider": "01",
        "flagSelfInZone": "10",
        "flagTargetInZone": "11"
      },
      "201": {
        "name": "WindBullet",
        "priority": 2,
        "castCondition": {
          "pose": [201],
          "pickRangeMin": 5.5,
          "pickRangeMax": 22.0,
          "pickRangeYMax": 1.0,
          "castRangeMin": 5.5,
          "castRangeMax": 22.0
        },
        "cd": 5.0,
        "cdUpperRange": 2.5,
        "publicCDGroup": "",
        "stateIDs": ["WindBullet"],
        "flagTargetReachable": "11",
        "flagSelfOnTemplateCollider": "01",
        "flagSelfInZone": "11",
        "flagTargetInZone": "11"
      },
      "401": {
        "name": "FlyHigh",
        "priority": 2,
        "castCondition": {
          "pose": [201],
          "pickRangeMax": 3.5,
          "pickRangeYMax": 0.800000011920929,
          "castRangeMax": 3.5
        },
        "cd": 5.0,
        "publicCDGroup": "",
        "stateIDs": ["FlyHigh"],
        "flagTargetReachable": "11",
        "flagSelfOnTemplateCollider": "01",
        "flagSelfInZone": "11",
        "flagTargetInZone": "11"
      },
      "501": {
        "name": "Activated_AirGun",
        "castCondition": {
          "pose": [301],
          "pickRangeMax": 9.5,
          "pickRangeYMax": 1.0,
          "castRangeMax": 8.5
        },
        "cd": 3.0,
        "publicCDGroup": "",
        "stateIDs": ["Activated_AirGun"],
        "flagTargetReachable": "11",
        "flagSelfOnTemplateCollider": "01",
        "flagSelfInZone": "11",
        "flagTargetInZone": "11"
      },
      "601": {
        "name": "Activated",
        "priority": 1,
        "castCondition": {
          "pose": [301]
        },
        "cd": 999999.0,
        "initialCD": 9999999.0,
        "publicCDGroup": "",
        "stateIDs": ["Activated"],
        "flagTargetReachable": "11",
        "flagSelfOnTemplateCollider": "01",
        "flagSelfInZone": "11",
        "flagTargetInZone": "11"
      },
      "701": {
        "name": "Deathrattle",
        "priority": 1,
        "castCondition": {
          "pose": [211]
        },
        "publicCDGroup": "",
        "stateIDs": ["Deathrattle"],
        "flagTargetReachable": "11",
        "flagSelfOnTemplateCollider": "01",
        "flagSelfInZone": "11",
        "flagTargetInZone": "11"
      },
      "801": {
        "name": "Activated_Deathrattle",
        "priority": 1,
        "castCondition": {
          "pose": [311]
        },
        "publicCDGroup": "",
        "stateIDs": ["Activated_Deathrattle"],
        "flagTargetReachable": "11",
        "flagSelfOnTemplateCollider": "01",
        "flagSelfInZone": "11",
        "flagTargetInZone": "11"
      }
    },
    "skillGCD": 3.5,
    "returnToBornTactic": {
      "enable": true,
      "defaultSetting": {
        "spacial": true
      }
    },
    "spacialChaseTactic": {
      "enable": true,
      "condition": {
        "pose": [201, 301]
      },
      "defaultSetting": {
        "speedLevel": 2,
        "chaseStartDistance": 13.5,
        "chaseStopDistance": 3.5,
        "yOffsetMin": 0.0,
        "yOffsetMax": 1.0
      },
      "specification": {
        "301": {
          "speedLevel": 2,
          "chaseStopDistance": 5.0,
          "yOffsetMin": 0.0,
          "yOffsetMax": 0.3499999940395355
        }
      }
    },
    "spacialProbeTactic": {
      "enable": true,
      "condition": {
        "pose": [101]
      },
      "defaultSetting": {
        "cdMax": 5.0,
        "cdMin": 3.0,
        "terrainOffsetMin": 0.30000001192092896,
        "terrainOffsetMax": 1.0,
        "distanceFromBorn": 12.0,
        "distanceFromCurrentMin": 4.0,
        "distanceFromCurrentMax": 7.5,
        "PDNEPDCIFIA": true
      }
    },
    "spacialAdjustTactic": {
      "enable": true,
      "condition": {
        "pose": [201, 301]
      },
      "defaultSetting": {
        "speedLevel": 2,
        "yLow": 0.0,
        "yHigh": 1.0
      },
      "specification": {
        "301": {
          "yLow": -1.0,
          "yHigh": 0.5
        }
      }
    },
    "IOPMNAMBKJN": {
      "enable": true,
      "condition": {
        "pose": [201]
      },
      "defaultSetting": {
        "speedLevel": 2,
        "BCMOLECEGAC": 3.0,
        "restTimeMin": 3.0,
        "restTimeMax": 6.5,
        "facingMoveTurnInterval": 1.0,
        "obstacleDetectRange": 1.5,
        "MBDHFFEKDDN": 3.0,
        "LNFJFMMNJKF": {
          "stop": 0.0,
          "forward": 0.20000000298023224,
          "ODPHDCELKPL": 0.4000000059604645,
          "DMGLMJOLAGC": 2.0,
          "GECECDMBMMG": 4.0,
          "PHHIMBKGJIK": 2.0,
          "FHDKGIDOGKM": 4.0,
          "PLLPIFKALOK": 2.0,
          "FALMGAKBBLI": 4.0,
          "PEHGJHOLKHN": 1.0,
          "IECHGDJBFCG": 0.5,
          "FMOPDHCEBLP": 2.0
        }
      }
    }
  },
  "inputKeys": [
    {
      "keyID": 100,
      "inputKeyCode": 257,
      "abilityName": ""
    },
    {
      "keyID": 201,
      "inputKeyCode": 258,
      "abilityName": ""
    },
    {
      "keyID": 301,
      "inputKeyCode": 259,
      "abilityName": ""
    },
    {
      "keyID": 401,
      "inputKeyCode": 260,
      "abilityName": ""
    },
    {
      "keyID": 501,
      "inputKeyCode": 261,
      "abilityName": ""
    },
    {
      "keyID": 601,
      "inputKeyCode": 262,
      "abilityName": ""
    },
    {
      "keyID": 701,
      "inputKeyCode": 263,
      "abilityName": ""
    },
    {
      "keyID": 801,
      "inputKeyCode": 264,
      "abilityName": ""
    }
  ],
  "move": {
    "$type": "PLMNMICDOHN",
    "EINCMKOBBEG": {
      "excludeForces": ["RetreatAirType"]
    },
    "AOFJJIKKGME": true,
    "KCNKFNLDDOD": true,
    "BCBPBHLKCPB": "AirBlend",
    "CNPDANKMFNL": "AirBlend",
    "NGNIGPNNLAI": "SlimeType",
    "OOFDCONLBHL": 2.0
  },
  "audio": {
    "NCOGLLMIJGO": "",
    "animAudio": {
      "onTransitionIn": [
        {
          "currentStateName": "",
          "audioEvent": {
            "text": ""
          }
        }
      ],
      "onTransitionOut": [
        {
          "currentStateName": "",
          "audioEvent": {
            "text": ""
          }
        }
      ]
    }
  }
}
