[
  {
    "Default": {
      "$type": "ConfigAbility",
      "abilityName": "SceneObj_Area_Xm_Property_Ani_Prop_SporePile_01_Ability",
      "modifiers": {
        "NormalModifier": {
          "modifierName": "",
          "elementType": "Wood",
          "bonusCriticalHurt": 50.0,
          "onRemoved": [
            {
              "$type": "FireEffect",
              "healLimitedByCasterMaxHPRatio": "Eff_SceneObj_SporePile_Destroy_Fire",
              "born": {
                "$type": "ConfigBornByAttachPoint",
                "attachPointName": "AttachPoint"
              },
              "effectTempleteID": -1.0
            },
            {
              "$type": "KillSelf"
            }
          ],
          "onBeingHit": [
            {
              "$type": "AttachModifier",
              "predicates": [
                {
                  "$type": "OIEGBANNLOG",
                  "CIMNBKFMPGD": "Wind"
                }
              ],
              "modifierName": "ElementWindModifier"
            }
          ]
        },
        "ElementWindModifier": {
          "modifierName": "",
          "bonusCriticalHurt": 100.0,
          "onAdded": [
            {
              "$type": "FireEffect",
              "healLimitedByCasterMaxHPRatio": "Eff_SceneObj_SporePile_Destroy_Wind",
              "born": {
                "$type": "ConfigBornByAttachPoint",
                "attachPointName": "AttachPoint"
              },
              "effectTempleteID": -1.0
            },
            {
              "$type": "KillSelf",
              "hideEntity": true
            }
          ]
        }
      },
      "onAdded": [
        {
          "$type": "AttachAbilityStateResistance",
          "resistanceListID": 14005
        },
        {
          "$type": "AttachAbilityStateResistance",
          "resistanceListID": 14002
        },
        {
          "$type": "AttachModifier",
          "modifierName": "NormalModifier"
        },
        {
          "$type": "AddGlobalValue",
          "ratio": 1.0,
          "key": "_ABILITY_BURNING_IGNITE_ONLY",
          "useLimitRange": true,
          "maxValue": 1.0,
          "minValue": 1.0
        }
      ]
    }
  },
  {
    "Default": {
      "$type": "ConfigAbility",
      "abilityName": "SceneObj_Area_Xm_Property_Ani_Prop_FungusSporePile_01_Ability",
      "abilityMixins": [
        {
          "$type": "AttachToGadgetStateMutexMixin",
          "gadgetStates": [0, 201],
          "modifierNames": [["IdleState"], ["DisappearState"]]
        },
        {
          "$type": "WidgetMpSupportMixin",
          "MJEDPGMFEMG": [
            {
              "$type": "ChangeGadgetState",
              "predicates": [
                {
                  "$type": "MCODPFDFBAF",
                  "target": "Self"
                }
              ],
              "MNIDCPKMMNN": 201
            }
          ]
        }
      ],
      "modifiers": {
        "IdleState": {
          "modifierName": "",
          "bonusCriticalHurt": 100.0,
          "onAdded": [
            {
              "$type": "AttachEffect",
              "healLimitedByCasterMaxHPRatio": "Eff_SceneObj_FungusSporePile_Idle",
              "effectTempleteID": -1.0
            },
            {
              "$type": "EnableSceneTransformByName",
              "transformNames": ["Spore"],
              "setEnable": true
            }
          ]
        },
        "DisappearState": {
          "modifierName": "",
          "bonusCriticalHurt": 100.0,
          "onAdded": [
            {
              "$type": "FireEffect",
              "healLimitedByCasterMaxHPRatio": "Eff_SceneObj_FungusSporePile_Dis",
              "effectTempleteID": -1.0
            },
            {
              "$type": "EnableGadgetInteeMp"
            },
            {
              "$type": "EnableSceneTransformByName",
              "transformNames": ["Spore"]
            },
            {
              "$type": "KillSelf"
            }
          ]
        }
      }
    }
  },
  {
    "Default": {
      "$type": "ConfigAbility",
      "abilityName": "SceneObj_Area_Xm_Property_Ani_Prop_AranaraPillarSpore_01_Ability",
      "abilityMixins": [
        {
          "$type": "AttachToGadgetStateMutexMixin",
          "gadgetStates": [0, 201],
          "modifierNames": [["IdleState"], ["DisappearState"]]
        }
      ],
      "modifiers": {
        "IdleState": {
          "modifierName": "",
          "bonusCriticalHurt": 100.0,
          "onAdded": [
            {
              "$type": "AttachEffect",
              "healLimitedByCasterMaxHPRatio": "Eff_SceneObj_AranaraPillarSpore_01_Idle",
              "effectTempleteID": -1.0
            },
            {
              "$type": "EnableSceneTransformByName",
              "transformNames": ["Spore"],
              "setEnable": true
            }
          ]
        },
        "DisappearState": {
          "modifierName": "",
          "duration": 0.10000000149011612,
          "bonusCriticalHurt": 100.0,
          "onAdded": [
            {
              "$type": "FireEffect",
              "healLimitedByCasterMaxHPRatio": "Eff_SceneObj_AranaraPillarSpore_01_Dis",
              "effectTempleteID": -1.0
            }
          ],
          "onRemoved": [
            {
              "$type": "EnableSceneTransformByName",
              "transformNames": ["Spore"]
            }
          ]
        }
      }
    }
  },
  {
    "Default": {
      "$type": "ConfigAbility",
      "abilityName": "SceneObj_Area_Xm_Property_Prop_AranaraStrike_01_Ability",
      "abilityMixins": [
        {
          "$type": "AttachToGadgetStateMutexMixin",
          "gadgetStates": [0, 201],
          "modifierNames": [["DeactiveState"], ["ActiveState"]]
        }
      ],
      "abilitySpecials": {
        "ElementLevelCo": 1.0,
        "DamageRatio": 7.5,
        "FireRate": 3.0
      },
      "modifiers": {
        "DeactiveState": {
          "modifierName": "",
          "bonusCriticalHurt": 100.0
        },
        "ActiveState": {
          "modifierName": "",
          "bonusCriticalHurt": 100.0,
          "thinkInterval": "FireRate",
          "onAdded": [
            {
              "$type": "TriggerAbility",
              "abilityName": "SceneObj_Area_Xm_Property_Prop_AranaraStrike_01_Ability"
            }
          ],
          "onThinkInterval": [
            {
              "$type": "TriggerAbility",
              "abilityName": "SceneObj_Area_Xm_Property_Prop_AranaraStrike_01_Ability"
            }
          ]
        }
      },
      "onAdded": [
        {
          "$type": "SetSystemValueToOverrideMap",
          "RotationDampTime": true,
          "key": "ElementLevelCo",
          "type": "ElementLevelCo"
        }
      ],
      "onAbilityStart": [
        {
          "$type": "SetGlobalPos",
          "key": "_AranaraStrike_Pos",
          "born": {
            "$type": "ConfigBornBySelf"
          },
          "setTarget": false
        },
        {
          "$type": "Predicated",
          "otherTargets": {
            "$type": "SelectTargetsByShape",
            "shapeName": "CircleR20",
            "campTargetType": "All",
            "OBHNBNDMPFN": 1.0
          },
          "predicates": [
            {
              "$type": "ByEntityTypes",
              "entityTypes": ["Monster"]
            },
            {
              "$type": "DDBJEPBNOGF",
              "predicates": [
                {
                  "$type": "EDBIOHJOCJE",
                  "IPBMDDHBECK": [9001]
                }
              ]
            }
          ],
          "successActions": [
            {
              "$type": "SetGlobalPos",
              "target": "Target",
              "key": "_AranaraStrike_Pos",
              "born": {
                "$type": "ConfigBornByAttachPoint",
                "offset": {
                  "x": 0.0,
                  "y": 0.0,
                  "z": 1.0
                },
                "attachPointName": "RootNode"
              },
              "setTarget": false
            },
            {
              "$type": "FireEffect",
              "healLimitedByCasterMaxHPRatio": "Eff_ScenObj_AranaraStrike_Start",
              "born": {
                "$type": "ConfigBornByGlobalValue",
                "positionKey": "_AranaraStrike_Pos",
                "directionKey": ""
              },
              "effectTempleteID": -1.0
            },
            {
              "$type": "TriggerAttackEvent",
              "attackEvent": {
                "attackPattern": {
                  "$type": "ConfigAttackSphere",
                  "triggerType": "TriggerNoRepeat",
                  "born": {
                    "$type": "ConfigBornByGlobalValue",
                    "DAPKLNIFPID": true,
                    "positionKey": "_AranaraStrike_Pos",
                    "directionKey": ""
                  },
                  "radius": 3.0
                },
                "attackInfo": {
                  "attackTag": "AranaraShockWave",
                  "attenuationTag": "",
                  "attenuationGroup": "default",
                  "attackProperty": {
                    "damagePercentageRatio": 0.0,
                    "elementType": "Grass",
                    "bonusCriticalHurt": 25.0,
                    "ignoreAttackerProperty": true,
                    "strikeType": "Default",
                    "enBreak": 50.0,
                    "attackType": "Range",
                    "damageExtra": ["ElementLevelCo", "DamageRatio", "MUL"],
                    "trueDamage": true
                  },
                  "hitPattern": {
                    "onHitEffectName": "default",
                    "hitImpulseType": "LV3"
                  }
                }
              },
              "targetType": "Enemy",
              "entityTypes": ["Monster"]
            }
          ]
        }
      ]
    }
  },
  {
    "Default": {
      "$type": "ConfigAbility",
      "abilityName": "SceneObj_Area_Xm_Property_Ani_Prop_VarunaValve_01_Ability",
      "abilityMixins": [
        {
          "$type": "AttachToGadgetStateMutexMixin",
          "gadgetStates": [0, 201, 202, 203, 901, 902, 903],
          "modifierNames": [
            ["DeactiveState"],
            ["ActiveState"],
            ["ActiveState"],
            ["ActiveState"],
            ["DeactiveState"],
            ["DeactiveState"],
            ["DeactiveState"]
          ]
        },
        {
          "$type": "AttachToAnimatorStateIDMixin",
          "stateIDs": ["0to120", "120to240", "240to0"],
          "modifierName": "Turning"
        },
        {
          "$type": "AttachModifierToSelfGlobalValueNoInitMixin",
          "globalValueKey": "IsLightOn",
          "valueSteps": [-0.5, 0.5, 1.5, 2.5],
          "modifierNameSteps": ["LightOff", "LightChange", "LightOn"]
        },
        {
          "$type": "AttachModifierToSelfGlobalValueNoInitMixin",
          "globalValueKey": "IsInteeOn",
          "valueSteps": [-0.5, 0.5, 1.5],
          "modifierNameSteps": ["InteeOff", "InteeOn"]
        },
        {
          "$type": "WidgetMpSupportMixin",
          "MJEDPGMFEMG": [
            {
              "$type": "Predicated",
              "targetPredicates": [
                {
                  "$type": "MCODPFDFBAF",
                  "target": "Self",
                  "gadgetState": 201
                }
              ],
              "successActions": [
                {
                  "$type": "ChangeGadgetState",
                  "MNIDCPKMMNN": 202
                }
              ],
              "failActions": [
                {
                  "$type": "Predicated",
                  "targetPredicates": [
                    {
                      "$type": "MCODPFDFBAF",
                      "target": "Self",
                      "gadgetState": 202
                    }
                  ],
                  "successActions": [
                    {
                      "$type": "ChangeGadgetState",
                      "MNIDCPKMMNN": 203
                    }
                  ],
                  "failActions": [
                    {
                      "$type": "ChangeGadgetState",
                      "MNIDCPKMMNN": 201
                    }
                  ]
                }
              ]
            }
          ]
        }
      ],
      "modifiers": {
        "InteeOff": {
          "modifierName": "",
          "bonusCriticalHurt": 100.0,
          "onAdded": [
            {
              "$type": "EnableGadgetInteeMp"
            }
          ]
        },
        "InteeOn": {
          "modifierName": "",
          "bonusCriticalHurt": 100.0,
          "onAdded": [
            {
              "$type": "EnableGadgetInteeMp",
              "enable": true
            }
          ]
        },
        "LightOff": {
          "modifierName": "",
          "bonusCriticalHurt": 100.0,
          "onAdded": [
            {
              "$type": "SetMaterialParamFloatByTransform",
              "canBeHandledOnRecover": true,
              "matName": "Light",
              "patternName": "_EmissionStrength",
              "ratio": 0.0
            }
          ]
        },
        "LightChange": {
          "modifierName": "",
          "duration": 1.0,
          "bonusCriticalHurt": 100.0,
          "onAdded": [
            {
              "$type": "SetMaterialParamFloatByTransform",
              "canBeHandledOnRecover": true,
              "matName": "Light",
              "patternName": "_EmissionStrength",
              "ratio": 3.0,
              "HLDHDOKLCHI": true,
              "NKFPDCCIPCN": 1,
              "FBGLLFJHKJJ": 1.0
            },
            {
              "$type": "SetGlobalValue",
              "ratio": 0.0,
              "key": "IsInteeOn",
              "maxValue": 0.0,
              "minValue": 0.0
            }
          ],
          "onRemoved": [
            {
              "$type": "SetGlobalValue",
              "ratio": 1.0,
              "key": "IsInteeOn",
              "maxValue": 0.0,
              "minValue": 0.0
            }
          ]
        },
        "LightOn": {
          "modifierName": "",
          "bonusCriticalHurt": 100.0,
          "onAdded": [
            {
              "$type": "SetMaterialParamFloatByTransform",
              "canBeHandledOnRecover": true,
              "matName": "Light",
              "patternName": "_EmissionStrength",
              "ratio": 3.0
            }
          ]
        },
        "DeactiveState": {
          "modifierName": "",
          "bonusCriticalHurt": 100.0,
          "onAdded": [
            {
              "$type": "SetGlobalValue",
              "ratio": 0.0,
              "key": "IsLightOn",
              "maxValue": 0.0,
              "minValue": 0.0
            },
            {
              "$type": "SetGlobalValue",
              "ratio": 0.0,
              "key": "IsInteeOn",
              "maxValue": 0.0,
              "minValue": 0.0
            }
          ]
        },
        "ActiveState": {
          "modifierName": "",
          "bonusCriticalHurt": 100.0,
          "onAdded": [
            {
              "$type": "Predicated",
              "predicates": [
                {
                  "$type": "ByAny",
                  "predicates": [
                    {
                      "$type": "MCODPFDFBAF",
                      "target": "Self",
                      "gadgetState": 201
                    },
                    {
                      "$type": "MCODPFDFBAF",
                      "target": "Self",
                      "gadgetState": 202
                    },
                    {
                      "$type": "MCODPFDFBAF",
                      "target": "Self",
                      "gadgetState": 203
                    }
                  ]
                }
              ],
              "targetPredicates": [
                {
                  "$type": "ByTargetGlobalValue",
                  "key": "IsLightOn",
                  "ratio": 0.0
                }
              ],
              "successActions": [
                {
                  "$type": "SetGlobalValue",
                  "ratio": 1.0,
                  "key": "IsLightOn",
                  "maxValue": 0.0,
                  "minValue": 0.0
                }
              ],
              "failActions": [
                {
                  "$type": "SetGlobalValue",
                  "ratio": 2.0,
                  "key": "IsLightOn",
                  "maxValue": 0.0,
                  "minValue": 0.0
                },
                {
                  "$type": "SetGlobalValue",
                  "ratio": 1.0,
                  "key": "IsInteeOn",
                  "maxValue": 0.0,
                  "minValue": 0.0
                }
              ]
            }
          ]
        },
        "Turning": {
          "modifierName": "",
          "bonusCriticalHurt": 100.0,
          "onAdded": [
            {
              "$type": "SetGlobalValue",
              "ratio": 0.0,
              "key": "IsInteeOn",
              "maxValue": 0.0,
              "minValue": 0.0
            }
          ],
          "onRemoved": [
            {
              "$type": "SetGlobalValue",
              "ratio": 1.0,
              "key": "IsInteeOn",
              "maxValue": 0.0,
              "minValue": 0.0
            },
            {
              "$type": "ServerLuaTriggerEvent",
              "luaCallType": "FromGroup",
              "LCMLAHJEBKC": "VarunaValve",
              "MPPMFEDKGHC": 0.0,
              "BOKNHLDBKKK": 0.0,
              "CHOIIMHDNHK": 0.0
            }
          ]
        }
      },
      "onAdded": [
        {
          "$type": "Predicated",
          "targetPredicates": [
            {
              "$type": "ByAny",
              "predicates": [
                {
                  "$type": "MCODPFDFBAF",
                  "target": "Self",
                  "gadgetState": 201
                },
                {
                  "$type": "MCODPFDFBAF",
                  "target": "Self",
                  "gadgetState": 202
                },
                {
                  "$type": "MCODPFDFBAF",
                  "target": "Self",
                  "gadgetState": 203
                }
              ]
            }
          ],
          "successActions": [
            {
              "$type": "SetGlobalValue",
              "ratio": 2.0,
              "key": "IsLightOn",
              "maxValue": 0.0,
              "minValue": 0.0
            },
            {
              "$type": "SetGlobalValue",
              "ratio": 1.0,
              "key": "IsInteeOn",
              "maxValue": 0.0,
              "minValue": 0.0
            }
          ]
        }
      ]
    }
  },
  {
    "Default": {
      "$type": "ConfigAbility",
      "abilityName": "SceneObj_Area_Xm_Property_Ani_Prop_VarunaValve_01_Dream",
      "abilityMixins": [
        {
          "$type": "WidgetMpSupportMixin",
          "MJEDPGMFEMG": [
            {
              "$type": "Predicated",
              "targetPredicates": [
                {
                  "$type": "MCODPFDFBAF",
                  "target": "Self",
                  "gadgetState": 201
                }
              ],
              "successActions": [
                {
                  "$type": "ChangeGadgetState",
                  "MNIDCPKMMNN": 202
                }
              ],
              "failActions": [
                {
                  "$type": "Predicated",
                  "targetPredicates": [
                    {
                      "$type": "MCODPFDFBAF",
                      "target": "Self",
                      "gadgetState": 202
                    }
                  ],
                  "successActions": [
                    {
                      "$type": "ChangeGadgetState",
                      "MNIDCPKMMNN": 203
                    }
                  ],
                  "failActions": [
                    {
                      "$type": "ChangeGadgetState",
                      "MNIDCPKMMNN": 201
                    }
                  ]
                }
              ]
            }
          ]
        },
        {
          "$type": "AttachModifierToSelfGlobalValueNoInitMixin",
          "globalValueKey": "_IsDream",
          "valueSteps": [-0.5, 0.5, 1.5],
          "modifierNameSteps": ["HideController", "VarunaValveController"]
        },
        {
          "$type": "AttachModifierToSelfGlobalValueMixin",
          "globalValueKey": "IsInteeOn",
          "defaultGlobalValueOnCreate": 0.0,
          "valueSteps": [-0.5, 0.5, 1.5],
          "modifierNameSteps": ["InteeOff", "InteeOn"]
        },
        {
          "$type": "OnLevelTagChangeMixin",
          "actions": [
            {
              "$type": "ApplyModifier",
              "modifierName": "CheckIsDream"
            }
          ]
        }
      ],
      "modifiers": {
        "CheckIsDream": {
          "modifierName": "",
          "bonusCriticalHurt": 100.0,
          "onAdded": [
            {
              "$type": "Predicated",
              "targetPredicates": [
                {
                  "$type": "JDNGEHHHKCH",
                  "NCDAKGLGBKF": "",
                  "IHOOLNCOFHK": 55
                }
              ],
              "successActions": [
                {
                  "$type": "SetGlobalValue",
                  "ratio": 1.0,
                  "key": "_IsDream",
                  "maxValue": 0.0,
                  "minValue": 0.0
                }
              ],
              "failActions": [
                {
                  "$type": "SetGlobalValue",
                  "ratio": 0.0,
                  "key": "_IsDream",
                  "maxValue": 0.0,
                  "minValue": 0.0
                }
              ]
            }
          ],
          "LGJBJJBCBEH": [
            {
              "$type": "Predicated",
              "targetPredicates": [
                {
                  "$type": "JDNGEHHHKCH",
                  "NCDAKGLGBKF": "",
                  "IHOOLNCOFHK": 55
                }
              ],
              "successActions": [
                {
                  "$type": "SetGlobalValue",
                  "ratio": 1.0,
                  "key": "_IsDream",
                  "maxValue": 0.0,
                  "minValue": 0.0
                }
              ],
              "failActions": [
                {
                  "$type": "SetGlobalValue",
                  "ratio": 0.0,
                  "key": "_IsDream",
                  "maxValue": 0.0,
                  "minValue": 0.0
                }
              ]
            }
          ]
        },
        "VarunaValveController": {
          "modifierName": "",
          "bonusCriticalHurt": 100.0,
          "modifierMixins": [
            {
              "$type": "AttachToGadgetStateMutexMixin",
              "gadgetStates": [0, 201, 202, 203, 901, 902, 903],
              "modifierNames": [
                ["DeactiveState"],
                ["ActiveState"],
                ["ActiveState"],
                ["ActiveState"],
                ["DeactiveState"],
                ["DeactiveState"],
                ["DeactiveState"]
              ]
            },
            {
              "$type": "AttachToAnimatorStateIDMixin",
              "stateIDs": ["0to120", "120to240", "240to0"],
              "modifierName": "Turning"
            },
            {
              "$type": "AttachModifierToSelfGlobalValueNoInitMixin",
              "globalValueKey": "IsLightOn",
              "valueSteps": [-0.5, 0.5, 1.5, 2.5],
              "modifierNameSteps": ["LightOff", "LightChange", "LightOn"]
            }
          ],
          "onAdded": [
            {
              "$type": "EnableSceneTransformByName",
              "transformNames": ["Object01"],
              "setEnable": true
            },
            {
              "$type": "EnableSceneTransformByName",
              "transformNames": ["Object02"],
              "setEnable": true
            },
            {
              "$type": "AttachEffect",
              "healLimitedByCasterMaxHPRatio": "Eff_ScenObj_VarunaValve_Light",
              "effectTempleteID": -1.0
            }
          ]
        },
        "HideController": {
          "modifierName": "",
          "bonusCriticalHurt": 100.0,
          "onAdded": [
            {
              "$type": "EnableSceneTransformByName",
              "transformNames": ["Object01"]
            },
            {
              "$type": "EnableSceneTransformByName",
              "transformNames": ["Object02"]
            },
            {
              "$type": "SetGlobalValue",
              "ratio": 0.0,
              "key": "IsInteeOn",
              "maxValue": 0.0,
              "minValue": 0.0
            }
          ]
        },
        "InteeOff": {
          "modifierName": "",
          "bonusCriticalHurt": 100.0,
          "onAdded": [
            {
              "$type": "EnableGadgetInteeMp"
            }
          ]
        },
        "InteeOn": {
          "modifierName": "",
          "bonusCriticalHurt": 100.0,
          "onAdded": [
            {
              "$type": "EnableGadgetInteeMp",
              "enable": true
            }
          ]
        },
        "LightOff": {
          "modifierName": "",
          "bonusCriticalHurt": 100.0,
          "onAdded": [
            {
              "$type": "SetMaterialParamFloatByTransform",
              "canBeHandledOnRecover": true,
              "matName": "Light",
              "patternName": "_EmissionStrength",
              "ratio": 0.0
            }
          ]
        },
        "LightChange": {
          "modifierName": "",
          "duration": 1.0,
          "bonusCriticalHurt": 100.0,
          "onAdded": [
            {
              "$type": "SetMaterialParamFloatByTransform",
              "canBeHandledOnRecover": true,
              "matName": "Light",
              "patternName": "_EmissionStrength",
              "ratio": 3.0,
              "HLDHDOKLCHI": true,
              "NKFPDCCIPCN": 1,
              "FBGLLFJHKJJ": 1.0
            },
            {
              "$type": "SetGlobalValue",
              "ratio": 0.0,
              "key": "IsInteeOn",
              "maxValue": 0.0,
              "minValue": 0.0
            }
          ],
          "onRemoved": [
            {
              "$type": "SetGlobalValue",
              "ratio": 1.0,
              "key": "IsInteeOn",
              "maxValue": 0.0,
              "minValue": 0.0
            }
          ]
        },
        "LightOn": {
          "modifierName": "",
          "bonusCriticalHurt": 100.0,
          "onAdded": [
            {
              "$type": "SetMaterialParamFloatByTransform",
              "canBeHandledOnRecover": true,
              "matName": "Light",
              "patternName": "_EmissionStrength",
              "ratio": 3.0
            }
          ]
        },
        "DeactiveState": {
          "modifierName": "",
          "bonusCriticalHurt": 100.0,
          "onAdded": [
            {
              "$type": "SetGlobalValue",
              "ratio": 0.0,
              "key": "IsLightOn",
              "maxValue": 0.0,
              "minValue": 0.0
            },
            {
              "$type": "SetGlobalValue",
              "ratio": 0.0,
              "key": "IsInteeOn",
              "maxValue": 0.0,
              "minValue": 0.0
            }
          ]
        },
        "ActiveState": {
          "modifierName": "",
          "bonusCriticalHurt": 100.0,
          "onAdded": [
            {
              "$type": "Predicated",
              "predicates": [
                {
                  "$type": "ByAny",
                  "predicates": [
                    {
                      "$type": "MCODPFDFBAF",
                      "target": "Self",
                      "gadgetState": 201
                    },
                    {
                      "$type": "MCODPFDFBAF",
                      "target": "Self",
                      "gadgetState": 202
                    },
                    {
                      "$type": "MCODPFDFBAF",
                      "target": "Self",
                      "gadgetState": 203
                    }
                  ]
                }
              ],
              "targetPredicates": [
                {
                  "$type": "ByTargetGlobalValue",
                  "key": "IsLightOn",
                  "ratio": 0.0
                }
              ],
              "successActions": [
                {
                  "$type": "SetGlobalValue",
                  "ratio": 1.0,
                  "key": "IsLightOn",
                  "maxValue": 0.0,
                  "minValue": 0.0
                }
              ],
              "failActions": [
                {
                  "$type": "SetGlobalValue",
                  "ratio": 2.0,
                  "key": "IsLightOn",
                  "maxValue": 0.0,
                  "minValue": 0.0
                },
                {
                  "$type": "SetGlobalValue",
                  "ratio": 1.0,
                  "key": "IsInteeOn",
                  "maxValue": 0.0,
                  "minValue": 0.0
                }
              ]
            }
          ]
        },
        "Turning": {
          "modifierName": "",
          "bonusCriticalHurt": 100.0,
          "onAdded": [
            {
              "$type": "SetGlobalValue",
              "ratio": 0.0,
              "key": "IsInteeOn",
              "maxValue": 0.0,
              "minValue": 0.0
            }
          ],
          "onRemoved": [
            {
              "$type": "SetGlobalValue",
              "ratio": 1.0,
              "key": "IsInteeOn",
              "maxValue": 0.0,
              "minValue": 0.0
            },
            {
              "$type": "ServerLuaTriggerEvent",
              "luaCallType": "FromGroup",
              "LCMLAHJEBKC": "VarunaValve",
              "MPPMFEDKGHC": 0.0,
              "BOKNHLDBKKK": 0.0,
              "CHOIIMHDNHK": 0.0
            }
          ]
        }
      },
      "onAdded": [
        {
          "$type": "Predicated",
          "targetPredicates": [
            {
              "$type": "ByAny",
              "predicates": [
                {
                  "$type": "MCODPFDFBAF",
                  "target": "Self",
                  "gadgetState": 201
                },
                {
                  "$type": "MCODPFDFBAF",
                  "target": "Self",
                  "gadgetState": 202
                },
                {
                  "$type": "MCODPFDFBAF",
                  "target": "Self",
                  "gadgetState": 203
                }
              ]
            }
          ],
          "successActions": [
            {
              "$type": "SetGlobalValue",
              "ratio": 2.0,
              "key": "IsLightOn",
              "maxValue": 0.0,
              "minValue": 0.0
            },
            {
              "$type": "SetGlobalValue",
              "ratio": 1.0,
              "key": "IsInteeOn",
              "maxValue": 0.0,
              "minValue": 0.0
            }
          ]
        },
        {
          "$type": "ApplyModifier",
          "modifierName": "CheckIsDream"
        }
      ]
    }
  },
  {
    "Default": {
      "$type": "ConfigAbility",
      "abilityName": "SceneObj_Area_Xm_Property_Ani_Prop_VarunaStone_01_Ability",
      "abilityMixins": [
        {
          "$type": "AttachToGadgetStateMutexMixin",
          "gadgetStates": [0, 201, 901],
          "modifierNames": [["DeactiveState"], ["ActiveState"], ["IdleState"]]
        },
        {
          "$type": "AttachModifierToSelfGlobalValueNoInitMixin",
          "globalValueKey": "SGV_VarunaStone01",
          "valueSteps": [-2.0, -0.5, 0.5, 1.5],
          "modifierNameSteps": ["Empty", "Lock01", "UnLock01"]
        },
        {
          "$type": "AttachModifierToSelfGlobalValueNoInitMixin",
          "globalValueKey": "SGV_VarunaStone02",
          "valueSteps": [-2.0, -0.5, 0.5, 1.5],
          "modifierNameSteps": ["Empty", "Lock02", "UnLock02"]
        },
        {
          "$type": "AttachModifierToSelfGlobalValueNoInitMixin",
          "globalValueKey": "SGV_VarunaStone03",
          "valueSteps": [-2.0, -0.5, 0.5, 1.5],
          "modifierNameSteps": ["Empty", "Lock03", "UnLock03"]
        }
      ],
      "modifiers": {
        "Empty": {
          "modifierName": "",
          "bonusCriticalHurt": 100.0
        },
        "Lock01": {
          "modifierName": "",
          "bonusCriticalHurt": 100.0,
          "onAdded": [
            {
              "$type": "AttachEffect",
              "healLimitedByCasterMaxHPRatio": "Eff_ScenObj_VarunaStone_SmallFlare_Default",
              "born": {
                "$type": "ConfigBornByAttachPoint",
                "attachPointName": "Point1"
              },
              "effectTempleteID": -1.0
            }
          ]
        },
        "Lock02": {
          "modifierName": "",
          "bonusCriticalHurt": 100.0,
          "onAdded": [
            {
              "$type": "AttachEffect",
              "healLimitedByCasterMaxHPRatio": "Eff_ScenObj_VarunaStone_SmallFlare_Default",
              "born": {
                "$type": "ConfigBornByAttachPoint",
                "attachPointName": "Point2"
              },
              "effectTempleteID": -1.0
            }
          ]
        },
        "Lock03": {
          "modifierName": "",
          "bonusCriticalHurt": 100.0,
          "onAdded": [
            {
              "$type": "AttachEffect",
              "healLimitedByCasterMaxHPRatio": "Eff_ScenObj_VarunaStone_SmallFlare_Default",
              "born": {
                "$type": "ConfigBornByAttachPoint",
                "attachPointName": "Point3"
              },
              "effectTempleteID": -1.0
            }
          ]
        },
        "UnLock01": {
          "modifierName": "",
          "bonusCriticalHurt": 100.0,
          "onAdded": [
            {
              "$type": "AttachEffect",
              "healLimitedByCasterMaxHPRatio": "Eff_ScenObj_VarunaStone_SmallFlare_Active",
              "born": {
                "$type": "ConfigBornByAttachPoint",
                "attachPointName": "Point1"
              },
              "effectTempleteID": -1.0
            }
          ]
        },
        "UnLock02": {
          "modifierName": "",
          "bonusCriticalHurt": 100.0,
          "onAdded": [
            {
              "$type": "AttachEffect",
              "healLimitedByCasterMaxHPRatio": "Eff_ScenObj_VarunaStone_SmallFlare_Active",
              "born": {
                "$type": "ConfigBornByAttachPoint",
                "attachPointName": "Point2"
              },
              "effectTempleteID": -1.0
            }
          ]
        },
        "UnLock03": {
          "modifierName": "",
          "bonusCriticalHurt": 100.0,
          "onAdded": [
            {
              "$type": "AttachEffect",
              "healLimitedByCasterMaxHPRatio": "Eff_ScenObj_VarunaStone_SmallFlare_Active",
              "born": {
                "$type": "ConfigBornByAttachPoint",
                "attachPointName": "Point3"
              },
              "effectTempleteID": -1.0
            }
          ]
        },
        "DeactiveState": {
          "modifierName": "",
          "bonusCriticalHurt": 100.0,
          "onAdded": [
            {
              "$type": "SetMaterialParamFloatByTransform",
              "canBeHandledOnRecover": true,
              "matName": "Light",
              "patternName": "_EmissionStrength",
              "ratio": 0.0
            }
          ]
        },
        "IdleState": {
          "modifierName": "",
          "bonusCriticalHurt": 100.0,
          "thinkInterval": 4.0,
          "onAdded": [
            {
              "$type": "AttachModifier",
              "modifierName": "BreathLight01_Idle"
            }
          ],
          "onThinkInterval": [
            {
              "$type": "AttachModifier",
              "modifierName": "BreathLight01_Idle"
            }
          ]
        },
        "ActiveState": {
          "modifierName": "",
          "bonusCriticalHurt": 100.0,
          "thinkInterval": 6.0,
          "onAdded": [
            {
              "$type": "AttachModifier",
              "modifierName": "BreathLight01_Active"
            },
            {
              "$type": "AttachEffect",
              "healLimitedByCasterMaxHPRatio": "Eff_ScenObj_VarunaStone_BigFlare_Active",
              "effectTempleteID": -1.0
            }
          ],
          "onThinkInterval": [
            {
              "$type": "AttachModifier",
              "modifierName": "BreathLight01_Active"
            }
          ]
        },
        "BreathLight01_Idle": {
          "modifierName": "",
          "duration": 2.0999999046325684,
          "bonusCriticalHurt": 100.0,
          "thinkInterval": 2.0,
          "onAdded": [
            {
              "$type": "SetMaterialParamFloatByTransform",
              "matName": "Light",
              "patternName": "_EmissionStrength",
              "ratio": 0.0
            },
            {
              "$type": "SetMaterialParamFloatByTransform",
              "canBeHandledOnRecover": true,
              "matName": "Light",
              "patternName": "_EmissionStrength",
              "ratio": 4.0,
              "HLDHDOKLCHI": true,
              "FBGLLFJHKJJ": 2.0
            }
          ],
          "onThinkInterval": [
            {
              "$type": "AttachModifier",
              "modifierName": "BreathLight02_Idle"
            }
          ]
        },
        "BreathLight02_Idle": {
          "modifierName": "",
          "duration": 0.20000000298023224,
          "bonusCriticalHurt": 100.0,
          "onAdded": [
            {
              "$type": "SetMaterialParamFloatByTransform",
              "matName": "Light",
              "patternName": "_EmissionStrength",
              "ratio": 4.0
            },
            {
              "$type": "SetMaterialParamFloatByTransform",
              "canBeHandledOnRecover": true,
              "matName": "Light",
              "patternName": "_EmissionStrength",
              "ratio": 0.0,
              "HLDHDOKLCHI": true,
              "FBGLLFJHKJJ": 2.0
            }
          ]
        },
        "BreathLight01_Active": {
          "modifierName": "",
          "duration": 3.0999999046325684,
          "bonusCriticalHurt": 100.0,
          "thinkInterval": 3.0,
          "onAdded": [
            {
              "$type": "SetMaterialParamFloatByTransform",
              "matName": "Light",
              "patternName": "_EmissionStrength",
              "ratio": 0.0
            },
            {
              "$type": "SetMaterialParamFloatByTransform",
              "canBeHandledOnRecover": true,
              "matName": "Light",
              "patternName": "_EmissionStrength",
              "ratio": 8.0,
              "HLDHDOKLCHI": true,
              "FBGLLFJHKJJ": 3.0
            }
          ],
          "onThinkInterval": [
            {
              "$type": "AttachModifier",
              "modifierName": "BreathLight02_Active"
            }
          ]
        },
        "BreathLight02_Active": {
          "modifierName": "",
          "duration": 0.20000000298023224,
          "bonusCriticalHurt": 100.0,
          "onAdded": [
            {
              "$type": "SetMaterialParamFloatByTransform",
              "matName": "Light",
              "patternName": "_EmissionStrength",
              "ratio": 8.0
            },
            {
              "$type": "SetMaterialParamFloatByTransform",
              "canBeHandledOnRecover": true,
              "matName": "Light",
              "patternName": "_EmissionStrength",
              "ratio": 0.0,
              "HLDHDOKLCHI": true,
              "FBGLLFJHKJJ": 3.0
            }
          ]
        }
      },
      "onAdded": [
        {
          "$type": "ServerLuaTriggerEvent",
          "luaCallType": "FromGroup",
          "LCMLAHJEBKC": "VarunaValve",
          "MPPMFEDKGHC": 0.0,
          "BOKNHLDBKKK": 0.0,
          "CHOIIMHDNHK": 0.0
        }
      ]
    }
  },
  {
    "Default": {
      "$type": "ConfigAbility",
      "abilityName": "SceneObj_Area_Xm_Property_Prop_VarunaDevice_01_Ability",
      "abilityMixins": [
        {
          "$type": "AttachToGadgetStateMutexMixin",
          "gadgetStates": [0, 201, 202, 203],
          "modifierNames": [
            ["DeactiveState"],
            ["SunnyState"],
            ["RainyState"],
            ["SwitchState"]
          ]
        }
      ],
      "modifiers": {
        "DeactiveState": {
          "modifierName": "",
          "bonusCriticalHurt": 100.0,
          "modifierMixins": [
            {
              "$type": "TriggerWidgetMusicGameMixin",
              "AJPHMFKDLAE": 8,
              "range": 10.0,
              "onSuccess": [
                {
                  "$type": "ApplyModifier",
                  "modifierName": "TriggerDevice"
                }
              ]
            }
          ],
          "onAdded": [
            {
              "$type": "AttachEffect",
              "healLimitedByCasterMaxHPRatio": "Eff_ScenObj_VarunaDevice_Switch",
              "effectTempleteID": -1.0
            },
            {
              "$type": "AttachEffect",
              "healLimitedByCasterMaxHPRatio": "Eff_ScenObj_AraraPlayMusicNote_Idle",
              "effectTempleteID": -1.0
            }
          ]
        },
        "TriggerDevice": {
          "modifierName": "",
          "duration": 0.5,
          "bonusCriticalHurt": 100.0,
          "onAdded": [
            {
              "$type": "ServerLuaTriggerEvent",
              "luaCallType": "FromGroup",
              "LCMLAHJEBKC": "VarunaDevice",
              "MPPMFEDKGHC": 0.0,
              "BOKNHLDBKKK": 0.0,
              "CHOIIMHDNHK": 0.0
            }
          ]
        },
        "SunnyState": {
          "modifierName": "",
          "bonusCriticalHurt": 100.0,
          "onAdded": [
            {
              "$type": "AttachEffect",
              "healLimitedByCasterMaxHPRatio": "Eff_ScenObj_VarunaDevice_Sunny",
              "effectTempleteID": -1.0
            }
          ]
        },
        "RainyState": {
          "modifierName": "",
          "bonusCriticalHurt": 100.0,
          "onAdded": [
            {
              "$type": "AttachEffect",
              "healLimitedByCasterMaxHPRatio": "Eff_ScenObj_VarunaDevice_Rainy",
              "effectTempleteID": -1.0
            }
          ]
        },
        "SwitchState": {
          "modifierName": "",
          "bonusCriticalHurt": 100.0,
          "onAdded": [
            {
              "$type": "AttachEffect",
              "healLimitedByCasterMaxHPRatio": "Eff_ScenObj_VarunaDevice_Switch",
              "effectTempleteID": -1.0
            }
          ]
        }
      }
    }
  },
  {
    "Default": {
      "$type": "ConfigAbility",
      "abilityName": "SceneObj_Area_Xm_Property_Prop_VarunaDevice_02_Ability",
      "abilityMixins": [
        {
          "$type": "AttachToGadgetStateMutexMixin",
          "gadgetStates": [0, 201, 202, 203],
          "modifierNames": [
            ["DeactiveState"],
            ["SunnyState"],
            ["RainyState"],
            ["SwitchState"]
          ]
        }
      ],
      "modifiers": {
        "DeactiveState": {
          "modifierName": "",
          "bonusCriticalHurt": 100.0,
          "modifierMixins": [
            {
              "$type": "TriggerWidgetMusicGameMixin",
              "AJPHMFKDLAE": 8,
              "range": 10.0,
              "onSuccess": [
                {
                  "$type": "ApplyModifier",
                  "modifierName": "TriggerDevice"
                }
              ]
            }
          ],
          "onAdded": [
            {
              "$type": "AttachEffect",
              "healLimitedByCasterMaxHPRatio": "Eff_ScenObj_VarunaDevice_Switch",
              "born": {
                "$type": "ConfigBornByAttachPoint",
                "attachPointName": "EffPoint"
              },
              "effectTempleteID": -1.0
            },
            {
              "$type": "AttachEffect",
              "healLimitedByCasterMaxHPRatio": "Eff_ScenObj_AraraPlayMusicNote_Idle",
              "effectTempleteID": -1.0
            }
          ]
        },
        "TriggerDevice": {
          "modifierName": "",
          "duration": 0.5,
          "bonusCriticalHurt": 100.0,
          "onAdded": [
            {
              "$type": "ServerLuaTriggerEvent",
              "luaCallType": "FromGroup",
              "LCMLAHJEBKC": "VarunaDevice",
              "MPPMFEDKGHC": 0.0,
              "BOKNHLDBKKK": 0.0,
              "CHOIIMHDNHK": 0.0
            }
          ]
        },
        "SunnyState": {
          "modifierName": "",
          "bonusCriticalHurt": 100.0,
          "onAdded": [
            {
              "$type": "AttachEffect",
              "healLimitedByCasterMaxHPRatio": "Eff_ScenObj_VarunaDevice_Sunny",
              "born": {
                "$type": "ConfigBornByAttachPoint",
                "attachPointName": "EffPoint"
              },
              "effectTempleteID": -1.0
            }
          ]
        },
        "RainyState": {
          "modifierName": "",
          "bonusCriticalHurt": 100.0,
          "onAdded": [
            {
              "$type": "AttachEffect",
              "healLimitedByCasterMaxHPRatio": "Eff_ScenObj_VarunaDevice_Rainy",
              "born": {
                "$type": "ConfigBornByAttachPoint",
                "attachPointName": "EffPoint"
              },
              "effectTempleteID": -1.0
            }
          ]
        },
        "SwitchState": {
          "modifierName": "",
          "bonusCriticalHurt": 100.0,
          "onAdded": [
            {
              "$type": "AttachEffect",
              "healLimitedByCasterMaxHPRatio": "Eff_ScenObj_VarunaDevice_Switch",
              "born": {
                "$type": "ConfigBornByAttachPoint",
                "attachPointName": "EffPoint"
              },
              "effectTempleteID": -1.0
            }
          ]
        }
      }
    }
  },
  {
    "Default": {
      "$type": "ConfigAbility",
      "abilityName": "SceneObj_Area_Xm_Property_Ani_Prop_VarunaWaterspout_01_Ability",
      "abilityMixins": [
        {
          "$type": "AttachToGadgetStateMixin",
          "modifierName": "ClearState"
        },
        {
          "$type": "AttachToGadgetStateMixin",
          "gadgetState": 201,
          "modifierName": "RainState"
        },
        {
          "$type": "AttachToGadgetStateMixin",
          "gadgetState": 901,
          "modifierName": "RiseState"
        },
        {
          "$type": "AttachToGadgetStateMixin",
          "gadgetState": 902,
          "modifierName": "DownState"
        },
        {
          "$type": "AttachToGadgetStateMixin",
          "gadgetState": 903,
          "modifierName": "WaitState"
        }
      ],
      "modifiers": {
        "WaitState": {
          "modifierName": "",
          "duration": 0.5,
          "bonusCriticalHurt": 100.0,
          "onRemoved": [
            {
              "$type": "ChangeGadgetState",
              "MNIDCPKMMNN": 201
            }
          ]
        },
        "ClearState": {
          "modifierName": "",
          "bonusCriticalHurt": 100.0,
          "onAdded": [
            {
              "$type": "DebugLog",
              "content": "## [VarunaWaterspout] enter ClearState"
            },
            {
              "$type": "SendEffectTrigger",
              "parameter": "GadgetState",
              "EBBHBMFMOGD": "",
              "type": "Int",
              "healLimitedByCasterMaxHPRatio": "Eff_SceneObj_POI_Xm_HYZS_WaterColumn_01",
              "isPlatformDependent": true
            }
          ]
        },
        "RainState": {
          "modifierName": "",
          "bonusCriticalHurt": 100.0,
          "onAdded": [
            {
              "$type": "SendEffectTrigger",
              "parameter": "GadgetState",
              "EBBHBMFMOGD": "",
              "type": "Int",
              "value": 201,
              "healLimitedByCasterMaxHPRatio": "Eff_SceneObj_POI_Xm_HYZS_WaterColumn_01",
              "isPlatformDependent": true
            },
            {
              "$type": "DebugLog",
              "content": "## [VarunaWaterspout] enter RainState"
            }
          ]
        },
        "RiseState": {
          "modifierName": "",
          "bonusCriticalHurt": 100.0,
          "onAdded": [
            {
              "$type": "SendEffectTrigger",
              "parameter": "GadgetState",
              "EBBHBMFMOGD": "",
              "type": "Int",
              "value": 901,
              "healLimitedByCasterMaxHPRatio": "Eff_SceneObj_POI_Xm_HYZS_WaterColumn_01",
              "isPlatformDependent": true
            },
            {
              "$type": "DebugLog",
              "content": "## [VarunaWaterspout] waterspout is rising"
            }
          ]
        },
        "DownState": {
          "modifierName": "",
          "bonusCriticalHurt": 100.0,
          "onAdded": [
            {
              "$type": "SendEffectTrigger",
              "parameter": "GadgetState",
              "EBBHBMFMOGD": "",
              "type": "Int",
              "value": 902,
              "healLimitedByCasterMaxHPRatio": "Eff_SceneObj_POI_Xm_HYZS_WaterColumn_01",
              "isPlatformDependent": true
            },
            {
              "$type": "DebugLog",
              "content": "## [VarunaWaterspout] waterspout is going down"
            }
          ]
        },
        "UNIQUE_AttachWaterEffect": {
          "stacking": "Unique",
          "modifierName": "",
          "isUnique": true,
          "bonusCriticalHurt": 100.0,
          "onAdded": [
            {
              "$type": "AttachEffect",
              "healLimitedByCasterMaxHPRatio": "Eff_SceneObj_POI_Xm_HYZS_WaterColumn_01",
              "effectTempleteID": -1.0,
              "isPlatformDependent": true
            }
          ]
        }
      },
      "onAdded": [
        {
          "$type": "ApplyModifier",
          "modifierName": "UNIQUE_AttachWaterEffect"
        }
      ]
    }
  },
  {
    "Default": {
      "$type": "ConfigAbility",
      "abilityName": "SceneObj_Area_Xm_Property_Ani_Prop_VarunaWaterspout_02_Ability",
      "abilityMixins": [
        {
          "$type": "AttachToGadgetStateMixin",
          "modifierName": "EmptyState"
        },
        {
          "$type": "AttachToGadgetStateMixin",
          "gadgetState": 201,
          "modifierName": "PhotoState"
        }
      ],
      "modifiers": {
        "EmptyState": {
          "modifierName": "",
          "bonusCriticalHurt": 100.0
        },
        "PhotoState": {
          "modifierName": "",
          "bonusCriticalHurt": 100.0
        }
      }
    }
  },
  {
    "Default": {
      "$type": "ConfigAbility",
      "abilityName": "SceneObj_Area_Xm_Property_Ani_Prop_VarunaCover_01_Ability",
      "abilityMixins": [
        {
          "$type": "AttachToGadgetStateMixin",
          "modifierName": "DefaultState"
        },
        {
          "$type": "AttachToGadgetStateMixin",
          "gadgetState": 201,
          "modifierName": "FinishState"
        }
      ],
      "modifiers": {
        "DefaultState": {
          "modifierName": "",
          "bonusCriticalHurt": 100.0,
          "onAdded": [
            {
              "$type": "AttachEffect",
              "healLimitedByCasterMaxHPRatio": "Eff_SceneObj_VarunaCover_01",
              "effectTempleteID": -1.0
            }
          ],
          "onRemoved": [
            {
              "$type": "FireEffect",
              "healLimitedByCasterMaxHPRatio": "Eff_SceneObj_VarunaCover_01_Disappear",
              "effectTempleteID": -1.0
            }
          ]
        },
        "FinishState": {
          "modifierName": "",
          "bonusCriticalHurt": 100.0
        }
      }
    }
  },
  {
    "Default": {
      "$type": "ConfigAbility",
      "abilityName": "SceneObj_Area_Xm_Property_Ani_Prop_SumeruBubble_01_Ability",
      "abilityMixins": [
        {
          "$type": "AttachToGadgetStateMixin",
          "modifierName": "BubbleState"
        },
        {
          "$type": "AttachToGadgetStateMixin",
          "gadgetState": 201,
          "modifierName": "EmptyState"
        },
        {
          "$type": "AttachToGadgetStateMixin",
          "gadgetState": 202,
          "modifierName": "FinishState"
        }
      ],
      "modifiers": {
        "EmptyState": {
          "modifierName": "",
          "bonusCriticalHurt": 100.0,
          "onAdded": [
            {
              "$type": "EnableSceneTransformByName",
              "transformNames": ["RootNode"]
            }
          ]
        },
        "BubbleState": {
          "modifierName": "",
          "bonusCriticalHurt": 100.0,
          "onAdded": [
            {
              "$type": "AttachEffect",
              "healLimitedByCasterMaxHPRatio": "Eff_ScenObj_SumeruBubble_BornIdle",
              "effectTempleteID": -1.0
            },
            {
              "$type": "EnableSceneTransformByName",
              "transformNames": ["RootNode"],
              "setEnable": true
            }
          ],
          "onBeingHit": [
            {
              "$type": "ChangeGadgetState",
              "MNIDCPKMMNN": 202
            },
            {
              "$type": "ApplyModifier",
              "modifierName": "BubbleExplode"
            }
          ]
        },
        "FinishState": {
          "modifierName": "",
          "bonusCriticalHurt": 100.0,
          "onAdded": [
            {
              "$type": "EnableSceneTransformByName",
              "transformNames": ["RootNode"]
            }
          ]
        },
        "BubbleExplode": {
          "modifierName": "",
          "duration": 1.0,
          "bonusCriticalHurt": 100.0,
          "onAdded": [
            {
              "$type": "FireEffect",
              "healLimitedByCasterMaxHPRatio": "Eff_ScenObj_SumeruBubble_Disappear",
              "effectTempleteID": -1.0
            },
            {
              "$type": "EnableSceneTransformByName",
              "transformNames": ["RootNode"]
            }
          ]
        }
      },
      "onFieldEnter": [
        {
          "$type": "Predicated",
          "predicates": [
            {
              "$type": "MCODPFDFBAF"
            }
          ],
          "successActions": [
            {
              "$type": "ChangeGadgetState",
              "MNIDCPKMMNN": 202
            },
            {
              "$type": "ApplyModifier",
              "modifierName": "BubbleExplode"
            }
          ]
        }
      ]
    }
  },
  {
    "Default": {
      "$type": "ConfigAbility",
      "abilityName": "SceneObj_Area_Xm_Property_Prop_RootPot_01_Ability",
      "abilityMixins": [
        {
          "$type": "AttachToGadgetStateMixin",
          "modifierName": "SinkState"
        },
        {
          "$type": "AttachToGadgetStateMixin",
          "gadgetState": 201,
          "modifierName": "NormalState"
        },
        {
          "$type": "AttachToAnimatorStateIDMixin",
          "stateIDs": ["Ani_Prop_RootPot_MoveDown", "Ani_Prop_RootPot_MoveUp"],
          "modifierName": "WaterPlatform_Move"
        },
        {
          "$type": "AttachToAnimatorStateIDMixin",
          "stateIDs": ["Ani_Prop_RootPot_Down", "Ani_Prop_RootPot_Up"],
          "modifierName": "WaterPlatform_Stop"
        }
      ],
      "modifiers": {
        "WaterPlatform_Move": {
          "modifierName": "",
          "bonusCriticalHurt": 100.0,
          "onAdded": [
            {
              "$type": "SendEffectTrigger",
              "parameter": "IsMoving",
              "EBBHBMFMOGD": "",
              "type": "Int",
              "healLimitedByCasterMaxHPRatio": "Eff_ScenObj_RootPotWater_01"
            }
          ]
        },
        "WaterPlatform_Stop": {
          "modifierName": "",
          "bonusCriticalHurt": 100.0,
          "onAdded": [
            {
              "$type": "SendEffectTrigger",
              "parameter": "IsMoving",
              "EBBHBMFMOGD": "",
              "type": "Int",
              "value": 1,
              "healLimitedByCasterMaxHPRatio": "Eff_ScenObj_RootPotWater_01"
            }
          ]
        },
        "SinkState": {
          "modifierName": "",
          "bonusCriticalHurt": 100.0
        },
        "NormalState": {
          "modifierName": "",
          "bonusCriticalHurt": 100.0
        }
      },
      "onAdded": [
        {
          "$type": "AttachEffect",
          "healLimitedByCasterMaxHPRatio": "Eff_ScenObj_RootPotWater_01",
          "born": {
            "$type": "ConfigBornByAttachPoint",
            "offset": {
              "x": 0.0,
              "y": 0.0,
              "z": 0.0
            },
            "attachPointName": "AttachPoint"
          },
          "effectTempleteID": -1.0
        }
      ]
    }
  }
]
