[
  {
    "Default": {
      "$type": "ConfigAbility",
      "abilityName": "SceneObj_Area_Xm_Property_Prop_WoodAranaraStage_Slot_01",
      "abilityMixins": [
        {
          "$type": "AttachModifierToGlobalValueMixin",
          "globalValueKey": "GV_Slot_Effect_Show",
          "valueSteps": [-0.5, 0.5, 1.5],
          "modifierNameSteps": ["HideEffect", "ShowEffect"]
        }
      ],
      "modifiers": {
        "UNIQUE_Slot_Effect": {
          "stacking": "Unique",
          "modifierName": "",
          "isUnique": true,
          "bonusCriticalHurt": 100.0,
          "onAdded": [
            {
              "$type": "AttachEffect",
              "healLimitedByCasterMaxHPRatio": "Eff_SceneObj_WoodAranaraStage_01",
              "born": {
                "$type": "ConfigBornByAttachPoint",
                "offset": {
                  "x": 0.0,
                  "y": 0.0,
                  "z": 0.0
                },
                "attachPointName": "AttachPoint"
              },
              "effectTempleteID": -1.0
            }
          ]
        },
        "HideEffect": {
          "modifierName": "",
          "bonusCriticalHurt": 100.0,
          "onAdded": [
            {
              "$type": "RemoveModifier",
              "modifierName": "UNIQUE_Slot_Effect"
            }
          ]
        },
        "ShowEffect": {
          "modifierName": "",
          "bonusCriticalHurt": 100.0,
          "onAdded": [
            {
              "$type": "ApplyModifier",
              "predicates": [
                {
                  "$type": "MCODPFDFBAF",
                  "target": "Self"
                }
              ],
              "modifierName": "UNIQUE_Slot_Effect"
            }
          ]
        }
      },
      "onAdded": [
        {
          "$type": "SetGlobalValue",
          "ratio": 2.0,
          "key": "GV_Slot_Effect_Show",
          "maxValue": 0.0,
          "minValue": 0.0
        },
        {
          "$type": "ApplyModifier",
          "predicates": [
            {
              "$type": "MCODPFDFBAF",
              "target": "Self"
            }
          ],
          "modifierName": "UNIQUE_Slot_Effect"
        }
      ]
    }
  }
]
