[
  {
    "Default": {
      "$type": "ConfigAbility",
      "abilityName": "SceneObj_Level_Common_Property_Ani_Prop_MachineCarrier_01",
      "abilityMixins": [
        {
          "$type": "AttachModifierToSelfGlobalValueMixin",
          "globalValueKey": "SGV_MachineCarrier_State",
          "defaultGlobalValueOnCreate": 0.0,
          "valueSteps": [-0.5, 0.5, 1.5, 2.5],
          "modifierNameSteps": [
            "MachineCarrier_Default",
            "MachineCarrier_State_1",
            "MachineCarrier_State_2"
          ]
        },
        {
          "$type": "AttachModifierToSelfGlobalValueMixin",
          "globalValueKey": "MachineCarrier_PlayerState",
          "defaultGlobalValueOnCreate": 0.0,
          "valueSteps": [-0.5, 0.5, 1.5],
          "modifierNameSteps": [
            "MachineCarrier_DetectPlayer",
            "MachineCarrier_PlayerIn"
          ]
        },
        {
          "$type": "PlatformMoveMixin",
          "moveModifiers": ["MachineCarrier_Sound"]
        },
        {
          "$type": "AttachToGadgetStateMixin",
          "modifierName": "MachineCarrier_StartDetectPlayer"
        }
      ],
      "modifiers": {
        "MachineCarrier_Sound": {
          "modifierName": "",
          "bonusCriticalHurt": 100.0,
          "onAdded": [
            {
              "$type": "TriggerAudio",
              "operation": {
                "$type": "ConfigAudioEventOp",
                "operation": {
                  "text": "Play_amb_sceneObj_gear_MachineCarrier_01_move"
                }
              }
            }
          ],
          "onRemoved": [
            {
              "$type": "TriggerAudio",
              "operation": {
                "$type": "ConfigAudioEventOp",
                "operation": {
                  "text": "Stop_amb_sceneObj_gear_MachineCarrier_01_move"
                }
              }
            }
          ]
        },
        "MachineCarrier_PlayerIn": {
          "modifierName": "",
          "bonusCriticalHurt": 100.0
        },
        "MachineCarrier_DetectPlayer": {
          "modifierName": "",
          "bonusCriticalHurt": 100.0,
          "thinkInterval": 0.20000000298023224,
          "onThinkInterval": [
            {
              "$type": "Predicated",
              "otherTargets": {
                "$type": "SelectTargetsByShape",
                "shapeName": "CircleR1",
                "campTargetType": "Enemy",
                "OBHNBNDMPFN": 1.0
              },
              "targetPredicates": [
                {
                  "$type": "ByEntityTypes",
                  "entityTypes": ["Avatar"]
                }
              ],
              "successActions": [
                {
                  "$type": "ExecuteGadgetLua",
                  "param1": 201
                },
                {
                  "$type": "ServerLuaCall",
                  "luaCallType": "FromGroup",
                  "funcName": "SLC_MachineCarrier_Player_In",
                  "MPPMFEDKGHC": 0.0,
                  "BOKNHLDBKKK": 0.0,
                  "CHOIIMHDNHK": 0.0
                },
                {
                  "$type": "SetGlobalValue",
                  "ratio": 1.0,
                  "key": "MachineCarrier_PlayerState",
                  "maxValue": 0.0,
                  "minValue": 0.0
                }
              ]
            }
          ]
        },
        "MachineCarrier_Default": {
          "modifierName": "",
          "bonusCriticalHurt": 100.0,
          "onAdded": [
            {
              "$type": "SetAnimatorInt",
              "intID": "GadgetState",
              "ratio": 0.0
            }
          ]
        },
        "MachineCarrier_State_1": {
          "modifierName": "",
          "bonusCriticalHurt": 100.0,
          "onAdded": [
            {
              "$type": "SetAnimatorInt",
              "intID": "GadgetState",
              "ratio": 201.0
            }
          ]
        },
        "MachineCarrier_State_2": {
          "modifierName": "",
          "bonusCriticalHurt": 100.0,
          "onAdded": [
            {
              "$type": "SetAnimatorInt",
              "intID": "GadgetState",
              "ratio": 101.0
            }
          ]
        },
        "MachineCarrier_StartDetectPlayer": {
          "modifierName": "",
          "bonusCriticalHurt": 100.0,
          "onAdded": [
            {
              "$type": "SetGlobalValue",
              "ratio": 0.0,
              "key": "MachineCarrier_PlayerState",
              "maxValue": 0.0,
              "minValue": 0.0
            }
          ]
        }
      },
      "onAdded": [
        {
          "$type": "SetGlobalValue",
          "ratio": 0.0,
          "key": "MachineCarrier_PlayerState",
          "maxValue": 0.0,
          "minValue": 0.0
        }
      ],
      "onFieldExit": [
        {
          "$type": "ExecuteGadgetLua"
        }
      ]
    }
  },
  {
    "Default": {
      "$type": "ConfigAbility",
      "abilityName": "SceneObj_Level_Common_Property_Prop_DreamPortal_01",
      "abilityMixins": [
        {
          "$type": "AttachToGadgetStateMixin",
          "modifierName": "DreamPortal_DefaultState"
        },
        {
          "$type": "AttachToGadgetStateMixin",
          "gadgetState": 201,
          "modifierName": "DreamPortal_OpenState"
        }
      ],
      "abilitySpecials": {
        "AmberMuteTime": 5.5
      },
      "modifiers": {
        "DreamPortal_ClearAmberEff": {
          "modifierName": "",
          "bonusCriticalHurt": 100.0,
          "onAdded": [
            {
              "$type": "SetGlobalValue",
              "target": "TargetTeam",
              "ratio": 0.0,
              "key": "_HAS_AMBER",
              "maxValue": 0.0,
              "minValue": 0.0
            }
          ]
        },
        "DreamPortal_MuteAmberEff_1": {
          "modifierName": "",
          "duration": "AmberMuteTime",
          "bonusCriticalHurt": 100.0,
          "onAdded": [
            {
              "$type": "SetGlobalValue",
              "target": "TargetTeam",
              "ratio": 0.0,
              "key": "_HAS_AMBER",
              "maxValue": 0.0,
              "minValue": 0.0
            }
          ],
          "onRemoved": [
            {
              "$type": "SetGlobalValue",
              "target": "TargetTeam",
              "RotationDampTime": true,
              "ratio": 1.0,
              "key": "_HAS_AMBER",
              "maxValue": 0.0,
              "minValue": 0.0
            }
          ]
        },
        "DreamPortal_MuteAmberEff_2": {
          "modifierName": "",
          "duration": "AmberMuteTime",
          "bonusCriticalHurt": 100.0,
          "onAdded": [
            {
              "$type": "SetGlobalValue",
              "target": "TargetTeam",
              "ratio": 0.0,
              "key": "_HAS_AMBER",
              "maxValue": 0.0,
              "minValue": 0.0
            }
          ],
          "onRemoved": [
            {
              "$type": "SetGlobalValue",
              "target": "TargetTeam",
              "RotationDampTime": true,
              "ratio": 2.0,
              "key": "_HAS_AMBER",
              "maxValue": 0.0,
              "minValue": 0.0
            }
          ]
        },
        "DreamPortal_MuteAmberEff_3": {
          "modifierName": "",
          "duration": "AmberMuteTime",
          "bonusCriticalHurt": 100.0,
          "onAdded": [
            {
              "$type": "SetGlobalValue",
              "target": "TargetTeam",
              "ratio": 0.0,
              "key": "_HAS_AMBER",
              "maxValue": 0.0,
              "minValue": 0.0
            }
          ],
          "onRemoved": [
            {
              "$type": "SetGlobalValue",
              "target": "TargetTeam",
              "RotationDampTime": true,
              "ratio": 3.0,
              "key": "_HAS_AMBER",
              "maxValue": 0.0,
              "minValue": 0.0
            }
          ]
        },
        "DreamPortal_StateRecover": {
          "modifierName": "",
          "duration": 5.0,
          "bonusCriticalHurt": 100.0,
          "onRemoved": [
            {
              "$type": "ChangeGadgetState",
              "MNIDCPKMMNN": 201
            }
          ]
        },
        "DreamPortal_DefaultState": {
          "modifierName": "",
          "bonusCriticalHurt": 100.0,
          "onAdded": [
            {
              "$type": "SendEffectTrigger",
              "RotationDampTime": true,
              "canBeHandledOnRecover": true,
              "parameter": "GadgetState",
              "EBBHBMFMOGD": "",
              "type": "Int",
              "healLimitedByCasterMaxHPRatio": "Eff_SceneObj_DreamPortal_01"
            }
          ]
        },
        "DreamPortal_OpenState": {
          "modifierName": "",
          "bonusCriticalHurt": 100.0,
          "onAdded": [
            {
              "$type": "SendEffectTrigger",
              "RotationDampTime": true,
              "canBeHandledOnRecover": true,
              "parameter": "GadgetState",
              "EBBHBMFMOGD": "",
              "type": "Int",
              "value": 201,
              "healLimitedByCasterMaxHPRatio": "Eff_SceneObj_DreamPortal_01"
            }
          ]
        }
      },
      "onAdded": [
        {
          "$type": "AttachEffect",
          "healLimitedByCasterMaxHPRatio": "Eff_SceneObj_DreamPortal_01",
          "born": {
            "$type": "ConfigBornBySelf",
            "offset": {
              "x": 0.0,
              "y": 1.350000023841858,
              "z": 0.0
            }
          },
          "effectTempleteID": -1.0
        },
        {
          "$type": "SendEffectTrigger",
          "RotationDampTime": true,
          "canBeHandledOnRecover": true,
          "predicates": [
            {
              "$type": "MCODPFDFBAF",
              "target": "Self"
            }
          ],
          "parameter": "GadgetState",
          "EBBHBMFMOGD": "",
          "type": "Int",
          "healLimitedByCasterMaxHPRatio": "Eff_SceneObj_DreamPortal_01"
        },
        {
          "$type": "SendEffectTrigger",
          "RotationDampTime": true,
          "canBeHandledOnRecover": true,
          "predicates": [
            {
              "$type": "MCODPFDFBAF",
              "target": "Self",
              "gadgetState": 201
            }
          ],
          "parameter": "GadgetState",
          "EBBHBMFMOGD": "",
          "type": "Int",
          "value": 201,
          "healLimitedByCasterMaxHPRatio": "Eff_SceneObj_DreamPortal_01"
        }
      ],
      "onFieldEnter": [
        {
          "$type": "ClearLocalGadgets"
        },
        {
          "$type": "ApplyModifier",
          "target": "Target",
          "predicates": [
            {
              "$type": "ByTargetGlobalValue",
              "target": "TargetTeam",
              "key": "_HAS_AMBER",
              "ratio": 1.0
            },
            {
              "$type": "ByTargetGlobalValue",
              "target": "Self",
              "key": "SGV_DreamPortal_KillAmberBuff",
              "ratio": 0.0,
              "compareType": "NoneOrEqual"
            }
          ],
          "modifierName": "DreamPortal_MuteAmberEff_1"
        },
        {
          "$type": "ApplyModifier",
          "target": "Target",
          "predicates": [
            {
              "$type": "ByTargetGlobalValue",
              "target": "TargetTeam",
              "key": "_HAS_AMBER",
              "ratio": 2.0
            },
            {
              "$type": "ByTargetGlobalValue",
              "target": "Self",
              "key": "SGV_DreamPortal_KillAmberBuff",
              "ratio": 0.0,
              "compareType": "NoneOrEqual"
            }
          ],
          "modifierName": "DreamPortal_MuteAmberEff_2"
        },
        {
          "$type": "ApplyModifier",
          "target": "Target",
          "predicates": [
            {
              "$type": "ByTargetGlobalValue",
              "target": "TargetTeam",
              "key": "_HAS_AMBER",
              "ratio": 3.0
            },
            {
              "$type": "ByTargetGlobalValue",
              "target": "Self",
              "key": "SGV_DreamPortal_KillAmberBuff",
              "ratio": 0.0,
              "compareType": "NoneOrEqual"
            }
          ],
          "modifierName": "DreamPortal_MuteAmberEff_3"
        },
        {
          "$type": "ApplyModifier",
          "target": "Target",
          "predicates": [
            {
              "$type": "ByTargetGlobalValue",
              "target": "TargetTeam",
              "key": "_HAS_AMBER",
              "ratio": 0.0,
              "compareType": "MoreThan"
            },
            {
              "$type": "ByTargetGlobalValue",
              "target": "Self",
              "key": "SGV_DreamPortal_KillAmberBuff",
              "ratio": 0.0,
              "compareType": "MoreThan"
            }
          ],
          "modifierName": "DreamPortal_ClearAmberEff"
        },
        {
          "$type": "ChangeGadgetState"
        },
        {
          "$type": "ServerLuaCall",
          "luaCallType": "FromGroup",
          "funcName": "SLC_TeleportHotSpot_NeedRemove",
          "MPPMFEDKGHC": 0.0,
          "BOKNHLDBKKK": 0.0,
          "CHOIIMHDNHK": 0.0
        },
        {
          "$type": "ApplyModifier",
          "modifierName": "DreamPortal_StateRecover"
        },
        {
          "$type": "ServerLuaTriggerEvent",
          "luaCallType": "FromGroup",
          "LCMLAHJEBKC": "DreamPortalEnter",
          "MPPMFEDKGHC": 0.0,
          "BOKNHLDBKKK": 0.0,
          "CHOIIMHDNHK": 0.0
        }
      ]
    }
  },
  {
    "Default": {
      "$type": "ConfigAbility",
      "abilityName": "SceneObj_Level_Common_Property_Water_Waterfall_01",
      "abilityMixins": [
        {
          "$type": "AttachToGadgetStateMixin",
          "modifierName": "Waterfall_DefaultState"
        },
        {
          "$type": "AttachToGadgetStateMixin",
          "gadgetState": 201,
          "modifierName": "Waterfall_OpenState"
        }
      ],
      "modifiers": {
        "Waterfall_DefaultState": {
          "modifierName": "",
          "bonusCriticalHurt": 100.0,
          "onAdded": [
            {
              "$type": "SendEffectTrigger",
              "parameter": "GadgetState",
              "EBBHBMFMOGD": "",
              "type": "Int",
              "healLimitedByCasterMaxHPRatio": "Eff_SceneObj_Common_WaterFlow_01_Vo_02"
            }
          ]
        },
        "Waterfall_OpenState": {
          "modifierName": "",
          "bonusCriticalHurt": 100.0,
          "onAdded": [
            {
              "$type": "SendEffectTrigger",
              "parameter": "GadgetState",
              "EBBHBMFMOGD": "",
              "type": "Int",
              "value": 201,
              "healLimitedByCasterMaxHPRatio": "Eff_SceneObj_Common_WaterFlow_01_Vo_02"
            }
          ]
        }
      },
      "onAdded": [
        {
          "$type": "AttachEffect",
          "healLimitedByCasterMaxHPRatio": "Eff_SceneObj_Common_WaterFlow_01_Vo_02",
          "effectTempleteID": -1.0
        }
      ]
    }
  },
  {
    "Default": {
      "$type": "ConfigAbility",
      "abilityName": "SceneObj_Level_Common_Property_Water_Waterfall_02",
      "abilityMixins": [
        {
          "$type": "AttachToGadgetStateMixin",
          "modifierName": "Waterfall_DefaultState"
        },
        {
          "$type": "AttachToGadgetStateMixin",
          "gadgetState": 201,
          "modifierName": "Waterfall_OpenState"
        }
      ],
      "modifiers": {
        "Waterfall_DefaultState": {
          "modifierName": "",
          "bonusCriticalHurt": 100.0,
          "onAdded": [
            {
              "$type": "SendEffectTrigger",
              "parameter": "GadgetState",
              "EBBHBMFMOGD": "",
              "type": "Int",
              "healLimitedByCasterMaxHPRatio": "Eff_SceneObj_Common_WaterFlow_01_Vo_01"
            }
          ]
        },
        "Waterfall_OpenState": {
          "modifierName": "",
          "bonusCriticalHurt": 100.0,
          "onAdded": [
            {
              "$type": "SendEffectTrigger",
              "parameter": "GadgetState",
              "EBBHBMFMOGD": "",
              "type": "Int",
              "value": 201,
              "healLimitedByCasterMaxHPRatio": "Eff_SceneObj_Common_WaterFlow_01_Vo_01"
            }
          ]
        }
      },
      "onAdded": [
        {
          "$type": "AttachEffect",
          "healLimitedByCasterMaxHPRatio": "Eff_SceneObj_Common_WaterFlow_01_Vo_01",
          "effectTempleteID": -1.0
        }
      ]
    }
  },
  {
    "Default": {
      "$type": "ConfigAbility",
      "abilityName": "SceneObj_Level_Common_Property_Water_Waterfall_03",
      "abilityMixins": [
        {
          "$type": "AttachToGadgetStateMixin",
          "modifierName": "Waterfall_DefaultState"
        },
        {
          "$type": "AttachToGadgetStateMixin",
          "gadgetState": 201,
          "modifierName": "Waterfall_OpenState"
        }
      ],
      "modifiers": {
        "Waterfall_DefaultState": {
          "modifierName": "",
          "bonusCriticalHurt": 100.0,
          "onAdded": [
            {
              "$type": "SendEffectTrigger",
              "parameter": "GadgetState",
              "EBBHBMFMOGD": "",
              "type": "Int",
              "healLimitedByCasterMaxHPRatio": "Eff_SceneObj_Common_WaterFlow_01_Vo"
            }
          ]
        },
        "Waterfall_OpenState": {
          "modifierName": "",
          "bonusCriticalHurt": 100.0,
          "onAdded": [
            {
              "$type": "SendEffectTrigger",
              "parameter": "GadgetState",
              "EBBHBMFMOGD": "",
              "type": "Int",
              "value": 201,
              "healLimitedByCasterMaxHPRatio": "Eff_SceneObj_Common_WaterFlow_01_Vo"
            }
          ]
        }
      },
      "onAdded": [
        {
          "$type": "AttachEffect",
          "healLimitedByCasterMaxHPRatio": "Eff_SceneObj_Common_WaterFlow_01_Vo",
          "effectTempleteID": -1.0
        }
      ]
    }
  },
  {
    "Default": {
      "$type": "ConfigAbility",
      "abilityName": "SceneObj_Level_Common_Property_Ani_Build_Elevator_Disc_03",
      "abilityMixins": [
        {
          "$type": "AttachToGadgetStateMixin",
          "gadgetState": 201,
          "modifierName": "Elevator_Disc_Effect_On"
        }
      ],
      "modifiers": {
        "Elevator_Disc_Effect_On": {
          "modifierName": "",
          "bonusCriticalHurt": 100.0,
          "onAdded": [
            {
              "$type": "AttachEffect",
              "healLimitedByCasterMaxHPRatio": "Eff_SceneObj_Build_Elevator_Disc_01_Cover_Loop",
              "effectTempleteID": -1.0
            }
          ],
          "onRemoved": [
            {
              "$type": "FireEffect",
              "healLimitedByCasterMaxHPRatio": "Eff_SceneObj_Build_Elevator_Disc_01_Cover_Diss",
              "effectTempleteID": -1.0
            }
          ]
        }
      }
    }
  },
  {
    "Default": {
      "$type": "ConfigAbility",
      "abilityName": "SceneObj_Level_Common_Property_Ani_Build_Elevator_Disc_02",
      "abilityMixins": [
        {
          "$type": "AttachToGadgetStateMixin",
          "modifierName": "Elevator_Disc_On1"
        },
        {
          "$type": "AttachToGadgetStateMixin",
          "gadgetState": 108,
          "modifierName": "Elevator_Disc_On2"
        },
        {
          "$type": "AttachToGadgetStateMixin",
          "gadgetState": 116,
          "modifierName": "Elevator_Disc_On3"
        }
      ],
      "modifiers": {
        "Elevator_Disc_Emission": {
          "modifierName": "",
          "bonusCriticalHurt": 100.0,
          "onAdded": [
            {
              "$type": "SetMaterialParamFloatByTransform",
              "canBeHandledOnRecover": true,
              "matName": "Disc",
              "patternName": "_EmissionStrength",
              "ratio": 6.0,
              "FBGLLFJHKJJ": 0.5
            }
          ],
          "onRemoved": [
            {
              "$type": "SetMaterialParamFloatByTransform",
              "canBeHandledOnRecover": true,
              "matName": "Disc",
              "patternName": "_EmissionStrength",
              "ratio": 0.0,
              "FBGLLFJHKJJ": 0.5
            }
          ]
        },
        "Elevator_Disc_EmissionTimer": {
          "modifierName": "",
          "duration": 1.0,
          "bonusCriticalHurt": 100.0,
          "onRemoved": [
            {
              "$type": "ApplyModifier",
              "modifierName": "Elevator_Disc_Emission"
            }
          ]
        },
        "Elevator_Disc_On1": {
          "modifierName": "",
          "bonusCriticalHurt": 100.0,
          "onAdded": [
            {
              "$type": "AttachModifier",
              "modifierName": "Elevator_Disc_EmissionTimer"
            }
          ],
          "onRemoved": [
            {
              "$type": "RemoveModifier",
              "modifierName": "Elevator_Disc_Emission"
            }
          ]
        },
        "Elevator_Disc_On2": {
          "modifierName": "",
          "bonusCriticalHurt": 100.0,
          "onAdded": [
            {
              "$type": "AttachModifier",
              "modifierName": "Elevator_Disc_EmissionTimer"
            }
          ],
          "onRemoved": [
            {
              "$type": "RemoveModifier",
              "modifierName": "Elevator_Disc_Emission"
            }
          ]
        },
        "Elevator_Disc_On3": {
          "modifierName": "",
          "bonusCriticalHurt": 100.0,
          "onAdded": [
            {
              "$type": "AttachModifier",
              "modifierName": "Elevator_Disc_EmissionTimer"
            }
          ],
          "onRemoved": [
            {
              "$type": "RemoveModifier",
              "modifierName": "Elevator_Disc_Emission"
            }
          ]
        }
      }
    }
  },
  {
    "Default": {
      "$type": "ConfigAbility",
      "abilityName": "SceneObj_Level_Common_Property_Ani_Build_Elevator_Disc_01",
      "abilityMixins": [
        {
          "$type": "PlatformMoveMixin",
          "JAKNEEOEJKF": true,
          "moveModifiers": ["Elevator_Disc_Effect"]
        }
      ],
      "modifiers": {
        "Elevator_Disc_Effect": {
          "modifierName": "",
          "bonusCriticalHurt": 100.0,
          "onAdded": [
            {
              "$type": "FireEffect",
              "healLimitedByCasterMaxHPRatio": "Eff_SceneObj_Build_Elevator_Disc_01_08_Door_Active",
              "effectTempleteID": -1.0
            },
            {
              "$type": "AttachModifier",
              "modifierName": "Delay_MovingEffect"
            },
            {
              "$type": "EnableSceneTransformByName",
              "canBeHandledOnRecover": true,
              "transformNames": ["Collider_Moving"],
              "setEnable": true
            }
          ],
          "onRemoved": [
            {
              "$type": "FireEffect",
              "healLimitedByCasterMaxHPRatio": "Eff_SceneObj_Build_Elevator_Disc_01_08_Door_Diss",
              "effectTempleteID": -1.0
            },
            {
              "$type": "RemoveModifier",
              "modifierName": "MovingEffect"
            },
            {
              "$type": "EnableSceneTransformByName",
              "canBeHandledOnRecover": true,
              "transformNames": ["Collider_Moving"]
            }
          ]
        },
        "Delay_MovingEffect": {
          "modifierName": "",
          "duration": 1.0,
          "bonusCriticalHurt": 100.0,
          "onRemoved": [
            {
              "$type": "ApplyModifier",
              "modifierName": "MovingEffect"
            }
          ]
        },
        "MovingEffect": {
          "modifierName": "",
          "bonusCriticalHurt": 100.0,
          "onAdded": [
            {
              "$type": "AttachEffect",
              "healLimitedByCasterMaxHPRatio": "Eff_SceneObj_Build_Elevator_Disc_01_08_Door_Loop",
              "effectTempleteID": -1.0
            }
          ]
        }
      }
    }
  },
  {
    "Default": {
      "$type": "ConfigAbility",
      "abilityName": "SceneObj_Level_Xm_Property_Prop_AmberKeyGear_01",
      "abilityMixins": [
        {
          "$type": "AttachToGadgetStateMixin",
          "modifierName": "DefaultState"
        },
        {
          "$type": "AttachToGadgetStateMixin",
          "gadgetState": 201,
          "modifierName": "OpenState"
        }
      ],
      "modifiers": {
        "DefaultState": {
          "modifierName": "",
          "bonusCriticalHurt": 100.0,
          "thinkInterval": 0.5,
          "onAdded": [
            {
              "$type": "AttachEffect",
              "healLimitedByCasterMaxHPRatio": "Eff_SceneObj_AmberKeyGear_Idle",
              "born": {
                "$type": "ConfigBornByAttachPoint",
                "attachPointName": "EffectNode1"
              },
              "effectTempleteID": -1.0
            }
          ],
          "onThinkInterval": [
            {
              "$type": "Predicated",
              "otherTargets": {
                "$type": "SelectTargetsByShape",
                "shapeName": "CircleR3H3",
                "campTargetType": "All",
                "OBHNBNDMPFN": 1.0
              },
              "predicates": [
                {
                  "$type": "ByEntityTypes",
                  "entityTypes": ["Avatar"]
                },
                {
                  "$type": "ByTargetGlobalValue",
                  "target": "TargetTeam",
                  "key": "_HAS_AMBER",
                  "ratio": 0.0,
                  "compareType": "MoreThan"
                },
                {
                  "$type": "ByTargetGlobalValue",
                  "key": "IN_TRIGGRE",
                  "ratio": 0.0,
                  "compareType": "NoneOrEqual"
                }
              ],
              "successActions": [
                {
                  "$type": "ApplyModifier",
                  "target": "Other",
                  "modifierName": "UNIQUE_AmberKeyGear_Add_2_Avatar1"
                },
                {
                  "$type": "ExecuteGadgetLua",
                  "param1": 201
                }
              ]
            }
          ]
        },
        "OpenState": {
          "modifierName": "",
          "bonusCriticalHurt": 100.0,
          "onAdded": [
            {
              "$type": "AttachEffect",
              "healLimitedByCasterMaxHPRatio": "Eff_SceneObj_AmberKeyGear_Active",
              "born": {
                "$type": "ConfigBornByAttachPoint",
                "attachPointName": "EffectNode2"
              },
              "effectTempleteID": -1.0
            }
          ]
        },
        "UNIQUE_AmberKeyGear_Add_2_Avatar1": {
          "stacking": "Unique",
          "modifierName": "",
          "isUnique": true,
          "duration": 1.0,
          "bonusCriticalHurt": 100.0,
          "onAdded": [
            {
              "$type": "AddGlobalValue",
              "ratio": 1.0,
              "key": "IN_TRIGGRE",
              "useLimitRange": true,
              "maxValue": 1.0,
              "minValue": 1.0
            },
            {
              "$type": "Predicated",
              "target": "Team",
              "targetPredicates": [
                {
                  "$type": "ByTargetGlobalValue",
                  "key": "_HAS_AMBER",
                  "ratio": 0.0,
                  "compareType": "MoreThan"
                }
              ],
              "successActions": [
                {
                  "$type": "AddGlobalValue",
                  "target": "Team",
                  "ratio": -1.0,
                  "key": "_HAS_AMBER",
                  "useLimitRange": true,
                  "maxValue": 3.0,
                  "minValue": 0.0
                }
              ]
            }
          ],
          "onRemoved": [
            {
              "$type": "AddGlobalValue",
              "RotationDampTime": true,
              "ratio": 0.0,
              "key": "IN_TRIGGRE",
              "useLimitRange": true,
              "maxValue": 0.0,
              "minValue": 0.0
            }
          ]
        }
      }
    }
  },
  {
    "Default": {
      "$type": "ConfigAbility",
      "abilityName": "SceneObj_Area_Common_Property_Prop_LoopFarView_01",
      "abilityMixins": [
        {
          "$type": "AttachToGadgetStateMixin",
          "modifierName": "MoveType_1"
        },
        {
          "$type": "AttachToGadgetStateMixin",
          "gadgetState": 201,
          "modifierName": "MoveType_2"
        }
      ],
      "modifiers": {
        "MoveType_1": {
          "modifierName": "",
          "bonusCriticalHurt": 100.0,
          "onAdded": [
            {
              "$type": "SetAnimatorInt",
              "canBeHandledOnRecover": true,
              "intID": "GadgetState",
              "ratio": 0.0
            },
            {
              "$type": "SectorCityManeuver",
              "canBeHandledOnRecover": true,
              "start": true,
              "attachPointName": "FollowNode"
            }
          ]
        },
        "MoveType_2": {
          "modifierName": "",
          "bonusCriticalHurt": 100.0,
          "onAdded": [
            {
              "$type": "SetAnimatorInt",
              "canBeHandledOnRecover": true,
              "intID": "GadgetState",
              "ratio": 201.0
            },
            {
              "$type": "SectorCityManeuver",
              "canBeHandledOnRecover": true,
              "start": true,
              "attachPointName": "FollowNode"
            }
          ]
        }
      }
    }
  },
  {
    "Default": {
      "$type": "ConfigAbility",
      "abilityName": "SceneObj_Level_Xm_Property_Ani_Prop_RainFlower_01",
      "abilityMixins": [
        {
          "$type": "AttachToGadgetStateMixin",
          "gadgetState": 201,
          "modifierName": "RainFlower_On"
        },
        {
          "$type": "AttachToGadgetStateMixin",
          "modifierName": "RainFlower_Off"
        }
      ],
      "modifiers": {
        "RainFlower_On": {
          "modifierName": "",
          "bonusCriticalHurt": 100.0,
          "onAdded": [
            {
              "$type": "SetMaterialParamFloatByTransform",
              "canBeHandledOnRecover": true,
              "matName": "Dissolve",
              "patternName": "_DitherAlpha",
              "ratio": 1.0
            },
            {
              "$type": "SetMaterialParamFloatByTransform",
              "matName": "Dissolve",
              "patternName": "_DitherAlpha",
              "ratio": 0.0,
              "HLDHDOKLCHI": true,
              "FBGLLFJHKJJ": 4.0
            },
            {
              "$type": "EnableSceneTransformByName",
              "canBeHandledOnRecover": true,
              "transformNames": ["Collider"]
            },
            {
              "$type": "TriggerAudio",
              "operation": {
                "$type": "ConfigAudioEventOp",
                "operation": {
                  "text": "Play_amb_sceneObj_gear_rainFlower_01"
                }
              }
            }
          ]
        },
        "RainFlower_Off": {
          "modifierName": "",
          "bonusCriticalHurt": 100.0,
          "onAdded": [
            {
              "$type": "SetMaterialParamFloatByTransform",
              "matName": "Dissolve",
              "patternName": "_DitherAlpha",
              "ratio": 1.0,
              "HLDHDOKLCHI": true,
              "FBGLLFJHKJJ": 4.0
            },
            {
              "$type": "EnableSceneTransformByName",
              "canBeHandledOnRecover": true,
              "transformNames": ["Collider"],
              "setEnable": true
            },
            {
              "$type": "TriggerAudio",
              "operation": {
                "$type": "ConfigAudioEventOp",
                "operation": {
                  "text": "Play_amb_sceneObj_gear_rainFlower_01"
                }
              }
            }
          ]
        }
      }
    }
  },
  {
    "Default": {
      "$type": "ConfigAbility",
      "abilityName": "SceneObj_Gear_Operator_Invisible_LuaTriggerOperator_01",
      "abilityMixins": [
        {
          "$type": "WidgetMpSupportMixin",
          "MJEDPGMFEMG": [
            {
              "$type": "ApplyModifier",
              "modifierName": "LuaTriggerOperator_Intee"
            }
          ]
        },
        {
          "$type": "AttachToGadgetStateMixin",
          "modifierName": "Operator_On"
        },
        {
          "$type": "AttachToGadgetStateMixin",
          "gadgetState": 202,
          "modifierName": "Operator_Off"
        }
      ],
      "modifiers": {
        "Operator_On": {
          "modifierName": "",
          "bonusCriticalHurt": 100.0,
          "onAdded": [
            {
              "$type": "SetMaterialParamFloatByTransform",
              "matName": "Emission",
              "patternName": "_EmissionStrength",
              "ratio": 4.0,
              "HLDHDOKLCHI": true,
              "FBGLLFJHKJJ": 0.5
            }
          ]
        },
        "Operator_Off": {
          "modifierName": "",
          "bonusCriticalHurt": 100.0,
          "onAdded": [
            {
              "$type": "ApplyModifier",
              "modifierName": "Operator_OffDelay"
            }
          ]
        },
        "Operator_OffDelay": {
          "modifierName": "",
          "duration": 1.0,
          "bonusCriticalHurt": 100.0,
          "onRemoved": [
            {
              "$type": "SetMaterialParamFloatByTransform",
              "matName": "Emission",
              "patternName": "_EmissionStrength",
              "ratio": 0.5,
              "HLDHDOKLCHI": true,
              "FBGLLFJHKJJ": 0.5
            }
          ]
        },
        "LuaTriggerOperator_Intee": {
          "modifierName": "",
          "duration": 1.5,
          "bonusCriticalHurt": 100.0,
          "onAdded": [
            {
              "$type": "EnableGadgetIntee"
            },
            {
              "$type": "SetAnimatorTrigger",
              "triggerID": "Active"
            },
            {
              "$type": "ServerLuaTriggerEvent",
              "luaCallType": "FromGroup",
              "LCMLAHJEBKC": "FactoryOperator",
              "MPPMFEDKGHC": 0.0,
              "BOKNHLDBKKK": 0.0,
              "CHOIIMHDNHK": 0.0
            }
          ],
          "onRemoved": [
            {
              "$type": "EnableGadgetIntee",
              "predicates": [
                {
                  "$type": "MCODPFDFBAF",
                  "target": "Self"
                }
              ],
              "enable": true
            }
          ]
        }
      },
      "onAdded": [
        {
          "$type": "EnableGadgetIntee",
          "predicates": [
            {
              "$type": "MCODPFDFBAF",
              "target": "Self"
            }
          ],
          "enable": true
        },
        {
          "$type": "SetMaterialParamFloatByTransform",
          "canBeHandledOnRecover": true,
          "predicates": [
            {
              "$type": "MCODPFDFBAF",
              "target": "Self",
              "gadgetState": 202
            }
          ],
          "matName": "Emission",
          "patternName": "_EmissionStrength",
          "ratio": 0.5
        },
        {
          "$type": "SetMaterialParamFloatByTransform",
          "canBeHandledOnRecover": true,
          "predicates": [
            {
              "$type": "MCODPFDFBAF",
              "target": "Self"
            }
          ],
          "matName": "Emission",
          "patternName": "_EmissionStrength",
          "ratio": 4.0
        }
      ]
    }
  },
  {
    "Default": {
      "$type": "ConfigAbility",
      "abilityName": "SceneObj_Other_Property_Prop_BigTreeDungeonEff_01",
      "abilityMixins": [
        {
          "$type": "AttachToGadgetStateMixin",
          "gadgetState": 201,
          "modifierName": "BigTreeDungeonEff_On"
        },
        {
          "$type": "AttachToGadgetStateMixin",
          "modifierName": "BigTreeDungeonEff_Off"
        }
      ],
      "modifiers": {
        "BigTreeDungeonEff": {
          "modifierName": "",
          "bonusCriticalHurt": 100.0,
          "onAdded": [
            {
              "$type": "AttachEffect",
              "healLimitedByCasterMaxHPRatio": "Eff_Level_FCdungeon_BigTree_Light_01",
              "effectTempleteID": -1.0,
              "isPlatformDependent": true
            }
          ]
        },
        "BigTreeDungeonEff_On": {
          "modifierName": "",
          "bonusCriticalHurt": 100.0,
          "onAdded": [
            {
              "$type": "SetGlobalValue",
              "ratio": 201.0,
              "key": "GV_GadgetState",
              "maxValue": 0.0,
              "minValue": 0.0
            }
          ]
        },
        "BigTreeDungeonEff_Off": {
          "modifierName": "",
          "bonusCriticalHurt": 100.0,
          "onAdded": [
            {
              "$type": "SetGlobalValue",
              "ratio": 0.0,
              "key": "GV_GadgetState",
              "maxValue": 0.0,
              "minValue": 0.0
            }
          ]
        }
      },
      "onAdded": [
        {
          "$type": "AttachModifier",
          "modifierName": "BigTreeDungeonEff"
        }
      ]
    }
  },
  {
    "Default": {
      "$type": "ConfigAbility",
      "abilityName": "SceneObj_Level_Xm_Property_Ani_Prop_Rudder_01",
      "abilityMixins": [
        {
          "$type": "AttachToAnimatorStateIDMixin",
          "stateIDs": ["Active"],
          "modifierName": "Rudder_On"
        }
      ],
      "modifiers": {
        "Rudder_On": {
          "modifierName": "",
          "bonusCriticalHurt": 100.0,
          "onAdded": [
            {
              "$type": "AttachEffect",
              "healLimitedByCasterMaxHPRatio": "Eff_SceneObj_Rubber_Active",
              "born": {
                "$type": "ConfigBornByAttachPoint",
                "attachPointName": "EffectNode"
              },
              "effectTempleteID": -1.0
            }
          ]
        }
      }
    }
  }
]
