[
  {
    "Default": {
      "$type": "ConfigAbility",
      "abilityName": "SceneObj_Area_Ljxs_Property_Ani_Tree_AncientBloodTree_Ability",
      "abilityMixins": [
        {
          "$type": "AttachToGadgetStateMixin",
          "gadgetState": 201,
          "modifierName": "Lv1_Modifier"
        },
        {
          "$type": "AttachToGadgetStateMixin",
          "gadgetState": 202,
          "modifierName": "Lv2_Modifier"
        },
        {
          "$type": "AttachToGadgetStateMixin",
          "gadgetState": 203,
          "modifierName": "Lv3_Modifier"
        },
        {
          "$type": "AttachToAnimatorStateIDMixin",
          "stateIDs": ["Lv1_State", "Lv2_State", "Lv3_State"],
          "modifierName": "ChangeToStableState"
        },
        {
          "$type": "AttachToStateIDMixin",
          "stateIDs": ["All"],
          "modifierName": "Born_Modifier"
        },
        {
          "$type": "AttachToStateIDMixin",
          "stateIDs": ["GadgetLv1_State"],
          "modifierName": "GadgetLv1_StateModifier"
        },
        {
          "$type": "AttachToStateIDMixin",
          "stateIDs": ["GadgetLv2_State"],
          "modifierName": "GadgetLv2_StateModifier"
        },
        {
          "$type": "AttachToStateIDMixin",
          "stateIDs": ["GadgetLv3_State"],
          "modifierName": "GadgetLv3_StateModifier"
        }
      ],
      "modifiers": {
        "Born_Modifier": {
          "modifierName": "",
          "duration": 1.5,
          "bonusCriticalHurt": 100.0,
          "onRemoved": [
            {
              "$type": "FireEffect",
              "healLimitedByCasterMaxHPRatio": "Eff_SceneObj_AncientBloodTree_01",
              "born": {
                "$type": "ConfigBornByAttachPoint",
                "attachPointName": "TreeRoot"
              },
              "effectTempleteID": -1.0
            },
            {
              "$type": "SetAnimatorTrigger",
              "triggerID": "LevelUp",
              "MPTriggerOnRemote": true
            }
          ]
        },
        "Lv1_Modifier": {
          "modifierName": "",
          "duration": 2.0,
          "bonusCriticalHurt": 100.0,
          "onRemoved": [
            {
              "$type": "SetAnimatorTrigger",
              "triggerID": "LevelUp",
              "MPTriggerOnRemote": true
            },
            {
              "$type": "FireEffect",
              "healLimitedByCasterMaxHPRatio": "Eff_SceneObj_AncientBloodTree_01",
              "born": {
                "$type": "ConfigBornByAttachPoint",
                "attachPointName": "TreeRoot"
              },
              "effectTempleteID": -1.0
            }
          ]
        },
        "Lv2_Modifier": {
          "modifierName": "",
          "duration": 3.5,
          "bonusCriticalHurt": 100.0,
          "onRemoved": [
            {
              "$type": "SetAnimatorTrigger",
              "triggerID": "LevelUp",
              "MPTriggerOnRemote": true
            },
            {
              "$type": "FireEffect",
              "healLimitedByCasterMaxHPRatio": "Eff_SceneObj_AncientBloodTree_02",
              "born": {
                "$type": "ConfigBornByAttachPoint",
                "attachPointName": "TreeRoot"
              },
              "effectTempleteID": -1.0
            }
          ]
        },
        "Lv3_Modifier": {
          "modifierName": "",
          "duration": 3.5,
          "bonusCriticalHurt": 100.0,
          "onRemoved": [
            {
              "$type": "SetAnimatorTrigger",
              "triggerID": "LevelUp",
              "MPTriggerOnRemote": true
            },
            {
              "$type": "FireEffect",
              "healLimitedByCasterMaxHPRatio": "Eff_SceneObj_AncientBloodTree_03",
              "born": {
                "$type": "ConfigBornByAttachPoint",
                "attachPointName": "TreeRoot"
              },
              "effectTempleteID": -1.0
            }
          ]
        },
        "ChangeToStableState": {
          "modifierName": "",
          "duration": 0.10000000149011612,
          "bonusCriticalHurt": 100.0,
          "onAdded": [
            {
              "$type": "ExecuteGadgetLua",
              "predicates": [
                {
                  "$type": "ByAny",
                  "predicates": [
                    {
                      "$type": "MCODPFDFBAF",
                      "gadgetState": 201
                    },
                    {
                      "$type": "MCODPFDFBAF",
                      "gadgetState": 204
                    }
                  ]
                }
              ],
              "param1": 901
            },
            {
              "$type": "ExecuteGadgetLua",
              "predicates": [
                {
                  "$type": "MCODPFDFBAF",
                  "gadgetState": 202
                }
              ],
              "param1": 902
            },
            {
              "$type": "ExecuteGadgetLua",
              "predicates": [
                {
                  "$type": "MCODPFDFBAF",
                  "gadgetState": 203
                }
              ],
              "param1": 903
            }
          ]
        },
        "GadgetLv1_StateModifier": {
          "modifierName": "",
          "bonusCriticalHurt": 100.0,
          "onAdded": [
            {
              "$type": "AttachEffect",
              "healLimitedByCasterMaxHPRatio": "Eff_SceneObj_AncientBloodTree_Stone_01",
              "born": {
                "$type": "ConfigBornByAttachPoint",
                "attachPointName": "EffStoneLv1"
              },
              "effectTempleteID": -1.0
            }
          ]
        },
        "GadgetLv2_StateModifier": {
          "modifierName": "",
          "bonusCriticalHurt": 100.0,
          "onAdded": [
            {
              "$type": "AttachEffect",
              "healLimitedByCasterMaxHPRatio": "Eff_SceneObj_AncientBloodTree_Stone_01",
              "born": {
                "$type": "ConfigBornByAttachPoint",
                "attachPointName": "EffStoneLv2"
              },
              "effectTempleteID": -1.0
            }
          ]
        },
        "GadgetLv3_StateModifier": {
          "modifierName": "",
          "bonusCriticalHurt": 100.0,
          "onAdded": [
            {
              "$type": "AttachEffect",
              "healLimitedByCasterMaxHPRatio": "Eff_SceneObj_AncientBloodTree_Stone_01",
              "born": {
                "$type": "ConfigBornByAttachPoint",
                "attachPointName": "EffStoneLv3"
              },
              "effectTempleteID": -1.0
            }
          ]
        },
        "WindZone": {
          "modifierName": "",
          "duration": 1.0,
          "bonusCriticalHurt": 100.0,
          "modifierMixins": [
            {
              "$type": "WindZoneMixin",
              "shapeName": "CircleR20",
              "born": {
                "$type": "ConfigBornByTarget"
              },
              "PLJPAAFMNAD": -2.0,
              "LNPFPGALPJH": 0.0,
              "innerRadius": 0.0,
              "targetType": "All",
              "predicates": [
                {
                  "$type": "ByEntityTypes",
                  "entityTypes": ["Avatar", "Monster"]
                }
              ],
              "modifierName": ""
            }
          ]
        }
      },
      "onAbilityStart": [
        {
          "$type": "ApplyModifier",
          "modifierName": "WindZone"
        }
      ]
    }
  },
  {
    "Default": {
      "$type": "ConfigAbility",
      "abilityName": "SceneObj_Area_Dq_Property_Foliage_ThunderSeedOffer_Levelup",
      "abilityMixins": [
        {
          "$type": "AttachToGadgetStateMixin",
          "modifierName": "NormalState"
        },
        {
          "$type": "AttachToGadgetStateMixin",
          "gadgetState": 201,
          "modifierName": "LevelUpState"
        }
      ],
      "modifiers": {
        "NormalState": {
          "modifierName": "",
          "bonusCriticalHurt": 100.0,
          "onAdded": [
            {
              "$type": "RemoveModifier",
              "modifierName": "LevelUpState"
            }
          ]
        },
        "LevelUpState": {
          "stacking": "Unique",
          "modifierName": "",
          "duration": 8.0,
          "bonusCriticalHurt": 100.0,
          "onAdded": [
            {
              "$type": "AttachEffect",
              "healLimitedByCasterMaxHPRatio": "Eff_SceneObj_ThunderSeedOffer_01_LevelUp",
              "born": {
                "$type": "ConfigBornByAttachPoint",
                "attachPointName": "RootNode"
              },
              "scale": 0.75,
              "effectTempleteID": -1.0
            }
          ],
          "onRemoved": [
            {
              "$type": "ExecuteGadgetLua"
            }
          ]
        }
      }
    }
  }
]
