[
  {
    "Default": {
      "$type": "ConfigAbility",
      "abilityName": "SceneObj_Area_Xm_Property_Ani_Prop_AbyssVines_01_Ability",
      "abilityMixins": [
        {
          "$type": "AttachModifierToSelfGlobalValueMixin",
          "globalValueKey": "SGV_Vine_01",
          "defaultGlobalValueOnCreate": 0.0,
          "valueSteps": [-10.0, 0.5, 10.0],
          "modifierNameSteps": ["Vine01_Off", "Vine01_On"]
        },
        {
          "$type": "AttachModifierToSelfGlobalValueMixin",
          "globalValueKey": "SGV_Vine_02",
          "defaultGlobalValueOnCreate": 0.0,
          "valueSteps": [-10.0, 0.5, 10.0],
          "modifierNameSteps": ["Vine02_Off", "Vine02_On"]
        },
        {
          "$type": "AttachModifierToSelfGlobalValueMixin",
          "globalValueKey": "SGV_Vine_03",
          "defaultGlobalValueOnCreate": 0.0,
          "valueSteps": [-10.0, 0.5, 10.0],
          "modifierNameSteps": ["Vine03_Off", "Vine03_On"]
        },
        {
          "$type": "AttachToGadgetStateMixin",
          "gadgetState": 201,
          "modifierName": "ActiveState"
        },
        {
          "$type": "AttachToGadgetStateMixin",
          "gadgetState": 202,
          "modifierName": "DisactiveState"
        }
      ],
      "modifiers": {
        "ActiveState": {
          "modifierName": "",
          "bonusCriticalHurt": 100.0,
          "onAdded": [
            {
              "$type": "SetAnimatorBool",
              "boolID": "Appear01",
              "ratio": true
            },
            {
              "$type": "SetAnimatorBool",
              "boolID": "Appear02",
              "ratio": true
            },
            {
              "$type": "SetAnimatorBool",
              "boolID": "Appear03",
              "ratio": true
            }
          ]
        },
        "DisactiveState": {
          "modifierName": "",
          "bonusCriticalHurt": 100.0,
          "onAdded": [
            {
              "$type": "SetAnimatorBool",
              "boolID": "Appear01"
            },
            {
              "$type": "SetAnimatorBool",
              "boolID": "Appear02"
            },
            {
              "$type": "SetAnimatorBool",
              "boolID": "Appear03"
            }
          ]
        },
        "Vine01_Off": {
          "modifierName": "",
          "bonusCriticalHurt": 100.0,
          "onAdded": [
            {
              "$type": "SetAnimatorBool",
              "boolID": "Appear01"
            }
          ]
        },
        "Vine01_On": {
          "modifierName": "",
          "bonusCriticalHurt": 100.0,
          "onAdded": [
            {
              "$type": "SetAnimatorBool",
              "boolID": "Appear01",
              "ratio": true
            }
          ]
        },
        "Vine02_Off": {
          "modifierName": "",
          "bonusCriticalHurt": 100.0,
          "onAdded": [
            {
              "$type": "SetAnimatorBool",
              "boolID": "Appear02"
            }
          ]
        },
        "Vine02_On": {
          "modifierName": "",
          "bonusCriticalHurt": 100.0,
          "onAdded": [
            {
              "$type": "SetAnimatorBool",
              "boolID": "Appear02",
              "ratio": true
            }
          ]
        },
        "Vine03_Off": {
          "modifierName": "",
          "bonusCriticalHurt": 100.0,
          "onAdded": [
            {
              "$type": "SetAnimatorBool",
              "boolID": "Appear03"
            }
          ]
        },
        "Vine03_On": {
          "modifierName": "",
          "bonusCriticalHurt": 100.0,
          "onAdded": [
            {
              "$type": "SetAnimatorBool",
              "boolID": "Appear03",
              "ratio": true
            }
          ]
        }
      }
    }
  },
  {
    "Default": {
      "$type": "ConfigAbility",
      "abilityName": "SceneObj_Area_Xm_Property_Prop_TitanCore_01_Ability",
      "abilityMixins": [
        {
          "$type": "AttachToGadgetStateMutexMixin",
          "gadgetStates": [0, 201, 202],
          "modifierNames": [["ActiveState"], ["DisactiveState"], ["PureState"]]
        }
      ],
      "modifiers": {
        "ActiveState": {
          "modifierName": "",
          "bonusCriticalHurt": 100.0,
          "onAdded": [
            {
              "$type": "AttachEffect",
              "healLimitedByCasterMaxHPRatio": "Eff_ScenObj_TitanCore_Active",
              "effectTempleteID": -1.0
            }
          ],
          "onRemoved": [
            {
              "$type": "FireEffect",
              "healLimitedByCasterMaxHPRatio": "Eff_ScenObj_TitanCore_Deactive",
              "effectTempleteID": -1.0
            }
          ]
        },
        "DisactiveState": {
          "modifierName": "",
          "bonusCriticalHurt": 100.0,
          "onRemoved": [
            {
              "$type": "FireEffect",
              "healLimitedByCasterMaxHPRatio": "Eff_ScenObj_TitanCore_Seal",
              "effectTempleteID": -1.0
            }
          ]
        },
        "PureState": {
          "modifierName": "",
          "bonusCriticalHurt": 100.0,
          "onAdded": [
            {
              "$type": "AttachEffect",
              "healLimitedByCasterMaxHPRatio": "Eff_ScenObj_TitanCore_Sealed",
              "effectTempleteID": -1.0
            }
          ]
        }
      }
    }
  },
  {
    "Default": {
      "$type": "ConfigAbility",
      "abilityName": "SceneObj_Area_Xm_Property_Prop_Display_01_Ability",
      "abilityMixins": [
        {
          "$type": "AttachToGadgetStateMutexMixin",
          "gadgetStates": [0, 201],
          "modifierNames": [["PowerOn"], ["PowerOff"]]
        },
        {
          "$type": "UIInteractMixin",
          "PCLPONGKABC": "OpenPage",
          "actionList": [
            {
              "$type": "ApplyModifier",
              "modifierName": "ScreenEffectOn"
            }
          ]
        },
        {
          "$type": "UIInteractMixin",
          "PCLPONGKABC": "ClosePage",
          "actionList": [
            {
              "$type": "ApplyModifier",
              "modifierName": "ScreenEffectOff"
            }
          ]
        },
        {
          "$type": "UIInteractMixin",
          "PCLPONGKABC": "v3_0_RobotControl_ButtonDown",
          "actionList": [
            {
              "$type": "ApplyModifier",
              "modifierName": "PressButtonModifier"
            }
          ]
        },
        {
          "$type": "AttachModifierToSelfGlobalValueNoInitMixin",
          "globalValueKey": "GV_ButtonTimes",
          "valueSteps": [0.5, 1.5, 2.5, 3.5],
          "modifierNameSteps": ["FirstClick", "SecondClick", "ThirdClick"]
        }
      ],
      "modifiers": {
        "PowerOff": {
          "modifierName": "",
          "bonusCriticalHurt": 100.0,
          "onAdded": [
            {
              "$type": "EnableGadgetInteeMp"
            },
            {
              "$type": "SetAnimatorInt",
              "intID": "ScreenOn",
              "ratio": 0.0
            }
          ]
        },
        "PowerOn": {
          "modifierName": "",
          "bonusCriticalHurt": 100.0,
          "onAdded": [
            {
              "$type": "EnableGadgetInteeMp",
              "enable": true
            },
            {
              "$type": "SetAnimatorInt",
              "intID": "ScreenOn",
              "ratio": 0.0
            }
          ]
        },
        "ScreenEffectOn": {
          "modifierName": "",
          "duration": 0.10000000149011612,
          "bonusCriticalHurt": 100.0,
          "onAdded": [
            {
              "$type": "SetAnimatorInt",
              "intID": "ScreenOn",
              "ratio": 1.0
            },
            {
              "$type": "SetGlobalValue",
              "ratio": 0.0,
              "key": "GV_ButtonTimes",
              "maxValue": 0.0,
              "minValue": 0.0
            },
            {
              "$type": "ServerLuaTriggerEvent",
              "luaCallType": "FromGroup",
              "LCMLAHJEBKC": "OpenScreen",
              "MPPMFEDKGHC": 0.0,
              "BOKNHLDBKKK": 0.0,
              "CHOIIMHDNHK": 0.0
            }
          ]
        },
        "ScreenEffectOff": {
          "modifierName": "",
          "duration": 0.10000000149011612,
          "bonusCriticalHurt": 100.0,
          "onAdded": [
            {
              "$type": "SetAnimatorInt",
              "intID": "ScreenOn",
              "ratio": 0.0
            },
            {
              "$type": "ServerLuaTriggerEvent",
              "luaCallType": "FromGroup",
              "LCMLAHJEBKC": "CloseScreen",
              "MPPMFEDKGHC": 0.0,
              "BOKNHLDBKKK": 0.0,
              "CHOIIMHDNHK": 0.0
            }
          ]
        },
        "PressButtonModifier": {
          "modifierName": "",
          "duration": 0.10000000149011612,
          "bonusCriticalHurt": 100.0,
          "onAdded": [
            {
              "$type": "AddGlobalValue",
              "ratio": 1.0,
              "key": "GV_ButtonTimes",
              "useLimitRange": true,
              "maxValue": 4.0,
              "minValue": 0.0
            }
          ]
        },
        "FirstClick": {
          "modifierName": "",
          "bonusCriticalHurt": 100.0,
          "onAdded": [
            {
              "$type": "Predicated",
              "target": "AllPlayerAvatars",
              "targetPredicates": [
                {
                  "$type": "DFFODFONEJF"
                }
              ],
              "successActions": [
                {
                  "$type": "AttachModifier",
                  "target": "Target",
                  "modifierName": "NotifyUI01"
                }
              ]
            }
          ]
        },
        "SecondClick": {
          "modifierName": "",
          "bonusCriticalHurt": 100.0,
          "onAdded": [
            {
              "$type": "Predicated",
              "target": "AllPlayerAvatars",
              "targetPredicates": [
                {
                  "$type": "DFFODFONEJF"
                }
              ],
              "successActions": [
                {
                  "$type": "AttachModifier",
                  "target": "Target",
                  "modifierName": "NotifyUI02"
                }
              ]
            }
          ]
        },
        "ThirdClick": {
          "modifierName": "",
          "bonusCriticalHurt": 100.0,
          "onAdded": [
            {
              "$type": "Predicated",
              "target": "AllPlayerAvatars",
              "targetPredicates": [
                {
                  "$type": "DFFODFONEJF"
                }
              ],
              "successActions": [
                {
                  "$type": "ServerLuaTriggerEvent",
                  "luaCallType": "FromGroup",
                  "LCMLAHJEBKC": "TitanDriveFinish",
                  "MPPMFEDKGHC": 0.0,
                  "BOKNHLDBKKK": 0.0,
                  "CHOIIMHDNHK": 0.0
                },
                {
                  "$type": "AttachModifier",
                  "target": "Target",
                  "modifierName": "NotifyUI03"
                }
              ]
            }
          ]
        },
        "NotifyUI01": {
          "modifierName": "",
          "bonusCriticalHurt": 100.0,
          "onAdded": [
            {
              "$type": "NotifyUI",
              "NCFIPJKMNKD": "RobotControlPage",
              "FKLPGBEEIMF": "ShowReminder",
              "LODHMJLABGF": 33040100,
              "KFMDCCEEGGJ": ""
            }
          ]
        },
        "NotifyUI02": {
          "modifierName": "",
          "bonusCriticalHurt": 100.0,
          "onAdded": [
            {
              "$type": "NotifyUI",
              "NCFIPJKMNKD": "RobotControlPage",
              "FKLPGBEEIMF": "ShowReminder",
              "LODHMJLABGF": 33040101,
              "KFMDCCEEGGJ": ""
            }
          ]
        },
        "NotifyUI03": {
          "modifierName": "",
          "bonusCriticalHurt": 100.0,
          "onAdded": [
            {
              "$type": "NotifyUI",
              "NCFIPJKMNKD": "RobotControlPage",
              "FKLPGBEEIMF": "Close",
              "KFMDCCEEGGJ": ""
            }
          ]
        }
      },
      "onAdded": [
        {
          "$type": "SetGlobalValue",
          "ratio": 0.0,
          "key": "RobotMode",
          "maxValue": 0.0,
          "minValue": 0.0
        },
        {
          "$type": "SetGlobalValue",
          "ratio": 0.0,
          "key": "GV_ButtonTimes",
          "maxValue": 0.0,
          "minValue": 0.0
        }
      ]
    }
  },
  {
    "Default": {
      "$type": "ConfigAbility",
      "abilityName": "SceneObj_Area_Xm_Property_Prop_DisplayController_01_Ability",
      "onAdded": [
        {
          "$type": "ChangeTag",
          "isAdd": true,
          "tag": "RobotEyePoint"
        }
      ]
    }
  },
  {
    "Default": {
      "$type": "ConfigAbility",
      "abilityName": "SceneObj_Area_Xm_Property_Ani_Prop_TitanElevator_01_Ability",
      "abilityMixins": [
        {
          "$type": "AttachToGadgetStateMutexMixin",
          "gadgetStates": [0, 201, 202],
          "modifierNames": [
            ["DeactivateState"],
            ["ActiveState"],
            ["CheckState"]
          ]
        },
        {
          "$type": "FieldEntityCountChangeMixin",
          "campTargetType": "All",
          "targetPredicates": [
            {
              "$type": "ByEntityTypes",
              "entityTypes": ["Avatar"]
            }
          ],
          "NDFMBEFOFCC": true,
          "FIDNIDJEPFD": "AvatarCount",
          "JLKGLCGGLJD": true,
          "AIPILJKBJLI": 4.0,
          "PADAIOIPHKO": 0.0
        },
        {
          "$type": "DoActionOnGlobalValueChangeMixin",
          "globalValueKey": "AvatarCount",
          "actions": [
            {
              "$type": "SetGlobalValueToOverrideMap",
              "globalValueKey": "AvatarCount",
              "overrideMapKey": "AvatarCount"
            }
          ]
        }
      ],
      "abilitySpecials": {
        "AvatarCount": 0.0
      },
      "modifiers": {
        "TitanElevator_RecoverHandler": {
          "modifierName": "",
          "bonusCriticalHurt": 100.0,
          "LGJBJJBCBEH": [
            {
              "$type": "SetGlobalValue",
              "predicates": [
                {
                  "$type": "OIJAOPCOLNF"
                }
              ],
              "ratio": 0.0,
              "key": "AvatarCount",
              "maxValue": 0.0,
              "minValue": 0.0
            },
            {
              "$type": "SetGlobalValue",
              "predicates": [
                {
                  "$type": "OIJAOPCOLNF"
                }
              ],
              "ratio": 0.0,
              "key": "AvatarCount_OnSeal",
              "maxValue": 0.0,
              "minValue": 0.0
            }
          ]
        },
        "DeactivateState": {
          "modifierName": "",
          "bonusCriticalHurt": 100.0,
          "onAdded": [
            {
              "$type": "SetMaterialParamFloatByTransform",
              "matName": "Emission",
              "patternName": "_EmissionStrength",
              "ratio": 0.0
            },
            {
              "$type": "ChangeGadgetState",
              "otherTargets": {
                "$type": "CDFGNCHMNMA",
                "topLimit": 1,
                "sortType": "Nearest",
                "tag": "ElevatorSeal"
              }
            }
          ]
        },
        "ActiveState": {
          "modifierName": "",
          "bonusCriticalHurt": 100.0,
          "onAdded": [
            {
              "$type": "SetMaterialParamFloatByTransform",
              "matName": "Emission",
              "patternName": "_EmissionStrength",
              "ratio": 5.0
            },
            {
              "$type": "ChangeGadgetState",
              "otherTargets": {
                "$type": "CDFGNCHMNMA",
                "topLimit": 1,
                "sortType": "Nearest",
                "tag": "ElevatorSeal"
              },
              "MNIDCPKMMNN": 201
            }
          ]
        },
        "CheckState": {
          "modifierName": "",
          "bonusCriticalHurt": 100.0,
          "thinkInterval": 3.0,
          "onAdded": [
            {
              "$type": "SetMaterialParamFloatByTransform",
              "matName": "Emission",
              "patternName": "_EmissionStrength",
              "ratio": 5.0
            },
            {
              "$type": "ChangeGadgetState",
              "otherTargets": {
                "$type": "CDFGNCHMNMA",
                "topLimit": 1,
                "sortType": "Nearest",
                "tag": "ElevatorSeal"
              }
            }
          ],
          "onThinkInterval": [
            {
              "$type": "SetTargetNumToGlobalValue",
              "srcOtherTargets": {
                "$type": "SelectTargetsByShape",
                "shapeName": "CircleR5",
                "campTargetType": "Enemy",
                "OBHNBNDMPFN": 1.0
              },
              "srcPredicates": [
                {
                  "$type": "ByEntityTypes",
                  "entityTypes": ["Avatar"]
                },
                {
                  "$type": "HPJOHDHEPCG",
                  "logic": "GreaterOrEqual",
                  "compareType": "XYZ",
                  "ratio": 2.5
                }
              ],
              "dstTarget": "Self",
              "key": "AvatarCount_NotOnField",
              "maxValue": 0.0,
              "minValue": 0.0
            },
            {
              "$type": "Predicated",
              "targetPredicates": [
                {
                  "$type": "ByTargetGlobalValue",
                  "target": "Self",
                  "key": "AvatarCount_NotOnField",
                  "ratio": 0.0
                },
                {
                  "$type": "ByTargetGlobalValue",
                  "target": "Self",
                  "key": "AvatarCount",
                  "ratio": 0.0,
                  "compareType": "MoreThan"
                },
                {
                  "$type": "ByTargetGlobalValue",
                  "target": "Self",
                  "key": "AvatarCount_OnSeal",
                  "ratio": "AvatarCount"
                }
              ],
              "successActions": [
                {
                  "$type": "ChangeGadgetState",
                  "MNIDCPKMMNN": 201
                }
              ]
            }
          ]
        }
      },
      "onAdded": [
        {
          "$type": "ChangeTag",
          "isAdd": true,
          "tag": "Elevator"
        },
        {
          "$type": "ApplyModifier",
          "modifierName": "TitanElevator_RecoverHandler"
        }
      ]
    }
  },
  {
    "Default": {
      "$type": "ConfigAbility",
      "abilityName": "SceneObj_Area_Xm_Property_Prop_TitanElevatorSeal_01_Ability",
      "abilityMixins": [
        {
          "$type": "AttachToGadgetStateMutexMixin",
          "gadgetStates": [0, 201],
          "modifierNames": [["DeactivateState"], ["ActiveState"]]
        },
        {
          "$type": "FieldEntityCountChangeMixin",
          "campTargetType": "All",
          "targetPredicates": [
            {
              "$type": "ByEntityTypes",
              "entityTypes": ["Avatar"]
            }
          ],
          "NDFMBEFOFCC": true,
          "FIDNIDJEPFD": "AvatarCount",
          "JLKGLCGGLJD": true,
          "AIPILJKBJLI": 4.0,
          "PADAIOIPHKO": 0.0
        },
        {
          "$type": "DoActionOnGlobalValueChangeMixin",
          "globalValueKey": "AvatarCount",
          "actions": [
            {
              "$type": "SetGlobalValueToOverrideMap",
              "globalValueKey": "AvatarCount",
              "overrideMapKey": "AvatarCount"
            },
            {
              "$type": "ApplyModifier",
              "otherTargets": {
                "$type": "CDFGNCHMNMA",
                "topLimit": 1,
                "sortType": "Nearest",
                "tag": "Elevator"
              },
              "modifierName": "SetAvatarCount"
            }
          ]
        }
      ],
      "abilitySpecials": {
        "AvatarCount": 0.0
      },
      "modifiers": {
        "SetAvatarCount": {
          "stacking": "MultipleRefresh",
          "stackingOption": {
            "abilitySpecialName": "",
            "maxModifierNumForMultipleType": 1.0
          },
          "modifierName": "",
          "bonusCriticalHurt": 100.0,
          "onAdded": [
            {
              "$type": "SetGlobalValue",
              "ratio": "AvatarCount",
              "key": "AvatarCount_OnSeal",
              "maxValue": 0.0,
              "minValue": 0.0
            }
          ]
        },
        "DeactivateState": {
          "modifierName": "",
          "bonusCriticalHurt": 100.0,
          "onAdded": [
            {
              "$type": "SendEffectTrigger",
              "parameter": "Active",
              "EBBHBMFMOGD": "",
              "type": "Int",
              "healLimitedByCasterMaxHPRatio": "Eff_ScenObj_TitanElevatorSeal"
            },
            {
              "$type": "EnableSceneTransformByName",
              "transformNames": ["AirWall"]
            }
          ]
        },
        "ActiveState": {
          "modifierName": "",
          "bonusCriticalHurt": 100.0,
          "onAdded": [
            {
              "$type": "SendEffectTrigger",
              "parameter": "Active",
              "EBBHBMFMOGD": "",
              "type": "Int",
              "value": 1,
              "healLimitedByCasterMaxHPRatio": "Eff_ScenObj_TitanElevatorSeal"
            },
            {
              "$type": "EnableSceneTransformByName",
              "transformNames": ["AirWall"],
              "setEnable": true
            }
          ]
        }
      },
      "onAdded": [
        {
          "$type": "ChangeTag",
          "isAdd": true,
          "tag": "ElevatorSeal"
        }
      ]
    }
  },
  {
    "Default": {
      "$type": "ConfigAbility",
      "abilityName": "SceneObj_Area_Xm_Property_Prop_TitanElevatorButton_01_Ability",
      "abilityMixins": [
        {
          "$type": "AttachToGadgetStateMixin",
          "modifierName": "Disactive"
        },
        {
          "$type": "AttachToGadgetStateMixin",
          "gadgetState": 201,
          "modifierName": "Active"
        },
        {
          "$type": "AttachToGadgetStateMixin",
          "gadgetState": 202,
          "modifierName": "Active"
        },
        {
          "$type": "AttachToGadgetStateMixin",
          "gadgetState": 202,
          "modifierName": "Runing"
        }
      ],
      "modifiers": {
        "Disactive": {
          "modifierName": "",
          "bonusCriticalHurt": 100.0,
          "onAdded": [
            {
              "$type": "SetMaterialParamFloatByTransform",
              "matName": "mat",
              "patternName": "_EmissionStrength",
              "ratio": 0.0
            }
          ]
        },
        "Active": {
          "modifierName": "",
          "bonusCriticalHurt": 100.0,
          "onAdded": [
            {
              "$type": "AttachEffect",
              "healLimitedByCasterMaxHPRatio": "Eff_ScenObj_EnergyMachine_01_Active",
              "effectTempleteID": -1.0
            },
            {
              "$type": "SetMaterialParamFloatByTransform",
              "matName": "mat",
              "patternName": "_EmissionStrength",
              "ratio": 3.0
            }
          ]
        },
        "Runing": {
          "modifierName": "",
          "bonusCriticalHurt": 100.0,
          "onAdded": [
            {
              "$type": "FireEffect",
              "healLimitedByCasterMaxHPRatio": "Eff_ScenObj_EnergyMachine_Cover",
              "effectTempleteID": -1.0
            },
            {
              "$type": "ChangeGadgetState",
              "MNIDCPKMMNN": 201
            }
          ]
        }
      }
    }
  },
  {
    "Default": {
      "$type": "ConfigAbility",
      "abilityName": "SceneObj_Area_Xm_Property_Ani_Prop_EnergyMachine_01_Ability",
      "abilityMixins": [
        {
          "$type": "AttachToGadgetStateMixin",
          "modifierName": "DefaultState"
        },
        {
          "$type": "AttachToGadgetStateMixin",
          "gadgetState": 201,
          "modifierName": "ActiveState"
        },
        {
          "$type": "AttachModifierToSelfGlobalValueNoInitMixin",
          "globalValueKey": "SGV_MACHINE_ENERGY_LEVEL",
          "valueSteps": [-0.5, 0.5, 1.5],
          "modifierNameSteps": [
            "UNIQUE_EnergyRenderer_00",
            "UNIQUE_EnergyRenderer_01"
          ]
        },
        {
          "$type": "AttachModifierToSelfGlobalValueNoInitMixin",
          "globalValueKey": "SGV_MACHINE_ENERGY_LEVEL",
          "valueSteps": [-0.5, 0.5, 1.5],
          "modifierNameSteps": ["GadgetStateToDefault", "GadgetStateToActive"]
        }
      ],
      "modifiers": {
        "DefaultState": {
          "modifierName": "",
          "bonusCriticalHurt": 100.0
        },
        "ActiveState": {
          "modifierName": "",
          "bonusCriticalHurt": 100.0,
          "onAdded": [
            {
              "$type": "AttachModifier",
              "modifierName": "UNIQUE_EnergyRenderer_01"
            },
            {
              "$type": "AttachEffect",
              "healLimitedByCasterMaxHPRatio": "Eff_ScenObj_EnergyMachine_01_Active",
              "born": {
                "$type": "ConfigBornByAttachPoint",
                "attachPointName": "RootNode"
              },
              "effectTempleteID": -1.0
            }
          ]
        },
        "GadgetStateToDefault": {
          "modifierName": "",
          "bonusCriticalHurt": 100.0,
          "onAdded": [
            {
              "$type": "ExecuteGadgetLua"
            }
          ]
        },
        "GadgetStateToActive": {
          "modifierName": "",
          "bonusCriticalHurt": 100.0,
          "onAdded": [
            {
              "$type": "ExecuteGadgetLua",
              "param1": 201
            }
          ]
        },
        "UNIQUE_EnergyRenderer_00": {
          "modifierName": "",
          "isUnique": true,
          "duration": 1.0,
          "bonusCriticalHurt": 100.0,
          "onAdded": [
            {
              "$type": "ExecuteGadgetLua"
            },
            {
              "$type": "SetMaterialParamFloatByTransform",
              "matName": "matBase",
              "patternName": "_EmissionStrength",
              "ratio": 1.0
            },
            {
              "$type": "EnableSceneTransformByName",
              "transformNames": ["Stone01"]
            }
          ]
        },
        "UNIQUE_EnergyRenderer_01": {
          "modifierName": "",
          "isUnique": true,
          "duration": 1.0,
          "bonusCriticalHurt": 100.0,
          "onAdded": [
            {
              "$type": "ExecuteGadgetLua",
              "param1": 201
            },
            {
              "$type": "FireEffect",
              "healLimitedByCasterMaxHPRatio": "Eff_ScenObj_EnergyMachine_Cover",
              "born": {
                "$type": "ConfigBornByAttachPoint",
                "attachPointName": "Energy01"
              },
              "effectTempleteID": -1.0
            },
            {
              "$type": "SetMaterialParamFloatByTransform",
              "matName": "matBase",
              "patternName": "_EmissionStrength",
              "ratio": 2.5
            },
            {
              "$type": "EnableSceneTransformByName",
              "transformNames": ["Stone01"],
              "setEnable": true
            }
          ]
        }
      },
      "onAdded": [
        {
          "$type": "AttachModifier",
          "modifierName": "UNIQUE_EnergyRenderer_00"
        }
      ]
    }
  },
  {
    "Default": {
      "$type": "ConfigAbility",
      "abilityName": "SceneObj_Area_Xm_Property_Ani_Prop_EnergyMachine_02_Ability",
      "abilityMixins": [
        {
          "$type": "AttachToGadgetStateMixin",
          "modifierName": "DefaultState"
        },
        {
          "$type": "AttachToGadgetStateMixin",
          "gadgetState": 201,
          "modifierName": "ActiveState"
        },
        {
          "$type": "AttachModifierToSelfGlobalValueNoInitMixin",
          "globalValueKey": "SGV_MACHINE_ENERGY_LEVEL",
          "valueSteps": [-0.5, 0.5, 1.5, 2.5],
          "modifierNameSteps": [
            "UNIQUE_EnergyRenderer_00",
            "UNIQUE_EnergyRenderer_01",
            "UNIQUE_EnergyRenderer_02"
          ]
        },
        {
          "$type": "AttachModifierToSelfGlobalValueNoInitMixin",
          "globalValueKey": "SGV_MACHINE_ENERGY_LEVEL",
          "valueSteps": [-0.5, 1.5, 2.5],
          "modifierNameSteps": ["GadgetStateToDefault", "GadgetStateToActive"]
        }
      ],
      "modifiers": {
        "DefaultState": {
          "modifierName": "",
          "bonusCriticalHurt": 100.0
        },
        "ActiveState": {
          "modifierName": "",
          "bonusCriticalHurt": 100.0,
          "onAdded": [
            {
              "$type": "AttachModifier",
              "modifierName": "UNIQUE_EnergyRenderer_02"
            },
            {
              "$type": "AttachEffect",
              "healLimitedByCasterMaxHPRatio": "Eff_ScenObj_EnergyMachine_02_Active",
              "born": {
                "$type": "ConfigBornByAttachPoint",
                "attachPointName": "RootNode"
              },
              "effectTempleteID": -1.0
            }
          ]
        },
        "GadgetStateToDefault": {
          "modifierName": "",
          "bonusCriticalHurt": 100.0,
          "onAdded": [
            {
              "$type": "ExecuteGadgetLua"
            }
          ]
        },
        "GadgetStateToActive": {
          "modifierName": "",
          "bonusCriticalHurt": 100.0,
          "onAdded": [
            {
              "$type": "ExecuteGadgetLua",
              "param1": 201
            }
          ]
        },
        "UNIQUE_EnergyRenderer_00": {
          "modifierName": "",
          "isUnique": true,
          "duration": 1.0,
          "bonusCriticalHurt": 100.0,
          "onAdded": [
            {
              "$type": "ExecuteGadgetLua"
            },
            {
              "$type": "SetMaterialParamFloatByTransform",
              "matName": "matBase",
              "patternName": "_EmissionStrength",
              "ratio": 1.0
            },
            {
              "$type": "EnableSceneTransformByName",
              "transformNames": ["Stone01"]
            },
            {
              "$type": "EnableSceneTransformByName",
              "transformNames": ["Stone02"]
            }
          ]
        },
        "UNIQUE_EnergyRenderer_01": {
          "modifierName": "",
          "isUnique": true,
          "duration": 1.0,
          "bonusCriticalHurt": 100.0,
          "onAdded": [
            {
              "$type": "FireEffect",
              "healLimitedByCasterMaxHPRatio": "Eff_ScenObj_EnergyMachine_Cover",
              "born": {
                "$type": "ConfigBornByAttachPoint",
                "attachPointName": "Energy01"
              },
              "effectTempleteID": -1.0
            },
            {
              "$type": "SetMaterialParamFloatByTransform",
              "matName": "matBase",
              "patternName": "_EmissionStrength",
              "ratio": 1.0
            },
            {
              "$type": "EnableSceneTransformByName",
              "transformNames": ["Stone01"],
              "setEnable": true
            },
            {
              "$type": "EnableSceneTransformByName",
              "transformNames": ["Stone02"]
            }
          ]
        },
        "UNIQUE_EnergyRenderer_02": {
          "modifierName": "",
          "isUnique": true,
          "duration": 1.0,
          "bonusCriticalHurt": 100.0,
          "onAdded": [
            {
              "$type": "ExecuteGadgetLua",
              "param1": 201
            },
            {
              "$type": "FireEffect",
              "healLimitedByCasterMaxHPRatio": "Eff_ScenObj_EnergyMachine_Cover",
              "born": {
                "$type": "ConfigBornByAttachPoint",
                "attachPointName": "Energy02"
              },
              "effectTempleteID": -1.0
            },
            {
              "$type": "SetMaterialParamFloatByTransform",
              "matName": "matBase",
              "patternName": "_EmissionStrength",
              "ratio": 2.5
            },
            {
              "$type": "EnableSceneTransformByName",
              "transformNames": ["Stone01"],
              "setEnable": true
            },
            {
              "$type": "EnableSceneTransformByName",
              "transformNames": ["Stone02"],
              "setEnable": true
            }
          ]
        }
      },
      "onAdded": [
        {
          "$type": "AttachModifier",
          "modifierName": "UNIQUE_EnergyRenderer_00"
        }
      ]
    }
  },
  {
    "Default": {
      "$type": "ConfigAbility",
      "abilityName": "SceneObj_Area_Xm_Property_Ani_Prop_EnergyMachine_03_Ability",
      "abilityMixins": [
        {
          "$type": "AttachToGadgetStateMixin",
          "modifierName": "DefaultState"
        },
        {
          "$type": "AttachToGadgetStateMixin",
          "gadgetState": 201,
          "modifierName": "ActiveState"
        },
        {
          "$type": "AttachModifierToSelfGlobalValueNoInitMixin",
          "globalValueKey": "SGV_MACHINE_ENERGY_LEVEL",
          "valueSteps": [-0.5, 0.5, 1.5, 2.5, 3.5],
          "modifierNameSteps": [
            "UNIQUE_EnergyRenderer_00",
            "UNIQUE_EnergyRenderer_01",
            "UNIQUE_EnergyRenderer_02",
            "UNIQUE_EnergyRenderer_03"
          ]
        },
        {
          "$type": "AttachModifierToSelfGlobalValueNoInitMixin",
          "globalValueKey": "SGV_MACHINE_ENERGY_LEVEL",
          "valueSteps": [-0.5, 2.5, 3.5],
          "modifierNameSteps": ["GadgetStateToDefault", "GadgetStateToActive"]
        }
      ],
      "modifiers": {
        "DefaultState": {
          "modifierName": "",
          "bonusCriticalHurt": 100.0
        },
        "ActiveState": {
          "modifierName": "",
          "bonusCriticalHurt": 100.0,
          "onAdded": [
            {
              "$type": "AttachModifier",
              "modifierName": "UNIQUE_EnergyRenderer_03"
            },
            {
              "$type": "AttachEffect",
              "healLimitedByCasterMaxHPRatio": "Eff_ScenObj_EnergyMachine_03_Active",
              "born": {
                "$type": "ConfigBornByAttachPoint",
                "attachPointName": "RootNode"
              },
              "effectTempleteID": -1.0
            }
          ]
        },
        "GadgetStateToDefault": {
          "modifierName": "",
          "bonusCriticalHurt": 100.0,
          "onAdded": [
            {
              "$type": "ExecuteGadgetLua"
            }
          ]
        },
        "GadgetStateToActive": {
          "modifierName": "",
          "bonusCriticalHurt": 100.0,
          "onAdded": [
            {
              "$type": "ExecuteGadgetLua",
              "param1": 201
            }
          ]
        },
        "UNIQUE_EnergyRenderer_00": {
          "modifierName": "",
          "isUnique": true,
          "duration": 1.0,
          "bonusCriticalHurt": 100.0,
          "onAdded": [
            {
              "$type": "ExecuteGadgetLua"
            },
            {
              "$type": "SetMaterialParamFloatByTransform",
              "matName": "matBase",
              "patternName": "_EmissionStrength",
              "ratio": 1.0
            },
            {
              "$type": "EnableSceneTransformByName",
              "transformNames": ["Stone01"]
            },
            {
              "$type": "EnableSceneTransformByName",
              "transformNames": ["Stone02"]
            },
            {
              "$type": "EnableSceneTransformByName",
              "transformNames": ["Stone03"]
            }
          ]
        },
        "UNIQUE_EnergyRenderer_01": {
          "modifierName": "",
          "isUnique": true,
          "duration": 1.0,
          "bonusCriticalHurt": 100.0,
          "onAdded": [
            {
              "$type": "FireEffect",
              "healLimitedByCasterMaxHPRatio": "Eff_ScenObj_EnergyMachine_Cover",
              "born": {
                "$type": "ConfigBornByAttachPoint",
                "attachPointName": "Energy01"
              },
              "effectTempleteID": -1.0
            },
            {
              "$type": "SetMaterialParamFloatByTransform",
              "matName": "matBase",
              "patternName": "_EmissionStrength",
              "ratio": 1.0
            },
            {
              "$type": "EnableSceneTransformByName",
              "transformNames": ["Stone01"],
              "setEnable": true
            },
            {
              "$type": "EnableSceneTransformByName",
              "transformNames": ["Stone02"]
            },
            {
              "$type": "EnableSceneTransformByName",
              "transformNames": ["Stone03"]
            }
          ]
        },
        "UNIQUE_EnergyRenderer_02": {
          "modifierName": "",
          "isUnique": true,
          "duration": 1.0,
          "bonusCriticalHurt": 100.0,
          "onAdded": [
            {
              "$type": "FireEffect",
              "healLimitedByCasterMaxHPRatio": "Eff_ScenObj_EnergyMachine_Cover",
              "born": {
                "$type": "ConfigBornByAttachPoint",
                "attachPointName": "Energy02"
              },
              "effectTempleteID": -1.0
            },
            {
              "$type": "SetMaterialParamFloatByTransform",
              "matName": "matBase",
              "patternName": "_EmissionStrength",
              "ratio": 1.0
            },
            {
              "$type": "EnableSceneTransformByName",
              "transformNames": ["Stone01"],
              "setEnable": true
            },
            {
              "$type": "EnableSceneTransformByName",
              "transformNames": ["Stone02"],
              "setEnable": true
            },
            {
              "$type": "EnableSceneTransformByName",
              "transformNames": ["Stone03"]
            }
          ]
        },
        "UNIQUE_EnergyRenderer_03": {
          "modifierName": "",
          "isUnique": true,
          "duration": 1.0,
          "bonusCriticalHurt": 100.0,
          "onAdded": [
            {
              "$type": "ExecuteGadgetLua",
              "param1": 201
            },
            {
              "$type": "FireEffect",
              "healLimitedByCasterMaxHPRatio": "Eff_ScenObj_EnergyMachine_Cover",
              "born": {
                "$type": "ConfigBornByAttachPoint",
                "attachPointName": "Energy03"
              },
              "effectTempleteID": -1.0
            },
            {
              "$type": "SetMaterialParamFloatByTransform",
              "matName": "matBase",
              "patternName": "_EmissionStrength",
              "ratio": 2.5
            },
            {
              "$type": "EnableSceneTransformByName",
              "transformNames": ["Stone01"],
              "setEnable": true
            },
            {
              "$type": "EnableSceneTransformByName",
              "transformNames": ["Stone02"],
              "setEnable": true
            },
            {
              "$type": "EnableSceneTransformByName",
              "transformNames": ["Stone03"],
              "setEnable": true
            }
          ]
        }
      },
      "onAdded": [
        {
          "$type": "AttachModifier",
          "modifierName": "UNIQUE_EnergyRenderer_00"
        }
      ]
    }
  },
  {
    "Default": {
      "$type": "ConfigAbility",
      "abilityName": "SceneObj_Area_Xm_Property_Ani_Prop_EnergyCell_01_Ability",
      "abilityMixins": [
        {
          "$type": "AttachToGadgetStateMixin",
          "modifierName": "DefaultState"
        },
        {
          "$type": "AttachToGadgetStateMixin",
          "gadgetState": 201,
          "modifierName": "ActiveState"
        }
      ],
      "modifiers": {
        "DefaultState": {
          "modifierName": "",
          "bonusCriticalHurt": 100.0
        },
        "ActiveState": {
          "modifierName": "",
          "bonusCriticalHurt": 100.0,
          "onAdded": [
            {
              "$type": "AttachEffect",
              "healLimitedByCasterMaxHPRatio": "Eff_ScenObj_EnergyCell_Active",
              "effectTempleteID": -1.0
            }
          ]
        }
      }
    }
  },
  {
    "Default": {
      "$type": "ConfigAbility",
      "abilityName": "SceneObj_Area_Xm_Property_Ani_Prop_EnergyLine_01_Ability",
      "abilityMixins": [
        {
          "$type": "AttachToGadgetStateMixin",
          "modifierName": "DefaultState"
        },
        {
          "$type": "AttachToGadgetStateMixin",
          "gadgetState": 201,
          "modifierName": "ActiveState"
        }
      ],
      "modifiers": {
        "DefaultState": {
          "modifierName": "",
          "bonusCriticalHurt": 100.0
        },
        "ActiveState": {
          "modifierName": "",
          "bonusCriticalHurt": 100.0,
          "onAdded": [
            {
              "$type": "AttachEffect",
              "healLimitedByCasterMaxHPRatio": "Eff_ScenObj_EnergyLine_Active_01",
              "effectTempleteID": -1.0
            }
          ]
        }
      }
    }
  },
  {
    "Default": {
      "$type": "ConfigAbility",
      "abilityName": "SceneObj_Area_Xm_Property_Ani_Prop_EnergyLine_02_Ability",
      "abilityMixins": [
        {
          "$type": "AttachToGadgetStateMixin",
          "modifierName": "DefaultState"
        },
        {
          "$type": "AttachToGadgetStateMixin",
          "gadgetState": 201,
          "modifierName": "ActiveState"
        }
      ],
      "modifiers": {
        "DefaultState": {
          "modifierName": "",
          "bonusCriticalHurt": 100.0
        },
        "ActiveState": {
          "modifierName": "",
          "bonusCriticalHurt": 100.0,
          "onAdded": [
            {
              "$type": "AttachEffect",
              "healLimitedByCasterMaxHPRatio": "Eff_ScenObj_EnergyLine_Active_02",
              "effectTempleteID": -1.0
            }
          ]
        }
      }
    }
  },
  {
    "Default": {
      "$type": "ConfigAbility",
      "abilityName": "SceneObj_Area_Xm_Property_Ani_Prop_EnergyLine_03_Ability",
      "abilityMixins": [
        {
          "$type": "AttachToGadgetStateMixin",
          "modifierName": "DefaultState"
        },
        {
          "$type": "AttachToGadgetStateMixin",
          "gadgetState": 201,
          "modifierName": "ActiveState"
        }
      ],
      "modifiers": {
        "DefaultState": {
          "modifierName": "",
          "bonusCriticalHurt": 100.0
        },
        "ActiveState": {
          "modifierName": "",
          "bonusCriticalHurt": 100.0,
          "onAdded": [
            {
              "$type": "AttachEffect",
              "healLimitedByCasterMaxHPRatio": "Eff_ScenObj_EnergyLine_Active_03",
              "effectTempleteID": -1.0
            }
          ]
        }
      }
    }
  },
  {
    "Default": {
      "$type": "ConfigAbility",
      "abilityName": "SceneObj_Area_Xm_Property_Ani_Prop_EnergyNode_01_Ability",
      "abilityMixins": [
        {
          "$type": "AttachToGadgetStateMixin",
          "modifierName": "DefaultState"
        },
        {
          "$type": "AttachToGadgetStateMixin",
          "gadgetState": 201,
          "modifierName": "ActiveState"
        }
      ],
      "modifiers": {
        "DefaultState": {
          "modifierName": "",
          "bonusCriticalHurt": 100.0
        },
        "ActiveState": {
          "modifierName": "",
          "bonusCriticalHurt": 100.0,
          "onAdded": [
            {
              "$type": "AttachEffect",
              "healLimitedByCasterMaxHPRatio": "Eff_ScenObj_EnergyNode_Active",
              "effectTempleteID": -1.0
            }
          ]
        }
      }
    }
  },
  {
    "Default": {
      "$type": "ConfigAbility",
      "abilityName": "SceneObj_Area_Xm_Property_Ani_Prop_EnergyStone_01_Ability",
      "abilityMixins": [
        {
          "$type": "AttachToGadgetStateMixin",
          "modifierName": "DefaultState"
        },
        {
          "$type": "AttachToGadgetStateMixin",
          "gadgetState": 201,
          "modifierName": "ActiveState"
        },
        {
          "$type": "AttachToGadgetStateMixin",
          "gadgetState": 202,
          "modifierName": "DeadState"
        }
      ],
      "modifiers": {
        "DefaultState": {
          "modifierName": "",
          "bonusCriticalHurt": 100.0,
          "onAdded": [
            {
              "$type": "AttachModifier",
              "modifierName": "UNIQUE_ElectricEffect"
            },
            {
              "$type": "EnableSceneTransformByName",
              "transformNames": ["Obj"],
              "setEnable": true
            }
          ]
        },
        "ActiveState": {
          "modifierName": "",
          "bonusCriticalHurt": 100.0,
          "onAdded": [
            {
              "$type": "AttachModifier",
              "modifierName": "UNIQUE_ElectricEffect"
            },
            {
              "$type": "EnableSceneTransformByName",
              "transformNames": ["Obj"],
              "setEnable": true
            }
          ]
        },
        "DeadState": {
          "modifierName": "",
          "bonusCriticalHurt": 100.0,
          "onAdded": [
            {
              "$type": "EnableSceneTransformByName",
              "transformNames": ["Obj"]
            },
            {
              "$type": "RemoveModifier",
              "modifierName": "UNIQUE_ElectricEffect"
            }
          ]
        },
        "UNIQUE_ElectricEffect": {
          "stacking": "Unique",
          "modifierName": "",
          "isUnique": true,
          "bonusCriticalHurt": 100.0,
          "onAdded": [
            {
              "$type": "AttachEffect",
              "healLimitedByCasterMaxHPRatio": "Eff_ScenObj_EnergyShitou_Await",
              "born": {
                "$type": "ConfigBornByAttachPoint",
                "attachPointName": "AttachPoint"
              },
              "effectTempleteID": -1.0
            }
          ]
        }
      }
    }
  },
  {
    "Default": {
      "$type": "ConfigAbility",
      "abilityName": "SceneObj_Area_Xm_Property_Ani_Prop_CircularGate_01_Ability",
      "abilityMixins": [
        {
          "$type": "AttachToGadgetStateMixin",
          "modifierName": "CloseState"
        },
        {
          "$type": "AttachToGadgetStateMixin",
          "gadgetState": 201,
          "modifierName": "OpenState"
        },
        {
          "$type": "AttachToGadgetStateMixin",
          "gadgetState": 901,
          "modifierName": "PreState"
        }
      ],
      "modifiers": {
        "CloseState": {
          "modifierName": "",
          "bonusCriticalHurt": 100.0,
          "onAdded": [
            {
              "$type": "EnableSceneTransformByName",
              "transformNames": ["Destroyed"]
            },
            {
              "$type": "EnableSceneTransformByName",
              "transformNames": ["Repaired"],
              "setEnable": true
            },
            {
              "$type": "EnableSceneTransformByName",
              "transformNames": ["Collider"],
              "setEnable": true
            }
          ]
        },
        "OpenState": {
          "modifierName": "",
          "bonusCriticalHurt": 100.0,
          "onAdded": [
            {
              "$type": "EnableSceneTransformByName",
              "transformNames": ["Destroyed"]
            },
            {
              "$type": "EnableSceneTransformByName",
              "transformNames": ["Repaired"],
              "setEnable": true
            },
            {
              "$type": "ApplyModifier",
              "modifierName": "DisableCollider"
            }
          ]
        },
        "PreState": {
          "modifierName": "",
          "bonusCriticalHurt": 100.0,
          "onAdded": [
            {
              "$type": "EnableSceneTransformByName",
              "transformNames": ["Destroyed"],
              "setEnable": true
            },
            {
              "$type": "EnableSceneTransformByName",
              "transformNames": ["Repaired"]
            }
          ]
        },
        "DisableCollider": {
          "modifierName": "",
          "duration": 1.5,
          "bonusCriticalHurt": 100.0,
          "onRemoved": [
            {
              "$type": "EnableSceneTransformByName",
              "transformNames": ["Collider"]
            }
          ]
        }
      },
      "onAdded": [
        {
          "$type": "EnableSceneTransformByName",
          "predicates": [
            {
              "$type": "MCODPFDFBAF",
              "gadgetState": 201
            }
          ],
          "transformNames": ["Collider"]
        }
      ]
    }
  },
  {
    "Default": {
      "$type": "ConfigAbility",
      "abilityName": "SceneObj_Area_Xm_Property_Ani_Prop_PolygonGate_01_Ability",
      "abilityMixins": [
        {
          "$type": "AttachToGadgetStateMixin",
          "modifierName": "DefaultState"
        },
        {
          "$type": "AttachToGadgetStateMixin",
          "gadgetState": 201,
          "modifierName": "ActiveState"
        }
      ],
      "modifiers": {
        "DefaultState": {
          "modifierName": "",
          "bonusCriticalHurt": 100.0
        },
        "ActiveState": {
          "modifierName": "",
          "bonusCriticalHurt": 100.0
        }
      }
    }
  },
  {
    "Default": {
      "$type": "ConfigAbility",
      "abilityName": "SceneObj_Area_Xm_Property_Ani_Prop_GrilleGate_01_Ability",
      "abilityMixins": [
        {
          "$type": "AttachToGadgetStateMixin",
          "modifierName": "DefaultState"
        },
        {
          "$type": "AttachToGadgetStateMixin",
          "gadgetState": 201,
          "modifierName": "ActiveState"
        }
      ],
      "modifiers": {
        "DefaultState": {
          "modifierName": "",
          "bonusCriticalHurt": 100.0
        },
        "ActiveState": {
          "modifierName": "",
          "bonusCriticalHurt": 100.0
        }
      }
    }
  },
  {
    "Default": {
      "$type": "ConfigAbility",
      "abilityName": "SceneObj_Area_Xm_Property_Ani_Prop_CockpitGate_01_Ability",
      "abilityMixins": [
        {
          "$type": "AttachToGadgetStateMixin",
          "modifierName": "DefaultState"
        },
        {
          "$type": "AttachToGadgetStateMixin",
          "gadgetState": 201,
          "modifierName": "ActiveState"
        }
      ],
      "modifiers": {
        "DefaultState": {
          "modifierName": "",
          "bonusCriticalHurt": 100.0
        },
        "ActiveState": {
          "modifierName": "",
          "bonusCriticalHurt": 100.0,
          "onAdded": [
            {
              "$type": "FireEffect",
              "healLimitedByCasterMaxHPRatio": "Eff_SceneObj_CockpitGate_Active",
              "effectTempleteID": -1.0
            },
            {
              "$type": "FireEffect",
              "healLimitedByCasterMaxHPRatio": "Eff_SceneObj_CockpitGate_Glow",
              "born": {
                "$type": "ConfigBornByAttachPoint",
                "attachPointName": "Glow"
              },
              "effectTempleteID": -1.0
            }
          ]
        }
      }
    }
  }
]
