[
  {
    "Default": {
      "$type": "ConfigAbility",
      "abilityName": "SceneObj_Area_Dq_Property_Decal_TsurumiSigil_01",
      "abilityMixins": [
        {
          "$type": "AttachToGadgetStateMixin",
          "modifierName": ""
        },
        {
          "$type": "AttachToGadgetStateMixin",
          "gadgetState": 201,
          "modifierName": ""
        },
        {
          "$type": "AttachToGadgetStateMixin",
          "gadgetState": 202,
          "modifierName": ""
        }
      ]
    }
  },
  {
    "Default": {
      "$type": "ConfigAbility",
      "abilityName": "SceneObj_Area_Dq_Property_Ani_Prop_TsurumiRunestone_02",
      "onAdded": [
        {
          "$type": "AttachEffect",
          "healLimitedByCasterMaxHPRatio": "Eff_Item_Hint_Small",
          "effectTempleteID": -1.0
        }
      ]
    }
  },
  {
    "Default": {
      "$type": "ConfigAbility",
      "abilityName": "SceneObj_Area_Dq_Property_Build_ReginStatue_01",
      "abilityMixins": [
        {
          "$type": "AttachToGadgetStateMixin",
          "modifierName": ""
        },
        {
          "$type": "AttachToGadgetStateMixin",
          "gadgetState": 201,
          "modifierName": "ReginListener"
        }
      ],
      "modifiers": {
        "SLC_CallReginStatueGroup": {
          "modifierName": "",
          "bonusCriticalHurt": 100.0,
          "onAdded": [
            {
              "$type": "DebugLog",
              "content": "### Tsurumi Call Group"
            },
            {
              "$type": "ServerLuaCall",
              "luaCallType": "FromGroup",
              "isTarget": true,
              "funcName": "SLC_CallTsurumiGroup",
              "MPPMFEDKGHC": 0.0,
              "BOKNHLDBKKK": 0.0,
              "CHOIIMHDNHK": 0.0
            }
          ]
        },
        "ReginListener": {
          "modifierName": "",
          "bonusCriticalHurt": 100.0,
          "modifierMixins": [
            {
              "$type": "AttachModifierToSelfGlobalValueMixin",
              "globalValueKey": "GV_ReginSignal",
              "defaultGlobalValueOnCreate": 0.0,
              "valueSteps": [0.5, 20.0],
              "modifierNameSteps": ["SLC_CallReginStatueGroup"]
            }
          ]
        }
      },
      "onAdded": [
        {
          "$type": "SetGlobalValue",
          "ratio": 1.0,
          "key": "GV_ReginGadget",
          "maxValue": 0.0,
          "minValue": 0.0
        },
        {
          "$type": "SetGlobalValue",
          "ratio": 0.0,
          "key": "GV_ReginSignal",
          "maxValue": 0.0,
          "minValue": 0.0
        }
      ]
    }
  },
  {
    "Default": {
      "$type": "ConfigAbility",
      "abilityName": "SceneObj_Area_Dq_Property_Ani_Prop_TsurumiRunestone_01",
      "abilityMixins": [
        {
          "$type": "AttachToGadgetStateMixin",
          "modifierName": "Basement"
        },
        {
          "$type": "AttachToGadgetStateMixin",
          "gadgetState": 201,
          "modifierName": "FullState"
        },
        {
          "$type": "AttachToGadgetStateMixin",
          "gadgetState": 202,
          "modifierName": "Basement2"
        }
      ],
      "modifiers": {
        "Basement": {
          "modifierName": "",
          "bonusCriticalHurt": 100.0,
          "onAdded": [
            {
              "$type": "EnableSceneTransformByName",
              "transformNames": ["Top"]
            },
            {
              "$type": "EnableSceneTransformByName",
              "transformNames": ["Decal"]
            },
            {
              "$type": "EnableSceneTransformByName",
              "transformNames": ["Decal2"]
            },
            {
              "$type": "AttachEffect",
              "healLimitedByCasterMaxHPRatio": "Eff_Item_Hint_Small",
              "effectTempleteID": -1.0
            }
          ]
        },
        "FullState": {
          "modifierName": "",
          "bonusCriticalHurt": 100.0,
          "onAdded": [
            {
              "$type": "FireEffect",
              "healLimitedByCasterMaxHPRatio": "Eff_SceneObj_Common_Rock_Appear_01",
              "effectTempleteID": -1.0
            },
            {
              "$type": "EnableSceneTransformByName",
              "transformNames": ["Top"],
              "setEnable": true
            },
            {
              "$type": "EnableSceneTransformByName",
              "transformNames": ["Decal"]
            },
            {
              "$type": "EnableSceneTransformByName",
              "transformNames": ["Decal2"]
            }
          ]
        },
        "Basement2": {
          "modifierName": "",
          "bonusCriticalHurt": 100.0,
          "onAdded": [
            {
              "$type": "EnableSceneTransformByName",
              "transformNames": ["Top"]
            },
            {
              "$type": "EnableSceneTransformByName",
              "transformNames": ["Decal"]
            },
            {
              "$type": "EnableSceneTransformByName",
              "transformNames": ["Decal2"]
            }
          ]
        }
      }
    }
  },
  {
    "Default": {
      "$type": "ConfigAbility",
      "abilityName": "SceneObj_Area_Dq_Property_Ani_Prop_TsurumiSigilRunestone_01",
      "abilityMixins": [
        {
          "$type": "AttachToGadgetStateMixin",
          "modifierName": ""
        },
        {
          "$type": "AttachToGadgetStateMixin",
          "gadgetState": 201,
          "modifierName": "rightEffect"
        },
        {
          "$type": "AttachToGadgetStateMixin",
          "gadgetState": 202,
          "modifierName": ""
        },
        {
          "$type": "AttachToGadgetStateMixin",
          "gadgetState": 203,
          "modifierName": "moveEffect"
        }
      ],
      "modifiers": {
        "moveEffect": {
          "modifierName": "",
          "bonusCriticalHurt": 100.0,
          "onAdded": [
            {
              "$type": "AttachEffect",
              "healLimitedByCasterMaxHPRatio": "Eff_SceneObj_Common_Ground_SandSpawn_01",
              "effectTempleteID": -1.0
            }
          ]
        },
        "rightEffect": {
          "modifierName": "",
          "bonusCriticalHurt": 100.0,
          "onAdded": [
            {
              "$type": "FireEffect",
              "healLimitedByCasterMaxHPRatio": "Eff_SceneObj_TsurumiSigilRunestone_01",
              "effectTempleteID": -1.0
            }
          ]
        }
      }
    }
  },
  {
    "Default": {
      "$type": "ConfigAbility",
      "abilityName": "SceneObj_Area_Dq_Property_Ani_Prop_TsurumiSigilRunestone_02",
      "abilityMixins": [
        {
          "$type": "AttachToGadgetStateMixin",
          "modifierName": "Hidden"
        },
        {
          "$type": "AttachToGadgetStateMixin",
          "gadgetState": 201,
          "modifierName": ""
        },
        {
          "$type": "AttachToGadgetStateMixin",
          "gadgetState": 202,
          "modifierName": "Breathe"
        }
      ],
      "modifiers": {
        "Hidden": {
          "modifierName": "",
          "bonusCriticalHurt": 100.0,
          "onAdded": [
            {
              "$type": "EnableSceneTransformByName",
              "transformNames": ["Decal"]
            },
            {
              "$type": "EnableSceneTransformByName",
              "transformNames": ["Decal2"]
            }
          ]
        },
        "Breathe": {
          "modifierName": "",
          "bonusCriticalHurt": 100.0,
          "onAdded": [
            {
              "$type": "EnableSceneTransformByName",
              "transformNames": ["Decal"],
              "setEnable": true
            },
            {
              "$type": "EnableSceneTransformByName",
              "transformNames": ["Decal2"],
              "setEnable": true
            }
          ],
          "onBeingHit": [
            {
              "$type": "DebugLog",
              "content": "### Tsurumi Stone be hit"
            },
            {
              "$type": "FireEffect",
              "healLimitedByCasterMaxHPRatio": "Eff_SceneObj_TsurumiSigilRunestone_01",
              "effectTempleteID": -1.0
            },
            {
              "$type": "ExecuteGadgetLua",
              "param1": 201
            }
          ]
        }
      }
    }
  },
  {
    "Default": {
      "$type": "ConfigAbility",
      "abilityName": "SceneObj_Area_Dq_Property_Build_RuinLampLight_01",
      "abilityMixins": [
        {
          "$type": "AttachToGadgetStateMixin",
          "modifierName": "Dark"
        },
        {
          "$type": "AttachToGadgetStateMixin",
          "gadgetState": 201,
          "modifierName": "LightUp"
        }
      ],
      "modifiers": {
        "Dark": {
          "modifierName": "",
          "bonusCriticalHurt": 100.0,
          "onAdded": [
            {
              "$type": "RemoveModifier",
              "modifierName": "LightUp"
            }
          ]
        },
        "LightUp": {
          "modifierName": "",
          "bonusCriticalHurt": 100.0,
          "onAdded": [
            {
              "$type": "AttachEffect",
              "healLimitedByCasterMaxHPRatio": "Eff_SceneObj_RuinLampLight",
              "scale": 1.5,
              "effectTempleteID": -1.0
            }
          ],
          "onRemoved": [
            {
              "$type": "FireEffect",
              "healLimitedByCasterMaxHPRatio": "Eff_SceneObj_RuinLampLight_Disappear",
              "scale": 1.5,
              "effectTempleteID": -1.0
            }
          ]
        }
      }
    }
  },
  {
    "Default": {
      "$type": "ConfigAbility",
      "abilityName": "SceneObj_Area_Dq_Property_Prop_ReginLamp_01",
      "abilityMixins": [
        {
          "$type": "AttachToGadgetStateMixin",
          "modifierName": "Wink"
        },
        {
          "$type": "AttachToGadgetStateMixin",
          "gadgetState": 201,
          "modifierName": "Active"
        }
      ],
      "modifiers": {
        "Wink": {
          "modifierName": "",
          "bonusCriticalHurt": 100.0,
          "onAdded": [
            {
              "$type": "AttachEffect",
              "healLimitedByCasterMaxHPRatio": "Eff_SceneObj_ReginLamp",
              "effectTempleteID": -1.0
            },
            {
              "$type": "SetGlobalValue",
              "ratio": 0.0,
              "key": "IS_TSURUMIMIST_POINT",
              "maxValue": 0.0,
              "minValue": 0.0
            }
          ],
          "onBeingHit": [
            {
              "$type": "ExecuteGadgetLua",
              "predicates": [
                {
                  "$type": "OIEGBANNLOG",
                  "CIMNBKFMPGD": "Electric"
                }
              ],
              "param1": 201
            }
          ]
        },
        "Active": {
          "modifierName": "",
          "bonusCriticalHurt": 100.0,
          "onAdded": [
            {
              "$type": "SetGlobalValue",
              "ratio": 1.0,
              "key": "IS_TSURUMIMIST_POINT",
              "maxValue": 0.0,
              "minValue": 0.0
            },
            {
              "$type": "AttachEffect",
              "healLimitedByCasterMaxHPRatio": "Eff_SceneObj_ReginLamp_Active",
              "effectTempleteID": -1.0
            }
          ]
        }
      }
    }
  },
  {
    "Default": {
      "$type": "ConfigAbility",
      "abilityName": "SceneObj_Area_Dq_Property_Prop_EnergyBall_01",
      "modifiers": {
        "AddElec": {
          "modifierName": "",
          "elementType": "Electric",
          "bonusCriticalHurt": 25.0,
          "modifierMixins": [
            {
              "$type": "ShieldBarMixin",
              "showDamageText": ""
            }
          ],
          "state": "Limbo",
          "onRemoved": [
            {
              "$type": "ApplyModifier",
              "modifierName": "DeathCall"
            }
          ]
        },
        "DeathCall": {
          "modifierName": "",
          "bonusCriticalHurt": 100.0,
          "onAdded": [
            {
              "$type": "KillSelf"
            }
          ]
        }
      },
      "onAdded": [
        {
          "$type": "AttachEffect",
          "healLimitedByCasterMaxHPRatio": "Eff_ScenObj_EnergyBall_01_Trail",
          "effectTempleteID": -1.0
        },
        {
          "$type": "ApplyModifier",
          "modifierName": "AddElec"
        },
        {
          "$type": "AttachAbilityStateResistance",
          "resistanceListID": 11001
        }
      ],
      "onKill": [
        {
          "$type": "FireEffect",
          "healLimitedByCasterMaxHPRatio": "Eff_ScenObj_EnergyBall_01_Die",
          "effectTempleteID": -1.0
        }
      ]
    }
  },
  {
    "Default": {
      "$type": "ConfigAbility",
      "abilityName": "SceneObj_Area_Dq_Property_Prop_EnergyBall_02",
      "modifiers": {
        "AddElec": {
          "modifierName": "",
          "elementType": "Electric",
          "bonusCriticalHurt": 50.0,
          "modifierMixins": [
            {
              "$type": "ShieldBarMixin",
              "showDamageText": ""
            }
          ],
          "state": "Limbo",
          "onRemoved": [
            {
              "$type": "ApplyModifier",
              "modifierName": "DeathCall"
            }
          ]
        },
        "DeathCall": {
          "modifierName": "",
          "bonusCriticalHurt": 100.0,
          "onAdded": [
            {
              "$type": "KillSelf"
            }
          ]
        }
      },
      "onAdded": [
        {
          "$type": "AttachEffect",
          "healLimitedByCasterMaxHPRatio": "Eff_ScenObj_EnergyBall_01_Trail",
          "effectTempleteID": -1.0
        },
        {
          "$type": "ApplyModifier",
          "modifierName": "AddElec"
        },
        {
          "$type": "AttachAbilityStateResistance",
          "resistanceListID": 11001
        }
      ],
      "onKill": [
        {
          "$type": "FireEffect",
          "healLimitedByCasterMaxHPRatio": "Eff_ScenObj_EnergyBall_01_Die",
          "effectTempleteID": -1.0
        }
      ]
    }
  },
  {
    "Default": {
      "$type": "ConfigAbility",
      "abilityName": "SceneObj_Area_Dq_Property_Prop_EnergyBall_03",
      "modifiers": {
        "AddElec": {
          "modifierName": "",
          "elementType": "Electric",
          "bonusCriticalHurt": 100.0,
          "modifierMixins": [
            {
              "$type": "ShieldBarMixin",
              "showDamageText": ""
            }
          ],
          "state": "Limbo",
          "onRemoved": [
            {
              "$type": "ApplyModifier",
              "modifierName": "DeathCall"
            }
          ]
        },
        "DeathCall": {
          "modifierName": "",
          "bonusCriticalHurt": 100.0,
          "onAdded": [
            {
              "$type": "KillSelf"
            }
          ]
        }
      },
      "onAdded": [
        {
          "$type": "AttachEffect",
          "healLimitedByCasterMaxHPRatio": "Eff_ScenObj_EnergyBall_01_Trail",
          "effectTempleteID": -1.0
        },
        {
          "$type": "ApplyModifier",
          "modifierName": "AddElec"
        },
        {
          "$type": "AttachAbilityStateResistance",
          "resistanceListID": 11001
        }
      ],
      "onKill": [
        {
          "$type": "FireEffect",
          "healLimitedByCasterMaxHPRatio": "Eff_ScenObj_EnergyBall_01_Die",
          "effectTempleteID": -1.0
        }
      ]
    }
  },
  {
    "Default": {
      "$type": "ConfigAbility",
      "abilityName": "SceneObj_Area_Dq_Property_Ani_Tree_ReginTree_01",
      "abilityMixins": [
        {
          "$type": "AttachToGadgetStateMixin",
          "modifierName": "Withered"
        },
        {
          "$type": "AttachToGadgetStateMixin",
          "gadgetState": 201,
          "modifierName": "Feather01"
        },
        {
          "$type": "AttachToGadgetStateMixin",
          "gadgetState": 202,
          "modifierName": "Feather02"
        },
        {
          "$type": "AttachToGadgetStateMixin",
          "gadgetState": 203,
          "modifierName": "Feather03"
        },
        {
          "$type": "AttachToGadgetStateMixin",
          "gadgetState": 204,
          "modifierName": "Lush"
        },
        {
          "$type": "AttachToGadgetStateMixin",
          "gadgetState": 901,
          "modifierName": "Broken"
        }
      ],
      "modifiers": {
        "Withered": {
          "modifierName": "",
          "bonusCriticalHurt": 100.0,
          "onAdded": [
            {
              "$type": "EnableSceneTransformByName",
              "RotationDampTime": true,
              "transformNames": ["TreeLush"],
              "setEnable": true
            },
            {
              "$type": "EnableSceneTransformByName",
              "RotationDampTime": true,
              "transformNames": ["TreeBroken"]
            },
            {
              "$type": "EnableSceneTransformByName",
              "RotationDampTime": true,
              "transformNames": ["Leaf01"]
            },
            {
              "$type": "EnableSceneTransformByName",
              "RotationDampTime": true,
              "transformNames": ["Leaf02"]
            }
          ]
        },
        "Feather01": {
          "modifierName": "",
          "bonusCriticalHurt": 100.0,
          "onAdded": [
            {
              "$type": "EnableSceneTransformByName",
              "RotationDampTime": true,
              "transformNames": ["TreeLush"],
              "setEnable": true
            },
            {
              "$type": "EnableSceneTransformByName",
              "RotationDampTime": true,
              "transformNames": ["TreeBroken"]
            },
            {
              "$type": "EnableSceneTransformByName",
              "RotationDampTime": true,
              "transformNames": ["Leaf01"],
              "setEnable": true
            },
            {
              "$type": "EnableSceneTransformByName",
              "RotationDampTime": true,
              "transformNames": ["Leaf02"]
            },
            {
              "$type": "AttachEffect",
              "RotationDampTime": true,
              "healLimitedByCasterMaxHPRatio": "Eff_SceneObj_ReginTree_FallLeaves",
              "effectTempleteID": -1.0
            }
          ]
        },
        "Feather02": {
          "modifierName": "",
          "bonusCriticalHurt": 100.0,
          "onAdded": [
            {
              "$type": "EnableSceneTransformByName",
              "RotationDampTime": true,
              "transformNames": ["TreeLush"],
              "setEnable": true
            },
            {
              "$type": "EnableSceneTransformByName",
              "RotationDampTime": true,
              "transformNames": ["TreeBroken"]
            },
            {
              "$type": "EnableSceneTransformByName",
              "RotationDampTime": true,
              "transformNames": ["Leaf01"],
              "setEnable": true
            },
            {
              "$type": "EnableSceneTransformByName",
              "RotationDampTime": true,
              "transformNames": ["Leaf02"]
            },
            {
              "$type": "AttachEffect",
              "RotationDampTime": true,
              "healLimitedByCasterMaxHPRatio": "Eff_SceneObj_ReginTree_FallLeaves",
              "effectTempleteID": -1.0
            }
          ]
        },
        "Feather03": {
          "modifierName": "",
          "bonusCriticalHurt": 100.0,
          "onAdded": [
            {
              "$type": "EnableSceneTransformByName",
              "RotationDampTime": true,
              "transformNames": ["TreeLush"],
              "setEnable": true
            },
            {
              "$type": "EnableSceneTransformByName",
              "RotationDampTime": true,
              "transformNames": ["TreeBroken"]
            },
            {
              "$type": "EnableSceneTransformByName",
              "RotationDampTime": true,
              "transformNames": ["Leaf01"],
              "setEnable": true
            },
            {
              "$type": "EnableSceneTransformByName",
              "RotationDampTime": true,
              "transformNames": ["Leaf02"]
            },
            {
              "$type": "AttachEffect",
              "RotationDampTime": true,
              "healLimitedByCasterMaxHPRatio": "Eff_SceneObj_ReginTree_FallLeaves",
              "effectTempleteID": -1.0
            }
          ]
        },
        "Lush": {
          "modifierName": "",
          "bonusCriticalHurt": 100.0,
          "onAdded": [
            {
              "$type": "EnableSceneTransformByName",
              "RotationDampTime": true,
              "transformNames": ["TreeLush"],
              "setEnable": true
            },
            {
              "$type": "EnableSceneTransformByName",
              "RotationDampTime": true,
              "transformNames": ["TreeBroken"]
            },
            {
              "$type": "EnableSceneTransformByName",
              "RotationDampTime": true,
              "transformNames": ["Leaf01"],
              "setEnable": true
            },
            {
              "$type": "EnableSceneTransformByName",
              "RotationDampTime": true,
              "transformNames": ["Leaf02"]
            },
            {
              "$type": "AttachEffect",
              "RotationDampTime": true,
              "healLimitedByCasterMaxHPRatio": "Eff_SceneObj_ReginTree_FallLeaves",
              "effectTempleteID": -1.0
            }
          ]
        },
        "Broken": {
          "modifierName": "",
          "bonusCriticalHurt": 100.0,
          "onAdded": [
            {
              "$type": "EnableSceneTransformByName",
              "RotationDampTime": true,
              "transformNames": ["TreeLush"]
            },
            {
              "$type": "EnableSceneTransformByName",
              "RotationDampTime": true,
              "transformNames": ["TreeBroken"],
              "setEnable": true
            },
            {
              "$type": "EnableSceneTransformByName",
              "RotationDampTime": true,
              "transformNames": ["Leaf01"]
            },
            {
              "$type": "EnableSceneTransformByName",
              "RotationDampTime": true,
              "transformNames": ["Leaf02"],
              "setEnable": true
            },
            {
              "$type": "SetMaterialParamFloatByTransform",
              "RotationDampTime": true,
              "canBeHandledOnRecover": true,
              "matName": "BrokenPart",
              "patternName": "_EmissionStrength",
              "ratio": 0.0
            }
          ]
        }
      }
    }
  },
  {
    "Default": {
      "$type": "ConfigAbility",
      "abilityName": "SceneObj_Area_Dq_Property_Ani_Tree_ReginTree_02",
      "abilityMixins": [
        {
          "$type": "AttachToGadgetStateMixin",
          "modifierName": "LushState"
        },
        {
          "$type": "AttachToGadgetStateMixin",
          "gadgetState": 901,
          "modifierName": "LockHpPhase1"
        },
        {
          "$type": "AttachToGadgetStateMixin",
          "gadgetState": 902,
          "modifierName": "LushState2"
        },
        {
          "$type": "AttachToGadgetStateMixin",
          "gadgetState": 903,
          "modifierName": "LockHpPhase2"
        },
        {
          "$type": "AttachToGadgetStateMixin",
          "gadgetState": 202,
          "modifierName": "Broken"
        }
      ],
      "modifiers": {
        "LimboTree": {
          "modifierName": "",
          "bonusCriticalHurt": 100.0,
          "state": "Limbo"
        },
        "LushState": {
          "modifierName": "",
          "bonusCriticalHurt": 100.0,
          "state": "LockHP",
          "onAdded": [
            {
              "$type": "AttachModifier",
              "modifierName": "invincibleState"
            },
            {
              "$type": "EnableSceneTransformByName",
              "RotationDampTime": true,
              "transformNames": ["TreeLush"],
              "setEnable": true
            },
            {
              "$type": "EnableSceneTransformByName",
              "RotationDampTime": true,
              "transformNames": ["TreeBroken"]
            },
            {
              "$type": "EnableSceneTransformByName",
              "RotationDampTime": true,
              "transformNames": ["Leaf01"],
              "setEnable": true
            },
            {
              "$type": "EnableSceneTransformByName",
              "RotationDampTime": true,
              "transformNames": ["Leaf02"]
            },
            {
              "$type": "HideUIBillBoard",
              "hide": true
            },
            {
              "$type": "ShowUICombatBar",
              "canBeHandledOnRecover": true,
              "fore": true
            },
            {
              "$type": "AttachEffect",
              "healLimitedByCasterMaxHPRatio": "Eff_SceneObj_ReginTree_FallLeaves",
              "effectTempleteID": -1.0
            }
          ]
        },
        "LushState2": {
          "modifierName": "",
          "bonusCriticalHurt": 100.0,
          "state": "LockHP",
          "onAdded": [
            {
              "$type": "LoseHP",
              "predicates": [
                {
                  "$type": "GMGEIHHLMCO",
                  "target": "Self",
                  "KONBGFMBNDO": 0.6000000238418579
                }
              ],
              "amountByCasterMaxHPRatio": 0.5,
              "lethal": false
            },
            {
              "$type": "AttachModifier",
              "modifierName": "invincibleState"
            },
            {
              "$type": "EnableSceneTransformByName",
              "RotationDampTime": true,
              "transformNames": ["TreeLush"],
              "setEnable": true
            },
            {
              "$type": "EnableSceneTransformByName",
              "RotationDampTime": true,
              "transformNames": ["TreeBroken"]
            },
            {
              "$type": "EnableSceneTransformByName",
              "RotationDampTime": true,
              "transformNames": ["Leaf01"],
              "setEnable": true
            },
            {
              "$type": "EnableSceneTransformByName",
              "RotationDampTime": true,
              "transformNames": ["Leaf02"]
            },
            {
              "$type": "HideUIBillBoard",
              "hide": true
            },
            {
              "$type": "ShowUICombatBar",
              "canBeHandledOnRecover": true,
              "fore": true
            },
            {
              "$type": "AttachEffect",
              "RotationDampTime": true,
              "healLimitedByCasterMaxHPRatio": "Eff_SceneObj_ReginTree_FallLeaves",
              "effectTempleteID": -1.0
            }
          ]
        },
        "LockHpPhase1": {
          "modifierName": "",
          "bonusCriticalHurt": 100.0,
          "modifierMixins": [
            {
              "$type": "AttachModifierToHPPercentMixin",
              "valueSteps": [0.5099999904632568],
              "modifierNameSteps": ["Empty", "ChangeState"]
            }
          ],
          "properties": {
            "Actor_HpThresholdRatio": 0.5
          },
          "state": "Limbo",
          "onAdded": [
            {
              "$type": "HideUIBillBoard",
              "hide": true
            },
            {
              "$type": "ShowUICombatBar",
              "canBeHandledOnRecover": true,
              "show": true,
              "fore": true
            },
            {
              "$type": "AttachEffect",
              "healLimitedByCasterMaxHPRatio": "Eff_SceneObj_ReginTree_FallLeaves",
              "effectTempleteID": -1.0
            }
          ]
        },
        "LockHpPhase2": {
          "modifierName": "",
          "bonusCriticalHurt": 100.0,
          "modifierMixins": [
            {
              "$type": "AttachModifierToHPPercentMixin",
              "valueSteps": [0.019999999552965164],
              "modifierNameSteps": ["Empty", "ChangeState2"]
            }
          ],
          "properties": {
            "Actor_HpThresholdRatio": 0.009999999776482582
          },
          "state": "Limbo",
          "onAdded": [
            {
              "$type": "LoseHP",
              "predicates": [
                {
                  "$type": "GMGEIHHLMCO",
                  "target": "Self",
                  "KONBGFMBNDO": 0.6000000238418579
                }
              ],
              "amountByCasterMaxHPRatio": 0.5,
              "lethal": false
            },
            {
              "$type": "HideUIBillBoard",
              "hide": true
            },
            {
              "$type": "ShowUICombatBar",
              "canBeHandledOnRecover": true,
              "show": true,
              "fore": true
            },
            {
              "$type": "AttachEffect",
              "healLimitedByCasterMaxHPRatio": "Eff_SceneObj_ReginTree_FallLeaves",
              "effectTempleteID": -1.0
            }
          ]
        },
        "invincibleState": {
          "modifierName": "",
          "bonusCriticalHurt": 100.0,
          "state": "Invincible"
        },
        "ChangeState": {
          "modifierName": "",
          "bonusCriticalHurt": 100.0,
          "onAdded": [
            {
              "$type": "HideUIBillBoard",
              "hide": true
            },
            {
              "$type": "ShowUICombatBar",
              "canBeHandledOnRecover": true,
              "fore": true
            },
            {
              "$type": "ExecuteGadgetLua",
              "param1": 902
            }
          ]
        },
        "ChangeState2": {
          "modifierName": "",
          "bonusCriticalHurt": 100.0,
          "onAdded": [
            {
              "$type": "HideUIBillBoard",
              "hide": true
            },
            {
              "$type": "ShowUICombatBar",
              "canBeHandledOnRecover": true,
              "fore": true
            },
            {
              "$type": "ExecuteGadgetLua"
            }
          ]
        },
        "Broken": {
          "modifierName": "",
          "bonusCriticalHurt": 100.0,
          "state": "LockHP",
          "onAdded": [
            {
              "$type": "AttachModifier",
              "modifierName": "invincibleState"
            },
            {
              "$type": "EnableSceneTransformByName",
              "RotationDampTime": true,
              "transformNames": ["TreeLush"]
            },
            {
              "$type": "EnableSceneTransformByName",
              "RotationDampTime": true,
              "transformNames": ["TreeBroken"],
              "setEnable": true
            },
            {
              "$type": "EnableSceneTransformByName",
              "RotationDampTime": true,
              "transformNames": ["Leaf01"]
            },
            {
              "$type": "EnableSceneTransformByName",
              "RotationDampTime": true,
              "transformNames": ["Leaf02"],
              "setEnable": true
            },
            {
              "$type": "HideUIBillBoard",
              "hide": true
            },
            {
              "$type": "ShowUICombatBar",
              "canBeHandledOnRecover": true,
              "fore": true
            },
            {
              "$type": "SetMaterialParamFloatByTransform",
              "RotationDampTime": true,
              "canBeHandledOnRecover": true,
              "matName": "BrokenPart",
              "patternName": "_EmissionStrength",
              "ratio": 0.0
            }
          ]
        },
        "Empty": {
          "modifierName": "",
          "bonusCriticalHurt": 100.0
        }
      },
      "onAdded": [
        {
          "$type": "ApplyModifier",
          "modifierName": "LimboTree"
        }
      ]
    }
  },
  {
    "Default": {
      "$type": "ConfigAbility",
      "abilityName": "SceneObj_Area_Dq_Property_Ani_Tree_ReginTree_03",
      "onAdded": [
        {
          "$type": "SetMaterialParamFloatByTransform",
          "canBeHandledOnRecover": true,
          "matName": "GlowPart",
          "patternName": "_EmissionStrength",
          "ratio": 3.0
        }
      ]
    }
  },
  {
    "Default": {
      "$type": "ConfigAbility",
      "abilityName": "SceneObj_Area_Dq_Property_Prop_TsurumiSigilPole_01",
      "abilityMixins": [
        {
          "$type": "AttachToGadgetStateMixin",
          "modifierName": "NotActive"
        },
        {
          "$type": "AttachToGadgetStateMixin",
          "gadgetState": 201,
          "modifierName": "Active"
        }
      ],
      "modifiers": {
        "NotActive": {
          "modifierName": "",
          "bonusCriticalHurt": 100.0,
          "onAdded": [
            {
              "$type": "RemoveModifier",
              "modifierName": "Active"
            }
          ]
        },
        "Active": {
          "modifierName": "",
          "bonusCriticalHurt": 100.0,
          "onAdded": [
            {
              "$type": "AttachEffect",
              "healLimitedByCasterMaxHPRatio": "Eff_SceneObj_TsurumiSigilPole_01_Active",
              "scale": 1.2999999523162842,
              "effectTempleteID": 100.0
            }
          ]
        }
      }
    }
  },
  {
    "Default": {
      "$type": "ConfigAbility",
      "abilityName": "SceneObj_Area_Dq_Property_Prop_TsurumiSigilPole_02",
      "abilityMixins": [
        {
          "$type": "AttachToGadgetStateMixin",
          "modifierName": "NotActive"
        },
        {
          "$type": "AttachToGadgetStateMixin",
          "gadgetState": 201,
          "modifierName": "Active"
        }
      ],
      "modifiers": {
        "NotActive": {
          "modifierName": "",
          "bonusCriticalHurt": 100.0,
          "onAdded": [
            {
              "$type": "RemoveModifier",
              "modifierName": "Active"
            }
          ]
        },
        "Active": {
          "modifierName": "",
          "bonusCriticalHurt": 100.0,
          "onAdded": [
            {
              "$type": "AttachEffect",
              "healLimitedByCasterMaxHPRatio": "Eff_SceneObj_TsurumiSigilPole_01_Active",
              "scale": 1.2999999523162842,
              "effectTempleteID": 101.0
            }
          ]
        }
      }
    }
  },
  {
    "Default": {
      "$type": "ConfigAbility",
      "abilityName": "SceneObj_Area_Dq_Property_Prop_TsurumiSigilPole_03",
      "abilityMixins": [
        {
          "$type": "AttachToGadgetStateMixin",
          "modifierName": "NotActive"
        },
        {
          "$type": "AttachToGadgetStateMixin",
          "gadgetState": 201,
          "modifierName": "Active"
        }
      ],
      "modifiers": {
        "NotActive": {
          "modifierName": "",
          "bonusCriticalHurt": 100.0,
          "onAdded": [
            {
              "$type": "RemoveModifier",
              "modifierName": "Active"
            }
          ]
        },
        "Active": {
          "modifierName": "",
          "bonusCriticalHurt": 100.0,
          "onAdded": [
            {
              "$type": "AttachEffect",
              "healLimitedByCasterMaxHPRatio": "Eff_SceneObj_TsurumiSigilPole_01_Active",
              "scale": 1.2999999523162842,
              "effectTempleteID": 102.0
            }
          ]
        }
      }
    }
  },
  {
    "Default": {
      "$type": "ConfigAbility",
      "abilityName": "SceneObj_Area_Dq_Property_Prop_TsurumiSigilPole_04",
      "abilityMixins": [
        {
          "$type": "AttachToGadgetStateMixin",
          "modifierName": "NotActive"
        },
        {
          "$type": "AttachToGadgetStateMixin",
          "gadgetState": 201,
          "modifierName": "Active"
        }
      ],
      "modifiers": {
        "NotActive": {
          "modifierName": "",
          "bonusCriticalHurt": 100.0,
          "onAdded": [
            {
              "$type": "RemoveModifier",
              "modifierName": "Active"
            }
          ]
        },
        "Active": {
          "modifierName": "",
          "bonusCriticalHurt": 100.0,
          "onAdded": [
            {
              "$type": "AttachEffect",
              "healLimitedByCasterMaxHPRatio": "Eff_SceneObj_TsurumiSigilPole_01_Active",
              "scale": 1.2999999523162842,
              "effectTempleteID": 103.0
            }
          ]
        }
      }
    }
  },
  {
    "Default": {
      "$type": "ConfigAbility",
      "abilityName": "SceneObj_Area_Dq_Property_Prop_TsurumiSigilPole_05",
      "abilityMixins": [
        {
          "$type": "AttachToGadgetStateMixin",
          "modifierName": "NotActive"
        },
        {
          "$type": "AttachToGadgetStateMixin",
          "gadgetState": 201,
          "modifierName": "Active"
        }
      ],
      "modifiers": {
        "NotActive": {
          "modifierName": "",
          "bonusCriticalHurt": 100.0,
          "onAdded": [
            {
              "$type": "RemoveModifier",
              "modifierName": "Active"
            }
          ]
        },
        "Active": {
          "modifierName": "",
          "bonusCriticalHurt": 100.0,
          "onAdded": [
            {
              "$type": "AttachEffect",
              "healLimitedByCasterMaxHPRatio": "Eff_SceneObj_TsurumiSigilPole_01_Active",
              "scale": 1.2999999523162842,
              "effectTempleteID": 104.0
            }
          ]
        }
      }
    }
  },
  {
    "Default": {
      "$type": "ConfigAbility",
      "abilityName": "SceneObj_Area_Dq_Property_Prop_TsurumiSigilPole_06",
      "abilityMixins": [
        {
          "$type": "AttachToGadgetStateMixin",
          "modifierName": "NotActive"
        },
        {
          "$type": "AttachToGadgetStateMixin",
          "gadgetState": 201,
          "modifierName": "Active"
        }
      ],
      "modifiers": {
        "NotActive": {
          "modifierName": "",
          "bonusCriticalHurt": 100.0,
          "onAdded": [
            {
              "$type": "RemoveModifier",
              "modifierName": "Active"
            }
          ]
        },
        "Active": {
          "modifierName": "",
          "bonusCriticalHurt": 100.0,
          "onAdded": [
            {
              "$type": "AttachEffect",
              "healLimitedByCasterMaxHPRatio": "Eff_SceneObj_TsurumiSigilPole_01_Active",
              "scale": 1.2999999523162842,
              "effectTempleteID": 105.0
            }
          ]
        }
      }
    }
  },
  {
    "Default": {
      "$type": "ConfigAbility",
      "abilityName": "SceneObj_Area_Dq_Property_Prop_TsurumiSigilPole_07",
      "abilityMixins": [
        {
          "$type": "AttachToGadgetStateMixin",
          "modifierName": "NotActive"
        },
        {
          "$type": "AttachToGadgetStateMixin",
          "gadgetState": 201,
          "modifierName": "Active"
        }
      ],
      "modifiers": {
        "NotActive": {
          "modifierName": "",
          "bonusCriticalHurt": 100.0,
          "onAdded": [
            {
              "$type": "RemoveModifier",
              "modifierName": "Active"
            }
          ]
        },
        "Active": {
          "modifierName": "",
          "bonusCriticalHurt": 100.0,
          "onAdded": [
            {
              "$type": "AttachEffect",
              "healLimitedByCasterMaxHPRatio": "Eff_SceneObj_TsurumiSigilPole_01_Active",
              "scale": 1.2999999523162842,
              "effectTempleteID": 106.0
            }
          ]
        }
      }
    }
  },
  {
    "Default": {
      "$type": "ConfigAbility",
      "abilityName": "SceneObj_Area_Dq_Property_Prop_ReginFeather_01",
      "onAdded": [
        {
          "$type": "AttachEffect",
          "healLimitedByCasterMaxHPRatio": "Eff_SceneObj_ReginFeather_01",
          "effectTempleteID": -1.0
        }
      ]
    }
  },
  {
    "Default": {
      "$type": "ConfigAbility",
      "abilityName": "SceneObj_Area_Dq_Property_Prop_ReginFeather_02",
      "onAdded": [
        {
          "$type": "AttachEffect",
          "healLimitedByCasterMaxHPRatio": "Eff_SceneObj_ReginFeather_01",
          "effectTempleteID": -1.0
        },
        {
          "$type": "AttachEffect",
          "healLimitedByCasterMaxHPRatio": "Eff_SceneObj_Seelie_MoveTrail",
          "effectTempleteID": -1.0
        }
      ]
    }
  },
  {
    "Default": {
      "$type": "ConfigAbility",
      "abilityName": "SceneObj_Area_Dq_Property_Prop_ReginShader_01",
      "onAdded": [
        {
          "$type": "FireEffect",
          "healLimitedByCasterMaxHPRatio": "Eff_SceneObj_Common_AppearMask_06",
          "effectTempleteID": -1.0
        }
      ],
      "onKill": [
        {
          "$type": "FireEffect",
          "healLimitedByCasterMaxHPRatio": "Eff_SceneObj_Common_AppearMask_07",
          "effectTempleteID": -1.0
        }
      ]
    }
  },
  {
    "Default": {
      "$type": "ConfigAbility",
      "abilityName": "SceneObj_Area_Dq_Property_Prop_Wire_01",
      "abilityMixins": [
        {
          "$type": "AttachModifierToSelfGlobalValueMixin",
          "globalValueKey": "connectCount",
          "defaultGlobalValueOnCreate": 0.0,
          "valueSteps": [0.5, 3.5],
          "modifierNameSteps": ["StateController"]
        },
        {
          "$type": "AttachModifierToSelfGlobalValueMixin",
          "globalValueKey": "terminalConnectCount",
          "defaultGlobalValueOnCreate": 0.0,
          "valueSteps": [-0.5, 0.5, 1.5, 2.5, 3.5],
          "modifierNameSteps": [
            "TerminalLv0",
            "TerminalLv1",
            "TerminalLv2",
            "TerminalLv3"
          ]
        },
        {
          "$type": "AttachToGadgetStateMixin",
          "modifierName": "Inactived"
        },
        {
          "$type": "AttachToGadgetStateMixin",
          "gadgetState": 201,
          "modifierName": "ElectricPowerSourceLv1"
        },
        {
          "$type": "AttachToGadgetStateMixin",
          "gadgetState": 202,
          "modifierName": "ElectricPowerSourceLv2"
        },
        {
          "$type": "AttachToGadgetStateMixin",
          "gadgetState": 203,
          "modifierName": "ElectricPowerSourceLv3"
        }
      ],
      "modifiers": {
        "Inactived": {
          "modifierName": "",
          "bonusCriticalHurt": 100.0,
          "onAdded": [
            {
              "$type": "SetGlobalValue",
              "ratio": 0.0,
              "key": "isElectricPowerSource",
              "maxValue": 0.0,
              "minValue": 0.0
            },
            {
              "$type": "SetGlobalValue",
              "ratio": 1.0,
              "key": "isTerminal",
              "maxValue": 0.0,
              "minValue": 0.0
            },
            {
              "$type": "RemoveModifier",
              "modifierName": "PowerState"
            }
          ],
          "onRemoved": [
            {
              "$type": "SetGlobalValue",
              "ratio": 0.0,
              "key": "isTerminal",
              "maxValue": 0.0,
              "minValue": 0.0
            },
            {
              "$type": "SetGlobalValue",
              "ratio": 1.0,
              "key": "isElectricPowerSource",
              "maxValue": 0.0,
              "minValue": 0.0
            },
            {
              "$type": "ApplyModifier",
              "modifierName": "PowerState"
            }
          ]
        },
        "LimboState": {
          "modifierName": "",
          "elementType": "Electric",
          "bonusCriticalHurt": 15.0,
          "isElementDurabilityMutable": false,
          "state": "Limbo"
        },
        "StateController": {
          "modifierName": "",
          "bonusCriticalHurt": 100.0,
          "onAdded": [
            {
              "$type": "AttachEffect",
              "healLimitedByCasterMaxHPRatio": "Eff_SceneObj_ElectricPowerSource_01",
              "effectTempleteID": -1.0
            }
          ]
        },
        "TerminalLv0": {
          "modifierName": "",
          "bonusCriticalHurt": 100.0,
          "onAdded": [
            {
              "$type": "ServerLuaCall",
              "predicates": [
                {
                  "$type": "ByTargetGlobalValue",
                  "target": "Self",
                  "key": "isElectricPort",
                  "ratio": 1.0
                }
              ],
              "luaCallType": "FromGroup",
              "isTarget": true,
              "funcName": "SLC_SyncState",
              "IAJKJLGNLLE": 1,
              "MPPMFEDKGHC": 0.0,
              "BOKNHLDBKKK": 0.0,
              "CHOIIMHDNHK": 0.0
            },
            {
              "$type": "DebugLog",
              "content": "@@ SendSLC_0"
            }
          ]
        },
        "TerminalLv1": {
          "modifierName": "",
          "bonusCriticalHurt": 100.0,
          "onAdded": [
            {
              "$type": "AttachEffect",
              "healLimitedByCasterMaxHPRatio": "Eff_SceneObj_ElectricPowerSource_01",
              "effectTempleteID": -1.0
            },
            {
              "$type": "ServerLuaCall",
              "predicates": [
                {
                  "$type": "ByTargetGlobalValue",
                  "target": "Self",
                  "key": "isElectricPort",
                  "ratio": 1.0
                }
              ],
              "luaCallType": "FromGroup",
              "isTarget": true,
              "funcName": "SLC_SyncState",
              "IAJKJLGNLLE": 1,
              "MPPMFEDKGHC": 1.0,
              "BOKNHLDBKKK": 0.0,
              "CHOIIMHDNHK": 0.0
            },
            {
              "$type": "DebugLog",
              "content": "@@ SendSLC_1"
            }
          ]
        },
        "TerminalLv2": {
          "modifierName": "",
          "bonusCriticalHurt": 100.0,
          "onAdded": [
            {
              "$type": "AttachEffect",
              "healLimitedByCasterMaxHPRatio": "Eff_SceneObj_ElectricPowerSource_01",
              "effectTempleteID": -1.0
            },
            {
              "$type": "ServerLuaCall",
              "predicates": [
                {
                  "$type": "ByTargetGlobalValue",
                  "target": "Self",
                  "key": "isElectricPort",
                  "ratio": 1.0
                }
              ],
              "luaCallType": "FromGroup",
              "isTarget": true,
              "funcName": "SLC_SyncState",
              "IAJKJLGNLLE": 1,
              "MPPMFEDKGHC": 2.0,
              "BOKNHLDBKKK": 0.0,
              "CHOIIMHDNHK": 0.0
            },
            {
              "$type": "DebugLog",
              "content": "@@ SendSLC_2"
            }
          ]
        },
        "TerminalLv3": {
          "modifierName": "",
          "bonusCriticalHurt": 100.0,
          "onAdded": [
            {
              "$type": "AttachEffect",
              "healLimitedByCasterMaxHPRatio": "Eff_SceneObj_ElectricPowerSource_01",
              "effectTempleteID": -1.0
            },
            {
              "$type": "ServerLuaCall",
              "predicates": [
                {
                  "$type": "ByTargetGlobalValue",
                  "target": "Self",
                  "key": "isElectricPort",
                  "ratio": 1.0
                }
              ],
              "luaCallType": "FromGroup",
              "isTarget": true,
              "funcName": "SLC_SyncState",
              "IAJKJLGNLLE": 1,
              "MPPMFEDKGHC": 3.0,
              "BOKNHLDBKKK": 0.0,
              "CHOIIMHDNHK": 0.0
            },
            {
              "$type": "DebugLog",
              "content": "@@ SendSLC_3"
            }
          ]
        },
        "PowerState": {
          "modifierName": "",
          "bonusCriticalHurt": 100.0,
          "onAdded": [
            {
              "$type": "AttachEffect",
              "healLimitedByCasterMaxHPRatio": "Eff_SceneObj_ElectricPowerSource_01",
              "effectTempleteID": -1.0
            }
          ]
        },
        "ElectricPowerCollectorLv1": {
          "stacking": "Multiple",
          "modifierName": "",
          "bonusCriticalHurt": 100.0,
          "modifierMixins": [
            {
              "$type": "ConnectLineMixin",
              "BDFNJIIIOAA": "ElectricPowerSource",
              "GGGMNKHMHKI": "ElectricPowerCollector",
              "FCKCEEANBLJ": "isTerminal"
            }
          ],
          "onAdded": [
            {
              "$type": "AddGlobalValue",
              "ratio": 1.0,
              "key": "terminalConnectCount",
              "useLimitRange": true,
              "maxValue": 100.0,
              "minValue": 0.0
            },
            {
              "$type": "AttachEffect",
              "target": "Applier",
              "healLimitedByCasterMaxHPRatio": "Eff_SceneObj_ElectircPowerSource_01_Lightning",
              "effectTempleteID": -1.0,
              "KIGIKJMMKEJ": true
            }
          ],
          "onRemoved": [
            {
              "$type": "AddGlobalValue",
              "ratio": -1.0,
              "key": "terminalConnectCount",
              "useLimitRange": true,
              "maxValue": 100.0,
              "minValue": 0.0
            },
            {
              "$type": "DebugLog",
              "content": "## PortSendSLC_-1"
            }
          ]
        },
        "ElectricPowerCollectorLv2": {
          "stacking": "Multiple",
          "modifierName": "",
          "bonusCriticalHurt": 100.0,
          "modifierMixins": [
            {
              "$type": "ConnectLineMixin",
              "BDFNJIIIOAA": "ElectricPowerSource",
              "GGGMNKHMHKI": "ElectricPowerCollector",
              "FCKCEEANBLJ": "isTerminal"
            }
          ],
          "onAdded": [
            {
              "$type": "AddGlobalValue",
              "ratio": 2.0,
              "key": "terminalConnectCount",
              "useLimitRange": true,
              "maxValue": 100.0,
              "minValue": 0.0
            },
            {
              "$type": "AttachEffect",
              "target": "Applier",
              "healLimitedByCasterMaxHPRatio": "Eff_SceneObj_ElectircPowerSource_01_Lightning",
              "effectTempleteID": -1.0,
              "KIGIKJMMKEJ": true
            },
            {
              "$type": "DebugLog",
              "content": "## PortSendSLC_+2"
            }
          ],
          "onRemoved": [
            {
              "$type": "AddGlobalValue",
              "ratio": -2.0,
              "key": "terminalConnectCount",
              "useLimitRange": true,
              "maxValue": 100.0,
              "minValue": 0.0
            },
            {
              "$type": "DebugLog",
              "content": "## PortSendSLC_-2"
            }
          ]
        },
        "ElectricPowerCollectorLv3": {
          "stacking": "Multiple",
          "modifierName": "",
          "bonusCriticalHurt": 100.0,
          "modifierMixins": [
            {
              "$type": "ConnectLineMixin",
              "BDFNJIIIOAA": "ElectricPowerSource",
              "GGGMNKHMHKI": "ElectricPowerCollector",
              "FCKCEEANBLJ": "isTerminal"
            }
          ],
          "onAdded": [
            {
              "$type": "AddGlobalValue",
              "ratio": 3.0,
              "key": "terminalConnectCount",
              "useLimitRange": true,
              "maxValue": 100.0,
              "minValue": 0.0
            },
            {
              "$type": "AttachEffect",
              "target": "Applier",
              "healLimitedByCasterMaxHPRatio": "Eff_SceneObj_ElectircPowerSource_01_Lightning",
              "effectTempleteID": -1.0,
              "KIGIKJMMKEJ": true
            },
            {
              "$type": "DebugLog",
              "content": "## PortSendSLC_+3"
            }
          ],
          "onRemoved": [
            {
              "$type": "AddGlobalValue",
              "ratio": -3.0,
              "key": "terminalConnectCount",
              "useLimitRange": true,
              "maxValue": 100.0,
              "minValue": 0.0
            },
            {
              "$type": "DebugLog",
              "content": "## PortSendSLC_-3"
            }
          ]
        },
        "ElectricPowerSourceLv1": {
          "modifierName": "",
          "bonusCriticalHurt": 100.0,
          "modifierMixins": [
            {
              "$type": "ConnectLineMixin",
              "BDFNJIIIOAA": "ElectricPowerSourceLv1",
              "GGGMNKHMHKI": "ElectricPowerCollectorLv1",
              "FCKCEEANBLJ": "isTerminal",
              "otherTargets": {
                "$type": "SelectTargetsByShape",
                "sortType": "Nearest",
                "shapeName": "CircleR6H5",
                "campTargetType": "AllExceptSelf",
                "OBHNBNDMPFN": 1.0
              },
              "predicates": [
                {
                  "$type": "ByAny",
                  "predicates": [
                    {
                      "$type": "KDJFMOGPKCP",
                      "CIMNBKFMPGD": "Electric"
                    },
                    {
                      "$type": "ByTargetGlobalValue",
                      "key": "HAS_ELECTRIC_FAIRY_BUFF",
                      "ratio": 1.0
                    }
                  ]
                },
                {
                  "$type": "DDBJEPBNOGF",
                  "predicates": [
                    {
                      "$type": "ByTargetGlobalValue",
                      "key": "isElectricPowerSource",
                      "ratio": 1.0
                    }
                  ]
                }
              ],
              "predicatesForeach": [
                {
                  "$type": "ByTargetGlobalValue",
                  "key": "connectCount",
                  "ratio": 0.0,
                  "compareType": "NoneOrEqual"
                }
              ]
            }
          ],
          "onAdded": [
            {
              "$type": "SetGlobalValue",
              "ratio": 1.0,
              "key": "connectCount",
              "maxValue": 0.0,
              "minValue": 0.0
            },
            {
              "$type": "AttachEffect",
              "target": "Applier",
              "healLimitedByCasterMaxHPRatio": "Eff_SceneObj_ElectircPowerSource_01_Lightning",
              "born": {
                "$type": "ConfigBornByAttachPoint",
                "attachPointName": "RootNode"
              },
              "effectTempleteID": -1.0,
              "KIGIKJMMKEJ": true
            }
          ],
          "onRemoved": [
            {
              "$type": "SetGlobalValue",
              "ratio": 0.0,
              "key": "connectCount",
              "maxValue": 0.0,
              "minValue": 0.0
            }
          ]
        },
        "ElectricPowerSourceLv2": {
          "modifierName": "",
          "bonusCriticalHurt": 100.0,
          "modifierMixins": [
            {
              "$type": "ConnectLineMixin",
              "BDFNJIIIOAA": "ElectricPowerSourceLv2",
              "GGGMNKHMHKI": "ElectricPowerCollectorLv2",
              "FCKCEEANBLJ": "isTerminal",
              "otherTargets": {
                "$type": "SelectTargetsByShape",
                "sortType": "Nearest",
                "shapeName": "CircleR6H5",
                "campTargetType": "AllExceptSelf",
                "OBHNBNDMPFN": 1.0
              },
              "predicates": [
                {
                  "$type": "ByAny",
                  "predicates": [
                    {
                      "$type": "KDJFMOGPKCP",
                      "CIMNBKFMPGD": "Electric"
                    },
                    {
                      "$type": "ByTargetGlobalValue",
                      "key": "HAS_ELECTRIC_FAIRY_BUFF",
                      "ratio": 1.0
                    }
                  ]
                },
                {
                  "$type": "DDBJEPBNOGF",
                  "predicates": [
                    {
                      "$type": "ByTargetGlobalValue",
                      "key": "isElectricPowerSource",
                      "ratio": 1.0
                    }
                  ]
                }
              ],
              "predicatesForeach": [
                {
                  "$type": "ByTargetGlobalValue",
                  "key": "connectCount",
                  "ratio": 0.0,
                  "compareType": "NoneOrEqual"
                }
              ]
            }
          ],
          "onAdded": [
            {
              "$type": "SetGlobalValue",
              "ratio": 2.0,
              "key": "connectCount",
              "maxValue": 0.0,
              "minValue": 0.0
            },
            {
              "$type": "AttachEffect",
              "target": "Applier",
              "healLimitedByCasterMaxHPRatio": "Eff_SceneObj_ElectircPowerSource_01_Lightning",
              "born": {
                "$type": "ConfigBornByAttachPoint",
                "attachPointName": "RootNode"
              },
              "effectTempleteID": -1.0,
              "KIGIKJMMKEJ": true
            }
          ],
          "onRemoved": [
            {
              "$type": "SetGlobalValue",
              "ratio": 0.0,
              "key": "connectCount",
              "maxValue": 0.0,
              "minValue": 0.0
            }
          ]
        },
        "ElectricPowerSourceLv3": {
          "modifierName": "",
          "bonusCriticalHurt": 100.0,
          "modifierMixins": [
            {
              "$type": "ConnectLineMixin",
              "BDFNJIIIOAA": "ElectricPowerSourceLv3",
              "GGGMNKHMHKI": "ElectricPowerCollectorLv3",
              "FCKCEEANBLJ": "isTerminal",
              "otherTargets": {
                "$type": "SelectTargetsByShape",
                "sortType": "Nearest",
                "shapeName": "CircleR6H5",
                "campTargetType": "AllExceptSelf",
                "OBHNBNDMPFN": 1.0
              },
              "predicates": [
                {
                  "$type": "ByAny",
                  "predicates": [
                    {
                      "$type": "KDJFMOGPKCP",
                      "CIMNBKFMPGD": "Electric"
                    },
                    {
                      "$type": "ByTargetGlobalValue",
                      "key": "HAS_ELECTRIC_FAIRY_BUFF",
                      "ratio": 1.0
                    }
                  ]
                },
                {
                  "$type": "DDBJEPBNOGF",
                  "predicates": [
                    {
                      "$type": "ByTargetGlobalValue",
                      "key": "isElectricPowerSource",
                      "ratio": 1.0
                    }
                  ]
                }
              ],
              "predicatesForeach": [
                {
                  "$type": "ByTargetGlobalValue",
                  "key": "connectCount",
                  "ratio": 0.0,
                  "compareType": "NoneOrEqual"
                }
              ]
            }
          ],
          "onAdded": [
            {
              "$type": "SetGlobalValue",
              "ratio": 3.0,
              "key": "connectCount",
              "maxValue": 0.0,
              "minValue": 0.0
            },
            {
              "$type": "AttachEffect",
              "target": "Applier",
              "healLimitedByCasterMaxHPRatio": "Eff_SceneObj_ElectircPowerSource_01_Lightning",
              "born": {
                "$type": "ConfigBornByAttachPoint",
                "attachPointName": "RootNode"
              },
              "effectTempleteID": -1.0,
              "KIGIKJMMKEJ": true
            }
          ],
          "onRemoved": [
            {
              "$type": "SetGlobalValue",
              "ratio": 0.0,
              "key": "connectCount",
              "maxValue": 0.0,
              "minValue": 0.0
            }
          ]
        }
      },
      "onAdded": [
        {
          "$type": "SetGlobalValue",
          "ratio": 1.0,
          "key": "isTerminal",
          "maxValue": 0.0,
          "minValue": 0.0
        },
        {
          "$type": "SetGlobalValue",
          "ratio": 0.0,
          "key": "isElectricPowerSource",
          "maxValue": 0.0,
          "minValue": 0.0
        },
        {
          "$type": "SetGlobalValue",
          "ratio": 1.0,
          "key": "isElectricPort",
          "maxValue": 0.0,
          "minValue": 0.0
        },
        {
          "$type": "SetGlobalValue",
          "ratio": 0.0,
          "key": "isElectricPowerSource",
          "maxValue": 0.0,
          "minValue": 0.0
        },
        {
          "$type": "ApplyModifier",
          "modifierName": "LimboState"
        }
      ]
    }
  },
  {
    "Default": {
      "$type": "ConfigAbility",
      "abilityName": "SceneObj_Area_Dq_Property_Prop_Pots_01",
      "modifiers": {
        "BombBoxLoop": {
          "modifierName": "",
          "bonusCriticalHurt": 100.0,
          "onRemoved": [
            {
              "$type": "FireEffect",
              "healLimitedByCasterMaxHPRatio": "Eff_SceneObj_Pot_01_Destroy",
              "effectTempleteID": -1.0
            },
            {
              "$type": "KillSelf",
              "duration": 1.0,
              "hideEntity": true
            }
          ],
          "onBeingHit": [
            {
              "$type": "RemoveModifier",
              "modifierName": "BombBoxLoop"
            }
          ],
          "PPCDOICIBIP": [
            {
              "$type": "RemoveModifier",
              "modifierName": "BombBoxLoop"
            }
          ]
        }
      },
      "onAdded": [
        {
          "$type": "ApplyModifier",
          "modifierName": "BombBoxLoop"
        }
      ]
    }
  },
  {
    "Default": {
      "$type": "ConfigAbility",
      "abilityName": "SceneObj_Area_Dq_Property_Prop_Pots_02",
      "modifiers": {
        "BombBoxLoop": {
          "modifierName": "",
          "bonusCriticalHurt": 100.0,
          "onRemoved": [
            {
              "$type": "FireEffect",
              "healLimitedByCasterMaxHPRatio": "Eff_SceneObj_Pot_02_Destroy",
              "effectTempleteID": -1.0
            },
            {
              "$type": "KillSelf",
              "duration": 1.0,
              "hideEntity": true
            }
          ],
          "onBeingHit": [
            {
              "$type": "RemoveModifier",
              "modifierName": "BombBoxLoop"
            }
          ],
          "PPCDOICIBIP": [
            {
              "$type": "RemoveModifier",
              "modifierName": "BombBoxLoop"
            }
          ]
        }
      },
      "onAdded": [
        {
          "$type": "ApplyModifier",
          "modifierName": "BombBoxLoop"
        }
      ]
    }
  },
  {
    "Default": {
      "$type": "ConfigAbility",
      "abilityName": "SceneObj_Area_Dq_Property_Prop_Pots_03",
      "modifiers": {
        "BombBoxLoop": {
          "modifierName": "",
          "bonusCriticalHurt": 100.0,
          "onRemoved": [
            {
              "$type": "FireEffect",
              "healLimitedByCasterMaxHPRatio": "Eff_SceneObj_Pot_03_Destroy",
              "effectTempleteID": -1.0
            },
            {
              "$type": "KillSelf",
              "duration": 1.0,
              "hideEntity": true
            }
          ],
          "onBeingHit": [
            {
              "$type": "RemoveModifier",
              "modifierName": "BombBoxLoop"
            }
          ],
          "PPCDOICIBIP": [
            {
              "$type": "RemoveModifier",
              "modifierName": "BombBoxLoop"
            }
          ]
        }
      },
      "onAdded": [
        {
          "$type": "ApplyModifier",
          "modifierName": "BombBoxLoop"
        }
      ]
    }
  },
  {
    "Default": {
      "$type": "ConfigAbility",
      "abilityName": "SceneObj_Area_Dq_Property_Prop_ReginLampInvisible_01",
      "onAdded": [
        {
          "$type": "SetGlobalValue",
          "ratio": 1.0,
          "key": "IS_TSURUMIMIST_POINT",
          "maxValue": 0.0,
          "minValue": 0.0
        }
      ]
    }
  }
]
