[
  {
    "Default": {
      "$type": "ConfigAbility",
      "abilityName": "SceneObj_Quest_Interact_Point_01_Eff",
      "onAdded": [
        {
          "$type": "AttachEffect",
          "healLimitedByCasterMaxHPRatio": "Eff_Quest_SiteInteract",
          "effectTempleteID": -1.0
        }
      ]
    }
  },
  {
    "Default": {
      "$type": "ConfigAbility",
      "abilityName": "SceneObj_Quest_Interact_Point_02_Eff",
      "onAdded": [
        {
          "$type": "AttachEffect",
          "healLimitedByCasterMaxHPRatio": "Eff_Quest_SiteInteract_02",
          "effectTempleteID": -1.0
        }
      ]
    }
  },
  {
    "Default": {
      "$type": "ConfigAbility",
      "abilityName": "SceneObj_Quest_Interact_Adjust_Firepower_Eff",
      "onAdded": [
        {
          "$type": "AttachEffect",
          "healLimitedByCasterMaxHPRatio": "Eff_Fire_Basin_Big",
          "effectTempleteID": -1.0
        }
      ]
    }
  },
  {
    "Default": {
      "$type": "ConfigAbility",
      "abilityName": "SceneObj_Quest_Muddy_CrysTear_Eff",
      "onAdded": [
        {
          "$type": "AttachEffect",
          "healLimitedByCasterMaxHPRatio": "Eff_Quest_CrystTear02_Dark",
          "effectTempleteID": -1.0
        }
      ]
    }
  },
  {
    "Default": {
      "$type": "ConfigAbility",
      "abilityName": "SceneObj_Quest_Muddy_CrysTear_Eff_SmallSize",
      "onAdded": [
        {
          "$type": "AttachEffect",
          "healLimitedByCasterMaxHPRatio": "Eff_Quest_CrystTear_Dialog",
          "effectTempleteID": -1.0
        }
      ]
    }
  },
  {
    "Default": {
      "$type": "ConfigAbility",
      "abilityName": "SceneObj_Quest_Clear_CrysTear_Eff",
      "onAdded": [
        {
          "$type": "AttachEffect",
          "healLimitedByCasterMaxHPRatio": "Eff_CS_CrystTearQuest01",
          "effectTempleteID": -1.0
        }
      ]
    }
  },
  {
    "Default": {
      "$type": "ConfigAbility",
      "abilityName": "SceneObj_Quest_Guide_TargetPoint",
      "onAdded": [
        {
          "$type": "AttachEffect",
          "healLimitedByCasterMaxHPRatio": "Eff_QuestGuide_TargetPoint",
          "effectTempleteID": -1.0
        }
      ]
    }
  },
  {
    "Default": {
      "$type": "ConfigAbility",
      "abilityName": "SceneObj_Quest_Gravity_Board_Great_Switch",
      "onAdded": [
        {
          "$type": "AttachEffect",
          "healLimitedByCasterMaxHPRatio": "Eff_SceneObj_Gear_Gravity_Lv1",
          "effectTempleteID": -1.0
        },
        {
          "$type": "AttachEffect",
          "healLimitedByCasterMaxHPRatio": "Eff_SceneObj_Gear_Gravity_Lv2",
          "effectTempleteID": -1.0
        },
        {
          "$type": "AttachEffect",
          "healLimitedByCasterMaxHPRatio": "Eff_SceneObj_Gear_Gravity_Lv3",
          "effectTempleteID": -1.0
        },
        {
          "$type": "AttachEffect",
          "healLimitedByCasterMaxHPRatio": "Eff_SceneObj_Gear_Gravity_Center",
          "effectTempleteID": -1.0
        }
      ]
    }
  },
  {
    "Default": {
      "$type": "ConfigAbility",
      "abilityName": "SceneObj_Area_Ly_Property_Ani_Flower_Qingxin_02_Ability",
      "abilityMixins": [
        {
          "$type": "AttachToGadgetStateMixin",
          "modifierName": "GadgetZeroModifier"
        },
        {
          "$type": "AttachToGadgetStateMixin",
          "gadgetState": 201,
          "modifierName": "ShowHint"
        },
        {
          "$type": "AttachToGadgetStateMixin",
          "gadgetState": 202,
          "modifierName": "ShowHint"
        }
      ],
      "modifiers": {
        "ShowHint": {
          "modifierName": "",
          "bonusCriticalHurt": 100.0,
          "onAdded": [
            {
              "$type": "AttachEffect",
              "healLimitedByCasterMaxHPRatio": "Eff_Item_Hint",
              "born": {
                "$type": "ConfigBornByAttachPoint",
                "attachPointName": "EffectRoot"
              },
              "effectTempleteID": -1.0
            }
          ]
        },
        "GadgetZeroModifier": {
          "modifierName": "",
          "bonusCriticalHurt": 100.0
        }
      }
    }
  },
  {
    "Default": {
      "$type": "ConfigAbility",
      "abilityName": "SceneObj_Area_Ljxs_Property_Prop_SwordMagnum_01_Ability",
      "abilityMixins": [
        {
          "$type": "AttachToGadgetStateMixin",
          "modifierName": "EffectLv01"
        },
        {
          "$type": "AttachToGadgetStateMixin",
          "gadgetState": 901,
          "modifierName": "EffectLv02"
        },
        {
          "$type": "AttachToGadgetStateMixin",
          "gadgetState": 902,
          "modifierName": "EffectLv03"
        },
        {
          "$type": "AttachToGadgetStateMixin",
          "gadgetState": 903,
          "modifierName": "EffectLv04"
        }
      ],
      "modifiers": {
        "EffectLv01": {
          "modifierName": "",
          "bonusCriticalHurt": 100.0,
          "onAdded": [
            {
              "$type": "AttachEffect",
              "healLimitedByCasterMaxHPRatio": "Eff_SceneObj_DragonspineInfuse_01",
              "effectTempleteID": -1.0
            }
          ]
        },
        "EffectLv02": {
          "modifierName": "",
          "bonusCriticalHurt": 100.0,
          "onAdded": [
            {
              "$type": "AttachEffect",
              "healLimitedByCasterMaxHPRatio": "Eff_SceneObj_DragonspineInfuse_02",
              "effectTempleteID": -1.0
            }
          ]
        },
        "EffectLv03": {
          "modifierName": "",
          "bonusCriticalHurt": 100.0,
          "onAdded": [
            {
              "$type": "AttachEffect",
              "healLimitedByCasterMaxHPRatio": "Eff_SceneObj_DragonspineInfuse_03",
              "effectTempleteID": -1.0
            }
          ]
        },
        "EffectLv04": {
          "modifierName": "",
          "bonusCriticalHurt": 100.0,
          "onAdded": [
            {
              "$type": "AttachEffect",
              "healLimitedByCasterMaxHPRatio": "Eff_SceneObj_DragonspineInfuse_04",
              "effectTempleteID": -1.0
            }
          ]
        }
      }
    }
  },
  {
    "Default": {
      "$type": "ConfigAbility",
      "abilityName": "SceneObj_Area_Ljxs_Property_Ani_Flower_AlbedoFlower_01_Ability",
      "abilityMixins": [
        {
          "$type": "AttachToGadgetStateMixin",
          "gadgetState": 201,
          "modifierName": "Bloom"
        },
        {
          "$type": "AttachToGadgetStateMixin",
          "gadgetState": 202,
          "modifierName": "Wilt"
        },
        {
          "$type": "AttachToAnimatorStateIDMixin",
          "stateIDs": ["State_Seed", "State_Bloom_Start"],
          "modifierName": "Seed"
        }
      ],
      "modifiers": {
        "Seed": {
          "modifierName": "",
          "bonusCriticalHurt": 100.0,
          "onAdded": [
            {
              "$type": "AttachEffect",
              "healLimitedByCasterMaxHPRatio": "Eff_Quest_AlbedoFlower_01_Bud",
              "born": {
                "$type": "ConfigBornByAttachPoint",
                "attachPointName": "BoneRoot"
              },
              "effectTempleteID": -1.0
            }
          ]
        },
        "Bloom": {
          "modifierName": "",
          "bonusCriticalHurt": 100.0,
          "onAdded": [
            {
              "$type": "SetAnimatorTrigger",
              "triggerID": "Bloom"
            },
            {
              "$type": "AttachEffect",
              "healLimitedByCasterMaxHPRatio": "Eff_Quest_AlbedoFlower_01_Bloom",
              "born": {
                "$type": "ConfigBornByAttachPoint",
                "attachPointName": "BoneRoot"
              },
              "effectTempleteID": -1.0
            }
          ]
        },
        "Wilt": {
          "modifierName": "",
          "bonusCriticalHurt": 100.0,
          "onAdded": [
            {
              "$type": "SetAnimatorTrigger",
              "triggerID": "Wilt"
            },
            {
              "$type": "AttachEffect",
              "healLimitedByCasterMaxHPRatio": "Eff_Quest_AlbedoFlower_01_Disappear",
              "born": {
                "$type": "ConfigBornByAttachPoint",
                "attachPointName": "BoneRoot"
              },
              "effectTempleteID": -1.0
            }
          ]
        }
      }
    }
  },
  {
    "Default": {
      "$type": "ConfigAbility",
      "abilityName": "SceneObj_Area_Ljxs_Property_Ani_Prop_AlbedoDrink_01_Ability",
      "abilityMixins": [
        {
          "$type": "AttachToGadgetStateMixin",
          "modifierName": "Full"
        },
        {
          "$type": "AttachToGadgetStateMixin",
          "gadgetState": 201,
          "modifierName": "Empty"
        }
      ],
      "modifiers": {
        "Full": {
          "modifierName": "",
          "bonusCriticalHurt": 100.0,
          "onAdded": [
            {
              "$type": "AttachEffect",
              "healLimitedByCasterMaxHPRatio": "Eff_Quest_AlbedoDrink_01_Burning",
              "effectTempleteID": -1.0
            }
          ]
        },
        "Empty": {
          "modifierName": "",
          "bonusCriticalHurt": 100.0,
          "onAdded": [
            {
              "$type": "AttachEffect",
              "healLimitedByCasterMaxHPRatio": "Eff_Quest_AlbedoDrink_01_Left",
              "effectTempleteID": -1.0
            }
          ]
        }
      }
    }
  },
  {
    "Default": {
      "$type": "ConfigAbility",
      "abilityName": "SceneObj_Area_Ly_Property_Ani_Prop_ShootingPoint_01_Ability",
      "onAdded": [
        {
          "$type": "AttachEffect",
          "healLimitedByCasterMaxHPRatio": "Eff_Quest_LY_ShootingPoint_01",
          "effectTempleteID": -1.0
        }
      ]
    }
  },
  {
    "Default": {
      "$type": "ConfigAbility",
      "abilityName": "SceneObj_Level_Common_Property_Light_Lantern_EverLit_01_Ability",
      "abilityMixins": [
        {
          "$type": "AttachToGadgetStateMixin",
          "modifierName": "Full"
        },
        {
          "$type": "AttachToGadgetStateMixin",
          "gadgetState": 202,
          "modifierName": "Death"
        }
      ],
      "modifiers": {
        "Full": {
          "modifierName": "",
          "bonusCriticalHurt": 100.0
        },
        "Death": {
          "modifierName": "",
          "duration": 0.10000000149011612,
          "bonusCriticalHurt": 100.0,
          "onAdded": [
            {
              "$type": "FireEffect",
              "healLimitedByCasterMaxHPRatio": "Eff_Quest_Lantern_EverLit_01_Disappear",
              "effectTempleteID": -1.0
            }
          ],
          "onRemoved": [
            {
              "$type": "KillSelf"
            }
          ]
        }
      }
    }
  },
  {
    "Default": {
      "$type": "ConfigAbility",
      "abilityName": "SceneObj_Area_Ly_Property_Ani_Prop_LanternScreenControl_Left_Ability",
      "abilityMixins": [
        {
          "$type": "AttachToAnimatorStateIDMixin",
          "stateIDs": ["Step1"],
          "modifierName": "StateOne"
        },
        {
          "$type": "AttachToAnimatorStateIDMixin",
          "stateIDs": ["Step2"],
          "modifierName": "StateTwo"
        },
        {
          "$type": "AttachToAnimatorStateIDMixin",
          "stateIDs": ["Step3"],
          "modifierName": "StateThree"
        }
      ],
      "modifiers": {
        "StateOne": {
          "modifierName": "",
          "bonusCriticalHurt": 100.0,
          "onAdded": [
            {
              "$type": "AttachEffect",
              "healLimitedByCasterMaxHPRatio": "Eff_Sc_SceneObj_LanternScreen_01_Left",
              "effectTempleteID": 100.0
            }
          ]
        },
        "StateTwo": {
          "modifierName": "",
          "bonusCriticalHurt": 100.0,
          "onAdded": [
            {
              "$type": "AttachEffect",
              "healLimitedByCasterMaxHPRatio": "Eff_Sc_SceneObj_LanternScreen_01_Left",
              "effectTempleteID": 101.0
            }
          ]
        },
        "StateThree": {
          "modifierName": "",
          "bonusCriticalHurt": 100.0,
          "onAdded": [
            {
              "$type": "AttachEffect",
              "healLimitedByCasterMaxHPRatio": "Eff_Sc_SceneObj_LanternScreen_01_Left",
              "effectTempleteID": 102.0
            }
          ]
        }
      }
    }
  },
  {
    "Default": {
      "$type": "ConfigAbility",
      "abilityName": "SceneObj_Area_Ly_Property_Ani_Prop_LanternScreenControl_Middle_Ability",
      "abilityMixins": [
        {
          "$type": "AttachToAnimatorStateIDMixin",
          "stateIDs": ["Step1"],
          "modifierName": "StateOne"
        },
        {
          "$type": "AttachToAnimatorStateIDMixin",
          "stateIDs": ["Step2"],
          "modifierName": "StateTwo"
        },
        {
          "$type": "AttachToAnimatorStateIDMixin",
          "stateIDs": ["Step3"],
          "modifierName": "StateThree"
        }
      ],
      "modifiers": {
        "StateOne": {
          "modifierName": "",
          "bonusCriticalHurt": 100.0,
          "onAdded": [
            {
              "$type": "AttachEffect",
              "healLimitedByCasterMaxHPRatio": "Eff_Sc_SceneObj_LanternScreen_01_Middle",
              "effectTempleteID": 100.0
            }
          ]
        },
        "StateTwo": {
          "modifierName": "",
          "bonusCriticalHurt": 100.0,
          "onAdded": [
            {
              "$type": "AttachEffect",
              "healLimitedByCasterMaxHPRatio": "Eff_Sc_SceneObj_LanternScreen_01_Middle",
              "effectTempleteID": 101.0
            }
          ]
        },
        "StateThree": {
          "modifierName": "",
          "bonusCriticalHurt": 100.0,
          "onAdded": [
            {
              "$type": "AttachEffect",
              "healLimitedByCasterMaxHPRatio": "Eff_Sc_SceneObj_LanternScreen_01_Middle",
              "effectTempleteID": 102.0
            }
          ]
        }
      }
    }
  },
  {
    "Default": {
      "$type": "ConfigAbility",
      "abilityName": "SceneObj_Area_Ly_Property_Ani_Prop_LanternScreenControl_Right_Ability",
      "abilityMixins": [
        {
          "$type": "AttachToAnimatorStateIDMixin",
          "stateIDs": ["Step1"],
          "modifierName": "StateOne"
        },
        {
          "$type": "AttachToAnimatorStateIDMixin",
          "stateIDs": ["Step2"],
          "modifierName": "StateTwo"
        },
        {
          "$type": "AttachToAnimatorStateIDMixin",
          "stateIDs": ["Step3"],
          "modifierName": "StateThree"
        }
      ],
      "modifiers": {
        "StateOne": {
          "modifierName": "",
          "bonusCriticalHurt": 100.0,
          "onAdded": [
            {
              "$type": "AttachEffect",
              "healLimitedByCasterMaxHPRatio": "Eff_Sc_SceneObj_LanternScreen_01_Right",
              "effectTempleteID": 100.0
            }
          ]
        },
        "StateTwo": {
          "modifierName": "",
          "bonusCriticalHurt": 100.0,
          "onAdded": [
            {
              "$type": "AttachEffect",
              "healLimitedByCasterMaxHPRatio": "Eff_Sc_SceneObj_LanternScreen_01_Right",
              "effectTempleteID": 101.0
            }
          ]
        },
        "StateThree": {
          "modifierName": "",
          "bonusCriticalHurt": 100.0,
          "onAdded": [
            {
              "$type": "AttachEffect",
              "healLimitedByCasterMaxHPRatio": "Eff_Sc_SceneObj_LanternScreen_01_Right",
              "effectTempleteID": 102.0
            }
          ]
        }
      }
    }
  },
  {
    "Default": {
      "$type": "ConfigAbility",
      "abilityName": "SceneObj_Area_Ly_Property_Ani_Prop_LanternScreenSuccess_Ability",
      "abilityMixins": [
        {
          "$type": "AttachToGadgetStateMixin",
          "gadgetState": 201,
          "modifierName": "StartSuccessPlayStep1"
        }
      ],
      "modifiers": {
        "StartSuccessPlayStep1": {
          "modifierName": "",
          "duration": 0.25,
          "bonusCriticalHurt": 100.0,
          "onAdded": [
            {
              "$type": "ApplyModifier",
              "modifierName": "StarLeft"
            }
          ],
          "onRemoved": [
            {
              "$type": "ApplyModifier",
              "modifierName": "StartSuccessPlayStep2"
            }
          ]
        },
        "StartSuccessPlayStep2": {
          "modifierName": "",
          "duration": 0.25,
          "bonusCriticalHurt": 100.0,
          "onAdded": [
            {
              "$type": "ApplyModifier",
              "modifierName": "StarMiddle"
            }
          ],
          "onRemoved": [
            {
              "$type": "ApplyModifier",
              "modifierName": "StartSuccessPlayStep3"
            }
          ]
        },
        "StartSuccessPlayStep3": {
          "modifierName": "",
          "duration": 0.25,
          "bonusCriticalHurt": 100.0,
          "onAdded": [
            {
              "$type": "ApplyModifier",
              "modifierName": "StarRight"
            }
          ],
          "onRemoved": [
            {
              "$type": "ApplyModifier",
              "otherTargets": {
                "$type": "IDODCGJLHAE",
                "value": 2
              },
              "modifierName": "SendEffectTriggerLeft"
            },
            {
              "$type": "ApplyModifier",
              "otherTargets": {
                "$type": "IDODCGJLHAE",
                "value": 4
              },
              "modifierName": "SendEffectTriggerMiddle"
            },
            {
              "$type": "ApplyModifier",
              "otherTargets": {
                "$type": "IDODCGJLHAE",
                "value": 8
              },
              "modifierName": "SendEffectTriggerRight"
            }
          ]
        },
        "SendEffectTriggerLeft": {
          "modifierName": "",
          "bonusCriticalHurt": 100.0,
          "onAdded": [
            {
              "$type": "SendEffectTrigger",
              "parameter": "Trigger",
              "EBBHBMFMOGD": "",
              "healLimitedByCasterMaxHPRatio": "Eff_Sc_SceneObj_LanternScreen_01_Left"
            }
          ]
        },
        "SendEffectTriggerMiddle": {
          "modifierName": "",
          "bonusCriticalHurt": 100.0,
          "onAdded": [
            {
              "$type": "SendEffectTrigger",
              "parameter": "Trigger",
              "EBBHBMFMOGD": "",
              "healLimitedByCasterMaxHPRatio": "Eff_Sc_SceneObj_LanternScreen_01_Middle"
            }
          ]
        },
        "SendEffectTriggerRight": {
          "modifierName": "",
          "bonusCriticalHurt": 100.0,
          "onAdded": [
            {
              "$type": "SendEffectTrigger",
              "parameter": "Trigger",
              "EBBHBMFMOGD": "",
              "healLimitedByCasterMaxHPRatio": "Eff_Sc_SceneObj_LanternScreen_01_Right"
            }
          ]
        },
        "StarLeft": {
          "modifierName": "",
          "bonusCriticalHurt": 100.0,
          "onAdded": [
            {
              "$type": "AttachEffect",
              "healLimitedByCasterMaxHPRatio": "Eff_Sc_SceneObj_LanternScreen_01_Star",
              "born": {
                "$type": "ConfigBornByAttachPoint",
                "attachPointName": "PointLeft"
              },
              "effectTempleteID": -1.0
            }
          ]
        },
        "StarMiddle": {
          "modifierName": "",
          "bonusCriticalHurt": 100.0,
          "onAdded": [
            {
              "$type": "AttachEffect",
              "healLimitedByCasterMaxHPRatio": "Eff_Sc_SceneObj_LanternScreen_01_Star",
              "born": {
                "$type": "ConfigBornByAttachPoint",
                "attachPointName": "PointMiddle"
              },
              "effectTempleteID": -1.0
            }
          ]
        },
        "StarRight": {
          "modifierName": "",
          "bonusCriticalHurt": 100.0,
          "onAdded": [
            {
              "$type": "AttachEffect",
              "healLimitedByCasterMaxHPRatio": "Eff_Sc_SceneObj_LanternScreen_01_Star",
              "born": {
                "$type": "ConfigBornByAttachPoint",
                "attachPointName": "PointRight"
              },
              "effectTempleteID": -1.0
            }
          ]
        }
      }
    }
  },
  {
    "Default": {
      "$type": "ConfigAbility",
      "abilityName": "SceneObj_Area_Ly_Property_Ani_Prop_LanternProjector_01_Ability",
      "abilityMixins": [
        {
          "$type": "AttachToGadgetStateMixin",
          "gadgetState": 202,
          "modifierName": "Rotate"
        },
        {
          "$type": "AttachToAnimatorStateIDMixin",
          "stateIDs": ["Open"],
          "modifierName": "Open"
        }
      ],
      "modifiers": {
        "Open": {
          "modifierName": "",
          "bonusCriticalHurt": 100.0,
          "onAdded": [
            {
              "$type": "AttachEffect",
              "healLimitedByCasterMaxHPRatio": "Eff_Sc_SceneObj_LanternScreen_01_LightUp",
              "effectTempleteID": -1.0
            }
          ]
        },
        "Rotate": {
          "modifierName": "",
          "duration": 2.0,
          "bonusCriticalHurt": 100.0,
          "onAdded": [
            {
              "$type": "SetAnimatorTrigger",
              "triggerID": "Active",
              "MPTriggerOnRemote": true
            }
          ],
          "onRemoved": [
            {
              "$type": "ExecuteGadgetLua",
              "param1": 201
            }
          ]
        }
      }
    }
  },
  {
    "Default": {
      "$type": "ConfigAbility",
      "abilityName": "SceneObj_Area_Common_Property_Flower_Dandelion_NoFlower_01_Ability",
      "modifiers": {
        "HitMonitor": {
          "modifierName": "",
          "bonusCriticalHurt": 100.0,
          "onBeingHit": [
            {
              "$type": "SetAnimatorTrigger",
              "predicates": [
                {
                  "$type": "DDBJEPBNOGF",
                  "predicates": [
                    {
                      "$type": "OIEGBANNLOG",
                      "CIMNBKFMPGD": "Wind"
                    }
                  ]
                },
                {
                  "$type": "DDBJEPBNOGF",
                  "predicates": [
                    {
                      "$type": "LCCMCDGDKGI",
                      "attackTags": ["BurningDamage"]
                    }
                  ]
                }
              ],
              "triggerID": "Hit"
            }
          ]
        }
      },
      "onAdded": [
        {
          "$type": "ApplyModifier",
          "modifierName": "HitMonitor"
        }
      ]
    }
  },
  {
    "Default": {
      "$type": "ConfigAbility",
      "abilityName": "SceneObj_Level_Common_Property_Prop_ThunderFall_01_Ability",
      "modifiers": {
        "KillThunder": {
          "modifierName": "",
          "duration": 0.5,
          "bonusCriticalHurt": 100.0,
          "onRemoved": [
            {
              "$type": "KillSelf"
            }
          ]
        }
      },
      "onAdded": [
        {
          "$type": "ApplyModifier",
          "modifierName": "KillThunder"
        }
      ]
    }
  },
  {
    "Default": {
      "$type": "ConfigAbility",
      "abilityName": "SceneObj_Level_Common_Property_Prop_RealThunderFall_01_Ability",
      "modifiers": {
        "Thunder": {
          "modifierName": "",
          "duration": 1.5,
          "bonusCriticalHurt": 100.0,
          "onAdded": [
            {
              "$type": "FireEffect",
              "healLimitedByCasterMaxHPRatio": "Eff_Thunder_EarlyWarning_01",
              "effectTempleteID": -1.0
            }
          ],
          "onRemoved": [
            {
              "$type": "FireEffect",
              "healLimitedByCasterMaxHPRatio": "Eff_Quest_EnviroLightning_01",
              "effectTempleteID": -1.0
            },
            {
              "$type": "ApplyModifier",
              "modifierName": "DelayShakeScreen"
            },
            {
              "$type": "ApplyModifier",
              "modifierName": "KillSelfModifier"
            }
          ]
        },
        "DelayShakeScreen": {
          "modifierName": "",
          "duration": 0.20000000298023224,
          "bonusCriticalHurt": 100.0,
          "onRemoved": [
            {
              "$type": "TriggerAttackEvent",
              "attackEvent": {
                "attackPattern": {
                  "$type": "ConfigAttackSphere",
                  "radius": 1.0
                },
                "attackInfo": {
                  "attackTag": "",
                  "attenuationTag": "",
                  "attenuationGroup": "default",
                  "attackProperty": {
                    "damagePercentageRatio": 0.0,
                    "elementType": "Electric",
                    "bonusCriticalHurt": 25.0,
                    "ignoreAttackerProperty": true,
                    "enBreak": 0.0,
                    "damageExtra": 0.0,
                    "trueDamage": true,
                    "bonusCritical": true
                  },
                  "hitPattern": {
                    "onHitEffectName": "default",
                    "hitImpulseType": "LV8",
                    "hitHaltTimeScale": 0.05000000074505806
                  },
                  "forceCameraShake": true,
                  "cameraShake": {
                    "shakeType": "CustomVector",
                    "shakeRange": 1.100000023841858,
                    "shakeTime": 0.5,
                    "shakeDistance": 50.0,
                    "shakeDir": {
                      "y": -1.0
                    },
                    "extension": {
                      "rangeAttenuation": 0.20000000298023224
                    }
                  }
                }
              }
            }
          ]
        },
        "KillSelfModifier": {
          "modifierName": "",
          "duration": 5.0,
          "bonusCriticalHurt": 100.0,
          "onRemoved": [
            {
              "$type": "KillSelf"
            }
          ]
        }
      },
      "onAdded": [
        {
          "$type": "ApplyModifier",
          "modifierName": "Thunder"
        }
      ]
    }
  },
  {
    "Default": {
      "$type": "ConfigAbility",
      "abilityName": "SceneObj_Level_Common_Property_Prop_FireworksExplosion_01_Ability",
      "modifiers": {
        "Fireworks": {
          "modifierName": "",
          "duration": 5.0,
          "bonusCriticalHurt": 100.0,
          "onAdded": [
            {
              "$type": "FireEffect",
              "healLimitedByCasterMaxHPRatio": "Eff_Quest_Yoimiya_Explosion_01",
              "effectTempleteID": -1.0
            },
            {
              "$type": "ActCameraShake",
              "cameraShake": {
                "shakeRange": 1.100000023841858,
                "shakeTime": 0.20000000298023224,
                "shakeDistance": 30.0
              }
            }
          ],
          "onRemoved": [
            {
              "$type": "KillSelf"
            }
          ]
        }
      },
      "onAdded": [
        {
          "$type": "ApplyModifier",
          "modifierName": "Fireworks"
        }
      ]
    }
  },
  {
    "Default": {
      "$type": "ConfigAbility",
      "abilityName": "SceneObj_Area_Common_Property_Prop_AbyssChain_01_Ability",
      "abilityMixins": [
        {
          "$type": "AttachToGadgetStateMixin",
          "gadgetState": 201,
          "modifierName": "Vanish"
        }
      ],
      "modifiers": {
        "Exist": {
          "modifierName": "",
          "bonusCriticalHurt": 100.0,
          "onAdded": [
            {
              "$type": "AttachEffect",
              "healLimitedByCasterMaxHPRatio": "Eff_Quest_Wolf_LupiBoreas_AbyssChain_01",
              "effectTempleteID": -1.0
            }
          ]
        },
        "Vanish": {
          "modifierName": "",
          "bonusCriticalHurt": 100.0,
          "onAdded": [
            {
              "$type": "SendEffectTrigger",
              "parameter": "Vanish",
              "EBBHBMFMOGD": "",
              "healLimitedByCasterMaxHPRatio": "Eff_Quest_Wolf_LupiBoreas_AbyssChain_01"
            },
            {
              "$type": "FireEffect",
              "healLimitedByCasterMaxHPRatio": "Eff_Quest_Wolf_LupiBoreas_AbyssChain_01_Disappear",
              "effectTempleteID": -1.0
            }
          ],
          "onRemoved": [
            {
              "$type": "SendEffectTrigger",
              "parameter": "Appear",
              "EBBHBMFMOGD": "",
              "healLimitedByCasterMaxHPRatio": "Eff_Quest_Wolf_LupiBoreas_AbyssChain_01"
            }
          ]
        }
      },
      "onAdded": [
        {
          "$type": "ApplyModifier",
          "modifierName": "Exist"
        }
      ]
    }
  },
  {
    "Default": {
      "$type": "ConfigAbility",
      "abilityName": "SceneObj_Environment_FireMaterial_CookingPotSnowMountain_Interact_Louder",
      "abilityMixins": [
        {
          "$type": "AttachToGadgetStateMixin",
          "modifierName": "Fire_Off"
        },
        {
          "$type": "AttachToGadgetStateMixin",
          "gadgetState": 201,
          "modifierName": "Fire_On"
        }
      ],
      "modifiers": {
        "Fire_Off": {
          "modifierName": "",
          "bonusCriticalHurt": 100.0,
          "onBeingHit": [
            {
              "$type": "ExecuteGadgetLua",
              "predicates": [
                {
                  "$type": "OIEGBANNLOG",
                  "CIMNBKFMPGD": "Fire"
                },
                {
                  "$type": "DDBJEPBNOGF",
                  "predicates": [
                    {
                      "$type": "KDJFMOGPKCP",
                      "CIMNBKFMPGD": "Water"
                    }
                  ]
                }
              ],
              "param1": 201
            }
          ]
        },
        "Fire_On": {
          "modifierName": "",
          "elementType": "Fire",
          "bonusCriticalHurt": 25.0,
          "modifierMixins": [
            {
              "$type": "TileComplexMixin",
              "attackID": "TileAttack_FireSource",
              "attachPointName": "attachPoint",
              "shape": {
                "$type": "HCNOBIMLCKF",
                "radius": 0.10000000149011612
              }
            }
          ],
          "onAdded": [
            {
              "$type": "AddGlobalValue",
              "ratio": 1.0,
              "key": "IS_WARM_POINT",
              "useLimitRange": true,
              "maxValue": 1.0,
              "minValue": 0.0
            },
            {
              "$type": "AttachEffect",
              "healLimitedByCasterMaxHPRatio": "Eff_Quest_CookingFireLoud_01",
              "effectTempleteID": -1.0
            },
            {
              "$type": "AttachEffect",
              "healLimitedByCasterMaxHPRatio": "Eff_SceneObj_Cooking_01_Smoke",
              "born": {
                "$type": "ConfigBornByAttachPoint",
                "offset": {
                  "z": 0.0
                },
                "attachPointName": "RootNode"
              },
              "effectTempleteID": -1.0
            }
          ],
          "onRemoved": [
            {
              "$type": "ExecuteGadgetLua"
            },
            {
              "$type": "AddGlobalValue",
              "ratio": -1.0,
              "key": "IS_WARM_POINT",
              "useLimitRange": true,
              "maxValue": 1.0,
              "minValue": 0.0
            },
            {
              "$type": "FireEffect",
              "healLimitedByCasterMaxHPRatio": "Eff_FireBasin_Smoke",
              "born": {
                "$type": "ConfigBornByAttachPoint",
                "attachPointName": "attachPoint"
              },
              "effectTempleteID": -1.0
            }
          ]
        }
      }
    }
  },
  {
    "Default": {
      "$type": "ConfigAbility",
      "abilityName": "SceneObj_Area_Dq_Property_Ani_Prop_DqBonfire_01",
      "abilityMixins": [
        {
          "$type": "AttachToGadgetStateMixin",
          "modifierName": "Fire_Off"
        },
        {
          "$type": "AttachToGadgetStateMixin",
          "gadgetState": 201,
          "modifierName": "Fire_On"
        }
      ],
      "modifiers": {
        "Fire_Off": {
          "modifierName": "",
          "bonusCriticalHurt": 100.0,
          "onBeingHit": [
            {
              "$type": "ExecuteGadgetLua",
              "predicates": [
                {
                  "$type": "OIEGBANNLOG",
                  "CIMNBKFMPGD": "Fire"
                },
                {
                  "$type": "DDBJEPBNOGF",
                  "predicates": [
                    {
                      "$type": "KDJFMOGPKCP",
                      "CIMNBKFMPGD": "Water"
                    }
                  ]
                }
              ],
              "param1": 201
            }
          ]
        },
        "Fire_On": {
          "modifierName": "",
          "elementType": "Fire",
          "bonusCriticalHurt": 25.0,
          "modifierMixins": [
            {
              "$type": "TileComplexMixin",
              "attackID": "TileAttack_FireSource",
              "attachPointName": "attachPoint",
              "shape": {
                "$type": "HCNOBIMLCKF",
                "radius": 0.699999988079071
              }
            }
          ],
          "onAdded": [
            {
              "$type": "AttachEffect",
              "healLimitedByCasterMaxHPRatio": "Eff_Quest_DqBonfire_01",
              "effectTempleteID": -1.0
            }
          ],
          "onRemoved": [
            {
              "$type": "ExecuteGadgetLua"
            },
            {
              "$type": "FireEffect",
              "healLimitedByCasterMaxHPRatio": "Eff_FireBasin_Smoke",
              "born": {
                "$type": "ConfigBornByAttachPoint",
                "attachPointName": "attachPoint"
              },
              "effectTempleteID": -1.0
            }
          ]
        }
      }
    }
  },
  {
    "Default": {
      "$type": "ConfigAbility",
      "abilityName": "SceneObj_Area_Dq_Property_Ani_Prop_BBQSumire_01",
      "abilityMixins": [
        {
          "$type": "AttachToGadgetStateMixin",
          "modifierName": "Fire_Off"
        },
        {
          "$type": "AttachToGadgetStateMixin",
          "gadgetState": 201,
          "modifierName": "Fire_On"
        }
      ],
      "modifiers": {
        "Fire_Off": {
          "modifierName": "",
          "bonusCriticalHurt": 100.0,
          "onBeingHit": [
            {
              "$type": "ExecuteGadgetLua",
              "predicates": [
                {
                  "$type": "OIEGBANNLOG",
                  "CIMNBKFMPGD": "Fire"
                },
                {
                  "$type": "DDBJEPBNOGF",
                  "predicates": [
                    {
                      "$type": "KDJFMOGPKCP",
                      "CIMNBKFMPGD": "Water"
                    }
                  ]
                }
              ],
              "param1": 201
            }
          ]
        },
        "Fire_On": {
          "modifierName": "",
          "elementType": "Fire",
          "bonusCriticalHurt": 25.0,
          "modifierMixins": [
            {
              "$type": "TileComplexMixin",
              "attackID": "TileAttack_FireSource",
              "attachPointName": "attachPoint",
              "shape": {
                "$type": "HCNOBIMLCKF",
                "radius": 0.4000000059604645
              }
            }
          ],
          "onAdded": [
            {
              "$type": "AttachEffect",
              "healLimitedByCasterMaxHPRatio": "Eff_SceneObj_FireBasin_01",
              "effectTempleteID": -1.0
            }
          ],
          "onRemoved": [
            {
              "$type": "ExecuteGadgetLua"
            },
            {
              "$type": "FireEffect",
              "healLimitedByCasterMaxHPRatio": "Eff_FireBasin_Smoke",
              "born": {
                "$type": "ConfigBornByAttachPoint",
                "attachPointName": "attachPoint"
              },
              "effectTempleteID": -1.0
            }
          ]
        }
      }
    }
  },
  {
    "Default": {
      "$type": "ConfigAbility",
      "abilityName": "SceneObj_Area_Dq_Property_Prop_ShogunTeaSet_01_Ability",
      "modifiers": {
        "Smoke1": {
          "modifierName": "",
          "bonusCriticalHurt": 100.0,
          "onAdded": [
            {
              "$type": "AttachEffect",
              "healLimitedByCasterMaxHPRatio": "Eff_Quest_ShogunTeaset_02_Smoke",
              "born": {
                "$type": "ConfigBornByAttachPoint",
                "attachPointName": "Point1"
              },
              "effectTempleteID": -1.0
            }
          ]
        },
        "Smoke2": {
          "modifierName": "",
          "bonusCriticalHurt": 100.0,
          "onAdded": [
            {
              "$type": "AttachEffect",
              "healLimitedByCasterMaxHPRatio": "Eff_Quest_ShogunTeaset_02_Smoke",
              "born": {
                "$type": "ConfigBornByAttachPoint",
                "attachPointName": "Point2"
              },
              "effectTempleteID": -1.0
            }
          ]
        },
        "Smoke3": {
          "modifierName": "",
          "bonusCriticalHurt": 100.0,
          "onAdded": [
            {
              "$type": "AttachEffect",
              "healLimitedByCasterMaxHPRatio": "Eff_Quest_ShogunTeaset_02_Smoke",
              "born": {
                "$type": "ConfigBornByAttachPoint",
                "attachPointName": "Point3"
              },
              "effectTempleteID": -1.0
            }
          ]
        }
      },
      "onAdded": [
        {
          "$type": "ApplyModifier",
          "modifierName": "Smoke1"
        },
        {
          "$type": "ApplyModifier",
          "modifierName": "Smoke2"
        },
        {
          "$type": "ApplyModifier",
          "modifierName": "Smoke3"
        }
      ]
    }
  },
  {
    "Default": {
      "$type": "ConfigAbility",
      "abilityName": "SceneObj_Quest_AbyssGate_01",
      "modifiers": {
        "AbyssGate01": {
          "modifierName": "",
          "bonusCriticalHurt": 100.0,
          "onAdded": [
            {
              "$type": "AttachEffect",
              "healLimitedByCasterMaxHPRatio": "Eff_ScenObj_AbyssPortal_01",
              "effectTempleteID": -1.0
            }
          ],
          "onKill": [
            {
              "$type": "FireEffect",
              "healLimitedByCasterMaxHPRatio": "Eff_ScenObj_AbyssPortal_01_Disappear",
              "effectTempleteID": -1.0
            }
          ]
        }
      },
      "onAdded": [
        {
          "$type": "ApplyModifier",
          "modifierName": "AbyssGate01"
        }
      ]
    }
  },
  {
    "Default": {
      "$type": "ConfigAbility",
      "abilityName": "SceneObj_Quest_EnergyRay_01",
      "modifiers": {
        "EnergyRay01": {
          "modifierName": "",
          "bonusCriticalHurt": 100.0,
          "onAdded": [
            {
              "$type": "AttachEffect",
              "healLimitedByCasterMaxHPRatio": "Eff_ScenObj_EnergyRay_01",
              "effectTempleteID": -1.0
            }
          ],
          "onKill": [
            {
              "$type": "FireEffect",
              "healLimitedByCasterMaxHPRatio": "Eff_ScenObj_EnergyRay_01_Disappear",
              "effectTempleteID": -1.0
            }
          ]
        }
      },
      "onAdded": [
        {
          "$type": "ApplyModifier",
          "modifierName": "EnergyRay01"
        }
      ]
    }
  },
  {
    "Default": {
      "$type": "ConfigAbility",
      "abilityName": "SceneObj_Quest_XiaoSpaceCrack_01",
      "modifiers": {
        "SpaceCrack": {
          "modifierName": "",
          "bonusCriticalHurt": 100.0,
          "onAdded": [
            {
              "$type": "AttachEffect",
              "healLimitedByCasterMaxHPRatio": "Eff_Quest_XiaoSpaceCrack_01",
              "effectTempleteID": -1.0
            }
          ],
          "onKill": [
            {
              "$type": "FireEffect",
              "healLimitedByCasterMaxHPRatio": "Eff_Quest_XiaoSpaceCrack_01_Disappear",
              "effectTempleteID": -1.0
            }
          ]
        }
      },
      "onAdded": [
        {
          "$type": "ApplyModifier",
          "modifierName": "SpaceCrack"
        }
      ]
    }
  },
  {
    "Default": {
      "$type": "ConfigAbility",
      "abilityName": "SceneObj_Quest_XiaoAmber_01",
      "modifiers": {
        "XiaoAmber": {
          "modifierName": "",
          "bonusCriticalHurt": 100.0,
          "onAdded": [
            {
              "$type": "AttachEffect",
              "healLimitedByCasterMaxHPRatio": "Eff_Quest_XiaoAmber_01",
              "effectTempleteID": -1.0
            }
          ],
          "onKill": [
            {
              "$type": "FireEffect",
              "healLimitedByCasterMaxHPRatio": "Eff_Quest_XiaoAmber_01_Disappear",
              "effectTempleteID": -1.0
            }
          ]
        }
      },
      "onAdded": [
        {
          "$type": "ApplyModifier",
          "modifierName": "XiaoAmber"
        }
      ]
    }
  },
  {
    "Default": {
      "$type": "ConfigAbility",
      "abilityName": "SceneObj_Quest_VoidStone_01",
      "modifiers": {
        "StoneDisappear": {
          "modifierName": "",
          "bonusCriticalHurt": 100.0,
          "onAdded": [
            {
              "$type": "AttachEffect",
              "healLimitedByCasterMaxHPRatio": "Eff_Quest_VoidStoneLoop",
              "effectTempleteID": -1.0
            }
          ],
          "onKill": [
            {
              "$type": "FireEffect",
              "healLimitedByCasterMaxHPRatio": "Eff_Quest_VoidStoneVanish",
              "effectTempleteID": -1.0
            }
          ]
        }
      },
      "onAdded": [
        {
          "$type": "ApplyModifier",
          "modifierName": "StoneDisappear"
        }
      ]
    }
  },
  {
    "Default": {
      "$type": "ConfigAbility",
      "abilityName": "SceneObj_Quest_EnergyRay_02",
      "modifiers": {
        "EnergyRay02": {
          "modifierName": "",
          "bonusCriticalHurt": 100.0,
          "onAdded": [
            {
              "$type": "AttachEffect",
              "healLimitedByCasterMaxHPRatio": "Eff_ScenObj_EnergyRay_02",
              "effectTempleteID": -1.0
            }
          ],
          "onKill": [
            {
              "$type": "FireEffect",
              "healLimitedByCasterMaxHPRatio": "Eff_ScenObj_EnergyRay_02_Disappear",
              "effectTempleteID": -1.0
            }
          ]
        }
      },
      "onAdded": [
        {
          "$type": "ApplyModifier",
          "modifierName": "EnergyRay02"
        }
      ]
    }
  },
  {
    "Default": {
      "$type": "ConfigAbility",
      "abilityName": "SceneObj_Area_Xm_Property_Prop_CampBurner_01",
      "modifiers": {
        "CampBurner01": {
          "modifierName": "",
          "bonusCriticalHurt": 100.0,
          "onAdded": [
            {
              "$type": "AttachEffect",
              "healLimitedByCasterMaxHPRatio": "Eff_SecenObj_CampBurner_01",
              "effectTempleteID": -1.0
            }
          ]
        }
      },
      "onAdded": [
        {
          "$type": "ApplyModifier",
          "modifierName": "CampBurner01"
        }
      ]
    }
  },
  {
    "Default": {
      "$type": "ConfigAbility",
      "abilityName": "SceneObj_Area_Common_Property_Prop_FakeFire_01",
      "modifiers": {
        "FakeFire01": {
          "modifierName": "",
          "bonusCriticalHurt": 100.0,
          "onAdded": [
            {
              "$type": "AttachEffect",
              "healLimitedByCasterMaxHPRatio": "Eff_SceneObj_Cooking_01_Fire",
              "effectTempleteID": -1.0
            },
            {
              "$type": "AttachEffect",
              "healLimitedByCasterMaxHPRatio": "Eff_SceneObj_Cooking_01_Smoke",
              "born": {
                "$type": "ConfigBornByAttachPoint",
                "offset": {
                  "z": 0.0
                },
                "attachPointName": "RootNode"
              },
              "effectTempleteID": -1.0
            }
          ]
        }
      },
      "onAdded": [
        {
          "$type": "ApplyModifier",
          "modifierName": "FakeFire01"
        }
      ]
    }
  },
  {
    "Default": {
      "$type": "ConfigAbility",
      "abilityName": "SceneObj_Quest_SpecialDisappear_01",
      "modifiers": {
        "SanbingDisappear": {
          "modifierName": "",
          "bonusCriticalHurt": 100.0,
          "onAdded": [
            {
              "$type": "AttachEffect",
              "healLimitedByCasterMaxHPRatio": "Eff_Quest_Oldmemorycrash_DisappearStart",
              "effectTempleteID": -1.0
            }
          ],
          "onKill": [
            {
              "$type": "FireEffect",
              "healLimitedByCasterMaxHPRatio": "Eff_Quest_Oldmemorycrash_Disappear",
              "effectTempleteID": -1.0
            }
          ]
        }
      },
      "onAdded": [
        {
          "$type": "ApplyModifier",
          "modifierName": "SanbingDisappear"
        }
      ]
    }
  },
  {
    "Default": {
      "$type": "ConfigAbility",
      "abilityName": "SceneObj_Quest_Oldmemoryshield_01",
      "modifiers": {
        "MemoryShield": {
          "modifierName": "",
          "bonusCriticalHurt": 100.0,
          "onAdded": [
            {
              "$type": "AttachEffect",
              "healLimitedByCasterMaxHPRatio": "Eff_Quest_Oldmemoryshield_DisappearStart",
              "effectTempleteID": -1.0
            }
          ],
          "onKill": [
            {
              "$type": "FireEffect",
              "healLimitedByCasterMaxHPRatio": "Eff_Quest_Oldmemoryshield_Disappear",
              "effectTempleteID": -1.0
            }
          ]
        }
      },
      "onAdded": [
        {
          "$type": "ApplyModifier",
          "modifierName": "MemoryShield"
        }
      ]
    }
  },
  {
    "Default": {
      "$type": "ConfigAbility",
      "abilityName": "SceneObj_Event_Stain01",
      "modifiers": {
        "Default_0": {
          "modifierName": "",
          "bonusCriticalHurt": 100.0,
          "onAdded": [
            {
              "$type": "AttachEffect",
              "healLimitedByCasterMaxHPRatio": "Eff_SceneObj_GroundDirty_01",
              "effectTempleteID": -1.0
            },
            {
              "$type": "AttachEffect",
              "healLimitedByCasterMaxHPRatio": "Eff_Quest_SiteInteract_Event",
              "effectTempleteID": -1.0
            }
          ],
          "onBeingHit": [
            {
              "$type": "AddGlobalValue",
              "predicates": [
                {
                  "$type": "OIEGBANNLOG",
                  "CIMNBKFMPGD": "Wind"
                }
              ],
              "ratio": 1.0,
              "key": "_WIND_HIT_COUNT",
              "useLimitRange": true,
              "maxValue": 2.0,
              "minValue": 0.0
            },
            {
              "$type": "SendEffectTrigger",
              "predicates": [
                {
                  "$type": "ByTargetGlobalValue",
                  "key": "_WIND_HIT_COUNT",
                  "ratio": 1.0
                }
              ],
              "parameter": "HalfDirty",
              "EBBHBMFMOGD": "",
              "healLimitedByCasterMaxHPRatio": "Eff_SceneObj_GroundDirty_01"
            },
            {
              "$type": "FireEffect",
              "predicates": [
                {
                  "$type": "OIEGBANNLOG",
                  "CIMNBKFMPGD": "Wind"
                }
              ],
              "healLimitedByCasterMaxHPRatio": "Eff_SceneObj_GroundDirty_Blow",
              "effectTempleteID": -1.0
            },
            {
              "$type": "ApplyModifier",
              "predicates": [
                {
                  "$type": "OIEGBANNLOG",
                  "CIMNBKFMPGD": "Wind"
                }
              ],
              "modifierName": "CameraFog"
            },
            {
              "$type": "FireEffect",
              "predicates": [
                {
                  "$type": "OIEGBANNLOG",
                  "CIMNBKFMPGD": "Water"
                }
              ],
              "healLimitedByCasterMaxHPRatio": "Eff_SceneObj_GroundDirty_Wash",
              "effectTempleteID": -1.0
            },
            {
              "$type": "KillSelf",
              "predicates": [
                {
                  "$type": "OIEGBANNLOG",
                  "CIMNBKFMPGD": "Water"
                }
              ]
            },
            {
              "$type": "KillSelf",
              "predicates": [
                {
                  "$type": "ByTargetGlobalValue",
                  "key": "_WIND_HIT_COUNT",
                  "ratio": 2.0
                }
              ]
            }
          ],
          "onKill": [
            {
              "$type": "SendEffectTrigger",
              "parameter": "NoDirty",
              "EBBHBMFMOGD": "",
              "healLimitedByCasterMaxHPRatio": "Eff_SceneObj_GroundDirty_01"
            }
          ]
        },
        "CameraFog": {
          "modifierName": "",
          "duration": 1.5,
          "bonusCriticalHurt": 100.0,
          "modifierMixins": [
            {
              "$type": "TriggerPostProcessEffectMixin",
              "postEffectAssetName": "PostEffect_Scene_Dust",
              "duration": 1.5
            }
          ]
        }
      },
      "onAdded": [
        {
          "$type": "ApplyModifier",
          "modifierName": "Default_0"
        }
      ]
    }
  },
  {
    "Default": {
      "$type": "ConfigAbility",
      "abilityName": "SceneObj_Eff_SceneObj_Quset_RemnantsCrystal_Smoke",
      "abilityMixins": [
        {
          "$type": "AttachToGadgetStateMixin",
          "modifierName": "AttachEffect"
        },
        {
          "$type": "AttachToGadgetStateMixin",
          "gadgetState": 201,
          "modifierName": "SmokeDisappear"
        }
      ],
      "modifiers": {
        "AttachEffect": {
          "modifierName": "",
          "bonusCriticalHurt": 100.0,
          "onAdded": [
            {
              "$type": "AttachEffect",
              "healLimitedByCasterMaxHPRatio": "Eff_SceneObj_Quset_RemnantsCrystal_Smoke",
              "effectTempleteID": -1.0
            }
          ]
        },
        "SmokeDisappear": {
          "modifierName": "",
          "bonusCriticalHurt": 100.0,
          "onAdded": [
            {
              "$type": "SendEffectTrigger",
              "parameter": "Off",
              "EBBHBMFMOGD": "",
              "healLimitedByCasterMaxHPRatio": "Eff_SceneObj_Quset_RemnantsCrystal_Smoke"
            }
          ]
        }
      }
    }
  }
]
