[
  {
    "Default": {
      "$type": "ConfigAbility",
      "abilityName": "SceneObj_Area_Xm_Property_Ani_Flower_PlantDrawStart_01_Ability",
      "abilityMixins": [
        {
          "$type": "AttachToGadgetStateMixin",
          "modifierName": "BudState"
        },
        {
          "$type": "AttachToGadgetStateMixin",
          "gadgetState": 201,
          "modifierName": "OverState"
        },
        {
          "$type": "AttachToGadgetStateMixin",
          "gadgetState": 902,
          "modifierName": "EndState"
        }
      ],
      "modifiers": {
        "BudState": {
          "modifierName": "",
          "bonusCriticalHurt": 100.0,
          "onAdded": [
            {
              "$type": "AttachModifier",
              "modifierName": "ShowYellowGrass"
            },
            {
              "$type": "AttachModifier",
              "modifierName": "HideFlower"
            },
            {
              "$type": "SetGlobalValue",
              "ratio": 1.0,
              "key": "Enable",
              "maxValue": 0.0,
              "minValue": 0.0
            },
            {
              "$type": "AttachEffect",
              "healLimitedByCasterMaxHPRatio": "Eff_SceneObj_Flower_PlantDraw_01_Elf_Stay",
              "effectTempleteID": -1.0
            }
          ]
        },
        "OverState": {
          "modifierName": "",
          "bonusCriticalHurt": 100.0,
          "onAdded": [
            {
              "$type": "AttachModifier",
              "modifierName": "ShowGreenGrass"
            },
            {
              "$type": "AttachModifier",
              "modifierName": "ShowFlower"
            },
            {
              "$type": "SetGlobalValue",
              "ratio": 0.0,
              "key": "Enable",
              "maxValue": 0.0,
              "minValue": 0.0
            },
            {
              "$type": "FireEffect",
              "healLimitedByCasterMaxHPRatio": "Eff_SceneObj_Flower_PlantDraw_01_Elf_Dis",
              "effectTempleteID": -1.0
            },
            {
              "$type": "FireEffect",
              "healLimitedByCasterMaxHPRatio": "Eff_SceneObj_Flower_PlantDraw_01_Flower",
              "effectTempleteID": -1.0
            }
          ]
        },
        "EndState": {
          "modifierName": "",
          "bonusCriticalHurt": 100.0,
          "onAdded": [
            {
              "$type": "AttachModifier",
              "modifierName": "GrassFail"
            },
            {
              "$type": "AttachModifier",
              "modifierName": "HideFlower"
            },
            {
              "$type": "AttachModifier",
              "modifierName": "HideFarm"
            },
            {
              "$type": "SetGlobalValue",
              "ratio": 0.0,
              "key": "Enable",
              "maxValue": 0.0,
              "minValue": 0.0
            }
          ]
        },
        "ShowYellowGrass": {
          "modifierName": "",
          "bonusCriticalHurt": 100.0,
          "onAdded": [
            {
              "$type": "SetMaterialParamFloatByTransform",
              "canBeHandledOnRecover": true,
              "matName": "Grass",
              "patternName": "_StateChangeValue",
              "ratio": 0.0,
              "HLDHDOKLCHI": true,
              "FBGLLFJHKJJ": 1.0
            },
            {
              "$type": "SetMaterialParamFloatByTransform",
              "canBeHandledOnRecover": true,
              "matName": "Grass",
              "patternName": "_ColorChange",
              "ratio": 1.0
            }
          ]
        },
        "ShowGreenGrass": {
          "modifierName": "",
          "bonusCriticalHurt": 100.0,
          "onAdded": [
            {
              "$type": "SetMaterialParamFloatByTransform",
              "canBeHandledOnRecover": true,
              "matName": "Grass",
              "patternName": "_StateChangeValue",
              "ratio": 0.0
            },
            {
              "$type": "SetMaterialParamFloatByTransform",
              "canBeHandledOnRecover": true,
              "matName": "Grass",
              "patternName": "_ColorChange",
              "ratio": 0.0,
              "HLDHDOKLCHI": true,
              "FBGLLFJHKJJ": 1.0
            }
          ]
        },
        "ShowFlower": {
          "modifierName": "",
          "bonusCriticalHurt": 100.0,
          "onAdded": [
            {
              "$type": "EnableSceneTransformByName",
              "predicates": [
                {
                  "$type": "ByTargetGlobalValue",
                  "key": "RandomSuccessFlower",
                  "ratio": 1.0,
                  "compareType": "LessAndEqual"
                }
              ],
              "transformNames": ["Success01"],
              "setEnable": true
            },
            {
              "$type": "EnableSceneTransformByName",
              "predicates": [
                {
                  "$type": "ByTargetGlobalValue",
                  "key": "RandomSuccessFlower",
                  "ratio": 1.0,
                  "compareType": "MoreThan"
                },
                {
                  "$type": "ByTargetGlobalValue",
                  "key": "RandomSuccessFlower",
                  "ratio": 2.0,
                  "compareType": "LessAndEqual"
                }
              ],
              "transformNames": ["Success02"],
              "setEnable": true
            },
            {
              "$type": "EnableSceneTransformByName",
              "predicates": [
                {
                  "$type": "ByTargetGlobalValue",
                  "key": "RandomSuccessFlower",
                  "ratio": 2.0,
                  "compareType": "MoreThan"
                },
                {
                  "$type": "ByTargetGlobalValue",
                  "key": "RandomSuccessFlower",
                  "ratio": 3.0,
                  "compareType": "LessAndEqual"
                }
              ],
              "transformNames": ["Success03"],
              "setEnable": true
            },
            {
              "$type": "EnableSceneTransformByName",
              "predicates": [
                {
                  "$type": "ByTargetGlobalValue",
                  "key": "RandomSuccessFlower",
                  "ratio": 3.0,
                  "compareType": "MoreThanAndEqual"
                }
              ],
              "transformNames": ["Success04"],
              "setEnable": true
            }
          ]
        },
        "HideFlower": {
          "modifierName": "",
          "bonusCriticalHurt": 100.0,
          "onAdded": [
            {
              "$type": "EnableSceneTransformByName",
              "transformNames": ["Success01"]
            },
            {
              "$type": "EnableSceneTransformByName",
              "transformNames": ["Success02"]
            },
            {
              "$type": "EnableSceneTransformByName",
              "transformNames": ["Success03"]
            },
            {
              "$type": "EnableSceneTransformByName",
              "transformNames": ["Success04"]
            }
          ]
        },
        "GrassFail": {
          "modifierName": "",
          "bonusCriticalHurt": 100.0,
          "onAdded": [
            {
              "$type": "SetMaterialParamFloatByTransform",
              "canBeHandledOnRecover": true,
              "matName": "Grass",
              "patternName": "_StateChangeValue",
              "ratio": 1.0,
              "HLDHDOKLCHI": true,
              "FBGLLFJHKJJ": 1.0
            },
            {
              "$type": "SetMaterialParamFloatByTransform",
              "canBeHandledOnRecover": true,
              "matName": "Grass",
              "patternName": "_ColorChange",
              "ratio": 1.0,
              "HLDHDOKLCHI": true,
              "FBGLLFJHKJJ": 1.0
            }
          ]
        },
        "ShowFarm": {
          "modifierName": "",
          "bonusCriticalHurt": 100.0,
          "onAdded": [
            {
              "$type": "SetGlobalValue",
              "ratio": 0.0,
              "key": "RandomFarmBase",
              "useLimitRange": true,
              "randomInRange": true,
              "maxValue": 4.0,
              "minValue": 0.0
            },
            {
              "$type": "SetGlobalValue",
              "ratio": 0.0,
              "key": "RandomSuccessFlower",
              "useLimitRange": true,
              "randomInRange": true,
              "maxValue": 4.0,
              "minValue": 0.0
            },
            {
              "$type": "SetGlobalValue",
              "ratio": 0.0,
              "key": "RandomFarmBud",
              "useLimitRange": true,
              "randomInRange": true,
              "maxValue": 3.0,
              "minValue": 0.0
            },
            {
              "$type": "EnableSceneTransformByName",
              "predicates": [
                {
                  "$type": "ByTargetGlobalValue",
                  "key": "RandomFarmBase",
                  "ratio": 1.0,
                  "compareType": "LessAndEqual"
                }
              ],
              "transformNames": ["Farm01"],
              "setEnable": true
            },
            {
              "$type": "EnableSceneTransformByName",
              "predicates": [
                {
                  "$type": "ByTargetGlobalValue",
                  "key": "RandomFarmBase",
                  "ratio": 1.0,
                  "compareType": "MoreThan"
                },
                {
                  "$type": "ByTargetGlobalValue",
                  "key": "RandomFarmBase",
                  "ratio": 2.0,
                  "compareType": "LessAndEqual"
                }
              ],
              "transformNames": ["Farm02"],
              "setEnable": true
            },
            {
              "$type": "EnableSceneTransformByName",
              "predicates": [
                {
                  "$type": "ByTargetGlobalValue",
                  "key": "RandomFarmBase",
                  "ratio": 2.0,
                  "compareType": "MoreThan"
                },
                {
                  "$type": "ByTargetGlobalValue",
                  "key": "RandomFarmBase",
                  "ratio": 3.0,
                  "compareType": "LessAndEqual"
                }
              ],
              "transformNames": ["Farm03"],
              "setEnable": true
            },
            {
              "$type": "EnableSceneTransformByName",
              "predicates": [
                {
                  "$type": "ByTargetGlobalValue",
                  "key": "RandomFarmBase",
                  "ratio": 3.0,
                  "compareType": "MoreThanAndEqual"
                }
              ],
              "transformNames": ["Farm04"],
              "setEnable": true
            },
            {
              "$type": "EnableSceneTransformByName",
              "predicates": [
                {
                  "$type": "ByTargetGlobalValue",
                  "key": "RandomFarmBud",
                  "ratio": 1.0,
                  "compareType": "LessAndEqual"
                }
              ],
              "transformNames": ["Bud01"],
              "setEnable": true
            },
            {
              "$type": "EnableSceneTransformByName",
              "predicates": [
                {
                  "$type": "ByTargetGlobalValue",
                  "key": "RandomFarmBud",
                  "ratio": 1.0,
                  "compareType": "MoreThan"
                },
                {
                  "$type": "ByTargetGlobalValue",
                  "key": "RandomFarmBud",
                  "ratio": 2.0,
                  "compareType": "LessAndEqual"
                }
              ],
              "transformNames": ["Bud02"],
              "setEnable": true
            },
            {
              "$type": "EnableSceneTransformByName",
              "predicates": [
                {
                  "$type": "ByTargetGlobalValue",
                  "key": "RandomFarmBud",
                  "ratio": 2.0,
                  "compareType": "MoreThanAndEqual"
                }
              ],
              "transformNames": ["Bud03"],
              "setEnable": true
            }
          ]
        },
        "HideFarm": {
          "modifierName": "",
          "bonusCriticalHurt": 100.0,
          "onAdded": [
            {
              "$type": "EnableSceneTransformByName",
              "transformNames": ["Farm01"]
            },
            {
              "$type": "EnableSceneTransformByName",
              "transformNames": ["Farm02"]
            },
            {
              "$type": "EnableSceneTransformByName",
              "transformNames": ["Farm03"]
            },
            {
              "$type": "EnableSceneTransformByName",
              "transformNames": ["Farm04"]
            }
          ]
        }
      },
      "onAdded": [
        {
          "$type": "ApplyModifier",
          "modifierName": "ShowFarm"
        }
      ],
      "onFieldEnter": [
        {
          "$type": "Predicated",
          "target": "Target",
          "targetPredicates": [
            {
              "$type": "ByTargetGlobalValue",
              "target": "Self",
              "key": "Enable",
              "ratio": 1.0
            },
            {
              "$type": "DFFODFONEJF"
            }
          ],
          "successActions": [
            {
              "$type": "ChangeGadgetState",
              "MNIDCPKMMNN": 201
            }
          ]
        }
      ]
    }
  },
  {
    "Default": {
      "$type": "ConfigAbility",
      "abilityName": "SceneObj_Area_Xm_Property_Ani_Flower_PlantDraw_01_Ability",
      "abilityMixins": [
        {
          "$type": "AttachToGadgetStateMixin",
          "modifierName": "HideState"
        },
        {
          "$type": "AttachToGadgetStateMixin",
          "gadgetState": 201,
          "modifierName": "BudState"
        },
        {
          "$type": "AttachToGadgetStateMixin",
          "gadgetState": 202,
          "modifierName": "ButterFleeState"
        },
        {
          "$type": "AttachToGadgetStateMixin",
          "gadgetState": 203,
          "modifierName": "ButterFlyState"
        },
        {
          "$type": "AttachToGadgetStateMixin",
          "gadgetState": 204,
          "modifierName": "FailState"
        },
        {
          "$type": "AttachToGadgetStateMixin",
          "gadgetState": 901,
          "modifierName": "SuccessState"
        },
        {
          "$type": "AttachToGadgetStateMixin",
          "gadgetState": 902,
          "modifierName": "EndState"
        }
      ],
      "modifiers": {
        "HideState": {
          "modifierName": "",
          "bonusCriticalHurt": 100.0,
          "onAdded": [
            {
              "$type": "AttachModifier",
              "modifierName": "HideFlower"
            },
            {
              "$type": "SetMaterialParamFloatByTransform",
              "canBeHandledOnRecover": true,
              "matName": "Grass",
              "patternName": "_StateChangeValue",
              "ratio": 1.0
            },
            {
              "$type": "SetGlobalValue",
              "ratio": 0.0,
              "key": "Enable",
              "maxValue": 0.0,
              "minValue": 0.0
            }
          ]
        },
        "BudState": {
          "modifierName": "",
          "bonusCriticalHurt": 100.0,
          "onAdded": [
            {
              "$type": "AttachModifier",
              "modifierName": "ShowYellowGrass"
            },
            {
              "$type": "AttachModifier",
              "modifierName": "HideFlower"
            },
            {
              "$type": "SetGlobalValue",
              "ratio": 1.0,
              "key": "Enable",
              "maxValue": 0.0,
              "minValue": 0.0
            },
            {
              "$type": "FireEffect",
              "healLimitedByCasterMaxHPRatio": "Eff_SceneObj_Flower_PlantDraw_01_Grass",
              "effectTempleteID": -1.0
            }
          ]
        },
        "ButterFleeState": {
          "modifierName": "",
          "bonusCriticalHurt": 100.0,
          "onAdded": [
            {
              "$type": "AttachModifier",
              "modifierName": "ShowYellowGrass"
            },
            {
              "$type": "AttachModifier",
              "modifierName": "HideFlower"
            },
            {
              "$type": "SetGlobalValue",
              "ratio": 1.0,
              "key": "Enable",
              "maxValue": 0.0,
              "minValue": 0.0
            },
            {
              "$type": "FireEffect",
              "healLimitedByCasterMaxHPRatio": "Eff_SceneObj_Flower_PlantDraw_01_Grass",
              "effectTempleteID": -1.0
            },
            {
              "$type": "FireEffect",
              "healLimitedByCasterMaxHPRatio": "Eff_SceneObj_Flower_PlantDraw_01_Elf_Dis01",
              "effectTempleteID": -1.0
            }
          ]
        },
        "ButterFlyState": {
          "modifierName": "",
          "bonusCriticalHurt": 100.0,
          "onAdded": [
            {
              "$type": "AttachModifier",
              "modifierName": "HideFlower"
            },
            {
              "$type": "SetGlobalValue",
              "ratio": 1.0,
              "key": "Enable",
              "maxValue": 0.0,
              "minValue": 0.0
            },
            {
              "$type": "AttachEffect",
              "healLimitedByCasterMaxHPRatio": "Eff_SceneObj_Flower_PlantDraw_01_Elf_Stay01",
              "effectTempleteID": -1.0
            },
            {
              "$type": "FireEffect",
              "healLimitedByCasterMaxHPRatio": "Eff_SceneObj_Flower_PlantDraw_01_Grass_Elf",
              "effectTempleteID": -1.0
            }
          ]
        },
        "FailState": {
          "modifierName": "",
          "duration": 1.100000023841858,
          "bonusCriticalHurt": 100.0,
          "onAdded": [
            {
              "$type": "SetGlobalValue",
              "ratio": 0.0,
              "key": "Enable",
              "maxValue": 0.0,
              "minValue": 0.0
            },
            {
              "$type": "AttachModifier",
              "modifierName": "GrassFail"
            },
            {
              "$type": "AttachModifier",
              "modifierName": "HideFlower"
            }
          ],
          "onRemoved": [
            {
              "$type": "ChangeGadgetState",
              "predicates": [
                {
                  "$type": "MCODPFDFBAF",
                  "gadgetState": 204
                }
              ]
            }
          ]
        },
        "EndState": {
          "modifierName": "",
          "bonusCriticalHurt": 100.0,
          "onAdded": [
            {
              "$type": "AttachModifier",
              "modifierName": "GrassFail"
            },
            {
              "$type": "AttachModifier",
              "modifierName": "HideFlower"
            },
            {
              "$type": "AttachModifier",
              "modifierName": "HideFarm"
            },
            {
              "$type": "SetGlobalValue",
              "ratio": 0.0,
              "key": "Enable",
              "maxValue": 0.0,
              "minValue": 0.0
            }
          ]
        },
        "SuccessState": {
          "modifierName": "",
          "bonusCriticalHurt": 100.0,
          "onAdded": [
            {
              "$type": "AttachModifier",
              "modifierName": "ShowGreenGrass"
            },
            {
              "$type": "AttachModifier",
              "modifierName": "ShowFlower"
            },
            {
              "$type": "FireEffect",
              "healLimitedByCasterMaxHPRatio": "Eff_SceneObj_Flower_PlantDraw_01_Flower",
              "effectTempleteID": -1.0
            },
            {
              "$type": "SetGlobalValue",
              "ratio": 0.0,
              "key": "Enable",
              "maxValue": 0.0,
              "minValue": 0.0
            }
          ]
        },
        "ShowFarm": {
          "modifierName": "",
          "bonusCriticalHurt": 100.0,
          "onAdded": [
            {
              "$type": "SetGlobalValue",
              "ratio": 0.0,
              "key": "RandomFarmBase",
              "useLimitRange": true,
              "randomInRange": true,
              "maxValue": 4.0,
              "minValue": 0.0
            },
            {
              "$type": "SetGlobalValue",
              "ratio": 0.0,
              "key": "RandomSuccessFlower",
              "useLimitRange": true,
              "randomInRange": true,
              "maxValue": 4.0,
              "minValue": 0.0
            },
            {
              "$type": "SetGlobalValue",
              "ratio": 0.0,
              "key": "RandomFarmBud",
              "useLimitRange": true,
              "randomInRange": true,
              "maxValue": 3.0,
              "minValue": 0.0
            },
            {
              "$type": "EnableSceneTransformByName",
              "predicates": [
                {
                  "$type": "ByTargetGlobalValue",
                  "key": "RandomFarmBase",
                  "ratio": 1.0,
                  "compareType": "LessAndEqual"
                }
              ],
              "transformNames": ["Farm01"],
              "setEnable": true
            },
            {
              "$type": "EnableSceneTransformByName",
              "predicates": [
                {
                  "$type": "ByTargetGlobalValue",
                  "key": "RandomFarmBase",
                  "ratio": 1.0,
                  "compareType": "MoreThan"
                },
                {
                  "$type": "ByTargetGlobalValue",
                  "key": "RandomFarmBase",
                  "ratio": 2.0,
                  "compareType": "LessAndEqual"
                }
              ],
              "transformNames": ["Farm02"],
              "setEnable": true
            },
            {
              "$type": "EnableSceneTransformByName",
              "predicates": [
                {
                  "$type": "ByTargetGlobalValue",
                  "key": "RandomFarmBase",
                  "ratio": 2.0,
                  "compareType": "MoreThan"
                },
                {
                  "$type": "ByTargetGlobalValue",
                  "key": "RandomFarmBase",
                  "ratio": 3.0,
                  "compareType": "LessAndEqual"
                }
              ],
              "transformNames": ["Farm03"],
              "setEnable": true
            },
            {
              "$type": "EnableSceneTransformByName",
              "predicates": [
                {
                  "$type": "ByTargetGlobalValue",
                  "key": "RandomFarmBase",
                  "ratio": 3.0,
                  "compareType": "MoreThanAndEqual"
                }
              ],
              "transformNames": ["Farm04"],
              "setEnable": true
            }
          ]
        },
        "HideFarm": {
          "modifierName": "",
          "bonusCriticalHurt": 100.0,
          "onAdded": [
            {
              "$type": "EnableSceneTransformByName",
              "transformNames": ["Farm01"]
            },
            {
              "$type": "EnableSceneTransformByName",
              "transformNames": ["Farm02"]
            },
            {
              "$type": "EnableSceneTransformByName",
              "transformNames": ["Farm03"]
            },
            {
              "$type": "EnableSceneTransformByName",
              "transformNames": ["Farm04"]
            }
          ]
        },
        "ShowBud": {
          "modifierName": "",
          "bonusCriticalHurt": 100.0,
          "onAdded": [
            {
              "$type": "EnableSceneTransformByName",
              "predicates": [
                {
                  "$type": "ByTargetGlobalValue",
                  "key": "RandomFarmBud",
                  "ratio": 1.0,
                  "compareType": "LessAndEqual"
                }
              ],
              "transformNames": ["Bud01"],
              "setEnable": true
            },
            {
              "$type": "EnableSceneTransformByName",
              "predicates": [
                {
                  "$type": "ByTargetGlobalValue",
                  "key": "RandomFarmBud",
                  "ratio": 1.0,
                  "compareType": "MoreThan"
                },
                {
                  "$type": "ByTargetGlobalValue",
                  "key": "RandomFarmBud",
                  "ratio": 2.0,
                  "compareType": "LessAndEqual"
                }
              ],
              "transformNames": ["Bud02"],
              "setEnable": true
            },
            {
              "$type": "EnableSceneTransformByName",
              "predicates": [
                {
                  "$type": "ByTargetGlobalValue",
                  "key": "RandomFarmBud",
                  "ratio": 2.0,
                  "compareType": "MoreThanAndEqual"
                }
              ],
              "transformNames": ["Bud03"],
              "setEnable": true
            }
          ]
        },
        "ShowFlower": {
          "modifierName": "",
          "bonusCriticalHurt": 100.0,
          "onAdded": [
            {
              "$type": "EnableSceneTransformByName",
              "predicates": [
                {
                  "$type": "ByTargetGlobalValue",
                  "key": "RandomSuccessFlower",
                  "ratio": 1.0,
                  "compareType": "LessAndEqual"
                }
              ],
              "transformNames": ["Success01"],
              "setEnable": true
            },
            {
              "$type": "EnableSceneTransformByName",
              "predicates": [
                {
                  "$type": "ByTargetGlobalValue",
                  "key": "RandomSuccessFlower",
                  "ratio": 1.0,
                  "compareType": "MoreThan"
                },
                {
                  "$type": "ByTargetGlobalValue",
                  "key": "RandomSuccessFlower",
                  "ratio": 2.0,
                  "compareType": "LessAndEqual"
                }
              ],
              "transformNames": ["Success02"],
              "setEnable": true
            },
            {
              "$type": "EnableSceneTransformByName",
              "predicates": [
                {
                  "$type": "ByTargetGlobalValue",
                  "key": "RandomSuccessFlower",
                  "ratio": 2.0,
                  "compareType": "MoreThan"
                },
                {
                  "$type": "ByTargetGlobalValue",
                  "key": "RandomSuccessFlower",
                  "ratio": 3.0,
                  "compareType": "LessAndEqual"
                }
              ],
              "transformNames": ["Success03"],
              "setEnable": true
            },
            {
              "$type": "EnableSceneTransformByName",
              "predicates": [
                {
                  "$type": "ByTargetGlobalValue",
                  "key": "RandomSuccessFlower",
                  "ratio": 3.0,
                  "compareType": "MoreThanAndEqual"
                }
              ],
              "transformNames": ["Success04"],
              "setEnable": true
            }
          ]
        },
        "HideFlower": {
          "modifierName": "",
          "bonusCriticalHurt": 100.0,
          "onAdded": [
            {
              "$type": "EnableSceneTransformByName",
              "transformNames": ["Success01"]
            },
            {
              "$type": "EnableSceneTransformByName",
              "transformNames": ["Success02"]
            },
            {
              "$type": "EnableSceneTransformByName",
              "transformNames": ["Success03"]
            },
            {
              "$type": "EnableSceneTransformByName",
              "transformNames": ["Success04"]
            }
          ]
        },
        "ShowYellowGrass": {
          "modifierName": "",
          "bonusCriticalHurt": 100.0,
          "onAdded": [
            {
              "$type": "SetMaterialParamFloatByTransform",
              "canBeHandledOnRecover": true,
              "matName": "Grass",
              "patternName": "_ColorChange",
              "ratio": 1.0
            },
            {
              "$type": "SetMaterialParamFloatByTransform",
              "canBeHandledOnRecover": true,
              "matName": "Grass",
              "patternName": "_StateChangeValue",
              "ratio": 0.0,
              "HLDHDOKLCHI": true,
              "FBGLLFJHKJJ": 1.0
            }
          ]
        },
        "ShowGreenGrass": {
          "modifierName": "",
          "bonusCriticalHurt": 100.0,
          "onAdded": [
            {
              "$type": "SetMaterialParamFloatByTransform",
              "canBeHandledOnRecover": true,
              "matName": "Grass",
              "patternName": "_StateChangeValue",
              "ratio": 0.0
            },
            {
              "$type": "SetMaterialParamFloatByTransform",
              "canBeHandledOnRecover": true,
              "matName": "Grass",
              "patternName": "_ColorChange",
              "ratio": 1.0
            },
            {
              "$type": "SetMaterialParamFloatByTransform",
              "canBeHandledOnRecover": true,
              "matName": "Grass",
              "patternName": "_ColorChange",
              "ratio": 0.0,
              "HLDHDOKLCHI": true,
              "FBGLLFJHKJJ": 1.0
            }
          ]
        },
        "GrassFail": {
          "modifierName": "",
          "bonusCriticalHurt": 100.0,
          "onAdded": [
            {
              "$type": "SetMaterialParamFloatByTransform",
              "canBeHandledOnRecover": true,
              "matName": "Grass",
              "patternName": "_StateChangeValue",
              "ratio": 1.0,
              "HLDHDOKLCHI": true,
              "FBGLLFJHKJJ": 1.0
            },
            {
              "$type": "SetMaterialParamFloatByTransform",
              "canBeHandledOnRecover": true,
              "matName": "Grass",
              "patternName": "_ColorChange",
              "ratio": 1.0,
              "HLDHDOKLCHI": true,
              "FBGLLFJHKJJ": 1.0
            }
          ]
        }
      },
      "onAdded": [
        {
          "$type": "ApplyModifier",
          "modifierName": "ShowFarm"
        },
        {
          "$type": "ApplyModifier",
          "modifierName": "ShowBud"
        }
      ],
      "onFieldEnter": [
        {
          "$type": "Predicated",
          "target": "Target",
          "targetPredicates": [
            {
              "$type": "ByTargetGlobalValue",
              "target": "Self",
              "key": "Enable",
              "ratio": 1.0
            },
            {
              "$type": "DFFODFONEJF"
            }
          ],
          "successActions": [
            {
              "$type": "ServerLuaCall",
              "luaCallType": "FromGroup",
              "funcName": "SLC_EnterFloor",
              "MPPMFEDKGHC": 0.0,
              "BOKNHLDBKKK": 0.0,
              "CHOIIMHDNHK": 0.0
            }
          ]
        }
      ]
    }
  },
  {
    "Default": {
      "$type": "ConfigAbility",
      "abilityName": "SceneObj_Area_Xm_Property_Ani_Flower_PlantDrawTree_01_Ability",
      "abilityMixins": [
        {
          "$type": "AttachToGadgetStateMixin",
          "modifierName": "HideState"
        },
        {
          "$type": "AttachToGadgetStateMixin",
          "gadgetState": 201,
          "modifierName": "BudState"
        },
        {
          "$type": "AttachToGadgetStateMixin",
          "gadgetState": 202,
          "modifierName": "FruitState"
        },
        {
          "$type": "AttachToGadgetStateMixin",
          "gadgetState": 203,
          "modifierName": "OverState"
        },
        {
          "$type": "AttachToGadgetStateMixin",
          "gadgetState": 901,
          "modifierName": "SuccessState"
        },
        {
          "$type": "AttachToGadgetStateMixin",
          "gadgetState": 204,
          "modifierName": "FailState"
        },
        {
          "$type": "WidgetMpSupportMixin",
          "MJEDPGMFEMG": [
            {
              "$type": "ServerLuaTriggerEvent",
              "predicates": [
                {
                  "$type": "MCODPFDFBAF",
                  "target": "Self",
                  "gadgetState": 202
                }
              ],
              "luaCallType": "FromGroup",
              "LCMLAHJEBKC": "PlayEnd",
              "MPPMFEDKGHC": 0.0,
              "BOKNHLDBKKK": 0.0,
              "CHOIIMHDNHK": 0.0
            }
          ]
        }
      ],
      "modifiers": {
        "HideState": {
          "modifierName": "",
          "bonusCriticalHurt": 100.0,
          "onAdded": [
            {
              "$type": "EnableGadgetInteeMp",
              "canBeHandledOnRecover": true
            },
            {
              "$type": "EnableSceneTransformByName",
              "transformNames": ["Flower01"],
              "setEnable": true
            },
            {
              "$type": "EnableSceneTransformByName",
              "transformNames": ["Flower02"]
            },
            {
              "$type": "EnableSceneTransformByName",
              "transformNames": ["Flower03"]
            }
          ]
        },
        "BudState": {
          "modifierName": "",
          "bonusCriticalHurt": 100.0,
          "onAdded": [
            {
              "$type": "FireEffect",
              "healLimitedByCasterMaxHPRatio": "Eff_SceneObj_Flower_PlantDraw_01_Tree_Grow",
              "effectTempleteID": -1.0
            },
            {
              "$type": "EnableGadgetInteeMp",
              "canBeHandledOnRecover": true
            },
            {
              "$type": "EnableSceneTransformByName",
              "transformNames": ["Flower01"]
            },
            {
              "$type": "EnableSceneTransformByName",
              "transformNames": ["Flower02"],
              "setEnable": true
            }
          ]
        },
        "FruitState": {
          "modifierName": "",
          "bonusCriticalHurt": 100.0,
          "onAdded": [
            {
              "$type": "EnableGadgetInteeMp",
              "canBeHandledOnRecover": true,
              "enable": true
            },
            {
              "$type": "EnableSceneTransformByName",
              "transformNames": ["Flower02"]
            },
            {
              "$type": "EnableSceneTransformByName",
              "transformNames": ["Flower03"],
              "setEnable": true
            },
            {
              "$type": "ApplyModifier",
              "modifierName": "FruitEffect"
            }
          ]
        },
        "FruitEffect": {
          "modifierName": "",
          "bonusCriticalHurt": 100.0,
          "onAdded": [
            {
              "$type": "AttachEffect",
              "healLimitedByCasterMaxHPRatio": "Eff_SceneObj_Flower_PlantDraw_01_Tree_Ripe",
              "effectTempleteID": -1.0
            }
          ]
        },
        "OverState": {
          "modifierName": "",
          "bonusCriticalHurt": 100.0,
          "onAdded": [
            {
              "$type": "EnableGadgetInteeMp",
              "canBeHandledOnRecover": true
            },
            {
              "$type": "SendEffectTrigger",
              "parameter": "gadgetState",
              "EBBHBMFMOGD": "",
              "type": "Int",
              "value": 201,
              "healLimitedByCasterMaxHPRatio": "Eff_SceneObj_Flower_PlantDraw_01_Tree_Ripe"
            }
          ]
        },
        "SuccessState": {
          "modifierName": "",
          "duration": 2.0,
          "bonusCriticalHurt": 100.0,
          "onAdded": [
            {
              "$type": "EnableGadgetInteeMp"
            },
            {
              "$type": "EnableSceneTransformByName",
              "transformNames": ["Flower03"]
            },
            {
              "$type": "RemoveModifier",
              "predicates": [
                {
                  "$type": "MMGNMMFNPAK",
                  "target": "Self",
                  "modifierName": "FruitEffect"
                }
              ],
              "modifierName": "FruitEffect"
            }
          ],
          "onRemoved": [
            {
              "$type": "KillSelf"
            }
          ]
        },
        "FailState": {
          "modifierName": "",
          "duration": 0.20000000298023224,
          "bonusCriticalHurt": 100.0,
          "onAdded": [
            {
              "$type": "FireEffect",
              "healLimitedByCasterMaxHPRatio": "Eff_SceneObj_Flower_PlantDraw_01_Tree_Grow",
              "effectTempleteID": -1.0
            }
          ],
          "onRemoved": [
            {
              "$type": "ChangeGadgetState"
            }
          ]
        }
      }
    }
  },
  {
    "Default": {
      "$type": "ConfigAbility",
      "abilityName": "SceneObj_Area_Xm_Property_Ani_Prop_Whiteballet_01_Special_Ability",
      "abilityMixins": [
        {
          "$type": "AttachToGadgetStateMixin",
          "modifierName": "ShowState"
        },
        {
          "$type": "AttachToGadgetStateMixin",
          "gadgetState": 201,
          "modifierName": "HideState"
        }
      ],
      "modifiers": {
        "ShowState": {
          "modifierName": "",
          "bonusCriticalHurt": 100.0,
          "onAdded": [
            {
              "$type": "Predicated",
              "targetPredicates": [
                {
                  "$type": "JDNGEHHHKCH",
                  "NCDAKGLGBKF": "",
                  "IHOOLNCOFHK": 39
                }
              ],
              "successActions": [
                {
                  "$type": "EnableSceneTransformByName",
                  "transformNames": ["Flower"],
                  "setEnable": true
                },
                {
                  "$type": "AttachEffect",
                  "healLimitedByCasterMaxHPRatio": "Eff_Item_Hint_Small",
                  "effectTempleteID": -1.0
                },
                {
                  "$type": "ExecuteGadgetLua"
                }
              ],
              "failActions": [
                {
                  "$type": "EnableSceneTransformByName",
                  "transformNames": ["Flower"]
                },
                {
                  "$type": "ExecuteGadgetLua",
                  "param1": 201
                }
              ]
            }
          ],
          "LGJBJJBCBEH": [
            {
              "$type": "Predicated",
              "targetPredicates": [
                {
                  "$type": "JDNGEHHHKCH",
                  "NCDAKGLGBKF": "",
                  "IHOOLNCOFHK": 39
                }
              ],
              "successActions": [
                {
                  "$type": "EnableSceneTransformByName",
                  "transformNames": ["Flower"],
                  "setEnable": true
                },
                {
                  "$type": "AttachEffect",
                  "healLimitedByCasterMaxHPRatio": "Eff_Item_Hint_Small",
                  "effectTempleteID": -1.0
                },
                {
                  "$type": "ExecuteGadgetLua"
                }
              ],
              "failActions": [
                {
                  "$type": "EnableSceneTransformByName",
                  "transformNames": ["Flower"]
                },
                {
                  "$type": "ExecuteGadgetLua",
                  "param1": 201
                }
              ]
            }
          ]
        },
        "HideState": {
          "modifierName": "",
          "bonusCriticalHurt": 100.0,
          "onAdded": [
            {
              "$type": "EnableSceneTransformByName",
              "transformNames": ["Flower"]
            },
            {
              "$type": "ExecuteGadgetLua",
              "param1": 201
            }
          ]
        }
      }
    }
  },
  {
    "Default": {
      "$type": "ConfigAbility",
      "abilityName": "SceneObj_Area_Xm_Property_Ani_Prop_XmFarm_01_Ability",
      "abilityMixins": [
        {
          "$type": "AttachToGadgetStateMixin",
          "modifierName": "FarmState"
        },
        {
          "$type": "AttachToGadgetStateMixin",
          "gadgetState": 201,
          "modifierName": "SeedlingState"
        },
        {
          "$type": "AttachToGadgetStateMixin",
          "gadgetState": 202,
          "modifierName": "HideState"
        },
        {
          "$type": "AttachToGadgetStateMixin",
          "gadgetState": 203,
          "modifierName": "NoInteeFarm"
        }
      ],
      "modifiers": {
        "CheckIsDream": {
          "modifierName": "",
          "bonusCriticalHurt": 100.0,
          "onAdded": [
            {
              "$type": "Predicated",
              "targetPredicates": [
                {
                  "$type": "JDNGEHHHKCH",
                  "NCDAKGLGBKF": "",
                  "IHOOLNCOFHK": 38
                }
              ],
              "successActions": [
                {
                  "$type": "EnableGadgetInteeMp",
                  "predicates": [
                    {
                      "$type": "MCODPFDFBAF"
                    }
                  ],
                  "enable": true
                }
              ],
              "failActions": [
                {
                  "$type": "EnableGadgetInteeMp",
                  "predicates": [
                    {
                      "$type": "MCODPFDFBAF"
                    }
                  ]
                }
              ]
            }
          ],
          "LGJBJJBCBEH": [
            {
              "$type": "Predicated",
              "targetPredicates": [
                {
                  "$type": "JDNGEHHHKCH",
                  "NCDAKGLGBKF": "",
                  "IHOOLNCOFHK": 38
                }
              ],
              "successActions": [
                {
                  "$type": "EnableGadgetInteeMp",
                  "predicates": [
                    {
                      "$type": "MCODPFDFBAF"
                    }
                  ],
                  "enable": true
                }
              ],
              "failActions": [
                {
                  "$type": "EnableGadgetInteeMp",
                  "predicates": [
                    {
                      "$type": "MCODPFDFBAF"
                    }
                  ]
                }
              ]
            }
          ]
        },
        "FarmState": {
          "modifierName": "",
          "bonusCriticalHurt": 100.0,
          "onAdded": [
            {
              "$type": "EnableSceneTransformByName",
              "transformNames": ["Farm"],
              "setEnable": true
            },
            {
              "$type": "EnableSceneTransformByName",
              "transformNames": ["Seedling"]
            },
            {
              "$type": "AttachModifier",
              "modifierName": "CheckIsDream"
            }
          ]
        },
        "SeedlingState": {
          "modifierName": "",
          "bonusCriticalHurt": 100.0,
          "onAdded": [
            {
              "$type": "EnableSceneTransformByName",
              "transformNames": ["Farm"]
            },
            {
              "$type": "EnableSceneTransformByName",
              "transformNames": ["Seedling"],
              "setEnable": true
            },
            {
              "$type": "EnableGadgetInteeMp",
              "canBeHandledOnRecover": true
            }
          ]
        },
        "HideState": {
          "modifierName": "",
          "bonusCriticalHurt": 100.0,
          "onAdded": [
            {
              "$type": "EnableSceneTransformByName",
              "transformNames": ["Farm"]
            },
            {
              "$type": "EnableSceneTransformByName",
              "transformNames": ["Seedling"]
            },
            {
              "$type": "EnableGadgetInteeMp",
              "canBeHandledOnRecover": true
            }
          ]
        },
        "NoInteeFarm": {
          "modifierName": "",
          "bonusCriticalHurt": 100.0,
          "onAdded": [
            {
              "$type": "EnableGadgetInteeMp",
              "canBeHandledOnRecover": true
            },
            {
              "$type": "EnableSceneTransformByName",
              "transformNames": ["Farm"],
              "setEnable": true
            },
            {
              "$type": "EnableSceneTransformByName",
              "transformNames": ["Seedling"]
            }
          ]
        }
      }
    }
  },
  {
    "Default": {
      "$type": "ConfigAbility",
      "abilityName": "SceneObj_Area_Xm_Property_Unique_PlantDraw_02_Ability",
      "abilityMixins": [
        {
          "$type": "AttachToGadgetStateMixin",
          "gadgetState": 201,
          "modifierName": "FireEffect"
        }
      ],
      "modifiers": {
        "FireEffect": {
          "modifierName": "",
          "bonusCriticalHurt": 100.0,
          "onAdded": [
            {
              "$type": "FireEffect",
              "healLimitedByCasterMaxHPRatio": "Eff_SceneObj_Flower_PlantDraw_01_Tree_Final",
              "effectTempleteID": -1.0
            }
          ]
        }
      }
    }
  }
]
